{
  "log" : {
    "version" : "1.2",
    "pages" : [ ],
    "entries" : [ {
      "startedDateTime" : "2019-07-15T04:41:17.568Z",
      "request" : {
        "method" : "GET",
        "url" : "https://frostedc-stg.learningmate.com/bower_components/angular-ui-select2/src/select2.js",
        "httpVersion" : "",
        "cookies" : [ ],
        "headers" : [ ],
        "queryString" : [ ],
        "headersSize" : 0,
        "bodySize" : 0,
        "comment" : ""
      },
      "response" : {
        "status" : 200,
        "statusText" : "",
        "httpVersion" : "",
        "cookies" : [ ],
        "headers" : [ {
          "name" : "Accept-Ranges",
          "value" : "bytes"
        }, {
          "name" : null,
          "value" : "HTTP/1.1 200 OK"
        }, {
          "name" : "Server",
          "value" : "nginx/1.13.5"
        }, {
          "name" : "ETag",
          "value" : "\"5d2873c2-8dc\""
        }, {
          "name" : "Connection",
          "value" : "keep-alive"
        }, {
          "name" : "Last-Modified",
          "value" : "Fri, 12 Jul 2019 11:49:22 GMT"
        }, {
          "name" : "Content-Length",
          "value" : "2268"
        }, {
          "name" : "Date",
          "value" : "Mon, 15 Jul 2019 04:41:34 GMT"
        }, {
          "name" : "Content-Type",
          "value" : "application/javascript"
        } ],
        "content" : {
          "size" : 2268,
          "mimeType" : "application/javascript",
          "text" : "angular.module(\"ui.select2\",[]).value(\"uiSelect2Config\",{}).directive(\"uiSelect2\",[\"uiSelect2Config\",\"$timeout\",function(e,t){var i={};return e&&angular.extend(i,e),{require:\"ngModel\",priority:1,compile:function(e,n){var l,a,r,u=e.is(\"select\"),s=angular.isDefined(n.multiple);return e.is(\"select\")&&(a=e.find(\"option[ng-repeat], option[data-ng-repeat]\"),a.length&&(r=a.attr(\"ng-repeat\")||a.attr(\"data-ng-repeat\"),l=jQuery.trim(r.split(\"|\")[0]).split(\" \").pop())),function(e,a,r,o){var c=angular.extend({},i,e.$eval(r.uiSelect2)),g=function(e){var t;return c.simple_tags?(t=[],angular.forEach(e,function(e,i){t.push(e.id)})):t=e,t},d=function(e){var t=[];return e?(c.simple_tags?(t=[],angular.forEach(e,function(e,i){t.push({id:e,text:e})})):t=e,t):t};if(u?(delete c.multiple,delete c.initSelection):s&&(c.multiple=!0),o&&(e.$watch(n.ngModel,function(e,t){e&&e!==t&&o.$render()},!0),o.$render=function(){if(u)a.select2(\"val\",o.$viewValue);else if(c.multiple){var e=o.$viewValue;angular.isString(e)&&(e=e.split(\",\")),a.select2(\"data\",d(e))}else angular.isObject(o.$viewValue)?a.select2(\"data\",o.$viewValue):o.$viewValue?a.select2(\"val\",o.$viewValue):a.select2(\"data\",null)},l&&e.$watch(l,function(e,i,n){angular.equals(e,i)||t(function(){a.select2(\"val\",o.$viewValue),a.trigger(\"change\"),e&&!i&&o.$setPristine&&o.$setPristine(!0)})}),o.$parsers.push(function(e){var t=a.prev();return t.toggleClass(\"ng-invalid\",!o.$valid).toggleClass(\"ng-valid\",o.$valid).toggleClass(\"ng-invalid-required\",!o.$valid).toggleClass(\"ng-valid-required\",o.$valid).toggleClass(\"ng-dirty\",o.$dirty).toggleClass(\"ng-pristine\",o.$pristine),e}),!u&&(a.bind(\"change\",function(t){t.stopImmediatePropagation(),e.$$phase||e.$root.$$phase||e.$apply(function(){o.$setViewValue(g(a.select2(\"data\")))})}),c.initSelection))){var $=c.initSelection;c.initSelection=function(e,t){$(e,function(e){o.$setViewValue(g(e)),t(e)})}}a.bind(\"$destroy\",function(){a.select2(\"destroy\")}),r.$observe(\"disabled\",function(e){a.select2(\"enable\",!e)}),r.$observe(\"readonly\",function(e){a.select2(\"readonly\",!!e)}),r.ngMultiple&&e.$watch(r.ngMultiple,function(e){r.$set(\"multiple\",!!e),a.select2(c)}),t(function(){a.select2(c),a.val(o.$viewValue),o.$render(),c.initSelection||u||o.$setViewValue(g(a.select2(\"data\")))})}}}}]);",
          "comment" : ""
        },
        "redirectURL" : "",
        "headersSize" : 201,
        "bodySize" : 2268,
        "comment" : ""
      },
      "cache" : { },
      "timings" : {
        "comment" : "",
        "send" : 0,
        "wait" : 0,
        "receive" : 0,
        "dns" : -1,
        "blocked" : -1,
        "connect" : 1071,
        "ssl" : -1
      },
      "comment" : "",
      "_katalonRequestInformation" : {
        "name" : "19",
        "testObjectId" : "Temporary RESTful request object",
        "harId" : "a6ea9fa3-2ea1-4804-ace7-75ea2e686480"
      },
      "time" : 1071
    } ],
    "comment" : ""
  }
}