{
  "log" : {
    "version" : "1.2",
    "pages" : [ ],
    "entries" : [ {
      "startedDateTime" : "2019-07-12T07:14:13.868Z",
      "request" : {
        "method" : "GET",
        "url" : "https://frostedc-stg.learningmate.com/js/project/assetUsageController.js",
        "httpVersion" : "",
        "cookies" : [ ],
        "headers" : [ ],
        "queryString" : [ ],
        "headersSize" : 0,
        "bodySize" : 0,
        "comment" : ""
      },
      "response" : {
        "status" : 200,
        "statusText" : "",
        "httpVersion" : "",
        "cookies" : [ ],
        "headers" : [ {
          "name" : "Accept-Ranges",
          "value" : "bytes"
        }, {
          "name" : null,
          "value" : "HTTP/1.1 200 OK"
        }, {
          "name" : "Server",
          "value" : "nginx/1.13.5"
        }, {
          "name" : "ETag",
          "value" : "\"5d25bc3a-4052\""
        }, {
          "name" : "Connection",
          "value" : "keep-alive"
        }, {
          "name" : "Last-Modified",
          "value" : "Wed, 10 Jul 2019 10:21:46 GMT"
        }, {
          "name" : "Content-Length",
          "value" : "16466"
        }, {
          "name" : "Date",
          "value" : "Fri, 12 Jul 2019 07:15:43 GMT"
        }, {
          "name" : "Content-Type",
          "value" : "application/javascript"
        } ],
        "content" : {
          "size" : 16466,
          "mimeType" : "application/javascript",
          "text" : "/*****\n * Controller for project asset usage\n * Author - Arikh Akher * \n */\n\n'use strict';\napp.controller('asset_usage', ['$scope', '$http', 'sessionService', '$location', 'objectService', 'projectService', '$rootScope', '$routeParams', '$filter', 'userService', 'aclService', 'assetUsageService', 'assetService', 'patternService', 'limitToFilter', '$timeout', 'SweetAlert', '$modal', '$q', 'tocService', '$window', function ($scope, $http, sessionService, $location, objectService, projectService, $rootScope, $routeParams, $filter, userService, aclService, assetUsageService, assetService, patternService, limitToFilter, $timeout, SweetAlert, $modal, $q, tocService, $window) {\n\n        $rootScope.chkAccessTokenInt = 1000;\n        $scope.access_token = sessionService.get('access_token');\n        var userinfo = JSON.parse(sessionService.get('userinfo'));\n        $scope.loggedid_user = userinfo.id;\n        $scope.user_permissions = JSON.parse(sessionService.get('user_permissions'));\n        $scope.project_id = $routeParams.project_id;\n        $scope.userCount = 0;\n        $scope.assetCount = 0;\n        $scope.widgetCount = 0;\n        $scope.patternCount = 0;\n        $scope.ticketCount = 0;\n        $rootScope.showSearchBox = false;\n        $scope.showMoreIcon = true;\n        $scope.isFilterApplied = false;\n        $scope.searchModel = {};\n        $scope.isAdminOrProjectAdmin = false;\n        //$scope.isdropenabled = true;\n        var userinfo = JSON.parse(sessionService.get('userinfo'));\n        $scope.status = ['All'];\n        $scope.type = ['All'];\n        $scope.assigned_to = ['All'];\n        $scope.folder_name = ['All'];\n        //Check if the session is active\t\n        $rootScope.checkActiveSession();\n        if (!$scope.access_token || userinfo == null) {\n            $location.path('logout');\n            return true;\n        }\n\n        objectService.getProjectDetails($scope).then(function (data) {\n            if (data == null || (angular.isDefined(data.is_global_project) && data.is_global_project == true)) {\n                $location.path(\"edit_toc/\" + $scope.project_id);\n            } else if (angular.isObject(data)) {\n                $scope.project = data;\n                if ($scope.project.role_id == 1 || $scope.project.role_id == 2) {\n                    $scope.isAdminOrProjectAdmin = true;\n                }\n                //console.log($scope.project.role_id);\n            }\n        });\n\n        assetUsageService.getUserCount($scope).then(function (data) {\n            $scope.userCount = data.data;\n            //console.log(data);\n        });\n\n        assetUsageService.getAssetCount($scope).then(function (data) {\n            $scope.assetCount = data.data;\n            //console.log(data);\n        });\n\n        assetUsageService.getWidgetCount($scope).then(function (data) {\n            $scope.widgetCount = data.data;\n            //console.log(data);\n        });\n\n        assetUsageService.getPatternCount($scope).then(function (data) {\n            $scope.patternCount = data.data;\n            //console.log(data);\n        });\n\n        assetUsageService.getTicketCount($scope).then(function (data) {\n            $scope.ticketCount = data.data;\n            //console.log(data.data);\n            if ($scope.ticketCount > 5 && $location.path() == '/project_asset_usage/' + $scope.project_id + '/issues') {\n                $location.path('project_asset_usage_more/' + $scope.project_id + '/issues');\n            }\n            if ($scope.ticketCount <= 5 && $location.path() == '/project_asset_usage/' + $scope.project_id + '/issues') {\n                $(document).ready(function () {\n                    setTimeout(function () {\n                        $('html, body').animate({scrollTop: $(\"#issueTab\").offset().top}, 1000);\n                    }, 2000)\n                });\n            }\n\n        });\n\n        //For asset listing in statistics page\n        $scope.advanced_search = {};\n        $scope.advanced_search.active = false;\n        $scope.asset_filter = {};\n        $scope.asset_local_global = {};\n        $scope.asset_filter.images = true;\n        $scope.asset_filter.videos = true;\n        $scope.asset_filter.gadgets = true;\n        $scope.asset_filter.other = true;\n        $scope.asset_local_global.local = true;\n        $scope.asset_local_global.global = false;\n        $scope.totalAssets = 0;\n        $scope.pageNumber = 1;\n        $scope.itemsPerPage = 6;\n        // default sort order\n        $scope.currentOrderByField = 'updated_at';\n        $scope.reverseSort = true;\n\n        projectService.get_mapapped_users($scope).then(function (data) {\n            $scope.userList = data.data;\n        });\n\n        projectService.get_all_mapapped_users($scope).then(function (data) {\n            $scope.filterUserList = data.data;\n        });\n\n        projectService.get_all_folder($scope).then(function (data) {\n            $scope.folderList = data.data;\n        });\n\n\n        assetService.getAssets($scope).then(function (data) {\n            $scope.assetList = data.data;\n            if ($scope.assetList == null) {\n                $scope.assetList = 0;\n            }\n            //console.log(data.data);\n        });\n\n        //For patterns listing in statistics page\n        patternService.getPattern($scope).then(function (data) {\n            $scope.patternList = data.data;\n            //console.log(data);\n        });\n\n        //For issues listing in statistics page\n        $scope.projectTickets = function () {\n            assetUsageService.getProjectTickets($scope).then(function (data) {\n                $scope.ticketList = data.data;\n            });\n        };\n\n        $scope.applySorting = function (field) {\n            if ($scope.currentOrderByField != field) {\n                $scope.reverseSort = false;\n            } else {\n                if ($scope.reverseSort) {\n                    $scope.reverseSort = false;\n                } else {\n                    $scope.reverseSort = true;\n                }\n            }\n            $scope.currentOrderByField = field;\n            $scope.projectTickets();\n        };\n\n        $scope.projectTickets();\n\n        //For widgets listing in  statistics page        \n        assetUsageService.getProjectWidgets($scope).then(function (data) {\n            $scope.widgetList = data.data;\n            //console.log(data);\n        });\n\n        $scope.copy_project = function (pid) {\n            $scope.project_id = $routeParams.project_id;\n            $scope.user_id = $scope.loggedid_user;\n            SweetAlert.swal({\n                title: \"Are you sure?\",\n                text: \"You are going to copy current project, after success it will appear in the project listing dashboard!\",\n                type: \"warning\",\n                showCancelButton: true,\n                confirmButtonColor: \"#DD6B55\",\n                confirmButtonText: \"Yes, copy it!\",\n                cancelButtonText: \"No, cancel!\",\n                closeOnConfirm: true,\n                closeOnCancel: false\n            }, function (isConfirm) {\n                if (isConfirm) {\n                    if (angular.isDefined($scope.project_id)) {\n                        tocService.copyProject($scope).then(function (result) {\n                            if (result.status == 400 && angular.isDefined(result.projectPermissionGranted) && result.projectPermissionGranted == 401) {\n                                SweetAlert.swal(\"Cancelled\", result.message, \"warning\");\n                            }\n                        });\n                    }\n                } else {\n                    SweetAlert.swal(\"Cancelled\", \"Copy is cancelled :)\", \"error\");\n                }\n            });\n\n            //alert($scope.project_id);\n\n        };\n\n        $scope.showCheckAll = 0;\n        $scope.apply_filter = function () {\n            $scope.isFilterApplied = true;\n            $scope.status = [];\n            $scope.type = [];\n            $scope.assigned_to = [];\n            $scope.folder_name = [];\n            // selected status\n            angular.forEach(document.querySelectorAll('#statusMultiSelect li.active'), function (value, key) {\n                $scope.status.push(value.getAttribute('value'));\n            });\n            // selected type\n            angular.forEach(document.querySelectorAll('#severityMultiSelect li.active'), function (value, key) {\n                $scope.type.push(value.getAttribute('value'));\n            });\n            // selected assignto\n            angular.forEach(document.querySelectorAll('#assignToMultiSelect li.active'), function (value, key) {\n                $scope.assigned_to.push(value.getAttribute('value'));\n            });\n\n            // selected foldername\n            angular.forEach(document.querySelectorAll('#folderNameMultiSelect li.active'), function (value, key) {\n                $scope.folder_name.push(value.getAttribute('value'));\n            });\n            $scope.projectTickets();\n        };\n\n\n        $scope.onClickAssignTo = function ($event) {\n            //var options = angular.element(\"#assignToMultiSelect li\");\n            var elm = angular.element($event.currentTarget);\n            // if all type checked\n            if (elm.hasClass(\"allAssignTo\")) {\n                angular.element(\"#assignToMultiSelect li\").find(\"i\").remove();\n                angular.element(\"#assignToMultiSelect li\").removeClass(\"active\");\n            }\n            if ((!(elm.hasClass(\"allAssignTo\"))) && (elm.find(\"i\").length)) {\n                if (angular.element(\"#assignToMultiSelect li.active\").length == 1) {\n                    return false;\n                } else {\n                    elm.find(\"i\").remove();\n                    elm.removeClass('active');\n                }\n\n            } else {\n                elm.find(\"span.checkedIcon\").append(\"<i class='fa fa-check'></i>\");\n                elm.addClass('active');\n                if (!(elm.hasClass(\"allAssignTo\"))) {\n                    angular.element(\"#assignToMultiSelect li.allAssignTo\").find(\"i\").remove();\n                    angular.element(\"#assignToMultiSelect li.allAssignTo\").removeClass(\"active\");\n                }\n            }\n            // check all filter are checked\n            // total li count except all\n            var totalStatusCount = angular.element(\"#assignToMultiSelect li\").length - 1;\n            // all \n            if (!elm.hasClass(\"allAssignTo\") && angular.element(\"#assignToMultiSelect li.active\").length == totalStatusCount) {\n                angular.element(\"#assignToMultiSelect li\").find(\"i\").remove();\n                angular.element(\"#assignToMultiSelect li\").removeClass(\"active\");\n                angular.element(\"#assignToMultiSelect li.allAssignTo\").find(\"span.checkedIcon\").append(\"<i class='fa fa-check'></i>\");\n                angular.element(\"#assignToMultiSelect li.allAssignTo\").addClass('active');\n                angular.element(\"#assignToFilter span\").text(\"All\");\n            } else {\n                if (angular.element(\"#assignToMultiSelect li.allAssignTo\").hasClass(\"active\")) {\n                    angular.element(\"#assignToFilter span\").text(\"All\");\n                } else {\n                    angular.element(\"#assignToFilter span\").text(angular.element(\"#assignToMultiSelect li.active\").length + ' selected');\n                }\n            }\n            $scope.apply_filter();\n        };\n\n        $scope.onClickFolderName = function ($event) {\n            //var options = angular.element(\"#assignToMultiSelect li\");\n            var elm = angular.element($event.currentTarget);\n            // if all type checked\n            if (elm.hasClass(\"allFolderName\")) {\n                angular.element(\"#folderNameMultiSelect li\").find(\"i\").remove();\n                angular.element(\"#folderNameMultiSelect li\").removeClass(\"active\");\n            }\n            if ((!(elm.hasClass(\"allFolderName\"))) && (elm.find(\"i\").length)) {\n                if (angular.element(\"#folderNameMultiSelect li.active\").length == 1) {\n                    return false;\n                } else {\n                    elm.find(\"i\").remove();\n                    elm.removeClass('active');\n                }\n\n            } else {\n                elm.find(\"span.checkedIcon\").append(\"<i class='fa fa-check'></i>\");\n                elm.addClass('active');\n                if (!(elm.hasClass(\"allFolderName\"))) {\n                    angular.element(\"#folderNameMultiSelect li.allFolderName\").find(\"i\").remove();\n                    angular.element(\"#folderNameMultiSelect li.allFolderName\").removeClass(\"active\");\n                }\n            }\n            // check all filter are checked\n            // total li count except all\n            var totalFolderCount = angular.element(\"#folderNameMultiSelect li\").length - 1;\n            // all \n            if (!elm.hasClass(\"allFolderName\") && angular.element(\"#folderNameMultiSelect li.active\").length == totalFolderCount) {\n                angular.element(\"#folderNameMultiSelect li\").find(\"i\").remove();\n                angular.element(\"#folderNameMultiSelect li\").removeClass(\"active\");\n                angular.element(\"#folderNameMultiSelect li.allFolderName\").find(\"span.checkedIcon\").append(\"<i class='fa fa-check'></i>\");\n                angular.element(\"#folderNameMultiSelect li.allFolderName\").addClass('active');\n                angular.element(\"#folderNameFilter span\").text(\"All\");\n            } else {\n                if (angular.element(\"#folderNameMultiSelect li.allFolderName\").hasClass(\"active\")) {\n                    angular.element(\"#folderNameFilter span\").text(\"All\");\n                } else {\n                    angular.element(\"#folderNameFilter span\").text(angular.element(\"#folderNameMultiSelect li.active\").length + ' selected');\n                }\n            }\n            $scope.apply_filter();\n        };\n\n        $scope.goToMoreIssues = function () {\n            if ($scope.isFilterApplied) {\n                localStorage.setItem(\"statusFilterData\", JSON.stringify($scope.status));\n                localStorage.setItem(\"typeFilterData\", JSON.stringify($scope.type));\n                localStorage.setItem(\"assigned_toFilterData\", JSON.stringify($scope.assigned_to));\n                localStorage.setItem(\"folder_nameFilterData\", JSON.stringify($scope.folder_name));\n            }\n            localStorage.setItem(\"issueSortData\", JSON.stringify({'currentOrderByField': $scope.currentOrderByField, 'reverseSort': $scope.reverseSort}));\n            $location.path('project_asset_usage_more/' + $scope.project_id + '/issues');\n        };\n        /*\n         * Check node lock status before redirection starts here @Mrinmoy Mukherjee\n         */\n        $scope.checkLockStatusToRedirect = function (project_type_id, project_id, node_id, node_title) {\n            //debugger;\n            $scope.object_id = node_id;\n            $scope.user_id = $scope.loggedid_user;\n            $scope.project_id = project_id;\n            tocService.checkObjectLock($scope).then(function (data) {\n                //alert(\"ok\");\n                //console.log(data);\n                if (Number(data.current_lock)) {\n                    if ($scope.isAdminOrProjectAdmin) {\n                        SweetAlert.swal(\"Locked\", \"This page is locked by \" + data.lock_user_details + \".  Go to Project Preview to preview the page. You can unlock from ToC.\", \"info\");\n                    } else {\n                        SweetAlert.swal(\"Locked\", \"This page is locked by \" + data.lock_user_details + \".  Go to Project Preview to preview the page.\", \"info\");\n                    }\n                } else {\n                    if (project_type_id == 4) {\n                        $window.location.href = \"edupub_editor/index.html?access_token=\" + $scope.access_token + \"&project_id=\" + project_id + '&node_id=' + node_id + '&node_title=' + encodeURIComponent(node_title) + '&project_type_id=' + project_type_id + '&user_id=' + $scope.user_id + '&content_from=';\n                    }\n                    if (project_type_id == 5) {\n                        $window.location.href = \"course_editor/index.html?access_token=\" + $scope.access_token + \"&project_id=\" + project_id + '&node_id=' + node_id + '&node_title=' + encodeURIComponent(node_title) + '&project_type_id=' + project_type_id + '&content_from=';\n                    }\n                }\n            });\n        };\n        /*\n         * Check node lock status before redirection ends here @Mrinmoy Mukherjee\n         */\n\n    }]);\n\n",
          "comment" : ""
        },
        "redirectURL" : "",
        "headersSize" : 203,
        "bodySize" : 16466,
        "comment" : ""
      },
      "cache" : { },
      "timings" : {
        "comment" : "",
        "connect" : 1288,
        "ssl" : -1,
        "send" : 0,
        "wait" : 0,
        "dns" : -1,
        "blocked" : -1,
        "receive" : 0
      },
      "comment" : "",
      "_katalonRequestInformation" : {
        "name" : "102",
        "testObjectId" : "Temporary RESTful request object",
        "harId" : "116885ed-a71b-459f-9154-d92496a5af07"
      },
      "time" : 1288
    } ],
    "comment" : ""
  }
}