{
  "log" : {
    "version" : "1.2",
    "pages" : [ ],
    "entries" : [ {
      "startedDateTime" : "2019-07-12T07:14:25.118Z",
      "request" : {
        "method" : "GET",
        "url" : "https://frostedc-stg.learningmate.com/js/dataset/datasetRecordController.js",
        "httpVersion" : "",
        "cookies" : [ ],
        "headers" : [ ],
        "queryString" : [ ],
        "headersSize" : 0,
        "bodySize" : 0,
        "comment" : ""
      },
      "response" : {
        "status" : 200,
        "statusText" : "",
        "httpVersion" : "",
        "cookies" : [ ],
        "headers" : [ {
          "name" : "Accept-Ranges",
          "value" : "bytes"
        }, {
          "name" : null,
          "value" : "HTTP/1.1 200 OK"
        }, {
          "name" : "Server",
          "value" : "nginx/1.13.5"
        }, {
          "name" : "ETag",
          "value" : "\"5d25bc3a-be5b\""
        }, {
          "name" : "Connection",
          "value" : "keep-alive"
        }, {
          "name" : "Last-Modified",
          "value" : "Wed, 10 Jul 2019 10:21:46 GMT"
        }, {
          "name" : "Content-Length",
          "value" : "48731"
        }, {
          "name" : "Date",
          "value" : "Fri, 12 Jul 2019 07:15:54 GMT"
        }, {
          "name" : "Content-Type",
          "value" : "application/javascript"
        } ],
        "content" : {
          "size" : 48731,
          "mimeType" : "application/javascript",
          "text" : "/* \n * To change this license header, choose License Headers in Project Properties.\n * To change this template file, choose Tools | Templates\n * and open the template in the editor.\n */\n\n\n\napp.controller('DatasetViewInstanceController', ['$scope', '$http', 'sessionService', '$location', 'objectService', 'datasetService', '$rootScope', '$modal', '$log', 'SweetAlert', '$routeParams', '$filter', function ($scope, $http, sessionService, $location, objectService, datasetService, $rootScope, $modal, $log, SweetAlert, $routeParams, $filter) {\n        $scope.access_token = sessionService.get('access_token');\n        $scope.user_permissions = JSON.parse(sessionService.get('user_permissions'));\n        var userinfo = JSON.parse(sessionService.get('userinfo'));\n        $scope.project_id = $routeParams.project_id;\n        $scope.project_type_id = 4;\n        $scope.editDisable = false;\n        $scope.addrecordbutton = false;\n        $scope.urlBox = false;\n        $scope.pickerShow = true;\n        $scope.pickedData = false;\n        $scope.displaytoggle = false;\n        $scope.afterPickerShow = false;\n        $scope.loading = true;\n        $scope.set_type = $routeParams.set_type=='dataset'?'Resource':$routeParams.set_type;\n        $scope.func_set_type=$routeParams.set_type;\n        //Check if the session is active\t\n        $rootScope.checkActiveSession();\n        if (!$scope.access_token || userinfo == null) {\n            $location.path('logout');\n            return true;\n        }\n\n        $scope.project_name = '';\n        $scope.getProject = function () {\n            if ($scope.project_id != '') {\n                objectService.getProjectDetails($scope).then(function (data) {\n                    if (data == null) {\n                        $location.path(\"edit_toc/\" + $scope.project_id);\n                    } else if (angular.isObject(data)) {\n                        $scope.project_name = data.name;\n                        $scope.project = data;\n                        $scope.applyPermission = 1;\n                    }\n                });\n            }\n        };\n\n        $scope.getProject();\n\n        $scope.showedit = 0;\n        $scope.dataset_id = $routeParams.collection_id;\n        $scope.pattern_classes = [{value: ''}];\n\n        $scope.ext_res_opt_val = {\n            type: 'asset'\n        };\n\n        $scope.cancel = function () {\n            angular.element('#viewDataset' + $scope.dataset_id).removeAttr('disabled');\n            $modalInstance.dismiss('cancel');\n        };\n\n        $scope.addNewRecordRow = function () {\n            angular.element('.edit_container_url').hide();\n            angular.element('.edit_container_url').hide();\n            angular.element('.edit_container_title').show();\n            angular.element('.edit_button').show();\n            angular.element('.save_button').hide();\n            angular.element('.remove_button').show();\n            angular.element('.cancle_button').hide();\n            angular.element('.container_title_label').show();\n            angular.element('.edit_container_title_label').hide();\n            angular.element('#for_new_entry').show();\n            angular.element('#id_ext_res_url').val('');\n            $scope.editDisable = true;\n            $scope.addrecordbutton = true;\n            $scope.label = '';\n            $scope.ext_res_url = '';\n            $scope.ext_res_title = '';\n            $scope.pickedData = false;\n            $scope.urlBox = false;\n            $scope.pickerShow = true;\n            $scope.formError = {'label': '', 'url': ''};\n        };\n\n        $scope.showUrlBox = function () {\n            $scope.urlBox = true;\n            $scope.formError = {'url': ''};\n            $scope.pickerShow = false;\n        };\n\n        $scope.deleteUrl = function () {\n            $scope.urlBox = false;\n            $scope.ext_res_url = '';\n            $scope.ext_res_title = '';\n            $scope.pickedData = false;\n            $scope.pickerShow = true;\n            $scope.formError = {'url': ''};\n        };\n\n        //Assets Modal starts here\n        $scope.ext_res_title = null;\n        $scope.showAssestModal = function (record_id) {\n            if (angular.isDefined('record_id')) {\n                var record_id = record_id;\n            }\n            var size = 'lg';\n            var modal_form_title = 'Asset Library';\n            var modalInstanceForAssets = $modal.open({\n                templateUrl: 'templates/dataset/externalResourceModalContent.html',\n                controller: 'ModalDatasetAssetsController',\n                size: size,\n                backdrop: 'static',\n                keyboard: false,\n                resolve: {\n                    modalFormTitle: function () {\n                        return modal_form_title;\n                    },\n                    project_id: function () {\n                        return $scope.project_id;\n                    },\n                    ext_res_url: function () {\n                        return $scope.ext_res_url;\n                    }\n                }\n            });\n\n            modalInstanceForAssets.result.then(function (modalCloseParameter) {\n                $scope.ext_res_url = modalCloseParameter.ext_res_location;\n                $scope.asset_object_id = modalCloseParameter.asset_object_id;\n                $scope.ext_res_title = modalCloseParameter.ext_res_title;\n                $scope.ext_res_type = modalCloseParameter.ext_res_type;\n                $scope.afterPickerShow = true;\n                angular.element('#id_ext_res_title_' + record_id).html($scope.ext_res_title);\n                $scope.pickedData = true;\n                $scope.pickerShow = false;\n            });\n        };\n\n        $scope.pageNumber = 1;\n        $scope.itemsPerPage = 5;\n        $scope.currentPage = 1;\n        $scope.listDataRecords = function (pageNumber) {\n            $scope.loading = false;\n            $scope.datasetRecordList = {};\n            $scope.editDisable = false;\n            $scope.currentPage = pageNumber;\n            $scope.pageNumber = pageNumber;\n            $scope.itemsPerPage = 5;\n            $scope.dataset_id = $routeParams.collection_id;\n            datasetService.getDatasetRecords($scope).then(function (data) {\n                $scope.datasetRecordList = data.data.dataset_record_list;\n                $scope.loading = true;\n                $scope.datasetRecordTotal = data.data.total;\n            });\n        };\n\n        $scope.listDataRecords(1);\n\n        //For Pagination Of Dashboard\n        $scope.pageChangeHandler = function (newPage) {\n            $scope.listDataRecords(newPage);\n        };\n\n        $scope.savesRecordforDataset = function () {\n            $scope.dataset_id = $routeParams.collection_id;\n            datasetService.savesRecordforDataset($scope).then(function (savedResponse) {\n                if (savedResponse.status == '200') {\n                    $scope.formError = {'label': '', 'url': ''};\n                    SweetAlert.swal(\"Success\", \"Record added successfully\", \"success\");\n                    $scope.addrecordbutton = false;\n                    angular.element('#selectedResourceContainer').html('');\n                    $scope.label = '';\n                    $scope.ext_res_url = '';\n                    $scope.editDisable = false;\n                    angular.element('#for_new_entry').attr(\"style\", \"display: none\");\n                    $scope.listDataRecords(1);\n                } else {\n                    if (angular.isDefined(savedResponse.error.label)) {\n                        $scope.formError = {'label': ''};\n                        $scope.formError['label'] = savedResponse.error.label['0'];\n                        $scope.label = '';\n                    } else if (angular.isDefined(savedResponse.error.url)) {\n                        $scope.formError = {'url': ''};\n                        $scope.formError['url'] = savedResponse.error.url['0'];\n                        $scope.ext_res_url = '';\n                    }\n                }\n            });\n        };\n\n        $scope.removeItem = function (recordID) {\n            SweetAlert.swal({\n                title: \"Are you sure you want to proceed?\",\n                text: \"You will not be able to recover this record!\",\n                type: \"warning\",\n                showCancelButton: true,\n                confirmButtonColor: \"#DD6B55\",\n                confirmButtonText: \"Yes, proceed\",\n                cancelButtonText: \"Cancel\",\n                closeOnConfirm: false,\n                closeOnCancel: false\n            }, function (isConfirm) {\n                if (isConfirm) {\n                    datasetService.removeDatasetRecord(recordID, $scope).then(function (response) {\n                        $scope.dataset_id = $routeParams.collection_id;\n                        $scope.editDisable = false;\n                        if (response.status == 200) {\n                            SweetAlert.swal(\"Success\", \"Record has been deleted\", \"success\");\n                        } else {\n                            SweetAlert.swal(\"Cancelled\", response.message, \"error\");\n                        }\n                        $scope.listDataRecords(1);\n                    });\n\n                } else {\n                    SweetAlert.swal(\"Cancelled\", \"Process Cancelled!\", \"error\");\n                }\n            });\n        };\n\n        $scope.declineform = function () {\n            $scope.editDisable = false;\n            angular.element('#for_new_entry').attr(\"style\", \"display: none\");\n            $scope.addrecordbutton = false;\n            $scope.label = '';\n            $scope.video_id = '';\n            angular.element('#selectedResourceContainer').html('');\n\n            $scope.dataset_id = $routeParams.collection_id;\n            SweetAlert.swal(\"Cancelled\", \"Operation Cancelled!\", \"error\");\n            $scope.formError = {'label': '', 'url': ''};\n            $scope.listDataRecords(1);\n        };\n\n        $scope.showEditBoxes = function (id, url) {\n            $scope.ext_res_url = url;\n            angular.element('.edit_container_url').hide();\n            angular.element('.edit_container_title').show();\n            angular.element('.edit_button').show();\n            angular.element('.save_button').hide();\n            angular.element('.remove_button').show();\n            angular.element('.cancle_button').hide();\n            angular.element('.container_title_label').show();\n            angular.element('.edit_container_title_label').hide();\n            $scope.editDisable = false;\n            $scope.pickedData = true;\n            $scope.pickerShow = false;\n            $scope.urlBox = false;\n            $scope.editDisable = true;\n            $scope.formError = {'label': '', 'url': ''};\n            angular.element('#s_button_' + id).hide();\n            angular.element('#edit_button_' + id).show();\n            angular.element('#display_container_label_' + id).hide();\n            angular.element('#edit_container_label_' + id).show();\n            angular.element('#display_container_url_' + id).hide();\n            angular.element('#edit_container_url_' + id).show();\n            angular.element('#cancelButton' + id).show();\n            angular.element('#removeButton' + id).hide();\n            console.log(angular.element('#filename' + id).val());\n            $scope.ext_res_title = angular.element('#filename' + id).val();\n        };\n\n        $scope.cancelRecordEdit = function (id) {\n            $scope.dataset_id = $routeParams.collection_id;\n            $scope.formError = {'label': '', 'url': ''};\n            $scope.editDisable = false;\n            SweetAlert.swal(\"Cancelled\", \"Process Cancelled!\", \"error\");\n            $scope.listDataRecords(1);\n        };\n\n        $scope.updateRecord = function (id) {\n            $scope.editDisable = false;\n            $scope.dataset_id = $routeParams.collection_id;\n            if ($scope.ext_res_url == '' || $scope.ext_res_url == 'undefined') {\n                $scope.ext_res_url = angular.element('#id_ext_res_url' + id).val();\n            }\n            $scope.label = angular.element('#label_' + id).val();\n            $scope.recordId = id;\n\n            datasetService.updateDatasetrecord($scope).then(function (savedResponse) {\n                if (savedResponse.status == '200') {\n                    $scope.formError = {'label': '', 'url': ''};\n                    SweetAlert.swal(\"Success\", \"Record updated successfully\", \"success\");\n                    $scope.addrecordbutton = false;\n                    console.log($scope.ext_res_title);\n                    angular.element('#selectedResourceContainer').html($scope.ext_res_title);\n                    $scope.label = '';\n                    $scope.ext_res_url = '';\n                    angular.element('#for_new_entry').attr(\"style\", \"display: none\");\n                    angular.element('#s_button_' + id).show();\n                    angular.element('#edit_button_' + id).hide();\n                    angular.element('#display_container_label_' + id).show();\n                    angular.element('#edit_container_label_' + id).hide();\n                    angular.element('#display_container_url_' + id).show();\n                    angular.element('#edit_container_url_' + id).hide();\n                    $scope.listDataRecords(1);\n                    $scope.afterPickerShow = false;\n\n                } else {\n                    if (angular.isDefined(savedResponse.error.label)) {\n                        $scope.formError = {'label': ''};\n                        $scope.formError['label'] = savedResponse.error.label['0'];\n                        $scope.label = '';\n                    } else if (angular.isDefined(savedResponse.error.url)) {\n                        $scope.formError = {'url': ''};\n                        $scope.formError['url'] = savedResponse.error.url['0'];\n                        $scope.ext_res_url = '';\n                    }\n                }\n            });\n        }\n\n        $scope.updateDatasetJson = function () {\n            $scope.dataset_id = $routeParams.collection_id;\n            datasetService.updateDatasetJson($scope).then(function (savedResponse) {\n                if (savedResponse.status == '200') {\n                    datasetService.getDatasets($scope).then(function (data) {\n                        $scope.datasetList = data.data.dataset_list;\n                        SweetAlert.swal(\"Success\", \"Dataset details updated successfully\", \"success\");\n                        $scope.listDataRecords(1);\n                    });\n                } else {\n                    console.log(savedResponse.status);\n                }\n            });\n        };\n\n        $scope.showDatasetAsset = function (size, id) {\n            var datasetRec = {};\n            var size = 'lg';\n            $scope.dataset_id = id;\n            angular.element('#viewDataset' + id).attr('disabled', 'disabled');\n            datasetService.getDatasets($scope).then(function (data) {\n                datasetRec = data.data.dataset_list;\n                var datasetTitle = datasetRec[0].title;\n            });\n        };\n        $scope.showDatasetAsset();\n\n\n        $scope.addNewMultivideoRow = function () {\n            $scope.addrecordbutton = true;\n            $scope.isNumber();\n            $scope.editDisable = true;\n            $scope.formError = {'label': '', 'url': ''};\n            angular.element('#for_new_entry').show();\n        };\n\n        $scope.saveMultivideoRow = function () {\n            $scope.formError = {'label': '', 'url': ''};\n            $scope.dataset_id = $routeParams.collection_id;\n            $scope.label = $scope.label;\n            $scope.asset_object_id = $scope.video_id;\n            if (angular.isDefined($scope.video_id)) {\n                //$scope.ext_res_url = 'https://players.brightcove.net/2402232200001/default_default/index.html?videoId=' + $scope.video_id;\n                $scope.ext_res_url = bright_cove_url + $scope.video_id;\n            } else {\n                $scope.ext_res_url = '';\n            }\n            if (angular.isDefined($scope.label) && $scope.asset_object_id != '') {\n                datasetService.savesRecordforDataset($scope).then(function (savedResponse) {\n                    if (savedResponse.status == '200') {\n                        SweetAlert.swal(\"Success\", \"Record added successfully\", \"success\");\n                        angular.element('#addrecordbutton').removeAttr('disabled');\n                        angular.element('#selectedResourceContainer').html('');\n                        $scope.label = '';\n                        $scope.video_id = '';\n                        $scope.ext_res_url = '';\n                        angular.element('#for_new_entry').attr(\"style\", \"display: none\");\n                        $scope.listDataRecords(1);\n                        $scope.isNumber();\n                        $scope.addrecordbutton = false;\n                        $scope.editDisable = false;\n                    } else {\n                        if (angular.isDefined(savedResponse.error.label) && angular.isDefined(savedResponse.error.url)) {\n                            $scope.formError = {'label': ''};\n                            $scope.formError['label'] = savedResponse.error.label['0'];\n                            if (!angular.isDefined($scope.asset_object_id)) {\n                                $scope.formError['url'] = 'Video ID is needed';\n                            }\n                        } else if (!angular.isDefined($scope.asset_object_id)) {\n                            $scope.formError = {'url': ''};\n                            $scope.formError['url'] = 'Video ID is needed';\n                        } else if (angular.isDefined(savedResponse.error.label)) {\n                            $scope.formError['label'] = savedResponse.error.label['0'];\n                        }\n                    }\n                });\n            } else {\n                if (!angular.isDefined($scope.label) || $scope.label == '') {\n                    $scope.formError['label'] = 'Title filed is required';\n                } else if (!angular.isDefined($scope.asset_object_id) || $scope.asset_object_id == '') {\n                    $scope.formError['url'] = 'Video ID is Needed';\n                } else {\n                    $scope.formError['url'] = 'Video ID is Needed';\n                }\n\n            }\n        };\n\n        $scope.editVideoRecord = function (record_id) {\n            $scope.formError = {'label': '', 'url': ''};\n            angular.element('#addRecord' + record_id).hide();\n            angular.element('#addRecordID' + record_id).hide();\n            angular.element('#editRecord' + record_id).show();\n            angular.element('#editRecordID' + record_id).show();\n            angular.element('#editButton' + record_id).hide();\n            angular.element('#cancelButton' + record_id).show();\n            angular.element('#saveButton' + record_id).show();\n            angular.element('#removeButton' + record_id).hide();\n            angular.element('#previewButton' + record_id).hide();\n            $scope.isNumber();\n            $scope.addrecordbutton = true;\n            $scope.editDisable = true;\n        };\n\n        $scope.cancelVideoEdit = function (record_id) {\n            $scope.formError = {'label': '', 'url': ''};\n            angular.element('#addRecord' + record_id).show();\n            angular.element('#addRecordID' + record_id).show();\n            angular.element('#editRecord' + record_id).hide();\n            angular.element('#editRecordID' + record_id).hide();\n            angular.element('#editButton' + record_id).show();\n            angular.element('#cancelButton' + record_id).hide();\n            angular.element('#saveButton' + record_id).hide();\n            angular.element('#removeButton' + record_id).show();\n            angular.element('#previewButton' + record_id).show();\n            $scope.addrecordbutton = false;\n            $scope.editDisable = false;\n            $scope.listDataRecords($scope.currentPage);\n            $scope.isNumber();\n            $scope.label = '';\n            $scope.video_id = '';\n            $scope.ext_res_url = '';\n        };\n\n        $scope.updateVideoRccord = function (record_id) {\n            $scope.formError = {'label': '', 'url': ''};\n            $scope.dataset_id = $routeParams.collection_id;\n            $scope.label = angular.element('#editData' + record_id).val();\n            $scope.asset_object_id = angular.element('#editText' + record_id).val();\n            if (angular.isDefined($scope.asset_object_id)) {\n                //$scope.ext_res_url = 'https://players.brightcove.net/2402232200001/default_default/index.html?videoId=' + $scope.asset_object_id;\n                $scope.ext_res_url = bright_cove_url + $scope.asset_object_id;\n            } else {\n                $scope.ext_res_url = '';\n            }\n\n            $scope.recordId = record_id;\n            if (angular.isDefined($scope.label) && $scope.asset_object_id != '') {\n                datasetService.updateDatasetrecord($scope).then(function (savedResponse) {\n                    if (savedResponse.status == '200') {\n                        $scope.formError = {'label': '', 'url': ''};\n                        SweetAlert.swal(\"Success\", \"Record updated successfully\", \"success\");\n                        $scope.addrecordbutton = false;\n                        $scope.editDisable = false;\n                        $scope.label = '';\n                        $scope.ext_res_url = '';\n                        angular.element('#addRecord' + record_id).show();\n                        angular.element('#addRecordID' + record_id).show();\n                        angular.element('#editRecord' + record_id).hide();\n                        angular.element('#editRecordID' + record_id).hide();\n                        angular.element('#editButton' + record_id).show();\n                        angular.element('#cancelButton' + record_id).hide();\n                        angular.element('#saveButton' + record_id).hide();\n                        angular.element('#removeButton' + record_id).show();\n                        angular.element('#previewButton' + record_id).show();\n                        $scope.listDataRecords($scope.currentPage);\n                        $scope.isNumber();\n                        //$scope.listDataRecords();\n\n                    } else {\n                        if (angular.isDefined(savedResponse.error.label)) {\n                            $scope.formError = {'label': ''};\n                            $scope.formError['label'] = savedResponse.error.label['0'];\n                        } else if (angular.isDefined($scope.ext_res_url)) {\n                            $scope.formError = {'url': ''};\n                            $scope.formError['url'] = 'Video ID is Needed';\n                        } else if (angular.isDefined(savedResponse.error.label)) {\n                            $scope.formError['label'] = savedResponse.error.label['0'];\n                        }\n                    }\n                });\n            } else {\n                if ($scope.label == '') {\n                    $scope.formError['label'] = 'Title filed is required';\n                } else {\n                    $scope.formError['label'] = '';\n                }\n                if ($scope.asset_object_id == '') {\n                    $scope.formError['url'] = 'Video ID is Needed';\n                } else {\n                    $scope.formError['url'] = '';\n                }\n\n            }\n        };\n\n        $scope.previewVideoEdit = function (video_id) {\n            var size = 'md';\n            var modal_form_title = 'Brightcove Preview';\n\n            if ($scope.project_id != '') {\n                objectService.getProjectDetails($scope).then(function (data) {\n                    if (data == null) {\n                        $location.path(\"edit_toc/\" + $scope.project_id);\n                    } else if (angular.isObject(data)) {\n                        $scope.project_name = data.name;\n                        $scope.project = data;\n                        $scope.applyPermission = 1;\n                    }\n                });\n            }\n            var modalInstanceForAssets = $modal.open({\n                templateUrl: 'templates/dataset/previewModalContent.html',\n                controller: 'ModalVideoPreviewController',\n                size: size,\n                backdrop: 'static',\n                keyboard: false,\n                resolve: {\n                    modalFormTitle: function () {\n                        return modal_form_title;\n                    },\n                    project_id: function () {\n                        return $scope.project_id;\n                    },\n                    video_id: function () {\n                        return video_id;\n                    }\n                }\n            });\n\n            modalInstanceForAssets.result.then(function (modalCloseParameter) {\n            });\n        };\n\n        $scope.isNumber = function () {\n            $(\".label_id\").keydown(function (e) {\n                if ($.inArray(e.keyCode, [46, 8, 9, 27, 13, 110, 190]) !== -1 ||\n                        // Allow: Ctrl+A, Command+A\n                                (e.keyCode === 65 && (e.ctrlKey === true || e.metaKey === true)) || (e.keyCode === 86 && (e.ctrlKey === true || e.metaKey === true)) || (e.keyCode === 67 && (e.ctrlKey === true || e.metaKey === true)) || (e.keyCode >= 35 && e.keyCode <= 40)) {\n                    // let it happen, don't do anything\n                    return;\n                }\n                // Ensure that it is a number and stop the keypress\n                if ((e.shiftKey || (e.keyCode < 48 || e.keyCode > 57)) && (e.keyCode < 96 || e.keyCode > 105)) {\n                    e.preventDefault();\n                }\n            });\n        };\n\n    }]);\n\n//Assets Modal Controller \napp.controller('ModalDatasetAssetsController', function ($scope, $timeout, $modalInstance, assetService, datasetService, objectService, project_id, modalFormTitle, ext_res_url, keyValueService, tagService, taxonomyService, userService, ivhTreeviewMgr, $compile, $filter, paginationService,SweetAlert) {\n\n    $scope.cancel = function () {\n        $modalInstance.dismiss('cancel');\n    };\n\n    $scope.modalFormTitle = modalFormTitle;\n    $scope.project_id = project_id;\n    $scope.taxonomy_id = 0;\n    $scope.asset_filter = {\"images\": true, \"audio\": true, \"videos\": true, \"gadgets\": true, \"other\": true};\n    $scope.asset_local_global = {\"local\": true, \"global\": true};\n    $scope.pageNumber = 1;\n    $scope.itemsPerPage = 8;\n    $scope.ext_res_location = ext_res_url;\n    $scope.getAssets = function (pageNumber) {\n        $scope.removeErrors = 1;\n        $scope.showCheckAll = 0;\n        $scope.showMakeGlobal = 0;\n        $scope.pageNumber = pageNumber;\n        $scope.itemsPerPage = 8;\n\n        assetService.getMimes().then(function (mimes) {\n            angular.element('#submit_resource').attr('disabled', 'disabled');\n            $scope.mimes = mimes.data;\n            assetService.getAssets($scope).then(function (data) {\n                $scope.assets = data.data;\n                setTimeout( function(){\n                    angular.element('.label-checkbox').removeAttr('style');\n                    angular.forEach($scope.assets, function (value, key) {\n                        if (value.asset_location == $scope.ext_res_location) {\n                            value.Selected = $scope.ext_res_location;\n                            value.Style = \"opacity:1 !important;\";\n                            angular.element('#submit_resource').attr('disabled', false);\n                            $timeout(function () {\n                                angular.element('#submit_resource').focus();\n                            });\n                        }\n    //          else if ($scope.ext_res_location == '') {\n    //            angular.element('#submit_resource').attr('disabled', 'disabled');\n    //          } else {\n    //            angular.element('#submit_resource').attr('disabled', false);\n    //          }\n                    });\n                }, 50 );    \n                $scope.totalAssets = data.totalAssets;\n                $scope.removeErrors = angular.isDefined(data.totalAssets) ? data.totalAssets : 0;\n            });\n        });\n    };\n\n    //$scope.getAssets(1);\n\n    //Get Project Detail\n    $scope.getProject = function () {\n        $scope.project_name = '';\n        if ($scope.object_id != '') {\n            objectService.getProjectDetails($scope).then(function (data) {\n                $scope.project_name = data.name;\n                $scope.project_type_id = data.project_type_id;\n                $scope.toc_creation_status = data.toc_creation_status;\n                $scope.project = data;\n                $scope.actual_permission = data.project_permissions['asset.use_global'].grant;\n            });\n        }\n    };\n    $scope.getProject();\n\n    //For Pagination Of Dashboard\n    $scope.pageChangeHandlerAsset = function (newPage) {\n        angular.element('.label-checkbox').removeAttr('style');\n        $scope.getAssets(newPage);        \n    };\n    $scope.setCurrentPageNumber = function(num) {\n        paginationService.setCurrentPage('assetListId', num);\n    };\n    \n    $scope.getAssets(1);\n\n    /*$scope.$watch('search_text', function (val) {\n        $scope.advanced_search.active = false;\n        $scope.advanced_search.enableSearch = false;\n        $scope.searchModel = {\"search_text\": val};\n        $scope.getAssets(1);\n    });*/\n    \n    $scope.search = function () {\n        if(!$scope.search_text){\n            SweetAlert.swal(\"Error\", \"Please enter value in search box\", \"error\");\n            return false;\n        }\n        $scope.advanced_search.active = false;\n        $scope.advanced_search.heading = 'Search Result For: ' + $scope.search_text;\n        $scope.advanced_search.enableSearch = true;\n        $scope.advanced_search.isCollapsed = false;\n        $scope.searchModel = {\n            \"search_text\": $scope.search_text\n        }; \n        //Set the pagination           \n        if($scope.pageNumber>1){ $scope.setCurrentPageNumber(1); }\n        else{$scope.getAssets(1);}\n    };\n\n    $scope.selectOption = function (asset_id, asset_location, title, type, is_global) {\n        if (is_global === 1 && $scope.actual_permission === false) {\n            angular.element('.label-checkbox').removeAttr('style');\n            angular.element('#submit_resource').attr('disabled', 'disabled');\n            SweetAlert.swal(\"Cancelled\", \"Permission Denied!\", \"error\");\n        } else {\n            angular.element('.label-checkbox').removeAttr('style');\n            angular.element('#check-box-label-' + asset_id).attr('style', 'opacity:1 !important;');\n            $scope.ext_res_location = asset_location;\n            $scope.ext_res_title = title;\n            $scope.ext_res_type = type;\n            $scope.asset_id = asset_id;\n            setTimeout(function () {\n                angular.element('#submit_resource').focus();\n            }, 200);\n            angular.element('#submit_resource').attr('disabled', false);\n\n        }\n    };\n\n    $scope.submitResource = function () {\n        var modalCloseParameter = {ext_res_location: $scope.ext_res_location, ext_res_title: $scope.ext_res_title, ext_res_type: $scope.ext_res_type, asset_object_id: $scope.asset_id};\n        $modalInstance.close(modalCloseParameter);\n        angular.element('#selectedResourceContainer').html('');\n        var selectedResourceContainerHtml = '<div id=\"newContainer\"><div class=\"clearfix\"></div><div class=\"form-group\">';\n\n        if ($scope.ext_res_type == 'image') {\n            selectedResourceContainerHtml += '<img src=\"' + $scope.ext_res_location + '\" height=\"40px\" width=\"40px\">';\n        } else {\n            selectedResourceContainerHtml += '<span style=\"word-break: break-all;padding: 3px;color: #7b2503;display: block;\">' + $scope.ext_res_title + '</span>';\n        }\n        selectedResourceContainerHtml += '<input type=\"hidden\" value=\"' + $scope.asset_id + '\" ng-model=\"asset_object_id\">';\n        selectedResourceContainerHtml += '</div></div>';\n\n        angular.element('#selectedResourceContainer').append($compile(selectedResourceContainerHtml)($scope));\n\n        angular.element('#id_ext_res_url').attr(\"value\", $scope.ext_res_location);\n    };\n\n    $scope.submitResource = function () {\n        var modalCloseParameter = {ext_res_location: $scope.ext_res_location, ext_res_title: $scope.ext_res_title, ext_res_type: $scope.ext_res_type, asset_object_id: $scope.asset_id};\n        $modalInstance.close(modalCloseParameter);\n        angular.element('#selectedResourceContainer').html('');\n        var selectedResourceContainerHtml = '<div id=\"newContainer\"><div class=\"clearfix\"></div><div class=\"form-group\">';\n\n        if ($scope.ext_res_type == 'image') {\n            selectedResourceContainerHtml += '<img src=\"' + $scope.ext_res_location + '\" height=\"40px\" width=\"40px\">';\n        } else {\n            selectedResourceContainerHtml += '<span style=\"word-break: break-all;padding: 3px;color: #7b2503;display: block;\">' + $scope.ext_res_title + '</span>';\n        }\n        selectedResourceContainerHtml += '<input type=\"hidden\" value=\"' + $scope.asset_id + '\" ng-model=\"asset_object_id\">';\n        selectedResourceContainerHtml += '</div></div>';\n\n        angular.element('#selectedResourceContainer').append($compile(selectedResourceContainerHtml)($scope));\n\n        angular.element('#id_ext_res_url').attr(\"value\", $scope.ext_res_location);\n    };\n    \n        //=========================================//\n    //Advance Search For Metadata = Starts Here\n    //=========================================//\n    $scope.node_id = 0;\n    $scope.advanced_search = {};\n    $scope.advanced_search.enableSearch = false;\n    $scope.advanced_search.title = '';\n    $scope.advanced_search.active = false;\n    $scope.advanced_search.isCollapsed = false;\n    $scope.advanced_search.heading = 'Advanced Search Result:';\n\n    $scope.advanced_search.key_data = {};\n    $scope.advanced_search.value_data = {};\n    $scope.advanced_search.totalKeyArea = 0;\n    $scope.advanced_search.taxonomy = [];\n    $scope.tplFolderOpen = '<span class=\"twistie glyphicon glyphicon-folder-open\"></span>&nbsp;&nbsp;';\n    $scope.tplFolderClose = '<span class=\"twistie glyphicon glyphicon-folder-close\"></span>&nbsp;&nbsp;';\n    $scope.tplLeaf = '<span class=\"twistie glyphicon glyphicon-book\"></span>&nbsp;&nbsp;';\n\n    // get taxonomy\n    $scope.taxonomyStatus = 1001;\n    taxonomyService.getTaxonomy($scope, $scope.node_id).then(function (data) {\n        if (data.status == 200)\n        {\n            if (data.data != null && angular.isDefined(data.data.children))\n            {\n                $scope.advanced_search.taxonomy = data.data.children;\n                // expand nodes\n                ivhTreeviewMgr.expandRecursive($scope.advanced_search.taxonomy, $scope.advanced_search.taxonomy);\n            }\n        }\n\n    });\n\n    // get tags \n    var tags = [];\n    var object_tags = [];\n\n\n    $scope.advanced_search.tag = {\n        multiple: true,\n        data: tags\n    };\n    tagService.getTagsByObject($scope, $scope.node_id).then(function (data) {\n        if (data.status == 200)\n        {\n            if (data.data != null && angular.isDefined(data.data.tags))\n            {\n                angular.forEach(data.data.tags, function (value, key) {\n                    tags[key] = {id: value.id, text: value.text};\n                });\n                $scope.advanced_search.tag.data = tags;\n                if (angular.isDefined(data.data.object_tags))\n                {\n                    angular.forEach(data.data.object_tags, function (value, key) {\n                        object_tags[key] = {id: value.id, text: value.text};\n                    });\n                    $scope.advanced_search.tagValue = object_tags;\n                }\n            }\n        }\n\n    });\n\n    // get owners \n    var owners = [];\n    var object_owners = [];\n\n    $scope.advanced_search.owner = {\n        multiple: true,\n        data: owners\n    };\n\n    userService.getUsers($scope).then(function (data) {\n        if (data.status == 200)\n        {\n            if (data.data != null)\n            {\n                angular.forEach(data.data, function (value, key) {\n                    owners[key] = {id: value.id, text: value.username};\n                });\n                $scope.advanced_search.owner.data = owners;\n            }\n        }\n\n    });\n\n    $scope.keyOptions = '<option value=\"\"></option>';\n    $scope.keyValueData = '';\n    // get key values\n    keyValueService.getKeyValuesByObject($scope, $scope.node_id).then(function (data) {\n//        if (data.projectPermissionGranted == 401) {\n//            SweetAlert.swal(\"Cancelled\", \"Access prohibited!\", \"error\");\n//            $location.path(\"dashboard\");\n//        }\n        if (data.status == 200) {\n            $scope.keyValueData = data.data;\n            if (data.data != null && angular.isDefined(data.data.key_values))\n            {\n                angular.forEach(data.data.key_values, function (value) {\n                    if (value.key_name != 'License Type' && value.key_name != 'License Valid Till') {\n                        $scope.keyOptions = $scope.keyOptions + '<option value=\"' + value.id + '\">' + $filter('strLimit')(value.key_name, 20) + '</option>';\n                    }\n                });\n                setTimeout(function () {\n                    $scope.totalKeyArea = $scope.totalKeyArea + 1;\n                    var newKeyAreaHtml = $scope.generateKeyValue($scope.totalKeyArea);\n                    angular.element(\"#advancedSearchKeyValuesAreaId\").append($compile(newKeyAreaHtml)($scope));\n                }, 500);\n            }\n\n            if (data.count == 0) {\n                setTimeout(function () {\n                    $scope.totalKeyArea = $scope.totalKeyArea + 1;\n                    var newKeyAreaHtml = $scope.generateKeyValue($scope.totalKeyArea);                    \n                    angular.element(\"#advancedSearchKeyValuesAreaId\").append($compile(newKeyAreaHtml)($scope));\n                }, 500);\n            }\n        }\n    });\n\n\n    $scope.addKeyValue = function () {\n        $scope.advanced_search.totalKeyArea = $scope.advanced_search.totalKeyArea + 1;\n        var newKeyAreaHtml = $scope.generateKeyValue($scope.advanced_search.totalKeyArea);\n        angular.element(\"#advancedSearchKeyValuesAreaId\").append($compile(newKeyAreaHtml)($scope));\n    };\n\n\n    $scope.onChangeKeyUpdateValue = function (key) {\n        var keyId = $scope.advanced_search.key_data['key_' + key];\n        angular.forEach($scope.keyValueData.key_values, function (value) {\n            if (value.id == keyId)\n            {\n                if (value.key_type == 'select_list')\n                {\n                    var valueSelect = '<select style=\"width:100%\" ui-select2 ng-model=\"advanced_search.value_data.key_' + key + '\" data-placeholder=\"Select a Value\">';\n                    valueSelect += '<option value=\"\"></option>';\n                    angular.forEach(value.values, function (valueObj) {\n                        valueSelect += '<option value=\"' + valueObj.value_id + '\">' + valueObj.value + '</option>';\n                    });\n                    valueSelect += '</select>';\n                    valueSelect += '<div class=\"input-group-btn\"><button type=\"button\" class=\"btn btn-success\" ng-click=\"addKeyValue()\"><i class=\"fa fa-plus\"></i></button><button type=\"button\" class=\"btn btn-danger\" ng-click=\"removeKeyValue(\\'advancedSearchKeyValuesArea_' + key + '\\')\"><i class=\"fa fa-trash\"></i></button></div>';\n                    angular.element(\"#advancedSearchKeyValueAreaValue_\" + key).html($compile(valueSelect)($scope));\n                } else if (value.key_type == 'date_entry') {\n                    //$scope.value_data['key_' + key] = null;\n                    var valueInput = '<input type=\"text\" class=\"form-control\" ng-model=\"advanced_search.value_data.key_' + key + '\" data-date-format=\"MM-dd-yyyy\" data-date-type=\"string\" data-min-date=\"02/10/86\" data-autoclose=\"1\" name=\"advanced_search.value_data.key_' + key + '\" bs-datepicker>';\n                    valueInput += '<div class=\"input-group-btn\"><button type=\"button\" class=\"btn btn-success\" ng-click=\"addKeyValue()\"><i class=\"fa fa-plus\"></i></button><button type=\"button\" class=\"btn btn-danger\" ng-click=\"removeKeyValue(\\'advancedSearchKeyValuesArea_' + key + '\\')\"><i class=\"fa fa-trash\"></i></button></div>';\n                    angular.element(\"#advancedSearchKeyValueAreaValue_\" + key).html($compile(valueInput)($scope));\n                } else if (value.key_type == 'time_entry') {\n                    //$scope.value_data['key_' + key] = null;\n                    var valueInput = '<input type=\"text\" data-time-type=\"string\" data-time-format=\"HH:mm\" data-length=\"1\" data-minute-step=\"1\" class=\"form-control\" ng-model=\"advanced_search.value_data.key_' + key + '\"  name=\"value_data.key_' + key + '\" bs-timepicker data-arrow-behavior=\"picker\" data-autoclose=\"1\">';\n                    valueInput += '<div class=\"input-group-btn\"><button type=\"button\" class=\"btn btn-success\" ng-click=\"addKeyValue()\"><i class=\"fa fa-plus\"></i></button><button type=\"button\" class=\"btn btn-danger\" ng-click=\"removeKeyValue(\\'advancedSearchKeyValuesArea_' + key + '\\')\"><i class=\"fa fa-trash\"></i></button></div>';\n                    angular.element(\"#advancedSearchKeyValueAreaValue_\" + key).html($compile(valueInput)($scope));\n\n                } else if (value.key_type == 'number_entry') {\n                    //$scope.value_data['key_' + key] = null;\n                    var valueInput = '<input type=\"number\" class=\"form-control\" ng-model=\"advanced_search.value_data.key_' + key + '\">';\n                    valueInput += '<div class=\"input-group-btn\"><button type=\"button\" class=\"btn btn-success\" ng-click=\"addKeyValue()\"><i class=\"fa fa-plus\"></i></button><button type=\"button\" class=\"btn btn-danger\" ng-click=\"removeKeyValue(\\'advancedSearchKeyValuesArea_' + key + '\\')\"><i class=\"fa fa-trash\"></i></button></div>';\n                    angular.element(\"#advancedSearchKeyValueAreaValue_\" + key).html($compile(valueInput)($scope));\n\n                } else {\n                    var valueInput = '<input type=\"text\"  placeholder=\"Enter value\" class=\"form-control\" ng-model=\"advanced_search.value_data.key_' + key + '\">';\n                    valueInput += '<div class=\"input-group-btn\"><button type=\"button\" class=\"btn btn-success\" ng-click=\"addKeyValue()\"><i class=\"fa fa-plus\"></i></button><button type=\"button\" class=\"btn btn-danger\" ng-click=\"removeKeyValue(\\'advancedSearchKeyValuesArea_' + key + '\\')\"><i class=\"fa fa-trash\"></i></button></div>';\n                    angular.element(\"#advancedSearchKeyValueAreaValue_\" + key).html($compile(valueInput)($scope));\n                }\n            }\n        });\n\n    };\n\n    $scope.removeKeyValue = function (keyValueArea) {\n        angular.element(\"#\" + keyValueArea).remove();\n        var keyArray = keyValueArea.split('_');\n        delete $scope.advanced_search.key_data['key_' + keyArray[1]];\n        delete $scope.advanced_search.value_data['key_' + keyArray[1]];\n        if (angular.element(\".advanced-search-key-values-area\").length == 0)\n        {\n            $scope.advanced_search.totalKeyArea = 1;\n            $scope.advanced_search.key_data = {};\n            $scope.advanced_search.value_data = {};\n            var newKeyAreaHtml = $scope.generateKeyValue($scope.advanced_search.totalKeyArea);\n            angular.element(\"#advancedSearchKeyValuesAreaId\").append($compile(newKeyAreaHtml)($scope));\n        }\n\n    };\n\n    $scope.generateKeyValue = function (key) {\n        var keySelect = '<div class=\"form-group\"><div class=\"row advanced-search-key-values-area\" id=\"advancedSearchKeyValuesArea_' + key + '\">';\n        keySelect += '<div class=\"col-sm-6\"><label for=\"metadataValue\">Key</label><select style=\"width:100%\" ng-change=\"onChangeKeyUpdateValue(\\'' + key + '\\')\" ui-select2 ng-model=\"advanced_search.key_data.key_' + key + '\" data-placeholder=\"Select a Key\">';\n        keySelect += $scope.keyOptions + '</select></div>';\n        keySelect += '<div class=\"col-sm-6\"><label for=\"metadataValue\">Value</label><div class=\"input-group adv-input-group\" id=\"advancedSearchKeyValueAreaValue_' + key + '\"><input type=\"text\" class=\"form-control\" ng-model=\"advanced_search.value_data.key_' + key + '\" placeholder=\"Enter value\"><div class=\"input-group-btn\"><button type=\"button\" class=\"btn btn-success\" ng-click=\"addKeyValue()\"><i class=\"fa fa-plus\"></i></button><button type=\"button\" class=\"btn btn-danger\" ng-click=\"removeKeyValue(\\'advancedSearchKeyValuesArea_' + key + '\\')\"><i class=\"fa fa-trash\"></i></button></div></div></div>';        \n        return keySelect;\n    };\n\n    $scope.applyAdvancedSearch = function () {\n        $scope.advanced_search.heading = 'Advanced Search Result:';\n        $scope.advanced_search.enableSearch = true;\n        $scope.advanced_search.active = true;\n        $scope.advanced_search.isCollapsed = false;\n        //Set the pagination           \n        if($scope.pageNumber>1){ $scope.setCurrentPageNumber(1); }\n        else{$scope.getAssets(1);}\n    };\n\n    $scope.clearSearch = function () {\n        $scope.advanced_search.active = false;\n        $scope.search_text = '';\n        $scope.advanced_search.enableSearch = false;\n        $scope.searchModel = {\n            \"search_text\": ''\n        };\n        $scope.applyAdvancedClear();\n        //Set the pagination   \n        if($scope.pageNumber>1){ $scope.setCurrentPageNumber(1); }\n        else{$scope.getAssets(1);}\n    };\n\n    $scope.toggleAdvanceSearch = function () {\n        if ($scope.advanced_search.isCollapsed) {\n            $scope.advanced_search.isCollapsed = false;\n            if (htmlEditor.advanced_search.active) {\n                $scope.advanced_search.enableSearch = true;\n            }\n        } else {\n            $scope.advanced_search.isCollapsed = true;\n            $scope.advanced_search.enableSearch = false;\n        }\n    };\n\n    $scope.applyAdvancedClear = function () {\n        $scope.advanced_search.totalKeyArea = $scope.advanced_search.totalKeyArea + 1;\n        var newKeyAreaHtml = $scope.generateKeyValue($scope.advanced_search.totalKeyArea);\n        angular.element(\"#advancedSearchKeyValuesAreaId\").html($compile(newKeyAreaHtml)($scope));\n        $scope.advanced_search.tagValue = [];\n        $scope.advanced_search.ownerValue = [];\n        $scope.advanced_search.title = '';\n        $scope.advanced_search.key_data = {};\n        $scope.advanced_search.value_data = {};\n        ivhTreeviewMgr.deselectAll($scope.advanced_search.taxonomy);\n    };\n\n    $scope.generateAdvanceSearchTerm = function () {\n        var searchTerm = [];\n        var tagList = $scope.advanced_search.tagValue;\n        if (tagList.length > 0) {\n            angular.forEach(tagList, function (tag) {\n                searchTerm.push(tag.text);\n            });\n        }\n        var ownerList = $scope.advanced_search.ownerValue;\n        if (ownerList.length > 0) {\n            angular.forEach(ownerList, function (owner) {\n                searchTerm.push(owner.text);\n            });\n        }\n        var taxonomyList = $scope.selectedTaxonomy;\n        if (taxonomyList.length > 0) {\n            angular.forEach(taxonomyList, function (taxonomy) {\n                searchTerm.push(taxonomy);\n            });\n        }\n\n        if ($scope.advanced_search.title != '') {\n            searchTerm.push($scope.advanced_search.title);\n        }\n\n    };\n\n    $scope.selectedTaxonomy = [];\n    $scope.selectedTaxonomyIds = [];\n\n    $scope.$watch('advanced_search.taxonomy', function (newValues) {\n        $scope.selectedTaxonomy.length = 0;\n        $scope.selectedTaxonomyIds.length = 0;\n        angular.forEach(newValues, function (item) {\n            if (item.selected == true) {\n                $scope.selectedTaxonomy.push(item.title);\n                $scope.selectedTaxonomyIds.push(item.id);\n            }\n        });\n    }, true);\n    \n});\n\napp.controller('ModalVideoPreviewController', function ($scope, $sce, $modalInstance, assetService, datasetService, project_id, modalFormTitle, video_id, $compile) {\n    $scope.modalFormTitle = modalFormTitle;\n    $scope.project_id = project_id;\n    $scope.video_id = video_id;\n    $scope.trustSrc = function (src) {\n        return $sce.trustAsResourceUrl(src);\n    };\n    //$scope.url = {src: 'https://players.brightcove.net/2402232200001/default_default/index.html?videoId=' + video_id};\n    $scope.url = {src: bright_cove_url + video_id};\n    $scope.cancel = function () {\n        $modalInstance.dismiss('cancel');\n    };\n});\n\n\n",
          "comment" : ""
        },
        "redirectURL" : "",
        "headersSize" : 203,
        "bodySize" : 48731,
        "comment" : ""
      },
      "cache" : { },
      "timings" : {
        "comment" : "",
        "connect" : 1617,
        "ssl" : -1,
        "send" : 0,
        "wait" : 0,
        "dns" : -1,
        "blocked" : -1,
        "receive" : 0
      },
      "comment" : "",
      "_katalonRequestInformation" : {
        "name" : "110",
        "testObjectId" : "Temporary RESTful request object",
        "harId" : "bdebdf92-faaa-4055-b2e2-c6ea3ac6c838"
      },
      "time" : 1617
    } ],
    "comment" : ""
  }
}