{
  "log" : {
    "version" : "1.2",
    "pages" : [ ],
    "entries" : [ {
      "startedDateTime" : "2019-07-12T07:14:33.265Z",
      "request" : {
        "method" : "GET",
        "url" : "https://frostedc-stg.learningmate.com/js/assignment/assignmentController.js",
        "httpVersion" : "",
        "cookies" : [ ],
        "headers" : [ ],
        "queryString" : [ ],
        "headersSize" : 0,
        "bodySize" : 0,
        "comment" : ""
      },
      "response" : {
        "status" : 200,
        "statusText" : "",
        "httpVersion" : "",
        "cookies" : [ ],
        "headers" : [ {
          "name" : "Accept-Ranges",
          "value" : "bytes"
        }, {
          "name" : null,
          "value" : "HTTP/1.1 200 OK"
        }, {
          "name" : "Server",
          "value" : "nginx/1.13.5"
        }, {
          "name" : "ETag",
          "value" : "\"5d25bc3a-1212d\""
        }, {
          "name" : "Connection",
          "value" : "keep-alive"
        }, {
          "name" : "Last-Modified",
          "value" : "Wed, 10 Jul 2019 10:21:46 GMT"
        }, {
          "name" : "Content-Length",
          "value" : "74029"
        }, {
          "name" : "Date",
          "value" : "Fri, 12 Jul 2019 07:16:03 GMT"
        }, {
          "name" : "Content-Type",
          "value" : "application/javascript"
        } ],
        "content" : {
          "size" : 74029,
          "mimeType" : "application/javascript",
          "text" : "/*****\n * Controller for project\n * Author1 - Rahul singh\n * Author2 - Lucky Chowdhury @ add/edit/delete assignment\n */\n\n'use strict';\napp.controller('assignment', ['$scope', '$http', 'sessionService', '$location', 'objectService', 'assignmentService', 'paginationService', '$rootScope', '$modal', '$log', 'SweetAlert', '$routeParams', '$filter', function($scope, $http, sessionService, $location, objectService, assignmentService, paginationService, $rootScope, $modal, $log, SweetAlert, $routeParams, $filter) {\n\n    $scope.access_token = sessionService.get('access_token');\n    $scope.addAssignment = false;\n    $scope.user_permissions = JSON.parse(sessionService.get('user_permissions'));\n    var userinfo = JSON.parse(sessionService.get('userinfo'));\n    $scope.project_id = $routeParams.project_id;\n    $scope.project_type_id = 4;\n    //Check if the session is active\n    $rootScope.checkActiveSession();\n    if (!$scope.access_token || userinfo == null) {\n        $location.path('logout');\n        return true;\n    }\n    $scope.show_make_global = false;\n    $scope.project_name = '';\n    $scope.formError = {};\n    $scope.currentOrderByField = 'created_at';\n    $scope.reverseSort = true;\n    $scope.project_theme_style = '';\n\n    $scope.getProject = function() {\n        if ($scope.project_id != '') {\n            objectService.getProjectDetails($scope).then(function(data) {\n                if (data == null || (angular.isDefined(data.is_global_project) && data.is_global_project == true)) {\n                    $location.path(\"edit_toc/\" + $scope.project_id);\n                } else if (angular.isObject(data)) {\n                    $scope.project_theme_style = data.theme_location[0];\n                    $scope.project_name = data.name;\n                    $scope.project = data;\n                    $scope.applyPermission = 1;\n                    $scope.project.project_permissions = data.project_permissions;\n                }\n            });\n        }\n    }\n    $scope.getProject();\n\n    $scope.assignment_local_global = {};\n    $scope.assignment_local_global.local = true;\n    $scope.assignment_local_global.global = false;\n\n    $scope.pageNumber = 1;\n    $scope.itemsPerPage = 25;\n    $scope.currentPage = 1;\n    $scope.assignmentsTotal = 0;\n    $scope.paginationText;\n    var max;\n    $scope.listAssignments = function(pageNumber, items_per_page_param) {\n        $scope.currentPage = pageNumber;\n        $scope.pageNumber = pageNumber;\n        if (items_per_page_param) {\n            $scope.itemsPerPage = items_per_page_param;\n        }\n        assignmentService.getAssignments($scope, $scope.project_id).then(function(data) {\n            $scope.assignmentList = {};\n            $scope.assignmentsTotal = '';\n            if (data.status == 200) {\n                $scope.assignmentList = data.data.assignment_list;\n                $scope.assignmentsTotal = data.data.total;\n                if (pageNumber == 1) {\n                    max = $scope.itemsPerPage > $scope.assignmentsTotal ? $scope.assignmentsTotal : $scope.itemsPerPage;\n                    $scope.paginationText = \"1 to \" + max;\n                } else {\n                    max = ((($scope.itemsPerPage * (pageNumber - 1)) + 1) + $scope.itemsPerPage) > $scope.assignmentsTotal ? $scope.assignmentsTotal : (($scope.itemsPerPage * (pageNumber - 1)) + 1) + $scope.itemsPerPage;\n                    $scope.paginationText = (($scope.itemsPerPage * (pageNumber - 1)) + 1) + \" to \" + max;\n                }\n            }\n        });\n    };\n    $scope.listAssignments(1);\n\n    $scope.applySorting = function(field) {\n        if ($scope.currentOrderByField != field) {\n            $scope.reverseSort = false;\n        } else {\n            if ($scope.reverseSort) {\n                $scope.reverseSort = false;\n            } else {\n                $scope.reverseSort = true;\n            }\n        }\n        $scope.currentOrderByField = field;\n        $scope.listAssignments(1);\n    };\n    \n$scope.checkAssignmentGradePointsZero= function(val){\n        //alert(val);\n    var key = val;\n    if(key === 0 || key === undefined){\n    $scope.formData.assignment_grade_points = 1;    \n    console.log($scope.formData.assignment_grade_points);\n    event.preventDefault();\n    }\n};\n\n    //For Pagination Of Dashboard\n    $scope.pageChangeHandlerAssignment = function(newPage) {\n        $scope.assignment_id = '';\n        $scope.listAssignments(newPage);\n    };\n\n    $scope.addForm = function(size) {\n        //$scope.child = child;\n        //$scope.addAssignment = true;\n        $scope.show_make_global = false;\n        $scope.showAdd = true;\n        $scope.showEdit = false;\n        var modalInstance = $modal.open({\n            templateUrl: 'templates/assignment/assignmentModalContent.html',\n            controller: 'ModalInstanceAssignmentCtrl',\n            size: size,\n            backdrop: 'static',\n            keyboard: false,\n            resolve: {\n                assignmentRec: function() {\n                    return '';\n                },\n                modalFormText: function() {\n                    return \"You are trying to add a new assignment\";\n                },\n                modalFormTile: function() {\n                    return \"Add Assignment\";\n                },\n                project_id: function() {\n                    return $scope.project_id;\n                },\n                project_permissions: function() {\n                    return $scope.project.project_permissions;\n                },\n                project_theme: function() {\n                    return $scope.project.theme;\n                },\n                show_make_global: function() {\n                    return $scope.show_make_global;\n                }\n            }\n        });\n        modalInstance.result.then(function() {\n            //Saving TOC\n            //$scope.addAssignment = false;\n            $scope.assignment_id = '';\n            $scope.listAssignments(1);\n            /*assignmentService.getAssignments($scope, $scope.project_id).then(function (data) {\n                $scope.assignmentList = data.data.assignment_list;\n                $scope.assignmentsTotal = data.data.total;\n                $scope.listAssignments(1);\n            });*/\n        }, function() {\n            //$scope.addAssignment = false;\n            $log.info('Modal dismissed at: ' + new Date());\n        });\n    };\n    $scope.addAssestModal = function(flag) {\n        $scope.currentCkInstance = CKEDITOR.currentInstance;\n        $scope.add_media_button = true;\n        var size = 'lg';\n        var modal_form_title = 'Asset Library';\n        var modalInstance = $modal.open({\n            templateUrl: 'templates/assignment/externalResourceModal.html',\n            controller: 'ModalAssignmentAssetsCtrl',\n            size: size,\n            scope: $scope,\n            backdrop: 'static',\n            keyboard: false,\n            resolve: {\n                modalFormTitle: function() {\n                    return modal_form_title;\n                },\n                project_id: function() {\n                    return $scope.project_id;\n                },\n                ext_res_url: function() {\n                    return $scope.ext_res_url;\n                },\n                ext_res_title: function() {\n                    return angular.element('#ext_res_title').val();\n                },\n                ext_res_type: function() {\n                    return angular.element('#ext_res_type').val();\n                },\n                flag: function() {\n                    return flag;\n                }\n            }\n        });\n        modalInstance.result.then(function(modalCloseParameter) {\n            // modalCloseParameter\n            $scope.add_media_button = false;\n            if (modalCloseParameter != null) {\n                $scope.ext_res_url = modalCloseParameter.ext_res_location;\n                $scope.ext_res_title = modalCloseParameter.ext_res_title;\n                $scope.ext_res_type = modalCloseParameter.ext_res_type;\n                angular.element('#ext_res_url').val($scope.ext_res_url);\n                angular.element('#ext_res_title').val($scope.ext_res_title);\n                angular.element('#ext_res_type').val($scope.ext_res_type);\n                angular.element('#ext_res_width').val('');\n                angular.element('#ext_res_height').val('');\n                $scope.ext_res_title_id = '';\n                $scope.ext_res_width = '';\n                $scope.ext_res_height = '';\n                angular.element('#media_type').val('assets');\n                if ($scope.ext_res_type == 'image' || $scope.ext_res_type == 'Image') {\n                    $scope.ext_ico_block = true;\n                } else {\n                    $scope.ext_ico_block = false;\n                }\n                $scope.add_media_button = false;\n            }\n        }, function() {\n            $scope.add_media_button = false;\n            $log.info('Modal dismissed at: ' + new Date());\n        });\n    };\n\n    $scope.bindEvent = function(elem) {\n        $scope.elem = elem;\n        var modalInstance = $modal.open({\n            template: '<div class=\"modal-header\" style=\"background:white\"><h4 class=\"modal-title\" id=\"myModalLabel\">Configure Image</h4></div><div class=\"modal-body\"  style=\"background:white\"><form class=\"\"><div class=\"row\"><div class=\"col-sm-5\"><div class=\"form-group\"><label class=\"control-label\" for=\"width\">Width:</label><input type=\"number\" ng-model=\"imgWidth\" ng-change=\"adjustAspectRatio(this)\" class=\"form-control\" id=\"width\" placeholder=\"Enter width\"></div></div><div class=\"col-sm-5\"><div class=\"form-group\"><label class=\"control-label\" for=\"height\">Height:</label><input type=\"number\" ng-change=\"adjustAspectRatio(this)\" class=\"form-control\" ng-model=\"imgHeight\" id=\"height\" placeholder=\"Enter height\"></div></div><div class=\"col-sm-2\"><div class=\"form-group\"><label class=\"control-label\"></label><div style=\"margin-top: 5px;\"><button ng-click=\"resetImageSize()\" class=\"btn btn-default\"><i class=\"fa fa-refresh\" aria-hidden=\"true\"></i></button></div></div></div><div class=\"col-sm-12\"><div class=\"form-group\"><label class=\"control-label\" for=\"height\">Alt Text:</label><input type=\"text\"  class=\"form-control\" ng-model=\"altText\" id=\"height\" placeholder=\"Enter alternative text\"></div><div class=\"col-sm-12\"><div class=\"form-group\"><div><label class=\"control-label\" for=\"height\">Alignment:</label></div><label class=\"radio-inline\"><input type=\"radio\" name=\"inlineRadioOptions\" alignImg=\"none\" class=\"configRad\"   id=\"inlineRadio1\" checked value=\"option1\">None</label><label class=\"radio-inline\"><input type=\"radio\" name=\"inlineRadioOptions\" alignImg=\"left\" class=\"configRad\" id=\"inlineRadio2\" value=\"option2\">Left </label><label class=\"radio-inline\"><input type=\"radio\" name=\"inlineRadioOptions\" alignImg=\"center\" class=\"configRad\"  id=\"inlineRadio3\" value=\"option3\">Center </label><label class=\"radio-inline\"><input type=\"radio\" name=\"inlineRadioOptions\" alignImg=\"right\" class=\"configRad\"  id=\"inlineRadio4\" value=\"option4\">Right </label></div></div></div></form></div><div class=\"modal-footer\"><div class=\"row\"><div class=\"col-sm-4 text-left\"><button ng-click=\"deleteImg()\" class=\"btn btn-default\">Delete image</button></div><div class=\"col-sm-8 text-right\"><button type=\"button\" class=\"btn btn-default\" ng-click=\"dismissModal()\" data-dismiss=\"modal\">Cancel</button><button ng-click=\"ConfigureImg()\" class=\"btn btn-primary\">Submit</button></div></div></div>',\n            backdrop: 'static',\n            controller: 'ckImgController',\n            scope: $scope,\n            keyboard: false,\n            resolve: {\n                elem: function() {\n                    return $scope.elem;\n                }\n            }\n        });\n        modalInstance.result.then(function(params) {\n            var height = params.height;\n            var width = params.width;\n            var altText = params.altText;\n            var radChecked = params.checked;\n            $(params.elem.currentTarget).attr('height', height).attr('width', width).attr('alt', altText).attr('radChecked', radChecked);\n        }, function() {\n            $log.info('Modal dismissed at: ' + new Date());\n        });\n    };\n\n    $scope.jsRegisterer = function(elem) {\n        $(elem).off().on('dblclick click', $scope.bindEvent.bind(this));\n    };\n\n    $scope.openAssignmentEditModal = function(size, assignment_id) {\n        var assignmentRec = {};\n        $scope.assignment_id = assignment_id;\n        $scope.show_make_global = true;\n        //angular.element('#editAssignment' + id).attr('disabled', 'disabled');\n        assignmentService.getAssignmentDetailsById($scope, $scope.assignment_id).then(function(data) {\n            var assignmentTitle = data.data.title;\n            assignmentRec = data.data;\n            var modalInstance = $modal.open({\n                templateUrl: 'templates/assignment/assignmentModalContent.html',\n                controller: 'ModalInstanceAssignmentCtrl',\n                size: size,\n                backdrop: 'static',\n                keyboard: false,\n                resolve: {\n                    assignmentRec: function() {\n                        return assignmentRec;\n                    },\n                    modalFormText: function() {\n                        return \"You are trying to edit assignment [\" + $filter('strLimit')(assignmentTitle, 20) + \"]\";\n                    },\n                    modalFormTile: function() {\n                        return \"Edit Assignment\";\n                    },\n                    project_id: function() {\n                        return $scope.project_id;\n                    },\n                    project_permissions: function() {\n                        return $scope.project.project_permissions;\n                    },\n                    project_theme: function() {\n                        return $scope.project.theme;\n                    },\n                    show_make_global: function() {\n                        return $scope.show_make_global;\n                    }\n                }\n            });\n            modalInstance.result.then(function() {\n                $scope.assignment_id = '';\n                assignmentService.getAssignments($scope, $scope.project_id).then(function(data) {\n                    $scope.assignmentList = data.data.assignment_list;\n                    $scope.assignmentsTotal = data.data.total;\n                });\n            }, function() {\n                angular.element('#editAssignment' + assignment_id).removeAttr('disabled');\n                $log.info('Modal dismissed at: ' + new Date());\n            });\n\n        });\n    };\n\n    $scope.preview_button_disabled = false;\n    $scope.previewAssignment = function(assignment_id) {\n        $scope.preview_button_disabled = true;\n        var size = 'lg';\n        var modal_form_title = 'Assignment Preview';\n        var modalInstance = $modal.open({\n            templateUrl: 'templates/assignment/previewModal.html',\n            controller: 'ModalAssignmentPreviewCtrl',\n            size: size,\n            backdrop: 'static',\n            keyboard: false,\n            resolve: {\n                modalFormTitle: function() {\n                    return modal_form_title;\n                },\n                modalFormText: function() {\n                    return \"You are trying to view details of assignment\";\n                },\n                assignment_id: function() {\n                    return assignment_id;\n                },\n                project_id: function() {\n                    return $scope.project_id;\n                },\n                project_type_id: function() {\n                    return $scope.project_type_id;\n                },\n                entity_type_id: function() {\n                    return 2;\n                },\n                project_theme_style: function() {\n                    return $scope.project_theme_style;\n                }\n            }\n        });\n        modalInstance.result.then(function(modalCloseParameter) {\n            $scope.preview_button_disabled = false;\n        }, function() {\n            $scope.preview_button_disabled = false;\n            $log.info('Modal dismissed at: ' + new Date());\n        });\n    };\n\n    $scope.deleteAssignment = function(assignment_id, currentPage) {\n        SweetAlert.swal({\n            title: \"Are you sure?\",\n            text: \"You will not be able to recover this assignment!\",\n            type: \"warning\",\n            showCancelButton: true,\n            confirmButtonColor: \"#DD6B55\",\n            confirmButtonText: \"Yes, delete it!\",\n            cancelButtonText: \"No, cancel!\",\n            closeOnConfirm: false,\n            closeOnCancel: false\n        }, function(isConfirm) {\n            if (isConfirm) {\n                assignmentService.delAssignment(assignment_id, project_id).then(function(data) {\n                    if (data.status == 200) {\n                        $scope.listAssignments(currentPage);\n                        SweetAlert.swal(\"Success\", \"Assignment has been deleted\", \"success\");\n                    } else {\n                        SweetAlert.swal({\n                            title: \"Cancelled\",\n                            html: data.message,\n                            type: \"error\",\n                        });\n                    }\n                });\n\n            } else {\n                SweetAlert.swal(\"Cancelled\", \"Assignment is safe :)\", \"error\");\n            }\n        });\n    };\n\n}]);\n\napp.controller('ModalInstanceAssignmentCtrl', function($scope, $location, assignmentService, assetService, sessionService, SweetAlert, $modal, $modalInstance, modalFormText, modalFormTile, assignmentRec, project_id, project_permissions, project_theme, show_make_global, $filter, $compile, ivhTreeviewMgr, tagService, keyValueService, taxonomyService) {\n    $scope.showAdd = true;\n    $scope.showEdit = false;\n    $scope.modalFormText = modalFormText;\n    $scope.modalFormTile = modalFormTile;\n    $scope.project_id = project_id;\n    $scope.user_permissions = JSON.parse(sessionService.get('user_permissions'));\n    $scope.project = { 'project_permissions': project_permissions };\n    $scope.pattern_classes = [{ value: '' }];\n    $scope.project_theme = project_theme;\n    $scope.formData = {};\n    $scope.formData.formError = { 'assignment_type': '', 'assignment_title': '', 'assignment_description': '' };\n    $scope.formData.assignment_title = '';\n    $scope.formData.assignment_type = '';\n    $scope.formData.assignment_description = '';\n    $scope.formData.assignment_asset_link = '';\n    $scope.formData.assignment_asset_name = '';\n    $scope.formData.assignment_asset_id = '';\n    $scope.formData.assignment_gradable = '';\n    $scope.formData.assignment_grade_points = '';\n    $scope.formData.assignment_grade_category = '';\n    $scope.formData.assignment_grade_type = 'Points';\n    $scope.lms_settings = ''\n    $scope.grade_settings = 0;\n    $scope.additional_asset_name = ''\n    $scope.additional_asset_link = '';\n    $scope.additional_asset_id = '';\n    $scope.additional_asset_type = '';\n    $scope.formData.assignment_asset_id = '';\n    $scope.formData.assignment_asset_link = '';\n    $scope.additional_asset_link = '';\n\n    $scope.makeAssignmentGradable = function() {\n        if ($scope.formData.assignment_gradable) {\n            $scope.grade_settings = 1;\n        } else {\n            $scope.grade_settings = 0;\n        }\n    };\n    $scope.checkAssignmentGradePointsZero= function(val){\n        //alert(val);\n    var key = val;\n    if(key === 0 || key === undefined){\n    $scope.formData.assignment_grade_points = 1;    \n    console.log($scope.formData.assignment_grade_points);\n    event.preventDefault();\n    }\n};\n    $scope.addAssestModal = function() {\n        var size = 'lg';\n        var modal_form_title = 'Asset Library';\n        var modalInstance = $modal.open({\n            templateUrl: 'templates/assignment/externalResourceModal.html',\n            controller: 'ModalAssignmentAssetsCtrl',\n            size: size,\n            backdrop: 'static',\n            keyboard: false,\n            resolve: {\n                modalFormTitle: function() {\n                    return modal_form_title;\n                },\n                project_id: function() {\n                    return $scope.project_id;\n                },\n                ext_res_url: function() {\n                    return $scope.ext_res_url;\n                },\n                ext_res_title: function() {\n                    return false;\n                },\n                ext_res_type: function() {\n                    return false;\n                },\n                flag: function() {\n                    return false;\n                },\n                from_global_repo: function() {\n                    return false;\n                }\n            }\n        });\n\n        modalInstance.result.then(function(modalCloseParameter) {\n            //console.log(modalCloseParameter);\n            $scope.additional_asset_link = modalCloseParameter.ext_res_location;\n            $scope.additional_asset_name = modalCloseParameter.ext_res_title;\n            $scope.additional_asset_id = modalCloseParameter.asset_id;\n            $scope.additional_asset_type = modalCloseParameter.ext_res_type;\n            $scope.formData.assignment_asset_link = $scope.additional_asset_link;\n            $scope.formData.assignment_asset_id = $scope.additional_asset_id;\n            //$scope.set_asset_thumbnail();\n        });\n    };\n    $scope.deleteAsset = function() {\n        $scope.additional_asset_link = '';\n        $scope.assignment_asset_name = '';\n        $scope.additional_asset_id = '';\n        $scope.additional_asset_type = '';\n        $scope.formData.assignment_asset_link = '';\n        $scope.formData.assignment_asset_id = '';\n    };\n    $scope.set_asset_thumbnail = function() {\n            $scope.additional_asset_type = '';\n            $scope.additional_asset_name = '';\n            if (angular.isDefined($scope.additional_asset_link) && $scope.additional_asset_link != '') {\n                var pp = $scope.additional_asset_link.split('/');\n                if (angular.isDefined(pp[6]) && pp[6] != '') {\n                    assetService.getAssetById(pp[6]).then(function(data) {\n                        //console.log(data.data);\n                        $scope.additional_asset_type = data.data.object_type_name;\n                        $scope.additional_asset_name = data.data.name;\n                    });\n                }\n            }\n        }\n        //$scope.$flow.defaults.flowRepoDir = 'assignment';\n\n    /*$scope.uploader = {\n        controllerFn: function ($flow, $file, $message) {\n            //$scope.setCurrentPageNumber(1);\n            $file.msg = $message; // Just display message for a convenience\n\n            var response = JSON.parse($message); // get the location\n            var location = response.asset_location;\n            $scope.formData.assignment_additional_files=location;\n            $(\".assignmentAdditionalFilesLoc\").html(location);\n\n            if ($file.size == 0) {\n                $scope.fileUploadMessage += '<p style=\"text-align:left\">' + $scope.MsgCounter + '. File <span style=\"word-wrap: break-word;\">' + $file.name + '<span> should have some content' + '</p>';\n                $scope.MsgCounter = $scope.MsgCounter + 1;\n            } else {\n                if ($file.msg.split(':')[0] == 'Error') {\n                    $scope.fileUploadMessage += '<p style=\"text-align:left\">' + $scope.MsgCounter + '. ' + $file.msg.substring($file.msg.indexOf(':') + 1) + ' for <span style=\"word-wrap: break-word;\">' + $file.name + '<span></p>';\n                    $scope.MsgCounter = $scope.MsgCounter + 1;\n                } else {\n                    $scope.SuccessMsgCounter = $scope.SuccessMsgCounter + 1;\n                }\n            }\n            scopecounter = scopecounter + 1;\n            if ($flow.files.length === scopecounter) {\n                if ($scope.SuccessMsgCounter > 0) {\n                    if ($scope.MsgCounter === 1) {\n                        $scope.HtmlSuccess = '<p>';\n                    } else {\n                        $scope.HtmlSuccess = '<p style=\"text-align:left\">' + $scope.MsgCounter + '. ';\n                    }\n                    $scope.fileUploadMessage += $scope.HtmlSuccess + $scope.SuccessMsgCounter + ' file(s) uploaded successfully</p>';\n                }\n                SweetAlert.swal({html: $scope.fileUploadMessage, width: 540, type: \"warning\"});\n                $flow.files.length = 0;\n                scopecounter = 0;\n                $scope.fileUploadMessage = '';\n                $scope.MsgCounter = 1;\n                $scope.SuccessMsgCounter = 0;\n            }\n        }\n    };\n\n    $scope.getResponse = function(fl, file, result) {\n        var response = JSON.parse(result);\n        var location = response.asset_location\n        console.log('============'+ location);\n    }*/\n\n    //For Assignment Edit\n    if (!angular.isUndefined(assignmentRec.id)) {\n        $scope.showAdd = false;\n        $scope.showEdit = true;\n        $scope.formData.assignment_id = assignmentRec.id;\n        $scope.formData.assignment_title = assignmentRec.title;\n        $scope.formData.assignment_type = assignmentRec.type;\n        $scope.formData.assignment_description = assignmentRec.description;\n        $scope.lms_settings = JSON.parse(assignmentRec.lms_settings);\n        if ($scope.lms_settings) {\n            $scope.formData.assignment_gradable = (angular.isUndefined($scope.lms_settings.gradable) ? '' : $scope.lms_settings.gradable);\n            $scope.formData.assignment_grade_points = (angular.isUndefined($scope.lms_settings.grade_points) ? '' : parseInt($scope.lms_settings.grade_points));\n            $scope.formData.assignment_grade_category = (angular.isUndefined($scope.lms_settings.grade_category) ? '' : $scope.lms_settings.grade_category);\n            $scope.formData.assignment_grade_type = (angular.isUndefined($scope.lms_settings.grade_type) ? '' : ($scope.lms_settings.grade_type == '') ? 'Points' : $scope.lms_settings.grade_type);\n            //if(!$scope.formData.assignment_grade_type){$scope.formData.assignment_grade_type=\"Points\";}\n        }\n        // Additional Files settings\n        $scope.additional_files = JSON.parse(assignmentRec.additional_files);\n        if ($scope.additional_files) {\n            $scope.formData.assignment_asset_id = (angular.isUndefined($scope.additional_files.asset_id) ? '' : $scope.additional_files.asset_id);\n            $scope.formData.assignment_asset_link = (angular.isUndefined($scope.additional_files.asset_link) ? '' : $scope.additional_files.asset_link);\n            $scope.additional_asset_link = $scope.formData.assignment_asset_link;\n            $scope.set_asset_thumbnail();\n            $scope.makeAssignmentGradable();\n        }\n\n    }\n\n    /******* for MetaData start**********/\n    $scope.key_data = {};\n    $scope.value_data = {};\n    $scope.totalKeyArea = 0;\n    $scope.taxonomy = [];\n    $scope.tplFolderOpen = '<span class=\"twistie glyphicon glyphicon-folder-open\"></span>&nbsp;&nbsp;';\n    $scope.tplFolderClose = '<span class=\"twistie glyphicon glyphicon-folder-close\"></span>&nbsp;&nbsp;';\n    $scope.tplLeaf = '<span class=\"twistie glyphicon glyphicon-book\"></span>&nbsp;&nbsp;';\n    $scope.metadata = {};\n    if (project_permissions['tag.apply'].grant) {\n        $scope.applyMetadata = 1;\n    } else {\n        $scope.applyMetadata = 0;\n    }\n\n    // taxonomy\n    $scope.taxonomyStatus = 1001;\n    taxonomyService.getTaxonomy($scope, $scope.formData.assignment_id).then(function(data) {\n        if (data.status == 200) {\n            if (data.data != null && angular.isDefined(data.data.children)) {\n                $scope.taxonomy = data.data.children;\n                $scope.findSelectedTaxonomy({ children: $scope.taxonomy });\n            }\n        }\n        if (data.count === 0) {\n            setTimeout(function() {\n                angular.element('#taxonomyStatus').html('No active taxonomy available in the management');\n            }, 500);\n        }\n    });\n    //This method is used to select parent indeterminately\n    $scope.findSelectedTaxonomy = function(taxonomy_arr) {\n        if (taxonomy_arr.children.length > 0) {\n            for (var i = 0; i < taxonomy_arr.children.length; i += 1) {\n                var currentChild = taxonomy_arr.children[i];\n                $scope.findSelectedTaxonomy(currentChild);\n                if (currentChild.selected == true) {\n                    //console.log(currentChild);\n                    ivhTreeviewMgr.select($scope.taxonomy, currentChild);\n                }\n            }\n        }\n    };\n    // get tags\n    var tags = [];\n    var object_tags = [];\n    $scope.tag = {\n        multiple: true,\n        data: tags\n    };\n    tagService.getTagsByObject($scope, $scope.formData.assignment_id).then(function(data) {\n        if (data.status == 200) {\n            if (data.data != null && angular.isDefined(data.data.tags)) {\n                angular.forEach(data.data.tags, function(value, key) {\n                    tags[key] = { id: value.id, text: value.text };\n                });\n                $scope.tag.data = tags;\n                if (angular.isDefined(data.data.object_tags)) {\n                    angular.forEach(data.data.object_tags, function(value, key) {\n                        object_tags[key] = { id: value.id, text: value.text };\n                    });\n                    $scope.metadata.tagValue = object_tags;\n                }\n            }\n        }\n    });\n    $scope.keyOptions = '<option value=\"\"></option>';\n    $scope.keyValueData = '';\n    // get key values\n    keyValueService.getKeyValuesByObject($scope, $scope.formData.assignment_id).then(function(data) {\n        if (data.status == 200) {\n            $scope.keyValueData = data.data;\n            if (data.data != null && angular.isDefined(data.data.key_values)) {\n                angular.forEach(data.data.key_values, function(value) {\n                    if (value.key_name != 'License Type' && value.key_name != 'License Valid Till') {\n                        $scope.keyOptions = $scope.keyOptions + '<option value=\"' + value.id + '\">' + $filter('strLimit')(value.key_name, 20) + '</option>';\n                    }\n                });\n                /*setTimeout(function () {\n                 $scope.totalKeyArea = $scope.totalKeyArea + 1;\n                 var newKeyAreaHtml = $scope.generateKeyValue($scope.totalKeyArea);\n                 angular.element(\"#keyValuesAreaId\").append($compile(newKeyAreaHtml)($scope));\n                 }, 500);*/\n            }\n\n            /*if (data.count == 0) {\n             setTimeout(function () {\n             $scope.totalKeyArea = $scope.totalKeyArea + 1;\n             var newKeyAreaHtml = $scope.generateKeyValue($scope.totalKeyArea);\n             angular.element(\"#keyValuesAreaId\").append($compile(newKeyAreaHtml)($scope));\n             }, 500);\n             }*/\n            setTimeout(function() {\n                // populate old key values\n                if (Object.keys(data.data.object_key_values).length) {\n                    angular.forEach(data.data.object_key_values, function(object_key_value) {\n                        $scope.totalKeyArea = $scope.totalKeyArea + 1;\n                        var newKeyAreaHtml = $scope.generateKeyValue($scope.totalKeyArea);\n                        $scope.key_data['key_' + $scope.totalKeyArea] = object_key_value.key_id;\n                        angular.element(\"#keyValuesAreaId\").append($compile(newKeyAreaHtml)($scope));\n                        $scope.onChangeKeyUpdateValue($scope.totalKeyArea);\n                        if (object_key_value.key_type == 'select_list') {\n                            $scope.value_data['key_' + $scope.totalKeyArea] = object_key_value.value_id;\n                        } else {\n                            if (object_key_value.key_type == 'number_entry') {\n                                $scope.value_data['key_' + $scope.totalKeyArea] = parseFloat(object_key_value.value);\n                            } else {\n                                $scope.value_data['key_' + $scope.totalKeyArea] = object_key_value.value;\n                            }\n                        }\n\n                    });\n                } else {\n                    $scope.totalKeyArea = $scope.totalKeyArea + 1;\n                    var newKeyAreaHtml = $scope.generateKeyValue($scope.totalKeyArea);\n                    angular.element(\"#keyValuesAreaId\").append($compile(newKeyAreaHtml)($scope));\n                }\n            }, 500);\n        }\n    });\n    $scope.addKeyValue = function() {\n        $scope.totalKeyArea = $scope.totalKeyArea + 1;\n        var newKeyAreaHtml = $scope.generateKeyValue($scope.totalKeyArea);\n        angular.element(\"#keyValuesAreaId\").append($compile(newKeyAreaHtml)($scope));\n    };\n    $scope.onChangeKeyUpdateValue = function(key) {\n        var keyId = $scope.key_data['key_' + key];\n        angular.forEach($scope.keyValueData.key_values, function(value) {\n            if (value.id == keyId) {\n                if (value.key_type == 'select_list') {\n                    var valueSelect = '<select style=\"width:100%\" ui-select2 ng-model=\"value_data.key_' + key + '\" data-placeholder=\"Select a Value\">';\n                    valueSelect += '<option value=\"\"></option>';\n                    angular.forEach(value.values, function(valueObj) {\n                        valueSelect += '<option value=\"' + valueObj.value_id + '\">' + $filter('strLimit')(valueObj.value, 20) + '</option>';\n                    });\n                    valueSelect += '</select>';\n                    valueSelect += '<div class=\"input-group-btn\"><button type=\"button\" class=\"btn btn-success\" ng-click=\"addKeyValue()\"><i class=\"fa fa-plus\"></i></button><button type=\"button\" class=\"btn btn-danger\" ng-click=\"removeKeyValue(\\'keyValuesArea_' + key + '\\')\"><i class=\"fa fa-trash\"></i></button></div>';\n                    angular.element(\"#keyValueAreaValue_\" + key).html($compile(valueSelect)($scope));\n                } else if (value.key_type == 'date_entry') {\n                    $scope.value_data['key_' + key] = null;\n                    var valueInput = '<input type=\"text\" class=\"form-control\" ng-keypress=\"keyPressedEvent($event)\" ng-model=\"value_data.key_' + key + '\" data-date-format=\"MM-dd-yyyy\" data-date-type=\"string\" data-min-date=\"02/10/86\" data-autoclose=\"1\" name=\"date2\" bs-datepicker>';\n                    valueInput += '<div class=\"input-group-btn\"><button type=\"button\" class=\"btn btn-success\" ng-click=\"addKeyValue()\"><i class=\"fa fa-plus\"></i></button><button type=\"button\" class=\"btn btn-danger\" ng-click=\"removeKeyValue(\\'keyValuesArea_' + key + '\\')\"><i class=\"fa fa-trash\"></i></button></div>';\n                    angular.element(\"#keyValueAreaValue_\" + key).html($compile(valueInput)($scope));\n\n                } else if (value.key_type == 'time_entry') {\n                    $scope.value_data['key_' + key] = null;\n                    var valueInput = '<input type=\"text\" ng-keypress=\"keyPressedEvent($event)\" data-time-type=\"string\" data-time-format=\"HH:mm\" data-length=\"1\" data-minute-step=\"1\" class=\"form-control\" ng-model=\"value_data.key_' + key + '\"  name=\"value_data.key_' + key + '\" bs-timepicker data-arrow-behavior=\"picker\" data-autoclose=\"1\">';\n                    valueInput += '<div class=\"input-group-btn\"><button type=\"button\" class=\"btn btn-success\" ng-click=\"addKeyValue()\"><i class=\"fa fa-plus\"></i></button><button type=\"button\" class=\"btn btn-danger\" ng-click=\"removeKeyValue(\\'keyValuesArea_' + key + '\\')\"><i class=\"fa fa-trash\"></i></button></div>';\n                    angular.element(\"#keyValueAreaValue_\" + key).html($compile(valueInput)($scope));\n\n                } else if (value.key_type == 'number_entry') {\n                    $scope.value_data['key_' + key] = null;\n                    var valueInput = '<input type=\"number\" step=\"any\" class=\"form-control\" ng-model=\"value_data.key_' + key + '\">';\n                    valueInput += '<div class=\"input-group-btn\"><button type=\"button\" class=\"btn btn-success\" ng-click=\"addKeyValue()\"><i class=\"fa fa-plus\"></i></button><button type=\"button\" class=\"btn btn-danger\" ng-click=\"removeKeyValue(\\'keyValuesArea_' + key + '\\')\"><i class=\"fa fa-trash\"></i></button></div>';\n                    angular.element(\"#keyValueAreaValue_\" + key).html($compile(valueInput)($scope));\n\n                } else {\n                    $scope.value_data['key_' + key] = null;\n                    var valueInput = '<input type=\"text\"  placeholder=\"Enter value\" class=\"form-control\" ng-model=\"value_data.key_' + key + '\">';\n                    valueInput += '<div class=\"input-group-btn\"><button type=\"button\" class=\"btn btn-success\" ng-click=\"addKeyValue()\"><i class=\"fa fa-plus\"></i></button><button type=\"button\" class=\"btn btn-danger\" ng-click=\"removeKeyValue(\\'keyValuesArea_' + key + '\\')\"><i class=\"fa fa-trash\"></i></button></div>';\n                    angular.element(\"#keyValueAreaValue_\" + key).html($compile(valueInput)($scope));\n                }\n            }\n        });\n\n    };\n\n    $scope.keyPressedEvent = function(keyEvent) {\n        keyEvent.preventDefault();\n    };\n\n    $scope.removeKeyValue = function(keyValueArea) {\n        angular.element(\"#\" + keyValueArea).remove();\n        var keyArray = keyValueArea.split('_');\n        delete $scope.key_data['key_' + keyArray[1]];\n        delete $scope.value_data['key_' + keyArray[1]];\n        if (angular.element(\".key-values-area\").length == 0) {\n            $scope.totalKeyArea = 1;\n            $scope.key_data = {};\n            $scope.value_data = {};\n            var newKeyAreaHtml = $scope.generateKeyValue($scope.totalKeyArea);\n            angular.element(\"#keyValuesAreaId\").append($compile(newKeyAreaHtml)($scope));\n        }\n\n    };\n\n    $scope.generateKeyValue = function(key) {\n        var keySelect = '<div class=\"form-group\"><div class=\"key-values-area row\" id=\"keyValuesArea_' + key + '\">';\n        keySelect += '<div class=\"col-sm-6\"><label for=\"metadataValue\">Key</label><select style=\"width:100%\" ng-change=\"onChangeKeyUpdateValue(\\'' + key + '\\')\" ui-select2 ng-model=\"key_data.key_' + key + '\" data-placeholder=\"Select a Key\">';\n        keySelect += $scope.keyOptions + '</select></div>';\n        keySelect += '<div class=\"col-sm-6\"><label for=\"metadataValue\">Value</label><div class=\"input-group\" id=\"keyValueAreaValue_' + key + '\"><input type=\"text\" class=\"form-control\" ng-model=\"value_data.key_' + key + '\" placeholder=\"Enter value\"><div class=\"input-group-btn\"><button type=\"button\" class=\"btn btn-success\" ng-click=\"addKeyValue()\"><i class=\"fa fa-plus\"></i></button><button type=\"button\" class=\"btn btn-danger\" ng-click=\"removeKeyValue(\\'keyValuesArea_' + key + '\\')\"><i class=\"fa fa-trash\"></i></button></div></div></div>';\n        return keySelect;\n    };\n    /******* for MetaData End**********/\n\n    // Add Assignment\n    $scope.add = function() {\n\n        $scope.assignment_type = $scope.formData.assignment_type;\n        $scope.assignment_title = $scope.formData.assignment_title;\n        $scope.assignment_description = common_assignment_utility.getFieldValue('assignment_description', true);\n        $scope.assignment_gradable = $scope.formData.assignment_gradable;\n        $scope.assignment_grade_points = $scope.formData.assignment_grade_points;\n        $scope.assignment_grade_category = $scope.formData.assignment_grade_category;\n        $scope.assignment_grade_type = $scope.formData.assignment_grade_type;\n        $scope.assignment_asset_link = $scope.formData.assignment_asset_link;\n        $scope.assignment_asset_id = $scope.formData.assignment_asset_id;\n        $scope.formData.formError = {};\n\n        /**** Save Meta Data Values****/\n        if ($scope.applyMetadata) {\n            $scope.tags = $scope.metadata.tagValue;\n        } else {\n            $scope.tags = [];\n            $scope.key_data = {};\n            $scope.value_data = {};\n            $scope.taxonomy = [];\n        }\n\n        assignmentService.saveAssignment($scope).then(function(data) {\n            if (data.status == 200) {\n                $modalInstance.close();\n            } else {\n\n                if (angular.isDefined(data.projectPermissionGranted) && data.projectPermissionGranted == 401) {\n                    $scope.formData.formError['error'] = data.message;\n                }\n                if (angular.isDefined(data.error.title)) {\n                    $scope.formData.formError['assignment_title'] = data.error.title['0'];\n                }\n                if (angular.isDefined(data.error.type)) {\n                    $scope.formData.formError['assignment_type'] = data.error.type['0'];\n                }\n                if (angular.isDefined(data.error.description)) {\n                    $scope.formData.formError['assignment_description'] = data.error.description['0'];\n                }\n                if ($scope.assignment_gradable && (angular.isUndefined($scope.assignment_grade_points) || $scope.assignment_grade_points === null || $scope.assignment_grade_points == '' || isNaN($scope.assignment_grade_points) || $scope.assignment_grade_points < 1 || angular.isDefined(data.error.grade_points))) {\n                    $scope.formData.formError['assignment_grade_points'] = data.error.grade_points['0'];\n                }\n            }\n        });\n\n    };\n\n    // Edit Assignment\n    $scope.edit = function() {\n\n        if (angular.isUndefined($scope.formData.assignment_title) == false && angular.isUndefined($scope.formData.assignment_id) == false) {\n            $scope.assignment_id = $scope.formData.assignment_id;\n            $scope.assignment_title = $scope.formData.assignment_title;\n            $scope.assignment_type = $scope.formData.assignment_type;\n            $scope.assignment_description = common_assignment_utility.getFieldValue('assignment_description', true);\n            $scope.assignment_gradable = $scope.formData.assignment_gradable;\n            $scope.assignment_grade_points = $scope.formData.assignment_grade_points;\n            $scope.assignment_grade_category = $scope.formData.assignment_grade_category;\n            $scope.assignment_grade_type = $scope.formData.assignment_grade_type;\n            $scope.assignment_asset_link = $scope.formData.assignment_asset_link;\n            $scope.assignment_asset_id = $scope.formData.assignment_asset_id;\n\n            /**** Save Meta Data Values****/\n            if ($scope.applyMetadata) {\n                $scope.tags = $scope.metadata.tagValue;\n            } else {\n                $scope.tags = [];\n                $scope.key_data = {};\n                $scope.value_data = {};\n                $scope.taxonomy = [];\n            }\n\n            assignmentService.editAssignment($scope).then(function(data) {\n                if (data.status == 200) {\n                    $modalInstance.close();\n                } else {\n                    if (angular.isDefined(data.projectPermissionGranted) && data.projectPermissionGranted == 401) {\n                        $scope.formData.formError['error'] = data.message;\n                    }\n                    if (angular.isDefined(data.error.title)) {\n                        $scope.formData.formError['assignment_title'] = data.error.title['0'];\n                    }\n                    if (angular.isDefined(data.error.type)) {\n                        $scope.formData.formError['assignment_type'] = data.error.type['0'];\n                    }\n                    if (angular.isDefined(data.error.description)) {\n                        $scope.formData.formError['assignment_description'] = data.error.description['0'];\n                    }\n                    if ($scope.assignment_gradable && (angular.isUndefined($scope.assignment_grade_points) || $scope.assignment_grade_points === null || $scope.assignment_grade_points == '' || isNaN($scope.assignment_grade_points) || $scope.assignment_grade_points < 1 || angular.isDefined(data.error.grade_points))) {\n                        $scope.formData.formError['assignment_grade_points'] = data.error.grade_points['0'];\n                    }\n                }\n            });\n        }\n    };\n\n    $scope.cancel = function() {\n        $modalInstance.dismiss('cancel');\n    };\n\n});\napp.controller('ModalAssignmentPreviewCtrl', function($scope, $location, assignmentService, sessionService, $modalInstance, modalFormTitle, project_id, project_type_id, assignment_id, entity_type_id, project_theme_style, $filter, $compile, ivhTreeviewMgr, tagService, keyValueService, taxonomyService) {\n\n    $scope.modalFormTitle = modalFormTitle;\n    $scope.assignment_id = assignment_id;\n    $scope.project_id = project_id;\n    $scope.project_type_id = project_type_id;\n    $scope.entity_type_id = entity_type_id;\n    $scope.project_theme_style = project_theme_style;\n    $scope.assignmentKeyValue = '';\n    $scope.assignmentTags = '';\n\n    assignmentService.getAssignmentPreview($scope).then(function(data) {\n        if (data.status === 200) {\n\n            //Assignment Basic details\n            $scope.assignmentTitle = data.data.details.title;\n            $scope.assignmentType = data.data.details.type;\n            $scope.assignmentDescription = data.data.details.description;\n\n            //Assignment Meta data\n            /****Key Value********/\n            /*$scope.keyValueData = data.data.key_value;\n            if ($scope.keyValueData  != null && angular.isDefined($scope.keyValueData))\n            {\n                angular.forEach($scope.keyValueData, function (KeyValue) {\n                    $scope.assignmentKeyValue += KeyValue.key_name+' :: '+KeyValue.value;\n                });\n            }*/\n\n            /****Tags******/\n            /*$scope.tagsData=data.data.tags;\n            if ($scope.tagsData  != null && angular.isDefined($scope.tagsData))\n            {\n                var object_tags=[];\n                angular.forEach($scope.tagsData, function (value,key) {\n                     object_tags[key] = value.text;\n                });\n                $scope.assignmentTags = object_tags.join(',');\n            }*/\n\n            /**** Taxonomy ******/\n            /*$scope.taxonomy = [];\n            $scope.tplFolderOpen = '<span class=\"twistie glyphicon glyphicon-folder-open\"></span>&nbsp;&nbsp;';\n            $scope.tplFolderClose = '<span class=\"twistie glyphicon glyphicon-folder-close\"></span>&nbsp;&nbsp;';\n            $scope.tplLeaf = '<span class=\"twistie glyphicon glyphicon-book\"></span>&nbsp;&nbsp;';\n            if (data.data.taxonomy != null && angular.isDefined(data.data.taxonomy)) {\n                $scope.taxonomy = data.data.taxonomy;\n                $scope.findSelectedTaxonomy({children: $scope.taxonomy});\n            }*/\n\n            var assignment_iframe_name = 'assignmentPreviewFrame';\n            var iframe = document.getElementById(assignment_iframe_name);\n            iframe.src = iframe.src;\n            $('#' + assignment_iframe_name).on(\"load\", function() {\n                $('#' + assignment_iframe_name).contents().find(\"head\").append($(\"<link/>\", { rel: \"stylesheet\", href: $scope.project_theme_style, type: \"text/css\" }));\n                $('#' + assignment_iframe_name).contents().find('body').find('div#assignment_preview_content').html($scope.assignmentDescription);\n            });\n        }\n    });\n\n    //This method is used to select parent indeterminately\n    /*$scope.findSelectedTaxonomy = function (taxonomy_arr) {\n        if (taxonomy_arr.children.length > 0) {\n            for (var i = 0; i < taxonomy_arr.children.length; i += 1) {\n                var currentChild = taxonomy_arr.children[i];\n                $scope.findSelectedTaxonomy(currentChild);\n                if (currentChild.selected == true) {\n                    //console.log(currentChild);\n                    ivhTreeviewMgr.select($scope.taxonomy, currentChild);\n                }\n            }\n        }\n    }; */\n\n    $scope.cancel = function() {\n        $modalInstance.dismiss('cancel');\n    };\n});\n\n\napp.controller('ModalAssignmentAssetsCtrl', function($scope, $modalInstance, assetService, project_id, modalFormTitle, ext_res_url, ext_res_title, ext_res_type, objectService, SweetAlert, flag, keyValueService, tagService, taxonomyService, userService, ivhTreeviewMgr, $compile, $filter, paginationService) {\n\n    $scope.cancel = function() {\n        $modalInstance.dismiss('cancel');\n    };\n    $scope.ext_res_location = ext_res_url;\n    $scope.modalFormTitle = modalFormTitle;\n    $scope.project_id = project_id;\n    $scope.taxonomy_id = 0;\n    $scope.searchModel = {\n        \"search_text\": ''\n    };\n    $scope.advanced_search = {\n        \"active\": null\n    };\n    if (flag) {\n        $scope.asset_filter = {\n            \"images\": true,\n            \"videos\": false,\n            \"gadgets\": false\n        };\n    } else {\n        $scope.asset_filter = {\n            \"images\": true,\n            \"videos\": true,\n            \"audio\": true,\n            \"gadgets\": false\n        };\n    }\n\n    $scope.asset_local_global = {\n        \"local\": true,\n        \"global\": true\n    };\n    $scope.pageNumber = 1;\n    $scope.itemsPerPage = 8;\n    $scope.ext_res_location = ext_res_url;\n    $scope.ext_res_title = ext_res_title;\n    $scope.ext_res_type = ext_res_type;\n    $scope.getAssets = function(pageNumber) {\n        $scope.removeErrors = 1;\n        $scope.showCheckAll = 0;\n        $scope.showMakeGlobal = 0;\n        $scope.pageNumber = pageNumber;\n        $scope.itemsPerPage = 8;\n        assetService.getMimes().then(function(mimes) {\n            angular.element('#submit_resource').attr('disabled', 'disabled');\n            $scope.mimes = mimes.data;\n            assetService.getAssets($scope).then(function(data) {\n                $scope.assets = data.data;\n                //50 nano seconds delay\n                setTimeout(function() {\n                    angular.element('.label-checkbox').removeAttr('style');\n                    angular.forEach($scope.assets, function(value, key) {\n                        if (value.asset_location == $scope.ext_res_location) {\n                            value.Selected = $scope.ext_res_location;\n                            value.Style = \"opacity:1 !important;\";\n                            angular.element('#check-box-label-' + $scope.asset_id).attr('style', 'opacity:1 !important;');\n                            angular.element('#submit_resource').attr('disabled', false);\n                            angular.element('#submit_resource').focus();\n                        }\n                    });\n                }, 50);\n                $scope.totalAssets = data.totalAssets;\n                $scope.removeErrors = angular.isDefined(data.totalAssets) ? data.totalAssets : 0;\n            });\n        });\n    };\n    $scope.getAssets(1);\n\n    //Get Project Detail\n    $scope.getProject = function() {\n        $scope.project_name = '';\n        if ($scope.object_id != '') {\n            objectService.getProjectDetails($scope).then(function(data) {\n                $scope.project_name = data.name;\n                $scope.project_type_id = data.project_type_id;\n                $scope.toc_creation_status = data.toc_creation_status;\n                $scope.project = data;\n                $scope.actual_permission = data.project_permissions['asset.use_global'].grant;\n            });\n        }\n    };\n    $scope.getProject();\n    //For Pagination Of Dashboard\n    $scope.pageChangeHandlerAsset = function(newPage) {\n        angular.element('.label-checkbox').removeAttr('style');\n        $scope.getAssets(newPage);\n        if (angular.isDefined($scope.ext_res_location)) {\n            angular.element('#submit_resource').removeAttr('disabled');\n            angular.element('#submit_resource').focus();\n        }\n\n    };\n    $scope.setCurrentPageNumber = function(num) {\n        paginationService.setCurrentPage('assetListId', num);\n    };\n    /*$scope.$watch('search_text', function (val) {\n        $scope.advanced_search.active = false;\n        $scope.advanced_search.enableSearch = false;\n        $scope.searchModel = {\n            \"search_text\": val\n        };\n        $scope.getAssets(1);\n    });*/\n\n    $scope.search = function() {\n        $scope.advanced_search.active = false;\n        $scope.advanced_search.heading = 'Search Result For: ' + $scope.search_text;\n        $scope.advanced_search.enableSearch = true;\n        $scope.advanced_search.isCollapsed = false;\n        $scope.searchModel = {\n            \"search_text\": $scope.search_text\n        };\n        //Set the pagination\n        if ($scope.pageNumber > 1) { $scope.setCurrentPageNumber(1); } else { $scope.getAssets(1); }\n    }\n\n    $scope.selectOption = function(asset_id, asset_location, title, type, is_global) {\n        if (is_global === 1 && $scope.actual_permission === false) {\n            angular.element('.label-checkbox').removeAttr('style');\n            angular.element('#submit_resource').attr('disabled', 'disabled');\n            SweetAlert.swal(\"Cancelled\", \"Permission Denied!\", \"error\");\n        } else {\n            angular.element('.label-checkbox').removeAttr('style');\n            angular.element('#check-box-label-' + asset_id).attr('style', 'opacity:1 !important;');\n            $scope.ext_res_location = asset_location;\n            $scope.ext_res_title = title;\n            $scope.ext_res_type = type;\n            $scope.asset_id = asset_id;\n            angular.element('#submit_resource').attr('disabled', false);\n            angular.element('#submit_resource').focus();\n        }\n    };\n    $scope.submitResource = function(callby) {\n        if ($scope.currentCkInstance) {\n            var oEditor = $scope.currentCkInstance;\n            var html = \"<img class='ckImg' alt='' width='' height= '' src='\" + $scope.ext_res_location + \"'/>\";\n\n            var newElement = CKEDITOR.dom.element.createFromHtml(html, oEditor.document);\n            oEditor.insertElement(newElement);\n            var elem = oEditor.document.find('.ckImg').$;\n            //oEditor.on('setData', $scope.jsRegisterer(oEditor.document.find('.ckImg').$));\n            $(elem).off().on('click', $scope.bindEvent.bind(this));\n            $modalInstance.close(null);\n        } else {\n            var modalCloseParameter = {\n                ext_res_location: $scope.ext_res_location,\n                ext_res_title: $scope.ext_res_title,\n                ext_res_type: $scope.ext_res_type,\n                asset_id: $scope.asset_id\n            };\n            $modalInstance.close(modalCloseParameter);\n        }\n    };\n    //=========================================//\n    //Advance Search For Metadata = Starts Here\n    //=========================================//\n    $scope.node_id = 0;\n    $scope.advanced_search = {};\n    $scope.advanced_search.enableSearch = false;\n    $scope.advanced_search.title = '';\n    $scope.advanced_search.active = false;\n    $scope.advanced_search.isCollapsed = false;\n    $scope.advanced_search.heading = 'Advanced Search Result:';\n\n    $scope.advanced_search.key_data = {};\n    $scope.advanced_search.value_data = {};\n    $scope.advanced_search.totalKeyArea = 0;\n    $scope.advanced_search.taxonomy = [];\n    $scope.tplFolderOpen = '<span class=\"twistie glyphicon glyphicon-folder-open\"></span>&nbsp;&nbsp;';\n    $scope.tplFolderClose = '<span class=\"twistie glyphicon glyphicon-folder-close\"></span>&nbsp;&nbsp;';\n    $scope.tplLeaf = '<span class=\"twistie glyphicon glyphicon-book\"></span>&nbsp;&nbsp;';\n\n    // get taxonomy\n    $scope.taxonomyStatus = 1001;\n    taxonomyService.getTaxonomy($scope, $scope.node_id).then(function(data) {\n        if (data.status == 200) {\n            if (data.data != null && angular.isDefined(data.data.children)) {\n                $scope.advanced_search.taxonomy = data.data.children;\n                // expand nodes\n                ivhTreeviewMgr.expandRecursive($scope.advanced_search.taxonomy, $scope.advanced_search.taxonomy);\n            }\n        }\n\n    });\n\n    // get tags\n    var tags = [];\n    var object_tags = [];\n\n\n    $scope.advanced_search.tag = {\n        multiple: true,\n        data: tags\n    };\n    tagService.getTagsByObject($scope, $scope.node_id).then(function(data) {\n        if (data.status == 200) {\n            if (data.data != null && angular.isDefined(data.data.tags)) {\n                angular.forEach(data.data.tags, function(value, key) {\n                    tags[key] = { id: value.id, text: value.text };\n                });\n                $scope.advanced_search.tag.data = tags;\n                if (angular.isDefined(data.data.object_tags)) {\n                    angular.forEach(data.data.object_tags, function(value, key) {\n                        object_tags[key] = { id: value.id, text: value.text };\n                    });\n                    $scope.advanced_search.tagValue = object_tags;\n                }\n            }\n        }\n\n    });\n\n    // get owners\n    var owners = [];\n    var object_owners = [];\n\n    $scope.advanced_search.owner = {\n        multiple: true,\n        data: owners\n    };\n\n    userService.getUsers($scope).then(function(data) {\n        if (data.status == 200) {\n            if (data.data != null) {\n                angular.forEach(data.data, function(value, key) {\n                    owners[key] = { id: value.id, text: value.username };\n                });\n                $scope.advanced_search.owner.data = owners;\n            }\n        }\n\n    });\n\n    $scope.keyOptions = '<option value=\"\"></option>';\n    $scope.keyValueData = '';\n    // get key values\n    keyValueService.getKeyValuesByObject($scope, $scope.node_id).then(function(data) {\n        //        if (data.projectPermissionGranted == 401) {\n        //            SweetAlert.swal(\"Cancelled\", \"Access prohibited!\", \"error\");\n        //            $location.path(\"dashboard\");\n        //        }\n        if (data.status == 200) {\n            $scope.keyValueData = data.data;\n            if (data.data != null && angular.isDefined(data.data.key_values)) {\n                angular.forEach(data.data.key_values, function(value) {\n                    if (value.key_name != 'License Type' && value.key_name != 'License Valid Till') {\n                        $scope.keyOptions = $scope.keyOptions + '<option value=\"' + value.id + '\">' + $filter('strLimit')(value.key_name, 20) + '</option>';\n                    }\n                });\n                setTimeout(function() {\n                    $scope.totalKeyArea = $scope.totalKeyArea + 1;\n                    var newKeyAreaHtml = $scope.generateKeyValue($scope.totalKeyArea);\n                    angular.element(\"#advancedSearchKeyValuesAreaId\").append($compile(newKeyAreaHtml)($scope));\n                }, 500);\n            }\n\n            if (data.count == 0) {\n                setTimeout(function() {\n                    $scope.totalKeyArea = $scope.totalKeyArea + 1;\n                    var newKeyAreaHtml = $scope.generateKeyValue($scope.totalKeyArea);\n                    angular.element(\"#advancedSearchKeyValuesAreaId\").append($compile(newKeyAreaHtml)($scope));\n                }, 500);\n            }\n        }\n    });\n\n\n    $scope.addKeyValue = function() {\n        $scope.advanced_search.totalKeyArea = $scope.advanced_search.totalKeyArea + 1;\n        var newKeyAreaHtml = $scope.generateKeyValue($scope.advanced_search.totalKeyArea);\n        angular.element(\"#advancedSearchKeyValuesAreaId\").append($compile(newKeyAreaHtml)($scope));\n    };\n\n\n    $scope.onChangeKeyUpdateValue = function(key) {\n        var keyId = $scope.advanced_search.key_data['key_' + key];\n        angular.forEach($scope.keyValueData.key_values, function(value) {\n            if (value.id == keyId) {\n                if (value.key_type == 'select_list') {\n                    var valueSelect = '<select style=\"width:100%\" ui-select2 ng-model=\"advanced_search.value_data.key_' + key + '\" data-placeholder=\"Select a Value\">';\n                    valueSelect += '<option value=\"\"></option>';\n                    angular.forEach(value.values, function(valueObj) {\n                        valueSelect += '<option value=\"' + valueObj.value_id + '\">' + valueObj.value + '</option>';\n                    });\n                    valueSelect += '</select>';\n                    valueSelect += '<div class=\"input-group-btn\"><button type=\"button\" class=\"btn btn-success\" ng-click=\"addKeyValue()\"><i class=\"fa fa-plus\"></i></button><button type=\"button\" class=\"btn btn-danger\" ng-click=\"removeKeyValue(\\'advancedSearchKeyValuesArea_' + key + '\\')\"><i class=\"fa fa-trash\"></i></button></div>';\n                    angular.element(\"#advancedSearchKeyValueAreaValue_\" + key).html($compile(valueSelect)($scope));\n                } else if (value.key_type == 'date_entry') {\n                    //$scope.value_data['key_' + key] = null;\n                    var valueInput = '<input type=\"text\" class=\"form-control\" ng-model=\"advanced_search.value_data.key_' + key + '\" data-date-format=\"MM-dd-yyyy\" data-date-type=\"string\" data-min-date=\"02/10/86\" data-autoclose=\"1\" name=\"advanced_search.value_data.key_' + key + '\" bs-datepicker>';\n                    valueInput += '<div class=\"input-group-btn\"><button type=\"button\" class=\"btn btn-success\" ng-click=\"addKeyValue()\"><i class=\"fa fa-plus\"></i></button><button type=\"button\" class=\"btn btn-danger\" ng-click=\"removeKeyValue(\\'advancedSearchKeyValuesArea_' + key + '\\')\"><i class=\"fa fa-trash\"></i></button></div>';\n                    angular.element(\"#advancedSearchKeyValueAreaValue_\" + key).html($compile(valueInput)($scope));\n                } else if (value.key_type == 'time_entry') {\n                    //$scope.value_data['key_' + key] = null;\n                    var valueInput = '<input type=\"text\" data-time-type=\"string\" data-time-format=\"HH:mm\" data-length=\"1\" data-minute-step=\"1\" class=\"form-control\" ng-model=\"advanced_search.value_data.key_' + key + '\"  name=\"value_data.key_' + key + '\" bs-timepicker data-arrow-behavior=\"picker\" data-autoclose=\"1\">';\n                    valueInput += '<div class=\"input-group-btn\"><button type=\"button\" class=\"btn btn-success\" ng-click=\"addKeyValue()\"><i class=\"fa fa-plus\"></i></button><button type=\"button\" class=\"btn btn-danger\" ng-click=\"removeKeyValue(\\'advancedSearchKeyValuesArea_' + key + '\\')\"><i class=\"fa fa-trash\"></i></button></div>';\n                    angular.element(\"#advancedSearchKeyValueAreaValue_\" + key).html($compile(valueInput)($scope));\n\n                } else if (value.key_type == 'number_entry') {\n                    //$scope.value_data['key_' + key] = null;\n                    var valueInput = '<input type=\"number\" class=\"form-control\" ng-model=\"advanced_search.value_data.key_' + key + '\">';\n                    valueInput += '<div class=\"input-group-btn\"><button type=\"button\" class=\"btn btn-success\" ng-click=\"addKeyValue()\"><i class=\"fa fa-plus\"></i></button><button type=\"button\" class=\"btn btn-danger\" ng-click=\"removeKeyValue(\\'advancedSearchKeyValuesArea_' + key + '\\')\"><i class=\"fa fa-trash\"></i></button></div>';\n                    angular.element(\"#advancedSearchKeyValueAreaValue_\" + key).html($compile(valueInput)($scope));\n\n                } else {\n                    var valueInput = '<input type=\"text\"  placeholder=\"Enter value\" class=\"form-control\" ng-model=\"advanced_search.value_data.key_' + key + '\">';\n                    valueInput += '<div class=\"input-group-btn\"><button type=\"button\" class=\"btn btn-success\" ng-click=\"addKeyValue()\"><i class=\"fa fa-plus\"></i></button><button type=\"button\" class=\"btn btn-danger\" ng-click=\"removeKeyValue(\\'advancedSearchKeyValuesArea_' + key + '\\')\"><i class=\"fa fa-trash\"></i></button></div>';\n                    angular.element(\"#advancedSearchKeyValueAreaValue_\" + key).html($compile(valueInput)($scope));\n                }\n            }\n        });\n\n    };\n\n    $scope.removeKeyValue = function(keyValueArea) {\n        angular.element(\"#\" + keyValueArea).remove();\n        var keyArray = keyValueArea.split('_');\n        delete $scope.advanced_search.key_data['key_' + keyArray[1]];\n        delete $scope.advanced_search.value_data['key_' + keyArray[1]];\n        if (angular.element(\".advanced-search-key-values-area\").length == 0) {\n            $scope.advanced_search.totalKeyArea = 1;\n            $scope.advanced_search.key_data = {};\n            $scope.advanced_search.value_data = {};\n            var newKeyAreaHtml = $scope.generateKeyValue($scope.advanced_search.totalKeyArea);\n            angular.element(\"#advancedSearchKeyValuesAreaId\").append($compile(newKeyAreaHtml)($scope));\n        }\n\n    };\n\n    $scope.generateKeyValue = function(key) {\n        var keySelect = '<div class=\"form-group\"><div class=\"row advanced-search-key-values-area\" id=\"advancedSearchKeyValuesArea_' + key + '\">';\n        keySelect += '<div class=\"col-sm-6\"><label for=\"metadataValue\">Key</label><select style=\"width:100%\" ng-change=\"onChangeKeyUpdateValue(\\'' + key + '\\')\" ui-select2 ng-model=\"advanced_search.key_data.key_' + key + '\" data-placeholder=\"Select a Key\">';\n        keySelect += $scope.keyOptions + '</select></div>';\n        keySelect += '<div class=\"col-sm-6\"><label for=\"metadataValue\">Value</label><div class=\"input-group adv-input-group\" id=\"advancedSearchKeyValueAreaValue_' + key + '\"><input type=\"text\" class=\"form-control\" ng-model=\"advanced_search.value_data.key_' + key + '\" placeholder=\"Enter value\"><div class=\"input-group-btn\"><button type=\"button\" class=\"btn btn-success\" ng-click=\"addKeyValue()\"><i class=\"fa fa-plus\"></i></button><button type=\"button\" class=\"btn btn-danger\" ng-click=\"removeKeyValue(\\'advancedSearchKeyValuesArea_' + key + '\\')\"><i class=\"fa fa-trash\"></i></button></div></div></div>';\n        return keySelect;\n    };\n\n    $scope.applyAdvancedSearch = function() {\n        $scope.advanced_search.heading = 'Advanced Search Result:';\n        $scope.advanced_search.enableSearch = true;\n        $scope.advanced_search.active = true;\n        $scope.advanced_search.isCollapsed = false;\n        //Set the pagination\n        if ($scope.pageNumber > 1) { $scope.setCurrentPageNumber(1); } else { $scope.getAssets(1); }\n    };\n\n    $scope.clearSearch = function() {\n        $scope.advanced_search.active = false;\n        $scope.search_text = '';\n        $scope.advanced_search.enableSearch = false;\n        $scope.searchModel = {\n            \"search_text\": ''\n        };\n        $scope.applyAdvancedClear();\n        angular.element('.label-checkbox').removeAttr('style');\n        //Set the pagination\n        if ($scope.pageNumber > 1) { $scope.setCurrentPageNumber(1); } else { $scope.getAssets(1); }\n    };\n\n    $scope.toggleAdvanceSearch = function() {\n        if ($scope.advanced_search.isCollapsed) {\n            $scope.advanced_search.isCollapsed = false;\n            if ($scope.advanced_search.active) {\n                $scope.advanced_search.enableSearch = true;\n            }\n        } else {\n            $scope.advanced_search.isCollapsed = true;\n            $scope.advanced_search.enableSearch = false;\n        }\n    };\n\n    $scope.applyAdvancedClear = function() {\n        $scope.advanced_search.totalKeyArea = $scope.advanced_search.totalKeyArea + 1;\n        var newKeyAreaHtml = $scope.generateKeyValue($scope.advanced_search.totalKeyArea);\n        angular.element(\"#advancedSearchKeyValuesAreaId\").html($compile(newKeyAreaHtml)($scope));\n        $scope.advanced_search.tagValue = [];\n        $scope.advanced_search.ownerValue = [];\n        $scope.advanced_search.title = '';\n        $scope.advanced_search.key_data = {};\n        $scope.advanced_search.value_data = {};\n        ivhTreeviewMgr.deselectAll($scope.advanced_search.taxonomy);\n    };\n\n    $scope.generateAdvanceSearchTerm = function() {\n        var searchTerm = [];\n        var tagList = $scope.advanced_search.tagValue;\n        if (tagList.length > 0) {\n            angular.forEach(tagList, function(tag) {\n                searchTerm.push(tag.text);\n            });\n        }\n        var ownerList = $scope.advanced_search.ownerValue;\n        if (ownerList.length > 0) {\n            angular.forEach(ownerList, function(owner) {\n                searchTerm.push(owner.text);\n            });\n        }\n        var taxonomyList = $scope.selectedTaxonomy;\n        if (taxonomyList.length > 0) {\n            angular.forEach(taxonomyList, function(taxonomy) {\n                searchTerm.push(taxonomy);\n            });\n        }\n\n        if ($scope.advanced_search.title != '') {\n            searchTerm.push($scope.advanced_search.title);\n        }\n\n    };\n\n    $scope.selectedTaxonomy = [];\n    $scope.selectedTaxonomyIds = [];\n\n    $scope.apply_filter = function() {\n        $scope.getAssets();\n    };\n\n    $scope.$watch('advanced_search.taxonomy', function(newValues) {\n        $scope.selectedTaxonomy.length = 0;\n        $scope.selectedTaxonomyIds.length = 0;\n        angular.forEach(newValues, function(item) {\n            if (item.selected == true) {\n                $scope.selectedTaxonomy.push(item.title);\n                $scope.selectedTaxonomyIds.push(item.id);\n            }\n        });\n    }, true);\n});\napp.controller('ckImgController', function($scope, $modalInstance, elem) {\n    $scope.imgWidth = elem.currentTarget.clientWidth;\n    $scope.imgHeight = elem.currentTarget.clientHeight;\n    $scope.altText = elem.currentTarget.getAttribute('alt');\n    window.setTimeout(function() {\n        angular.element('#' + elem.currentTarget.getAttribute('radChecked')).prop('checked', true);\n    }, 200);\n\n    $scope.ConfigureImg = function() {\n        var params = $scope.resizeImg();\n        params.checked = angular.element('.configRad:checked').attr('id');\n        $scope.imgAlignment(angular.element('.configRad:checked')[0]);\n\n        $modalInstance.close(params);\n    }\n    $scope.dismissModal = function() {\n        $modalInstance.dismiss('cancel');\n    }\n    $scope.adjustAspectRatio = function() {\n        var trueWidth = $scope.getDimension().trueWidth;\n        var trueHeight = $scope.getDimension().trueHeight;\n        var htRatio = (trueHeight / (trueHeight + trueWidth));\n        var widRatio = 1 - htRatio;\n        if (event.target.getAttribute('id') === 'height') {\n            var currHt = $scope.imgHeight;\n            var newWidth = parseInt(currHt * widRatio / htRatio);\n            $scope.imgWidth = newWidth;\n        }\n        if (event.target.getAttribute('id') === 'width') {\n            var currWd = $scope.imgWidth;\n            var newHeight = parseInt(currWd * htRatio / widRatio);\n            $scope.imgHeight = newHeight;\n        }\n\n    }\n    $scope.getDimension = function() {\n        var dimension = {\n            \"trueWidth\": elem.currentTarget.clientWidth,\n            \"trueHeight\": elem.currentTarget.clientHeight\n        }\n        return dimension;\n    }\n    $scope.imgAlignment = function(element) {\n        if (angular.element(elem.currentTarget).parents('p').length === 0) {\n            angular.element(elem.target).wrap('<p></p>');\n        }\n        if (element.getAttribute('alignImg') === 'center') {\n            angular.element(elem.currentTarget).parents('p')[0].style.textAlign = 'center';\n            elem.currentTarget.removeAttribute('style');\n        } else {\n            elem.currentTarget.style.float = element.getAttribute('alignImg');\n            angular.element(elem.currentTarget).parents('p')[0].removeAttribute('style');\n        }\n    }\n    $scope.resetImageSize = function() {\n        $scope.imgWidth = elem.currentTarget.naturalWidth;\n        $scope.imgHeight = elem.currentTarget.naturalHeight;\n    }\n    $scope.deleteImg = function() {\n        angular.element(elem.currentTarget).parents('p')[0].removeAttribute('style');\n        elem.currentTarget.remove();\n        $modalInstance.dismiss('cancel');\n    }\n    $scope.resizeImg = function() {\n        var params = {\n            height: this.imgHeight,\n            width: this.imgWidth,\n            altText: this.altText,\n            elem: elem\n        }\n        return params;\n\n    }\n});\n/**************** CK editor Starts here ***************/\nvar common_assignment_utility = {};\ncommon_assignment_utility.getFieldValue = function(field_key, isEditor) {\n    var value = '';\n    if (isEditor) {\n        value = CKEDITOR.instances[field_key].getData();\n        value = value.replace('class=\"math_edit\"', '');\n        value = value.replace(' >', '>');\n        var regex = /<br\\s*[\\/]?>/gi;\n        value = value.replace(regex, \"\");\n        var replace_value = value;\n        value = value.replace(/\\s|&nbsp;/g, '');\n        value = value.replace(/\\s|<p><\\/p>/g, '');\n        if (value.length != 0) {\n            value = replace_value;\n        } else {\n            value = '';\n        }\n    } else {\n        value = jQuery('#' + field_key).val();\n    }\n    return value;\n}\n\ncommon_assignment_utility.setFieldValue = function(field_key, value, isEditor) {\n    if (isEditor) {\n        //var pp =CKEDITOR.instances[field_key].getData();\n        value = CKEDITOR.instances[field_key].setData(value);\n        //var pp = CKEDITOR.instances[field_key].getData();\n    } else {\n        value = jQuery('#' + field_key).val(value);\n    }\n}\n\n// initialize ckeditor\ncommon_assignment_utility.initializeCkeditor = function() {\n    $('.ckeditor').each(function(e) {\n        if (!CKEDITOR.instances[this.id]) {\n            CKEDITOR.replace(this.id);\n        }\n    });\n}\n\ncommon_assignment_utility.ckeditorBindEvent = function() {\n\n        for (name in CKEDITOR.instances) {\n            var instance = CKEDITOR.instances[name];\n            instance.on('mode', function() {\n                if (this.mode == 'wysiwyg') {\n                    angular.element(document.getElementById('questionController')).scope().jsRegisterer(this.document.find('.ckImg').$);\n                }\n            });\n\n            if (typeof instance.document !== \"undefined\") {\n                angular.element(document.getElementById('questionController')).scope().jsRegisterer(instance.document.find('.ckImg').$);\n            }\n        }\n    }\n    /**************** CK editor ends here ***************/",
          "comment" : ""
        },
        "redirectURL" : "",
        "headersSize" : 204,
        "bodySize" : 74029,
        "comment" : ""
      },
      "cache" : { },
      "timings" : {
        "comment" : "",
        "connect" : 1563,
        "ssl" : -1,
        "send" : 0,
        "wait" : 0,
        "dns" : -1,
        "blocked" : -1,
        "receive" : 0
      },
      "comment" : "",
      "_katalonRequestInformation" : {
        "name" : "117",
        "testObjectId" : "Temporary RESTful request object",
        "harId" : "b8b18851-b472-441f-8649-3cd0b458ae61"
      },
      "time" : 1563
    } ],
    "comment" : ""
  }
}