{
  "log" : {
    "version" : "1.2",
    "pages" : [ ],
    "entries" : [ {
      "startedDateTime" : "2019-07-12T07:12:29.109Z",
      "request" : {
        "method" : "GET",
        "url" : "https://frostedc-stg.learningmate.com/bower_components/angular-strap/dist/angular-strap.compat.min.js",
        "httpVersion" : "",
        "cookies" : [ ],
        "headers" : [ ],
        "queryString" : [ ],
        "headersSize" : 0,
        "bodySize" : 0,
        "comment" : ""
      },
      "response" : {
        "status" : 200,
        "statusText" : "",
        "httpVersion" : "",
        "cookies" : [ ],
        "headers" : [ {
          "name" : "Accept-Ranges",
          "value" : "bytes"
        }, {
          "name" : null,
          "value" : "HTTP/1.1 200 OK"
        }, {
          "name" : "Server",
          "value" : "nginx/1.13.5"
        }, {
          "name" : "ETag",
          "value" : "\"5d25bc3a-14403\""
        }, {
          "name" : "Connection",
          "value" : "keep-alive"
        }, {
          "name" : "Last-Modified",
          "value" : "Wed, 10 Jul 2019 10:21:46 GMT"
        }, {
          "name" : "Content-Length",
          "value" : "82947"
        }, {
          "name" : "Date",
          "value" : "Fri, 12 Jul 2019 07:13:58 GMT"
        }, {
          "name" : "Content-Type",
          "value" : "application/javascript"
        } ],
        "content" : {
          "size" : 82947,
          "mimeType" : "application/javascript",
          "text" : "!function(e,t,n){'use strict';function a(e,n,a,o,i,r){function s(e,n){return angular.element((n||t).querySelectorAll(e))}function l(e){return u[e]?u[e]:u[e]=n.get(e,{cache:r}).then(function(e){return e.data})}this.compile=function(t){t.template&&/\\.html$/.test(t.template)&&(console.warn('Deprecated use of `template` option to pass a file. Please use the `templateUrl` option instead.'),t.templateUrl=t.template,t.template='');var n=t.templateUrl,r=t.template||'',u=t.controller,c=t.controllerAs,d=t.resolve||{},f=t.locals||{},p=t.transformTemplate||angular.identity,g=t.bindToController;if(angular.forEach(d,function(e,t){angular.isString(e)?d[t]=a.get(e):d[t]=a.invoke(e)}),angular.extend(d,f),r)d.$template=e.when(r);else{if(!n)throw new Error('Missing `template` / `templateUrl` option.');d.$template=l(n)}return t.titleTemplate&&(d.$template=e.all([d.$template,l(t.titleTemplate)]).then(function(e){var t=angular.element(e[0]);return s('[ng-bind=\"title\"]',t[0]).removeAttr('ng-bind').html(e[1]),t[0].outerHTML})),t.contentTemplate&&(d.$template=e.all([d.$template,l(t.contentTemplate)]).then(function(e){var n=angular.element(e[0]),a=s('[ng-bind=\"content\"]',n[0]).removeAttr('ng-bind').html(e[1]);return t.templateUrl||a.next().remove(),n[0].outerHTML})),e.all(d).then(function(e){var n=p(e.$template);t.html&&(n=n.replace(/ng-bind=\"/gi,'ng-bind-html=\"'));var a=angular.element('<div>').html(n.trim()).contents(),r=o(a);return{locals:e,element:a,link:function(t){if(e.$scope=t,u){var n=i(u,e,!0);g&&angular.extend(n.instance,e);var o=angular.isObject(n)?n:n();a.data('$ngControllerController',o),a.children().data('$ngControllerController',o),c&&(t[c]=o)}return r.apply(null,arguments)}}})};var u={}}a.$inject=['$q','$http','$injector','$compile','$controller','$templateCache'],angular.module('mgcrea.ngStrap.typeahead',['mgcrea.ngStrap.tooltip','mgcrea.ngStrap.helpers.parseOptions']).provider('$bsTypeahead',function(){var e=this.defaults={animation:'am-fade',prefixClass:'typeahead',prefixEvent:'$typeahead',placement:'bottom-left',templateUrl:'typeahead/typeahead.tpl.html',trigger:'focus',container:!1,keyboard:!0,html:!1,delay:0,minLength:1,filter:'bsAsyncFilter',limit:6,autoSelect:!1,comparator:'',trimValue:!0};this.$get=['$window','$rootScope','$bsTooltip','$$rAF','$timeout',function(t,n,a,o,i){function r(t,n,r){var l={},u=angular.extend({},e,r);l=a(t,u);var c=r.scope,d=l.$scope;d.$resetMatches=function(){d.$matches=[],d.$activeIndex=u.autoSelect?0:-1},d.$resetMatches(),d.$activate=function(e){d.$$postDigest(function(){l.activate(e)})},d.$select=function(e,t){d.$$postDigest(function(){l.select(e)})},d.$isVisible=function(){return l.$isVisible()},l.update=function(e){d.$matches=e,d.$activeIndex>=e.length&&(d.$activeIndex=u.autoSelect?0:-1),s(d),o(l.$applyPlacement)},l.activate=function(e){d.$activeIndex=e},l.select=function(e){if(e!==-1){var t=d.$matches[e].value;n.$setViewValue(t),n.$render(),d.$resetMatches(),c&&c.$digest(),d.$emit(u.prefixEvent+'.select',t,e,l),angular.isDefined(u.onSelect)&&angular.isFunction(u.onSelect)&&u.onSelect(t,e,l)}},l.$isVisible=function(){return u.minLength&&n?d.$matches.length&&angular.isString(n.$viewValue)&&n.$viewValue.length>=u.minLength:!!d.$matches.length},l.$getIndex=function(e){var t;for(t=d.$matches.length;t--&&!angular.equals(d.$matches[t].value,e););return t},l.$onMouseDown=function(e){e.preventDefault(),e.stopPropagation()},l.$$updateScrollTop=function(e,t){if(t>-1&&t<e.children.length){var n=e.children[t],a=n.offsetTop,o=n.offsetTop+n.clientHeight,i=e.scrollTop,r=e.scrollTop+e.clientHeight;o>=i&&a<i?e.scrollTop=Math.max(0,e.scrollTop-e.clientHeight):o>r&&(e.scrollTop=a)}},l.$onKeyDown=function(e){/(38|40|13)/.test(e.keyCode)&&(!l.$isVisible()||13===e.keyCode&&d.$activeIndex===-1||(e.preventDefault(),e.stopPropagation()),13===e.keyCode&&d.$matches.length?l.select(d.$activeIndex):38===e.keyCode&&d.$activeIndex>0?d.$activeIndex--:40===e.keyCode&&d.$activeIndex<d.$matches.length-1?d.$activeIndex++:angular.isUndefined(d.$activeIndex)&&(d.$activeIndex=0),l.$$updateScrollTop(l.$element[0],d.$activeIndex),d.$digest())};var f=l.show;l.show=function(){f(),i(function(){l.$element&&(l.$element.on('mousedown',l.$onMouseDown),u.keyboard&&t&&t.on('keydown',l.$onKeyDown))},0,!1)};var p=l.hide;return l.hide=function(){l.$element&&l.$element.off('mousedown',l.$onMouseDown),u.keyboard&&t&&t.off('keydown',l.$onKeyDown),u.autoSelect||l.activate(-1),p()},l}function s(e){e.$$phase||e.$root&&e.$root.$$phase||e.$digest()}return r.defaults=e,r}]}).filter('bsAsyncFilter',['$filter',function(e){return function(t,n,a){return t&&angular.isFunction(t.then)?t.then(function(t){return e('filter')(t,n,a)}):e('filter')(t,n,a)}}]).directive('bsTypeahead',['$window','$parse','$q','$bsTypeahead','$bsParseOptions',function(e,t,n,a,o){var i=a.defaults;return{restrict:'EAC',require:'ngModel',link:function(e,t,n,r){t.off('change');var s={scope:e};angular.forEach(['template','templateUrl','controller','controllerAs','placement','container','delay','trigger','keyboard','html','animation','filter','limit','minLength','watchOptions','selectMode','autoSelect','comparator','id','prefixEvent','prefixClass'],function(e){angular.isDefined(n[e])&&(s[e]=n[e])});var l=/^(false|0|)$/i;angular.forEach(['html','container','trimValue','filter'],function(e){angular.isDefined(n[e])&&l.test(n[e])&&(s[e]=!1)}),angular.forEach(['onBeforeShow','onShow','onBeforeHide','onHide','onSelect'],function(t){var a='bs'+t.charAt(0).toUpperCase()+t.slice(1);angular.isDefined(n[a])&&(s[t]=e.$eval(n[a]))}),t.attr('autocomplete')||t.attr('autocomplete','off');var u=angular.isDefined(s.filter)?s.filter:i.filter,c=s.limit||i.limit,d=s.comparator||i.comparator,f=n.bsOptions;u&&(f+=' | '+u+':$viewValue',d&&(f+=':'+d)),c&&(f+=' | limitTo:'+c);var p=o(f),g=a(t,r,s);if(s.watchOptions){var m=p.$match[7].replace(/\\|.+/,'').replace(/\\(.*\\)/g,'').trim();e.$watchCollection(m,function(t,n){p.valuesFn(e,r).then(function(e){g.update(e),r.$render()})})}e.$watch(n.ngModel,function(t,n){e.$modelValue=t,p.valuesFn(e,r).then(function(e){return s.selectMode&&!e.length&&t.length>0?void r.$setViewValue(r.$viewValue.substring(0,r.$viewValue.length-1)):(e.length>c&&(e=e.slice(0,c)),g.update(e),void r.$render())})}),r.$formatters.push(function(e){var t=p.displayValue(e);return t?t:angular.isDefined(e)&&'object'!=typeof e?e:''}),r.$render=function(){if(r.$isEmpty(r.$viewValue))return t.val('');var e=g.$getIndex(r.$modelValue),n=e!==-1?g.$scope.$matches[e].label:r.$viewValue;n=angular.isObject(n)?p.displayValue(n):n;var a=n?n.toString().replace(/<(?:.|\\n)*?>/gm,''):'',o=t[0].selectionStart,i=t[0].selectionEnd;t.val(s.trimValue===!1?a:a.trim()),t[0].setSelectionRange(o,i)},e.$on('$destroy',function(){g&&g.destroy(),s=null,g=null})}}}]),angular.module('mgcrea.ngStrap.tooltip',['mgcrea.ngStrap.core','mgcrea.ngStrap.helpers.dimensions']).provider('$bsTooltip',function(){var e=this.defaults={animation:'am-fade',customClass:'',prefixClass:'tooltip',prefixEvent:'tooltip',container:!1,target:!1,placement:'top',templateUrl:'tooltip/tooltip.tpl.html',template:'',titleTemplate:!1,trigger:'hover focus',keyboard:!1,html:!1,show:!1,title:'',type:'',delay:0,autoClose:!1,bsEnabled:!0,mouseDownPreventDefault:!0,mouseDownStopPropagation:!0,viewport:{selector:'body',padding:0}};this.$get=['$window','$rootScope','$bsCompiler','$q','$templateCache','$http','$animate','$sce','bsDimensions','$$rAF','$timeout',function(n,a,o,i,r,s,l,u,c,d,f){function p(i,r){function s(){I.$emit(V.prefixEvent+'.show',F),angular.isDefined(V.onShow)&&angular.isFunction(V.onShow)&&V.onShow(F)}function p(){if(I.$emit(V.prefixEvent+'.hide',F),angular.isDefined(V.onHide)&&angular.isFunction(V.onHide)&&V.onHide(F),B===q){if(Y&&'focus'===V.trigger)return i[0].blur();M()}}function $(){var e=V.trigger.split(' ');angular.forEach(e,function(e){'click'===e||'contextmenu'===e?i.on(e,F.toggle):'manual'!==e&&(i.on('hover'===e?'mouseenter':'focus',F.enter),i.on('hover'===e?'mouseleave':'blur',F.leave),'button'===O&&'hover'!==e&&i.on(h?'touchstart':'mousedown',F.$onFocusElementMouseDown))})}function w(){for(var e=V.trigger.split(' '),t=e.length;t--;){var n=e[t];'click'===n||'contextmenu'===n?i.off(n,F.toggle):'manual'!==n&&(i.off('hover'===n?'mouseenter':'focus',F.enter),i.off('hover'===n?'mouseleave':'blur',F.leave),'button'===O&&'hover'!==n&&i.off(h?'touchstart':'mousedown',F.$onFocusElementMouseDown))}}function b(){'focus'!==V.trigger?B.on('keyup',F.$onKeyUp):i.on('keyup',F.$onFocusKeyUp)}function y(){'focus'!==V.trigger?B.off('keyup',F.$onKeyUp):i.off('keyup',F.$onFocusKeyUp)}function D(){f(function(){B.on('click',T),v.on('click',F.hide),j=!0},0,!1)}function S(){j&&(B.off('click',T),v.off('click',F.hide),j=!1)}function T(e){e.stopPropagation()}function x(e){e=e||V.target||i;var a=e[0],o='BODY'===a.tagName,r=a.getBoundingClientRect(),s={};for(var l in r)s[l]=r[l];null===s.width&&(s=angular.extend({},s,{width:r.right-r.left,height:r.bottom-r.top}));var u=o?{top:0,left:0}:c.offset(a),d={scroll:o?t.documentElement.scrollTop||t.body.scrollTop:e.prop('scrollTop')||0},f=o?{width:t.documentElement.clientWidth,height:n.innerHeight}:null;return angular.extend({},s,d,f,u)}function k(e,t,n,a){var o,i=e.split('-');switch(i[0]){case'right':o={top:t.top+t.height/2-a/2,left:t.left+t.width};break;case'bottom':o={top:t.top+t.height,left:t.left+t.width/2-n/2};break;case'left':o={top:t.top+t.height/2-a/2,left:t.left-n};break;default:o={top:t.top-a,left:t.left+t.width/2-n/2}}if(!i[1])return o;if('top'===i[0]||'bottom'===i[0])switch(i[1]){case'left':o.left=t.left;break;case'right':o.left=t.left+t.width-n}else if('left'===i[0]||'right'===i[0])switch(i[1]){case'top':o.top=t.top-a+t.height;break;case'bottom':o.top=t.top}return o}function C(e,t){var n=B[0],a=n.offsetWidth,o=n.offsetHeight,i=parseInt(c.css(n,'margin-top'),10),r=parseInt(c.css(n,'margin-left'),10);isNaN(i)&&(i=0),isNaN(r)&&(r=0),e.top=e.top+i,e.left=e.left+r,c.setOffset(n,angular.extend({using:function(e){B.css({top:Math.round(e.top)+'px',left:Math.round(e.left)+'px',right:''})}},e),0);var s=n.offsetWidth,l=n.offsetHeight;if('top'===t&&l!==o&&(e.top=e.top+o-l),!/top-left|top-right|bottom-left|bottom-right/.test(t)){var u=E(t,e,s,l);if(u.left?e.left+=u.left:e.top+=u.top,c.setOffset(n,e),/top|right|bottom|left/.test(t)){var d=/top|bottom/.test(t),f=d?2*u.left-a+s:2*u.top-o+l,p=d?'offsetWidth':'offsetHeight';A(f,n[p],d)}}}function E(e,t,n,a){var o={top:0,left:0};if(!F.$viewport)return o;var i=V.viewport&&V.viewport.padding||0,r=x(F.$viewport);if(/right|left/.test(e)){var s=t.top-i-r.scroll,l=t.top+i-r.scroll+a;s<r.top?o.top=r.top-s:l>r.top+r.height&&(o.top=r.top+r.height-l)}else{var u=t.left-i,c=t.left+i+n;u<r.left?o.left=r.left-u:c>r.right&&(o.left=r.left+r.width-c)}return o}function A(e,t,n){var a=m('.tooltip-arrow, .arrow',B[0]);a.css(n?'left':'top',50*(1-e/t)+'%').css(n?'top':'left','')}function M(){clearTimeout(N),F.$isShown&&null!==B&&(V.autoClose&&S(),V.keyboard&&y()),z&&(z.$destroy(),z=null),B&&(B.remove(),B=F.$element=null)}var F={},V=F.$options=angular.extend({},e,r),H=F.$promise=o.compile(V),I=F.$scope=V.scope&&V.scope.$new()||a.$new(),O=i[0].nodeName.toLowerCase();if(V.delay&&angular.isString(V.delay)){var P=V.delay.split(',').map(parseFloat);V.delay=P.length>1?{show:P[0],hide:P[1]}:P[0]}F.$id=V.id||i.attr('id')||'',V.title&&(I.title=u.trustAsHtml(V.title)),I.$setEnabled=function(e){I.$$postDigest(function(){F.setEnabled(e)})},I.$hide=function(){I.$$postDigest(function(){F.hide()})},I.$show=function(){I.$$postDigest(function(){F.show()})},I.$toggle=function(){I.$$postDigest(function(){F.toggle()})},F.$isShown=I.$isShown=!1;var N,U,L,B,R,z;H.then(function(e){L=e,F.init()}),F.init=function(){V.delay&&angular.isNumber(V.delay)&&(V.delay={show:V.delay,hide:V.delay}),'self'===V.container?R=i:angular.isElement(V.container)?R=V.container:V.container&&(R=m(V.container)),$(),V.target&&(V.target=angular.isElement(V.target)?V.target:m(V.target)),V.show&&I.$$postDigest(function(){'focus'===V.trigger?i[0].focus():F.show()})},F.destroy=function(){w(),M(),I.$destroy()},F.enter=function(){return clearTimeout(N),U='in',V.delay&&V.delay.show?void(N=setTimeout(function(){'in'===U&&F.show()},V.delay.show)):F.show()},F.show=function(){if(V.bsEnabled&&!F.$isShown){I.$emit(V.prefixEvent+'.show.before',F),angular.isDefined(V.onBeforeShow)&&angular.isFunction(V.onBeforeShow)&&V.onBeforeShow(F);var e,t;V.container?(e=R,t=R[0].lastChild?angular.element(R[0].lastChild):null):(e=null,t=i),B&&M(),z=F.$scope.$new(),B=F.$element=L.link(z,function(e,t){}),B.css({top:'-9999px',left:'-9999px',right:'auto',display:'block',visibility:'hidden'}),V.animation&&B.addClass(V.animation),V.type&&B.addClass(V.prefixClass+'-'+V.type),V.customClass&&B.addClass(V.customClass),t?t.after(B):e.prepend(B),F.$isShown=I.$isShown=!0,g(I),F.$applyPlacement(),angular.version.minor<=2?l.enter(B,e,t,s):l.enter(B,e,t).then(s),g(I),d(function(){B&&B.css({visibility:'visible'}),V.keyboard&&('focus'!==V.trigger&&F.focus(),b())}),V.autoClose&&D()}},F.leave=function(){return clearTimeout(N),U='out',V.delay&&V.delay.hide?void(N=setTimeout(function(){'out'===U&&F.hide()},V.delay.hide)):F.hide()};var Y,q;F.hide=function(e){F.$isShown&&(I.$emit(V.prefixEvent+'.hide.before',F),angular.isDefined(V.onBeforeHide)&&angular.isFunction(V.onBeforeHide)&&V.onBeforeHide(F),Y=e,q=B,null!==B&&(angular.version.minor<=2?l.leave(B,p):l.leave(B).then(p)),F.$isShown=I.$isShown=!1,g(I),V.keyboard&&null!==B&&y(),V.autoClose&&null!==B&&S())},F.toggle=function(e){e&&e.preventDefault(),F.$isShown?F.leave():F.enter()},F.focus=function(){B[0].focus()},F.setEnabled=function(e){V.bsEnabled=e},F.setViewport=function(e){V.viewport=e},F.$applyPlacement=function(){if(B){var t=V.placement,n=/\\s?auto?\\s?/i,a=n.test(t);a&&(t=t.replace(n,'')||e.placement),B.addClass(V.placement);var o=x(),i=B.prop('offsetWidth'),r=B.prop('offsetHeight');if(F.$viewport=V.viewport&&m(V.viewport.selector||V.viewport),a){var s=t,l=x(F.$viewport);/bottom/.test(s)&&o.bottom+r>l.bottom?t=s.replace('bottom','top'):/top/.test(s)&&o.top-r<l.top&&(t=s.replace('top','bottom')),/left/.test(s)&&o.left-i<l.left?t=t.replace('left','right'):/right/.test(s)&&o.right+i>l.width&&(t=t.replace('right','left')),B.removeClass(s).addClass(t)}var u=k(t,o,i,r);C(u,t)}},F.$onKeyUp=function(e){27===e.which&&F.$isShown&&(F.hide(),e.stopPropagation())},F.$onFocusKeyUp=function(e){27===e.which&&(i[0].blur(),e.stopPropagation())},F.$onFocusElementMouseDown=function(e){V.mouseDownPreventDefault&&e.preventDefault(),V.mouseDownStopPropagation&&e.stopPropagation(),F.$isShown?i[0].blur():i[0].focus()};var j=!1;return F}function g(e){e.$$phase||e.$root&&e.$root.$$phase||e.$digest()}function m(e,n){return angular.element((n||t).querySelectorAll(e))}var $=/(ip[ao]d|iphone|android)/gi.test(n.navigator.userAgent),h='createTouch'in n.document&&$,v=angular.element(n.document);return p}]}).directive('bsTooltip',['$window','$location','$sce','$parse','$bsTooltip','$$rAF',function(e,t,n,a,o,i){return{restrict:'EAC',scope:!0,link:function(e,t,a,r){var s,l={scope:e};angular.forEach(['template','templateUrl','controller','controllerAs','titleTemplate','placement','container','delay','trigger','html','animation','backdropAnimation','type','customClass','id'],function(e){angular.isDefined(a[e])&&(l[e]=a[e])});var u=/^(false|0|)$/i;angular.forEach(['html','container'],function(e){angular.isDefined(a[e])&&u.test(a[e])&&(l[e]=!1)}),angular.forEach(['onBeforeShow','onShow','onBeforeHide','onHide'],function(t){var n='bs'+t.charAt(0).toUpperCase()+t.slice(1);angular.isDefined(a[n])&&(l[t]=e.$eval(a[n]))});var c=t.attr('data-target');angular.isDefined(c)&&(u.test(c)?l.target=!1:l.target=c),e.hasOwnProperty('title')||(e.title=''),a.$observe('title',function(t){if(angular.isDefined(t)||!e.hasOwnProperty('title')){var a=e.title;e.title=n.trustAsHtml(t),angular.isDefined(a)&&i(function(){s&&s.$applyPlacement()})}}),a.$observe('disabled',function(e){e&&s.$isShown&&s.hide()}),a.bsTooltip&&e.$watch(a.bsTooltip,function(t,n){angular.isObject(t)?angular.extend(e,t):e.title=t,angular.isDefined(n)&&i(function(){s&&s.$applyPlacement()})},!0),a.bsShow&&e.$watch(a.bsShow,function(e,t){s&&angular.isDefined(e)&&(angular.isString(e)&&(e=!!e.match(/true|,?(tooltip),?/i)),e===!0?s.show():s.hide())}),a.bsEnabled&&e.$watch(a.bsEnabled,function(e,t){s&&angular.isDefined(e)&&(angular.isString(e)&&(e=!!e.match(/true|1|,?(tooltip),?/i)),e===!1?s.setEnabled(!1):s.setEnabled(!0))}),a.viewport&&e.$watch(a.viewport,function(e){s&&angular.isDefined(e)&&s.setViewport(e)}),s=o(t,l),e.$on('$destroy',function(){s&&s.destroy(),l=null,s=null})}}}]),angular.module('mgcrea.ngStrap.timepicker',['mgcrea.ngStrap.helpers.dateParser','mgcrea.ngStrap.helpers.dateFormatter','mgcrea.ngStrap.tooltip']).provider('$bsTimepicker',function(){var e=this.defaults={animation:'am-fade',defaultDate:'auto',prefixClass:'timepicker',placement:'bottom-left',templateUrl:'timepicker/timepicker.tpl.html',trigger:'focus',container:!1,keyboard:!0,html:!1,delay:{ show: 0, hide: 0 },useNative:!0,timeType:'date',timeFormat:'shortTime',timezone:null,modelTimeFormat:null,autoclose:!1,minTime:-(1/0),maxTime:+(1/0),length:5,hourStep:1,minuteStep:5,secondStep:5,roundDisplay:!1,iconUp:'glyphicon glyphicon-chevron-up',iconDown:'glyphicon glyphicon-chevron-down',arrowBehavior:'pager'};this.$get=['$window','$document','$rootScope','$sce','$bsDateFormatter','$bsTooltip','$timeout',function(t,n,a,o,i,r,s){function l(t,n,a){function o(e){var t=6e4*g.minuteStep;return new Date(Math.floor(e.getTime()/t)*t)}function l(e,n){var a=e+n;if(t[0].createTextRange){var o=t[0].createTextRange();o.collapse(!0),o.moveStart('character',e),o.moveEnd('character',a),o.select()}else t[0].setSelectionRange?t[0].setSelectionRange(e,a):angular.isUndefined(t[0].selectionStart)&&(t[0].selectionStart=e,t[0].selectionEnd=a)}function d(){t[0].focus()}var f=r(t,angular.extend({},e,a)),p=a.scope,g=f.$options,m=f.$scope,$=g.lang,h=function(e,t,n){return i.formatDate(e,t,$,n)},v=0,w=g.roundDisplay?o(new Date):new Date,b=n.$dateValue||w,y={hour:b.getHours(),meridian:b.getHours()<12,minute:b.getMinutes(),second:b.getSeconds(),millisecond:b.getMilliseconds()},D=i.getDatetimeFormat(g.timeFormat,$),S=i.hoursFormat(D),T=i.timeSeparator(D),x=i.minutesFormat(D),k=i.secondsFormat(D),C=i.showSeconds(D),E=i.showAM(D);m.$iconUp=g.iconUp,m.$iconDown=g.iconDown,m.$select=function(e,t){f.select(e,t)},m.$moveIndex=function(e,t){f.$moveIndex(e,t)},m.$switchMeridian=function(e){f.switchMeridian(e)},f.update=function(e){angular.isDate(e)&&!isNaN(e.getTime())?(f.$date=e,angular.extend(y,{hour:e.getHours(),minute:e.getMinutes(),second:e.getSeconds(),millisecond:e.getMilliseconds()}),f.$build()):f.$isBuilt||f.$build()},f.select=function(e,t,a){n.$dateValue&&!isNaN(n.$dateValue.getTime())||(n.$dateValue='today'===g.defaultDate?new Date:new Date(1970,0,1)),angular.isDate(e)||(e=new Date(e)),0===t?n.$dateValue.setHours(e.getHours()):1===t?n.$dateValue.setMinutes(e.getMinutes()):2===t&&n.$dateValue.setSeconds(e.getSeconds()),n.$setViewValue(angular.copy(n.$dateValue)),n.$render(),g.autoclose&&!a&&s(function(){f.hide(!0)})},f.switchMeridian=function(e){if(n.$dateValue&&!isNaN(n.$dateValue.getTime())){var t=(e||n.$dateValue).getHours();n.$dateValue.setHours(t<12?t+12:t-12),n.$setViewValue(angular.copy(n.$dateValue)),n.$render()}},f.$build=function(){var e,t,n=m.midIndex=parseInt(g.length/2,10),a=[];for(e=0;e<g.length;e++)t=new Date(1970,0,1,y.hour-(n-e)*g.hourStep),a.push({date:t,label:h(t,S),selected:f.$date&&f.$isSelected(t,0),disabled:f.$isDisabled(t,0)});var o,i=[];for(e=0;e<g.length;e++)o=new Date(1970,0,1,0,y.minute-(n-e)*g.minuteStep),i.push({date:o,label:h(o,x),selected:f.$date&&f.$isSelected(o,1),disabled:f.$isDisabled(o,1)});var r,s=[];for(e=0;e<g.length;e++)r=new Date(1970,0,1,0,0,y.second-(n-e)*g.secondStep),s.push({date:r,label:h(r,k),selected:f.$date&&f.$isSelected(r,2),disabled:f.$isDisabled(r,2)});var l=[];for(e=0;e<g.length;e++)C?l.push([a[e],i[e],s[e]]):l.push([a[e],i[e]]);m.rows=l,m.showSeconds=C,m.showAM=E,m.isAM=(f.$date||a[n].date).getHours()<12,m.timeSeparator=T,f.$isBuilt=!0},f.$isSelected=function(e,t){return!!f.$date&&(0===t?e.getHours()===f.$date.getHours():1===t?e.getMinutes()===f.$date.getMinutes():2===t?e.getSeconds()===f.$date.getSeconds():void 0)},f.$isDisabled=function(e,t){var n;return 0===t?n=e.getTime()+6e4*y.minute+1e3*y.second:1===t?n=e.getTime()+36e5*y.hour+1e3*y.second:2===t&&(n=e.getTime()+36e5*y.hour+6e4*y.minute),n<1*g.minTime||n>1*g.maxTime},m.$arrowAction=function(e,t){'picker'===g.arrowBehavior?f.$setTimeByStep(e,t):f.$moveIndex(e,t)},f.$setTimeByStep=function(e,t){var n=new Date(f.$date||b),a=n.getHours(),o=n.getMinutes(),i=n.getSeconds();0===t?n.setHours(a-parseInt(g.hourStep,10)*e):1===t?n.setMinutes(o-parseInt(g.minuteStep,10)*e):2===t&&n.setSeconds(i-parseInt(g.secondStep,10)*e),f.select(n,t,!0)},f.$moveIndex=function(e,t){var n;0===t?(n=new Date(1970,0,1,y.hour+e*g.length,y.minute,y.second),angular.extend(y,{hour:n.getHours()})):1===t?(n=new Date(1970,0,1,y.hour,y.minute+e*g.length*g.minuteStep,y.second),angular.extend(y,{minute:n.getMinutes()})):2===t&&(n=new Date(1970,0,1,y.hour,y.minute,y.second+e*g.length*g.secondStep),angular.extend(y,{second:n.getSeconds()})),f.$build()},f.$onMouseDown=function(e){if('input'!==e.target.nodeName.toLowerCase()&&e.preventDefault(),e.stopPropagation(),c){var t=angular.element(e.target);'button'!==t[0].nodeName.toLowerCase()&&(t=t.parent()),t.triggerHandler('click')}},f.$onKeyDown=function(e){if(/(38|37|39|40|13)/.test(e.keyCode)&&!e.shiftKey&&!e.altKey){if(e.preventDefault(),e.stopPropagation(),13===e.keyCode)return void f.hide(!0);var t=new Date(f.$date),n=t.getHours(),a=h(t,S).length,o=t.getMinutes(),i=h(t,x).length,r=t.getSeconds(),s=h(t,k).length,u=1,c=/(37|39)/.test(e.keyCode),d=2+1*C+1*E;c&&(37===e.keyCode?v=v<1?d-1:v-1:39===e.keyCode&&(v=v<d-1?v+1:0));var m=[0,a],$=0;38===e.keyCode&&($=-1),40===e.keyCode&&($=1);var w=2===v&&C,b=2===v&&!C||3===v&&C;0===v?(t.setHours(n+$*parseInt(g.hourStep,10)),a=h(t,S).length,m=[0,a]):1===v?(t.setMinutes(o+$*parseInt(g.minuteStep,10)),i=h(t,x).length,m=[a+u,i]):w?(t.setSeconds(r+$*parseInt(g.secondStep,10)),s=h(t,k).length,m=[a+u+i+u,s]):b&&(c||f.switchMeridian(),m=[a+u+i+u+(s+u)*C,2]),f.select(t,v,!0),l(m[0],m[1]),p.$digest()}};var A=f.init;f.init=function(){return u&&g.useNative?(t.prop('type','time'),void t.css('-webkit-appearance','textfield')):(c&&(t.prop('type','text'),t.attr('readonly','true'),t.on('click',d)),void A())};var M=f.destroy;f.destroy=function(){u&&g.useNative&&t.off('click',d),M()};var F=f.show;f.show=function(){!c&&t.attr('readonly')||t.attr('disabled')||(F(),s(function(){f.$element&&f.$element.on(c?'touchstart':'mousedown',f.$onMouseDown),g.keyboard&&t&&t.on('keydown',f.$onKeyDown)},0,!1))};var V=f.hide;return f.hide=function(e){f.$isShown&&(f.$element&&f.$element.off(c?'touchstart':'mousedown',f.$onMouseDown),g.keyboard&&t&&t.off('keydown',f.$onKeyDown),V(e))},f}var u=/(ip[ao]d|iphone|android)/gi.test(t.navigator.userAgent),c='createTouch'in t.document&&u;return e.lang||(e.lang=i.getDefaultLocale()),l.defaults=e,l}]}).directive('bsTimepicker',['$window','$parse','$q','$bsDateFormatter','$bsDateParser','$bsTimepicker',function(e,t,a,o,i,r){var s=r.defaults,l=/(ip[ao]d|iphone|android)/gi.test(e.navigator.userAgent);return{restrict:'EAC',require:'ngModel',link:function(e,t,a,u){function c(e){if(angular.isDate(e)){var t=isNaN(f.minTime)||new Date(e.getTime()).setFullYear(1970,0,1)>=f.minTime,n=isNaN(f.maxTime)||new Date(e.getTime()).setFullYear(1970,0,1)<=f.maxTime,a=t&&n;u.$setValidity('date',a),u.$setValidity('min',t),u.$setValidity('max',n),a&&(u.$dateValue=e)}}function d(){return!u.$dateValue||isNaN(u.$dateValue.getTime())?'':$(u.$dateValue,f.timeFormat)}var f={scope:e};angular.forEach(['template','templateUrl','controller','controllerAs','placement','container','delay','trigger','keyboard','html','animation','autoclose','timeType','timeFormat','timezone','modelTimeFormat','useNative','hourStep','minuteStep','secondStep','length','arrowBehavior','iconUp','iconDown','roundDisplay','id','prefixClass','prefixEvent','defaultDate'],function(e){angular.isDefined(a[e])&&(f[e]=a[e])});var p=/^(false|0|)$/i;angular.forEach(['html','container','autoclose','useNative','roundDisplay'],function(e){angular.isDefined(a[e])&&p.test(a[e])&&(f[e]=!1)}),angular.forEach(['onBeforeShow','onShow','onBeforeHide','onHide'],function(t){var n='bs'+t.charAt(0).toUpperCase()+t.slice(1);angular.isDefined(a[n])&&(f[t]=e.$eval(a[n]))}),l&&(f.useNative||s.useNative)&&(f.timeFormat='HH:mm');var g=r(t,u,f);f=g.$options;var m=f.lang,$=function(e,t,n){return o.formatDate(e,t,m,n)};a.bsShow&&e.$watch(a.bsShow,function(e,t){g&&angular.isDefined(e)&&(angular.isString(e)&&(e=!!e.match(/true|,?(timepicker),?/i)),e===!0?g.show():g.hide())});var h=i({format:f.timeFormat,lang:m});angular.forEach(['minTime','maxTime'],function(e){angular.isDefined(a[e])&&a.$observe(e,function(t){g.$options[e]=h.getTimeForAttribute(e,t),isNaN(g.$options[e])||g.$build(),c(u.$dateValue)})}),e.$watch(a.ngModel,function(e,t){g.update(u.$dateValue)},!0),u.$parsers.unshift(function(e){var t;if(!e)return u.$setValidity('date',!0),null;var a=angular.isDate(e)?e:h.parse(e,u.$dateValue);return!a||isNaN(a.getTime())?(u.$setValidity('date',!1),n):(c(a),'string'===f.timeType?(t=h.timezoneOffsetAdjust(a,f.timezone,!0),$(t,f.modelTimeFormat||f.timeFormat)):(t=h.timezoneOffsetAdjust(u.$dateValue,f.timezone,!0),'number'===f.timeType?t.getTime():'unix'===f.timeType?t.getTime()/1e3:'iso'===f.timeType?t.toISOString():new Date(t)))}),u.$formatters.push(function(e){var t;return t=angular.isUndefined(e)||null===e?NaN:angular.isDate(e)?e:'string'===f.timeType?h.parse(e,null,f.modelTimeFormat):'unix'===f.timeType?new Date(1e3*e):new Date(e),u.$dateValue=h.timezoneOffsetAdjust(t,f.timezone),d()}),u.$render=function(){t.val(d())},e.$on('$destroy',function(){g&&g.destroy(),f=null,g=null})}}}]),angular.module('mgcrea.ngStrap.tab',[]).provider('$bsTab',function(){var e=this.defaults={animation:'am-fade',template:'tab/tab.tpl.html',navClass:'nav-tabs',activeClass:'active'},t=this.controller=function(t,n,a){var o=this;o.$options=angular.copy(e),angular.forEach(['animation','navClass','activeClass'],function(e){angular.isDefined(a[e])&&(o.$options[e]=a[e])}),t.$navClass=o.$options.navClass,t.$activeClass=o.$options.activeClass,o.$panes=t.$panes=[],o.$activePaneChangeListeners=o.$viewChangeListeners=[],o.$push=function(e){angular.isUndefined(o.$panes.$active)&&t.$setActive(e.name||0),o.$panes.push(e)},o.$remove=function(e){var t,n=o.$panes.indexOf(e),a=o.$panes.$active;t=angular.isString(a)?o.$panes.map(function(e){return e.name}).indexOf(a):o.$panes.$active,o.$panes.splice(n,1),n<t?t--:n===t&&t===o.$panes.length&&t--,t>=0&&t<o.$panes.length?o.$setActive(o.$panes[t].name||t):o.$setActive()},o.$setActive=t.$setActive=function(e){o.$panes.$active=e,o.$activePaneChangeListeners.forEach(function(e){e()})},o.$isActive=t.$isActive=function(e,t){return o.$panes.$active===e.name||o.$panes.$active===t}};this.$get=function(){var n={};return n.defaults=e,n.controller=t,n}}).directive('bsTabs',['$window','$animate','$bsTab','$parse',function(e,t,n,a){var o=n.defaults;return{require:['?ngModel','bsTabs'],transclude:!0,scope:!0,controller:['$scope','$element','$attrs',n.controller],templateUrl:function(e,t){return t.template||o.template},link:function(e,t,n,o){var i=o[0],r=o[1];if(i&&(r.$activePaneChangeListeners.push(function(){i.$setViewValue(r.$panes.$active)}),i.$formatters.push(function(e){return r.$setActive(e),e})),n.bsActivePane){var s=a(n.bsActivePane);r.$activePaneChangeListeners.push(function(){s.assign(e,r.$panes.$active)}),e.$watch(n.bsActivePane,function(e,t){r.$setActive(e)},!0)}}}}]).directive('bsPane',['$window','$animate','$sce',function(e,t,n){return{require:['^?ngModel','^bsTabs'],scope:!0,link:function(e,a,o,i){function r(){var n=s.$panes.indexOf(e);t[s.$isActive(e,n)?'addClass':'removeClass'](a,s.$options.activeClass)}var s=i[1];a.addClass('tab-pane'),o.$observe('title',function(t,a){e.title=n.trustAsHtml(t)}),e.name=o.name,s.$options.animation&&a.addClass(s.$options.animation),o.$observe('disabled',function(t,n){e.disabled=e.$eval(t)}),s.$push(e),e.$on('$destroy',function(){s.$remove(e)}),s.$activePaneChangeListeners.push(function(){r()}),r()}}}]),angular.module('mgcrea.ngStrap.select',['mgcrea.ngStrap.tooltip','mgcrea.ngStrap.helpers.parseOptions']).provider('$bsSelect',function(){var e=this.defaults={animation:'am-fade',prefixClass:'select',prefixEvent:'$select',placement:'bottom-left',templateUrl:'select/select.tpl.html',trigger:'focus',container:!1,keyboard:!0,html:!1,delay:0,multiple:!1,allNoneButtons:!1,sort:!0,caretHtml:'&nbsp;<span class=\"caret\"></span>',placeholder:'Choose among the following...',allText:'All',noneText:'None',maxLength:3,maxLengthHtml:'selected',iconCheckmark:'glyphicon glyphicon-ok',toggle:!1};this.$get=['$window','$document','$rootScope','$bsTooltip','$timeout',function(t,a,o,i,r){function s(o,s,l){var c={},d=angular.extend({},e,l);c=i(o,d);var f=c.$scope;f.$matches=[],d.multiple?f.$activeIndex=[]:f.$activeIndex=-1,f.$isMultiple=d.multiple,f.$showAllNoneButtons=d.allNoneButtons&&d.multiple,f.$iconCheckmark=d.iconCheckmark,f.$allText=d.allText,f.$noneText=d.noneText,f.$activate=function(e){f.$$postDigest(function(){c.activate(e)})},f.$select=function(e,t){f.$$postDigest(function(){c.select(e)})},f.$isVisible=function(){return c.$isVisible()},f.$isActive=function(e){return c.$isActive(e)},f.$selectAll=function(){for(var e=0;e<f.$matches.length;e++)f.$isActive(e)||f.$select(e)},f.$selectNone=function(){for(var e=0;e<f.$matches.length;e++)f.$isActive(e)&&f.$select(e)},c.update=function(e){f.$matches=e,c.$updateActiveIndex()},c.activate=function(e){return d.multiple?(c.$isActive(e)?f.$activeIndex.splice(f.$activeIndex.indexOf(e),1):f.$activeIndex.push(e),d.sort&&f.$activeIndex.sort(function(e,t){return e-t})):f.$activeIndex=e,f.$activeIndex},c.select=function(e){if(!(angular.isUndefined(e)||e<0||e>=f.$matches.length)){var t=f.$matches[e].value;f.$apply(function(){c.activate(e),d.multiple?s.$setViewValue(f.$activeIndex.map(function(e){return angular.isUndefined(f.$matches[e])?null:f.$matches[e].value})):(d.toggle?s.$setViewValue(t===s.$modelValue?n:t):s.$setViewValue(t),c.hide())}),f.$emit(d.prefixEvent+'.select',t,e,c),angular.isDefined(d.onSelect)&&angular.isFunction(d.onSelect)&&d.onSelect(t,e,c)}},c.$updateActiveIndex=function(){d.multiple?angular.isArray(s.$modelValue)?f.$activeIndex=s.$modelValue.map(function(e){return c.$getIndex(e)}):f.$activeIndex=[]:angular.isDefined(s.$modelValue)&&f.$matches.length?f.$activeIndex=c.$getIndex(s.$modelValue):f.$activeIndex=-1},c.$isVisible=function(){return d.minLength&&s?f.$matches.length&&s.$viewValue.length>=d.minLength:f.$matches.length},c.$isActive=function(e){return d.multiple?f.$activeIndex.indexOf(e)!==-1:f.$activeIndex===e},c.$getIndex=function(e){var t;for(t=f.$matches.length;t--&&!angular.equals(f.$matches[t].value,e););return t},c.$onMouseDown=function(e){if(e.preventDefault(),e.stopPropagation(),u){var t,n=angular.element(e.target);if('A'!==e.target.nodeName)for(var a=n.parent();!t&&a.length>0;)'A'===a[0].nodeName&&(t=a),a=a.parent();t?angular.element(t).triggerHandler('click'):n.triggerHandler('click')}},c.$onKeyDown=function(e){if(/(9|13|38|40)/.test(e.keyCode))return 9!==e.keyCode&&(e.preventDefault(),e.stopPropagation()),d.multiple&&9===e.keyCode?c.hide():d.multiple||13!==e.keyCode&&9!==e.keyCode?void(d.multiple||(38===e.keyCode&&f.$activeIndex>0?f.$activeIndex--:38===e.keyCode&&f.$activeIndex<0?f.$activeIndex=f.$matches.length-1:40===e.keyCode&&f.$activeIndex<f.$matches.length-1?f.$activeIndex++:angular.isUndefined(f.$activeIndex)&&(f.$activeIndex=0),f.$digest())):c.select(f.$activeIndex)},c.$isIE=function(){var e=t.navigator.userAgent;return e.indexOf('MSIE ')>0||e.indexOf('Trident/')>0||e.indexOf('Edge/')>0;\n},c.$selectScrollFix=function(e){'UL'===a[0].activeElement.tagName&&(e.preventDefault(),e.stopImmediatePropagation(),e.target.focus())};var p=c.show;c.show=function(){p(),d.multiple&&c.$element.addClass('select-multiple'),r(function(){c.$element.on(u?'touchstart':'mousedown',c.$onMouseDown),d.keyboard&&o.on('keydown',c.$onKeyDown)},0,!1)};var g=c.hide;return c.hide=function(){!d.multiple&&angular.isUndefined(s.$modelValue)&&(f.$activeIndex=-1),c.$element.off(u?'touchstart':'mousedown',c.$onMouseDown),d.keyboard&&o.off('keydown',c.$onKeyDown),g(!0)},c}var l=/(ip[ao]d|iphone|android)/gi.test(t.navigator.userAgent),u='createTouch'in t.document&&l;return s.defaults=e,s}]}).directive('bsSelect',['$window','$parse','$q','$bsSelect','$bsParseOptions',function(e,t,n,a,o){var i=a.defaults;return{restrict:'EAC',require:'ngModel',link:function(e,t,n,r){var s={scope:e,placeholder:i.placeholder};angular.forEach(['template','templateUrl','controller','controllerAs','placement','container','delay','trigger','keyboard','html','animation','placeholder','allNoneButtons','maxLength','maxLengthHtml','allText','noneText','iconCheckmark','autoClose','id','sort','caretHtml','prefixClass','prefixEvent','toggle'],function(e){angular.isDefined(n[e])&&(s[e]=n[e])});var l=/^(false|0|)$/i;angular.forEach(['html','container','allNoneButtons','sort'],function(e){angular.isDefined(n[e])&&l.test(n[e])&&(s[e]=!1)}),angular.forEach(['onBeforeShow','onShow','onBeforeHide','onHide','onSelect'],function(t){var a='bs'+t.charAt(0).toUpperCase()+t.slice(1);angular.isDefined(n[a])&&(s[t]=e.$eval(n[a]))});var u=t.attr('data-multiple');if(angular.isDefined(u)&&(l.test(u)?s.multiple=!1:s.multiple=u),'select'===t[0].nodeName.toLowerCase()){var c=t;c.css('display','none'),t=angular.element('<button type=\"button\" class=\"btn btn-default\"></button>'),c.after(t)}var d=o(n.bsOptions),f=a(t,r,s);f.$isIE()&&t[0].addEventListener('blur',f.$selectScrollFix);var p=d.$match[7].replace(/\\|.+/,'').trim();e.$watch(p,function(t,n){d.valuesFn(e,r).then(function(e){f.update(e),r.$render()})},!0),e.$watch(n.ngModel,function(e,t){f.$updateActiveIndex(),r.$render()},!0),r.$render=function(){var e,n;s.multiple&&angular.isArray(r.$modelValue)?(e=r.$modelValue.map(function(e){return n=f.$getIndex(e),n!==-1&&f.$scope.$matches[n].label}).filter(angular.isDefined),e=e.length>(s.maxLength||i.maxLength)?e.length+' '+(s.maxLengthHtml||i.maxLengthHtml):e.join(', ')):(n=f.$getIndex(r.$modelValue),e=n!==-1&&f.$scope.$matches[n].label),t.html((e||s.placeholder)+(s.caretHtml||i.caretHtml))},s.multiple&&(r.$isEmpty=function(e){return!e||0===e.length}),e.$on('$destroy',function(){f&&f.destroy(),s=null,f=null})}}}]),angular.module('mgcrea.ngStrap.scrollspy',['mgcrea.ngStrap.helpers.debounce','mgcrea.ngStrap.helpers.dimensions']).provider('$bsScrollspy',function(){var e=this.$$spies={},n=this.defaults={debounce:150,throttle:100,offset:100};this.$get=['$window','$document','$rootScope','bsDimensions','bsDebounce','bsThrottle',function(a,o,i,r,s,l){function u(e,t){return e[0].nodeName&&e[0].nodeName.toLowerCase()===t.toLowerCase()}function c(o){var c=angular.extend({},n,o);c.element||(c.element=p);var g=u(c.element,'body'),m=g?d:c.element,$=g?'window':c.id;if(e[$])return e[$].$$count++,e[$];var h,v,w,b,y,D,S,T,x={},k=x.$trackedElements=[],C=[];return x.init=function(){this.$$count=1,b=s(this.checkPosition,c.debounce),y=l(this.checkPosition,c.throttle),m.on('click',this.checkPositionWithEventLoop),d.on('resize',b),m.on('scroll',y),D=s(this.checkOffsets,c.debounce),h=i.$on('$viewContentLoaded',D),v=i.$on('$includeContentLoaded',D),D(),$&&(e[$]=x)},x.destroy=function(){this.$$count--,this.$$count>0||(m.off('click',this.checkPositionWithEventLoop),d.off('resize',b),m.off('scroll',y),h(),v(),$&&delete e[$])},x.checkPosition=function(){if(C.length){if(T=(g?a.pageYOffset:m.prop('scrollTop'))||0,S=Math.max(a.innerHeight,f.prop('clientHeight')),T<C[0].offsetTop&&w!==C[0].target)return x.$activateElement(C[0]);for(var e=C.length;e--;)if(!angular.isUndefined(C[e].offsetTop)&&null!==C[e].offsetTop&&w!==C[e].target&&!(T<C[e].offsetTop||C[e+1]&&T>C[e+1].offsetTop))return x.$activateElement(C[e])}},x.checkPositionWithEventLoop=function(){setTimeout(x.checkPosition,1)},x.$activateElement=function(e){if(w){var t=x.$getTrackedElement(w);t&&(t.source.removeClass('active'),u(t.source,'li')&&u(t.source.parent().parent(),'li')&&t.source.parent().parent().removeClass('active'))}w=e.target,e.source.addClass('active'),u(e.source,'li')&&u(e.source.parent().parent(),'li')&&e.source.parent().parent().addClass('active')},x.$getTrackedElement=function(e){return k.filter(function(t){return t.target===e})[0]},x.checkOffsets=function(){angular.forEach(k,function(e){var n=t.querySelector(e.target);e.offsetTop=n?r.offset(n).top:null,c.offset&&null!==e.offsetTop&&(e.offsetTop-=1*c.offset)}),C=k.filter(function(e){return null!==e.offsetTop}).sort(function(e,t){return e.offsetTop-t.offsetTop}),b()},x.trackElement=function(e,t){k.push({target:e,source:t})},x.untrackElement=function(e,t){for(var n,a=k.length;a--;)if(k[a].target===e&&k[a].source===t){n=a;break}k.splice(n,1)},x.activate=function(e){k[e].addClass('active')},x.init(),x}var d=angular.element(a),f=angular.element(o.prop('documentElement')),p=angular.element(a.document.body);return c}]}).directive('bsScrollspy',['$rootScope','bsDebounce','bsDimensions','$bsScrollspy',function(e,t,n,a){return{restrict:'EAC',link:function(e,t,n){var o={scope:e};angular.forEach(['offset','target'],function(e){angular.isDefined(n[e])&&(o[e]=n[e])});var i=a(o);i.trackElement(o.target,t),e.$on('$destroy',function(){i&&(i.untrackElement(o.target,t),i.destroy()),o=null,i=null})}}}]).directive('bsScrollspyList',['$rootScope','bsDebounce','bsDimensions','$bsScrollspy',function(e,t,n,a){return{restrict:'A',compile:function(e,t){var n=e[0].querySelectorAll('li > a[href]');angular.forEach(n,function(e){var t=angular.element(e);t.parent().attr('bs-scrollspy','').attr('data-target',t.attr('href'))})}}}]),angular.module('mgcrea.ngStrap.popover',['mgcrea.ngStrap.tooltip']).provider('$bsPopover',function(){var e=this.defaults={animation:'am-fade',customClass:'',container:!1,target:!1,placement:'right',templateUrl:'popover/popover.tpl.html',contentTemplate:!1,trigger:'click',keyboard:!0,html:!1,title:'',content:'',delay:0,autoClose:!1};this.$get=['$bsTooltip',function(t){function n(n,a){var o=angular.extend({},e,a),i=t(n,o);return o.content&&(i.$scope.content=o.content),i}return n}]}).directive('bsPopover',['$window','$sce','$bsPopover',function(e,t,n){var a=e.requestAnimationFrame||e.setTimeout;return{restrict:'EAC',scope:!0,link:function(e,o,i){var r,s={scope:e};angular.forEach(['template','templateUrl','controller','controllerAs','contentTemplate','placement','container','delay','trigger','html','animation','customClass','autoClose','id','prefixClass','prefixEvent','bsEnabled'],function(e){angular.isDefined(i[e])&&(s[e]=i[e])});var l=/^(false|0|)$/i;angular.forEach(['html','container','autoClose'],function(e){angular.isDefined(i[e])&&l.test(i[e])&&(s[e]=!1)}),angular.forEach(['onBeforeShow','onShow','onBeforeHide','onHide'],function(t){var n='bs'+t.charAt(0).toUpperCase()+t.slice(1);angular.isDefined(i[n])&&(s[t]=e.$eval(i[n]))});var u=o.attr('data-target');angular.isDefined(u)&&(l.test(u)?s.target=!1:s.target=u),angular.forEach(['title','content'],function(n){i[n]&&i.$observe(n,function(o,i){e[n]=t.trustAsHtml(o),angular.isDefined(i)&&a(function(){r&&r.$applyPlacement()})})}),i.bsPopover&&e.$watch(i.bsPopover,function(t,n){angular.isObject(t)?angular.extend(e,t):e.content=t,angular.isDefined(n)&&a(function(){r&&r.$applyPlacement()})},!0),i.bsShow&&e.$watch(i.bsShow,function(e,t){r&&angular.isDefined(e)&&(angular.isString(e)&&(e=!!e.match(/true|,?(popover),?/i)),e===!0?r.show():r.hide())}),i.bsEnabled&&e.$watch(i.bsEnabled,function(e){r&&angular.isDefined(e)&&(angular.isString(e)&&(e=!!e.match(/true|1|,?(popover),?/i)),e===!1?r.setEnabled(!1):r.setEnabled(!0))}),i.viewport&&e.$watch(i.viewport,function(e){r&&angular.isDefined(e)&&r.setViewport(e)}),r=n(o,s),e.$on('$destroy',function(){r&&r.destroy(),s=null,r=null})}}}]),angular.module('mgcrea.ngStrap.navbar',[]).provider('$bsNavbar',function(){var e=this.defaults={activeClass:'active',routeAttr:'data-match-route',strict:!1};this.$get=function(){return{defaults:e}}}).directive('bsNavbar',['$window','$location','$bsNavbar',function(e,t,n){var a=n.defaults;return{restrict:'A',link:function(e,n,o,i){var r=angular.copy(a);angular.forEach(Object.keys(a),function(e){angular.isDefined(o[e])&&(r[e]=o[e])}),e.$watch(function(){return t.path()},function(e,t){var a=n[0].querySelectorAll('li['+r.routeAttr+']');angular.forEach(a,function(t){var n=angular.element(t),a=n.attr(r.routeAttr).replace('/','\\\\/');r.strict&&(a='^'+a+'$');var o=new RegExp(a,'i');o.test(e)?n.addClass(r.activeClass):n.removeClass(r.activeClass)})})}}}]),angular.module('mgcrea.ngStrap.modal',['mgcrea.ngStrap.core','mgcrea.ngStrap.helpers.dimensions']).provider('$bsModal',function(){var e=this.defaults={animation:'am-fade',backdropAnimation:'am-fade',customClass:'',prefixClass:'modal',prefixEvent:'modal',placement:'top',templateUrl:'modal/modal.tpl.html',template:'',contentTemplate:!1,container:!1,element:null,backdrop:!0,keyboard:!0,html:!1,show:!0,size:null,zIndex:null};this.$get=['$window','$rootScope','$bsCompiler','$animate','$timeout','$sce','bsDimensions',function(n,a,o,i,r,s,l){function u(t){function n(){C.$emit(x.prefixEvent+'.show',T),angular.isDefined(x.onShow)&&angular.isFunction(x.onShow)&&x.onShow(T)}function r(){C.$emit(x.prefixEvent+'.hide',T),angular.isDefined(x.onHide)&&angular.isFunction(x.onHide)&&x.onHide(T),d('.modal').length<=0&&g.removeClass(x.prefixClass+'-open'),x.animation&&g.removeClass(x.prefixClass+'-with-'+x.animation)}function l(){x.backdrop&&(A.on('click',y),F.on('click',y),F.on('wheel',D))}function u(){x.backdrop&&(A.off('click',y),F.off('click',y),F.off('wheel',D))}function w(){x.keyboard&&A.on('keyup',T.$onKeyUp)}function b(){x.keyboard&&A.off('keyup',T.$onKeyUp)}function y(e){e.target===e.currentTarget&&('static'===x.backdrop?T.focus():T.hide())}function D(e){e.preventDefault()}function S(){T.$isShown&&null!==A&&(u(),b()),M&&(M.$destroy(),M=null),A&&(A.remove(),A=T.$element=null)}var T={},x=T.$options=angular.extend({},e,t),k=T.$promise=o.compile(x),C=T.$scope=x.scope&&x.scope.$new()||a.$new();x.element||x.container||(x.container='body'),x.zIndex&&($=parseInt(x.zIndex,10),h=$-10),T.$id=x.id||x.element&&x.element.attr('id')||'',f(['title','content'],function(e){x[e]&&(C[e]=s.trustAsHtml(x[e]))}),C.$hide=function(){C.$$postDigest(function(){T.hide()})},C.$show=function(){C.$$postDigest(function(){T.show()})},C.$toggle=function(){C.$$postDigest(function(){T.toggle()})},T.$isShown=C.$isShown=!1;var E,A,M,F=angular.element('<div class=\"'+x.prefixClass+'-backdrop\"/>');return F.css({position:'fixed',top:'0px',left:'0px',bottom:'0px',right:'0px'}),k.then(function(e){E=e,T.init()}),T.init=function(){x.show&&C.$$postDigest(function(){T.show()})},T.destroy=function(){S(),F&&(F.remove(),F=null),C.$destroy()},T.show=function(){if(!T.$isShown){var e,t;if(angular.isElement(x.container)?(e=x.container,t=x.container[0].lastChild?angular.element(x.container[0].lastChild):null):x.container?(e=d(x.container),t=e[0]&&e[0].lastChild?angular.element(e[0].lastChild):null):(e=null,t=x.element),A&&S(),M=T.$scope.$new(),A=T.$element=E.link(M,function(e,t){}),x.backdrop&&(A.css({'z-index':$+20*m}),F.css({'z-index':h+20*m}),m++),!C.$emit(x.prefixEvent+'.show.before',T).defaultPrevented){angular.isDefined(x.onBeforeShow)&&angular.isFunction(x.onBeforeShow)&&x.onBeforeShow(T),A.css({display:'block'}).addClass(x.placement),x.customClass&&A.addClass(x.customClass),x.size&&v[x.size]&&angular.element(d('.modal-dialog',A[0])).addClass(v[x.size]),x.animation&&(x.backdrop&&F.addClass(x.backdropAnimation),A.addClass(x.animation)),x.backdrop&&i.enter(F,g,null),angular.version.minor<=2?i.enter(A,e,t,n):i.enter(A,e,t).then(n),T.$isShown=C.$isShown=!0,c(C);var a=A[0];p(function(){a.focus()}),g.addClass(x.prefixClass+'-open'),x.animation&&g.addClass(x.prefixClass+'-with-'+x.animation),l(),w()}}},T.hide=function(){T.$isShown&&(C.$emit(x.prefixEvent+'.hide.before',T).defaultPrevented||(angular.isDefined(x.onBeforeHide)&&angular.isFunction(x.onBeforeHide)&&x.onBeforeHide(T),angular.version.minor<=2?i.leave(A,r):i.leave(A).then(r),x.backdrop&&(m--,i.leave(F)),T.$isShown=C.$isShown=!1,c(C),u(),b()))},T.toggle=function(){T.$isShown?T.hide():T.show()},T.focus=function(){A[0].focus()},T.$onKeyUp=function(e){27===e.which&&T.$isShown&&(T.hide(),e.stopPropagation())},T}function c(e){e.$$phase||e.$root&&e.$root.$$phase||e.$digest()}function d(e,n){return angular.element((n||t).querySelectorAll(e))}var f=angular.forEach,p=n.requestAnimationFrame||n.setTimeout,g=angular.element(n.document.body),m=0,$=1050,h=1040,v={lg:'modal-lg',sm:'modal-sm'};return u}]}).directive('bsModal',['$window','$sce','$parse','$bsModal',function(e,t,n,a){return{restrict:'EAC',scope:!0,link:function(e,n,o,i){var r={scope:e,element:n,show:!1};angular.forEach(['template','templateUrl','controller','controllerAs','contentTemplate','placement','backdrop','keyboard','html','container','animation','backdropAnimation','id','prefixEvent','prefixClass','customClass','modalClass','size','zIndex'],function(e){angular.isDefined(o[e])&&(r[e]=o[e])}),r.modalClass&&(r.customClass=r.modalClass);var s=/^(false|0|)$/i;angular.forEach(['backdrop','keyboard','html','container'],function(e){angular.isDefined(o[e])&&s.test(o[e])&&(r[e]=!1)}),angular.forEach(['onBeforeShow','onShow','onBeforeHide','onHide'],function(t){var n='bs'+t.charAt(0).toUpperCase()+t.slice(1);angular.isDefined(o[n])&&(r[t]=e.$eval(o[n]))}),angular.forEach(['title','content'],function(n){o[n]&&o.$observe(n,function(a,o){e[n]=t.trustAsHtml(a)})}),o.bsModal&&e.$watch(o.bsModal,function(t,n){angular.isObject(t)?angular.extend(e,t):e.content=t},!0);var l=a(r);n.on(o.trigger||'click',l.toggle),e.$on('$destroy',function(){l&&l.destroy(),r=null,l=null})}}}]),angular.version.minor<3&&angular.version.dot<14&&angular.module('ng').factory('$$rAF',['$window','$timeout',function(e,t){var n=e.requestAnimationFrame||e.webkitRequestAnimationFrame||e.mozRequestAnimationFrame,a=e.cancelAnimationFrame||e.webkitCancelAnimationFrame||e.mozCancelAnimationFrame||e.webkitCancelRequestAnimationFrame,o=!!n,i=o?function(e){var t=n(e);return function(){a(t)}}:function(e){var n=t(e,16.66,!1);return function(){t.cancel(n)}};return i.supported=o,i}]),angular.module('mgcrea.ngStrap.helpers.parseOptions',[]).provider('$bsParseOptions',function(){var e=this.defaults={regexp:/^\\s*(.*?)(?:\\s+as\\s+(.*?))?(?:\\s+group\\s+by\\s+(.*))?\\s+for\\s+(?:([\\$\\w][\\$\\w]*)|(?:\\(\\s*([\\$\\w][\\$\\w]*)\\s*,\\s*([\\$\\w][\\$\\w]*)\\s*\\)))\\s+in\\s+(.*?)(?:\\s+track\\s+by\\s+(.*?))?$/};this.$get=['$parse','$q',function(t,n){function a(a,o){function i(e,t){return e.map(function(e,n){var a,o,i={};return i[c]=e,a=u(t,i),o=p(t,i),{label:a,value:o,index:n}})}var r={},s=angular.extend({},e,o);r.$values=[];var l,u,c,d,f,p,g;return r.init=function(){r.$match=l=a.match(s.regexp),u=t(l[2]||l[1]),c=l[4]||l[6],d=l[5],f=t(l[3]||''),p=t(l[2]?l[1]:c),g=t(l[7])},r.valuesFn=function(e,t){return n.when(g(e,t)).then(function(t){return angular.isArray(t)||(t=[]),r.$values=t.length?i(t,e):[],r.$values})},r.displayValue=function(e){var t={};return t[c]=e,u(t)},r.init(),r}return a}]}),angular.module('mgcrea.ngStrap.helpers.dimensions',[]).factory('bsDimensions',function(){function t(e){var t=e.ownerDocument,o=e.offsetParent||t;if(a(o,'#document'))return t.documentElement;for(;o&&!a(o,'html')&&'static'===n.css(o,'position');)o=o.offsetParent;return o||t.documentElement}var n={},a=n.nodeName=function(e,t){return e.nodeName&&e.nodeName.toLowerCase()===t.toLowerCase()};return n.css=function(t,n,a){var o;return o=t.currentStyle?t.currentStyle[n]:e.getComputedStyle?e.getComputedStyle(t)[n]:t.style[n],a===!0?parseFloat(o)||0:o},n.offset=function(t){var n=t.getBoundingClientRect(),a=t.ownerDocument;return{width:n.width||t.offsetWidth,height:n.height||t.offsetHeight,top:n.top+(e.pageYOffset||a.documentElement.scrollTop)-(a.documentElement.clientTop||0),left:n.left+(e.pageXOffset||a.documentElement.scrollLeft)-(a.documentElement.clientLeft||0)}},n.setOffset=function(e,t,a){var o,i,r,s,l,u,c,d=n.css(e,'position'),f=angular.element(e),p={};'static'===d&&(e.style.position='relative'),l=n.offset(e),r=n.css(e,'top'),u=n.css(e,'left'),c=('absolute'===d||'fixed'===d)&&(r+u).indexOf('auto')>-1,c?(o=n.position(e),s=o.top,i=o.left):(s=parseFloat(r)||0,i=parseFloat(u)||0),angular.isFunction(t)&&(t=t.call(e,a,l)),null!==t.top&&(p.top=t.top-l.top+s),null!==t.left&&(p.left=t.left-l.left+i),'using'in t?t.using.call(f,p):f.css({top:p.top+'px',left:p.left+'px'})},n.position=function(e){var o,i,r={top:0,left:0};return'fixed'===n.css(e,'position')?i=e.getBoundingClientRect():(o=t(e),i=n.offset(e),a(o,'html')||(r=n.offset(o)),r.top+=n.css(o,'borderTopWidth',!0),r.left+=n.css(o,'borderLeftWidth',!0)),{width:e.offsetWidth,height:e.offsetHeight,top:i.top-r.top-n.css(e,'marginTop',!0),left:i.left-r.left-n.css(e,'marginLeft',!0)}},n.height=function(e,t){var a=e.offsetHeight;return t?a+=n.css(e,'marginTop',!0)+n.css(e,'marginBottom',!0):a-=n.css(e,'paddingTop',!0)+n.css(e,'paddingBottom',!0)+n.css(e,'borderTopWidth',!0)+n.css(e,'borderBottomWidth',!0),a},n.width=function(e,t){var a=e.offsetWidth;return t?a+=n.css(e,'marginLeft',!0)+n.css(e,'marginRight',!0):a-=n.css(e,'paddingLeft',!0)+n.css(e,'paddingRight',!0)+n.css(e,'borderLeftWidth',!0)+n.css(e,'borderRightWidth',!0),a},n}),angular.module('mgcrea.ngStrap.helpers.debounce',[]).factory('bsDebounce',['$timeout',function(e){return function(t,n,a){var o=null;return function(){var i=this,r=arguments,s=a&&!o;return o&&e.cancel(o),o=e(function(){o=null,a||t.apply(i,r)},n,!1),s&&t.apply(i,r),o}}}]).factory('bsThrottle',['$timeout',function(e){return function(t,n,a){var o=null;return a||(a={}),function(){var i=this,r=arguments;o||(a.leading!==!1&&t.apply(i,r),o=e(function(){o=null,a.trailing!==!1&&t.apply(i,r)},n,!1))}}}]),angular.module('mgcrea.ngStrap.helpers.dateParser',[]).provider('$bsDateParser',['$localeProvider',function(e){function t(){this.year=1970,this.month=0,this.day=1,this.hours=0,this.minutes=0,this.seconds=0,this.milliseconds=0}function n(){}function a(e){return!isNaN(parseFloat(e))&&isFinite(e)}function o(e,t){for(var n=e.length,a=t.toString().toLowerCase(),o=0;o<n;o++)if(e[o].toLowerCase()===a)return o;return-1}t.prototype.setMilliseconds=function(e){this.milliseconds=e},t.prototype.setSeconds=function(e){this.seconds=e},t.prototype.setMinutes=function(e){this.minutes=e},t.prototype.setHours=function(e){this.hours=e},t.prototype.getHours=function(){return this.hours},t.prototype.setDate=function(e){this.day=e},t.prototype.setMonth=function(e){this.month=e},t.prototype.setFullYear=function(e){this.year=e},t.prototype.fromDate=function(e){return this.year=e.getFullYear(),this.month=e.getMonth(),this.day=e.getDate(),this.hours=e.getHours(),this.minutes=e.getMinutes(),this.seconds=e.getSeconds(),this.milliseconds=e.getMilliseconds(),this},t.prototype.toDate=function(){return new Date(this.year,this.month,this.day,this.hours,this.minutes,this.seconds,this.milliseconds)};var i=t.prototype,r=this.defaults={format:'shortDate',strict:!1};this.$get=['$locale','dateFilter',function(e,s){var l=function(l){function u(e){var t=c(e);return g(t)}function c(e){var t=d(e),n=t.replace(/''/g,'\\\\\\''),a=/('(?:\\\\'|.)*?')/,o=n.split(a),i=Object.keys(y),r=[];return angular.forEach(o,function(e){if(f(e))e=p(e);else for(var t=0;t<i.length;t++)e=e.split(i[t]).join('${'+t+'}');r.push(e)}),r.join('')}function d(e){return e.replace(/\\\\/g,'[\\\\\\\\]').replace(/-/g,'[-]').replace(/\\./g,'[.]').replace(/\\*/g,'[*]').replace(/\\+/g,'[+]').replace(/\\?/g,'[?]').replace(/\\$/g,'[$]').replace(/\\^/g,'[^]').replace(/\\//g,'[/]').replace(/\\\\s/g,'[\\\\s]')}function f(e){return/^'.*'$/.test(e)}function p(e){return e.replace(/^'(.*)'$/,'$1')}function g(e){for(var t=Object.keys(y),n=e,a=0;a<t.length;a++)n=n.split('${'+a+'}').join('('+y[t[a]]+')');return new RegExp('^'+n+'$',['i'])}function m(e){var t=c(e);return $(t)}function $(e){for(var t,n,a,o,i=Object.keys(y),r=new RegExp('\\\\${(\\\\d+)}','g'),s=[];null!==(t=r.exec(e));)n=t[1],a=i[n],o=D[a],s.push(o);return s}var h,v,w=angular.extend({},r,l),b={},y={sss:'[0-9]{3}',ss:'[0-5][0-9]',s:w.strict?'[1-5]?[0-9]':'[0-9]|[0-5][0-9]',mm:'[0-5][0-9]',m:w.strict?'[1-5]?[0-9]':'[0-9]|[0-5][0-9]',HH:'[01][0-9]|2[0-3]',H:w.strict?'1?[0-9]|2[0-3]':'[01]?[0-9]|2[0-3]',hh:'[0][1-9]|[1][012]',h:w.strict?'[1-9]|1[012]':'0?[1-9]|1[012]',a:'AM|PM',EEEE:e.DATETIME_FORMATS.DAY.join('|'),EEE:e.DATETIME_FORMATS.SHORTDAY.join('|'),dd:'0[1-9]|[12][0-9]|3[01]',d:w.strict?'[1-9]|[1-2][0-9]|3[01]':'0?[1-9]|[1-2][0-9]|3[01]',MMMM:e.DATETIME_FORMATS.MONTH.join('|'),MMM:e.DATETIME_FORMATS.SHORTMONTH.join('|'),MM:'0[1-9]|1[012]',M:w.strict?'[1-9]|1[012]':'0?[1-9]|1[012]',yyyy:'[1]{1}[0-9]{3}|[2]{1}[0-9]{3}',yy:'[0-9]{2}',y:w.strict?'-?(0|[1-9][0-9]{0,3})':'-?0*[0-9]{1,4}'},D={sss:i.setMilliseconds,ss:i.setSeconds,s:i.setSeconds,mm:i.setMinutes,m:i.setMinutes,HH:i.setHours,H:i.setHours,hh:i.setHours,h:i.setHours,EEEE:n,EEE:n,dd:i.setDate,d:i.setDate,a:function(e){var t=this.getHours()%12;return this.setHours(e.match(/pm/i)?t+12:t)},MMMM:function(t){return this.setMonth(o(e.DATETIME_FORMATS.MONTH,t))},MMM:function(t){return this.setMonth(o(e.DATETIME_FORMATS.SHORTMONTH,t))},MM:function(e){return this.setMonth(1*e-1)},M:function(e){return this.setMonth(1*e-1)},yyyy:i.setFullYear,yy:function(e){return this.setFullYear(2e3+1*e)},y:function(e){return 1*e<=50&&2===e.length?this.setFullYear(2e3+1*e):this.setFullYear(1*e)}};return b.init=function(){b.$format=e.DATETIME_FORMATS[w.format]||w.format,h=u(b.$format),v=m(b.$format)},b.isValid=function(e){return angular.isDate(e)?!isNaN(e.getTime()):h.test(e)},b.parse=function(n,a,o,i){o&&(o=e.DATETIME_FORMATS[o]||o),angular.isDate(n)&&(n=s(n,o||b.$format,i));var r=o?u(o):h,l=o?m(o):v,c=r.exec(n);if(!c)return!1;for(var d=a&&!isNaN(a.getTime())?(new t).fromDate(a):(new t).fromDate(new Date(1970,0,1,0)),f=0;f<c.length-1;f++)l[f]&&l[f].call(d,c[f+1]);var p=d.toDate();return parseInt(d.day,10)===p.getDate()&&p},b.getDateForAttribute=function(e,t){var n;if('today'===t){var o=new Date;n=new Date(o.getFullYear(),o.getMonth(),o.getDate()+('maxDate'===e?1:0),0,0,0,'minDate'===e?0:-1)}else n=angular.isString(t)&&t.match(/^\".+\"$/)?new Date(t.substr(1,t.length-2)):a(t)?new Date(parseInt(t,10)):angular.isString(t)&&0===t.length?'minDate'===e?-(1/0):+(1/0):new Date(t);return n},b.getTimeForAttribute=function(e,t){var n;return n='now'===t?(new Date).setFullYear(1970,0,1):angular.isString(t)&&t.match(/^\".+\"$/)?new Date(t.substr(1,t.length-2)).setFullYear(1970,0,1):a(t)?new Date(parseInt(t,10)).setFullYear(1970,0,1):angular.isString(t)&&0===t.length?'minTime'===e?-(1/0):+(1/0):b.parse(t,new Date(1970,0,1,0))},b.daylightSavingAdjust=function(e){return e?(e.setHours(e.getHours()>12?e.getHours()+2:0),e):null},b.timezoneOffsetAdjust=function(e,t,n){return e?(t&&'UTC'===t&&(e=new Date(e.getTime()),e.setMinutes(e.getMinutes()+(n?-1:1)*e.getTimezoneOffset())),e):null},b.init(),b};return l}]}]),angular.module('mgcrea.ngStrap.helpers.dateFormatter',[]).service('$bsDateFormatter',['$locale','dateFilter',function(e,t){function n(e){return/(h+)([:\\.])?(m+)([:\\.])?(s*)[ ]?(a?)/i.exec(e).slice(1)}this.getDefaultLocale=function(){return e.id},this.getDatetimeFormat=function(t,n){return e.DATETIME_FORMATS[t]||t},this.weekdaysShort=function(t){return e.DATETIME_FORMATS.SHORTDAY},this.hoursFormat=function(e){return n(e)[0]},this.minutesFormat=function(e){return n(e)[2]},this.secondsFormat=function(e){return n(e)[4]},this.timeSeparator=function(e){return n(e)[1]},this.showSeconds=function(e){return!!n(e)[4]},this.showAM=function(e){return!!n(e)[5]},this.formatDate=function(e,n,a,o){return t(e,n,o)}}]),angular.module('mgcrea.ngStrap.core',[]).service('$bsCompiler',a),angular.module('mgcrea.ngStrap.dropdown',['mgcrea.ngStrap.tooltip']).provider('$bsDropdown',function(){var e=this.defaults={animation:'am-fade',prefixClass:'dropdown',prefixEvent:'dropdown',placement:'bottom-left',templateUrl:'dropdown/dropdown.tpl.html',trigger:'click',container:!1,keyboard:!0,html:!1,delay:0};this.$get=['$window','$rootScope','$bsTooltip','$timeout',function(t,n,a,o){function i(t,i){function l(e){if(e.target!==t[0])return e.target!==t[0]&&u.hide()}var u={},c=angular.extend({},e,i);u.$scope=c.scope&&c.scope.$new()||n.$new(),u=a(t,c);var d=t.parent();u.$onKeyDown=function(e){if(/(38|40)/.test(e.keyCode)){e.preventDefault(),e.stopPropagation();var t=angular.element(u.$element[0].querySelectorAll('li:not(.divider) a'));if(t.length){var n;angular.forEach(t,function(e,t){s&&s.call(e,':focus')&&(n=t)}),38===e.keyCode&&n>0?n--:40===e.keyCode&&n<t.length-1?n++:angular.isUndefined(n)&&(n=0),t.eq(n)[0].focus()}}};var f=u.show;u.show=function(){f(),o(function(){c.keyboard&&u.$element&&u.$element.on('keydown',u.$onKeyDown),r.on('click',l)},0,!1),d.hasClass('dropdown')&&d.addClass('open')};var p=u.hide;u.hide=function(){u.$isShown&&(c.keyboard&&u.$element&&u.$element.off('keydown',u.$onKeyDown),r.off('click',l),d.hasClass('dropdown')&&d.removeClass('open'),p())};var g=u.destroy;return u.destroy=function(){r.off('click',l),g()},u}var r=angular.element(t.document.body),s=Element.prototype.matchesSelector||Element.prototype.webkitMatchesSelector||Element.prototype.mozMatchesSelector||Element.prototype.msMatchesSelector||Element.prototype.oMatchesSelector;return i}]}).directive('bsDropdown',['$window','$sce','$bsDropdown',function(e,t,a){return{restrict:'EAC',scope:!0,compile:function(e,t){if(!t.bsDropdown){for(var o=e[0].nextSibling;o&&1!==o.nodeType;)o=o.nextSibling;o&&o.className.split(' ').indexOf('dropdown-menu')>=0&&(t.template=o.outerHTML,t.templateUrl=n,o.parentNode.removeChild(o))}return function(e,n,o){var i={scope:e};angular.forEach(['template','templateUrl','controller','controllerAs','placement','container','delay','trigger','keyboard','html','animation','id','autoClose'],function(e){angular.isDefined(t[e])&&(i[e]=t[e])});var r=/^(false|0|)$/i;angular.forEach(['html','container'],function(e){angular.isDefined(o[e])&&r.test(o[e])&&(i[e]=!1)}),angular.forEach(['onBeforeShow','onShow','onBeforeHide','onHide'],function(t){var n='bs'+t.charAt(0).toUpperCase()+t.slice(1);angular.isDefined(o[n])&&(i[t]=e.$eval(o[n]))}),o.bsDropdown&&e.$watch(o.bsDropdown,function(t,n){e.content=t},!0);var s=a(n,i);o.bsShow&&e.$watch(o.bsShow,function(e,t){s&&angular.isDefined(e)&&(angular.isString(e)&&(e=!!e.match(/true|,?(dropdown),?/i)),e===!0?s.show():s.hide())}),e.$on('$destroy',function(){s&&s.destroy(),i=null,s=null})}}}}]),angular.module('mgcrea.ngStrap.button',[]).provider('$bsButton',function(){var e=this.defaults={activeClass:'active',toggleEvent:'click'};this.$get=function(){return{defaults:e}}}).directive('bsCheckboxGroup',function(){return{restrict:'A',require:'ngModel',compile:function(e,t){e.attr('data-toggle','buttons'),e.removeAttr('ng-model');var n=e[0].querySelectorAll('input[type=\"checkbox\"]');angular.forEach(n,function(e){var n=angular.element(e);n.attr('bs-checkbox',''),n.attr('ng-model',t.ngModel+'.'+n.attr('value'))})}}}).directive('bsCheckbox',['$bsButton','$$rAF',function(e,t){var n=e.defaults,a=/^(true|false|\\d+)$/;return{restrict:'A',require:'ngModel',link:function(e,o,i,r){var s=n,l='INPUT'===o[0].nodeName,u=l?o.parent():o,c=!angular.isDefined(i.trueValue)||i.trueValue;a.test(i.trueValue)&&(c=e.$eval(i.trueValue));var d=!!angular.isDefined(i.falseValue)&&i.falseValue;a.test(i.falseValue)&&(d=e.$eval(i.falseValue));var f='boolean'!=typeof c||'boolean'!=typeof d;f&&(r.$parsers.push(function(e){return e?c:d}),r.$formatters.push(function(e){return angular.equals(e,c)})),r.$render=function(){var e=!!r.$viewValue;t(function(){l&&(o[0].checked=e),u.toggleClass(s.activeClass,e)})},o.bind(s.toggleEvent,function(){e.$apply(function(){l||r.$setViewValue(!u.hasClass('active')),r.$render()})})}}}]).directive('bsRadioGroup',function(){return{restrict:'A',require:'ngModel',compile:function(e,t){e.attr('data-toggle','buttons'),e.removeAttr('ng-model');var n=e[0].querySelectorAll('input[type=\"radio\"]');angular.forEach(n,function(e){angular.element(e).attr('bs-radio',''),angular.element(e).attr('ng-model',t.ngModel)})}}}).directive('bsRadio',['$bsButton','$$rAF',function(e,t){var n=e.defaults,a=/^(true|false|\\d+)$/;return{restrict:'A',require:'ngModel',link:function(e,o,i,r){var s,l=n,u='INPUT'===o[0].nodeName,c=u?o.parent():o;i.$observe('value',function(t){s='boolean'!=typeof t&&a.test(t)?e.$eval(t):t,r.$render()}),r.$render=function(){var e=angular.equals(r.$viewValue,s);t(function(){u&&(o[0].checked=e),c.toggleClass(l.activeClass,e)})},o.bind(l.toggleEvent,function(){e.$apply(function(){r.$setViewValue(s),r.$render()})})}}}]),angular.module('mgcrea.ngStrap.datepicker',['mgcrea.ngStrap.helpers.dateParser','mgcrea.ngStrap.helpers.dateFormatter','mgcrea.ngStrap.tooltip']).provider('$bsDatepicker',function(){var e=this.defaults={animation:'am-fade',prefixClass:'datepicker',placement:'bottom-left',templateUrl:'datepicker/datepicker.tpl.html',trigger:'focus',container:!1,keyboard:!0,html:!1,delay: { show: 0, hide: 0 },useNative:!1,dateType:'date',dateFormat:'shortDate',timezone:null,modelDateFormat:null,dayFormat:'dd',monthFormat:'MMM',yearFormat:'yyyy',monthTitleFormat:'MMMM yyyy',yearTitleFormat:'yyyy',strictFormat:!1,autoclose:!1,minDate:-(1/0),maxDate:+(1/0),startView:0,minView:0,startWeek:0,daysOfWeekDisabled:'',hasToday:!1,hasClear:!1,iconLeft:'glyphicon glyphicon-chevron-left',iconRight:'glyphicon glyphicon-chevron-right'};this.$get=['$window','$document','$rootScope','$sce','$bsDateFormatter','bsDatepickerViews','$bsTooltip','$timeout',function(t,n,a,o,i,r,s,l){function u(t,n,a){function o(e){e.selected=u.$isSelected(e.date)}function i(){t[0].focus()}var u=s(t,angular.extend({},e,a)),f=a.scope,p=u.$options,g=u.$scope;p.startView&&(p.startView-=p.minView);var m=r(u);u.$views=m.views;var $=m.viewDate;g.$mode=p.startView,g.$iconLeft=p.iconLeft,g.$iconRight=p.iconRight,g.$hasToday=p.hasToday,g.$hasClear=p.hasClear;var h=u.$views[g.$mode];g.$select=function(e,t){t||u.select(e)},g.$selectPane=function(e){u.$selectPane(e)},g.$toggleMode=function(){u.setMode((g.$mode+1)%u.$views.length)},g.$setToday=function(){p.autoclose?(u.setMode(0),u.select(new Date)):u.select(new Date,!0)},g.$clear=function(){p.autoclose?(u.setMode(0),u.select(null)):u.select(null,!0)},u.update=function(e){angular.isDate(e)&&!isNaN(e.getTime())&&(u.$date=e,h.update.call(h,e)),u.$build(!0)},u.updateDisabledDates=function(e){p.disabledDateRanges=e;for(var t=0,n=g.rows.length;t<n;t++)angular.forEach(g.rows[t],u.$setDisabledEl)},u.select=function(e,t){angular.isDate(e)?angular.isDate(n.$dateValue)&&!isNaN(n.$dateValue.getTime())||(n.$dateValue=new Date(e)):n.$dateValue=null,!g.$mode||t?(n.$setViewValue(angular.copy(e)),n.$render(),p.autoclose&&!t&&l(function(){u.hide(!0)})):(angular.extend($,{year:e.getFullYear(),month:e.getMonth(),date:e.getDate()}),u.setMode(g.$mode-1),u.$build())},u.setMode=function(e){g.$mode=e,h=u.$views[g.$mode],u.$build()},u.$build=function(e){e===!0&&h.built||(e!==!1||h.built)&&h.build.call(h)},u.$updateSelected=function(){for(var e=0,t=g.rows.length;e<t;e++)angular.forEach(g.rows[e],o)},u.$isSelected=function(e){return h.isSelected(e)},u.$setDisabledEl=function(e){e.disabled=h.isDisabled(e.date)},u.$selectPane=function(e){var t=h.steps,n=new Date(Date.UTC($.year+(t.year||0)*e,$.month+(t.month||0)*e,1));angular.extend($,{year:n.getUTCFullYear(),month:n.getUTCMonth(),date:n.getUTCDate()}),u.$build()},u.$onMouseDown=function(e){if(e.preventDefault(),e.stopPropagation(),d){var t=angular.element(e.target);'button'!==t[0].nodeName.toLowerCase()&&(t=t.parent()),\nt.triggerHandler('click')}},u.$onKeyDown=function(e){if(/(38|37|39|40|13)/.test(e.keyCode)&&!e.shiftKey&&!e.altKey){if(e.preventDefault(),e.stopPropagation(),13===e.keyCode)return void(g.$mode?g.$apply(function(){u.setMode(g.$mode-1)}):u.hide(!0));h.onKeyDown(e),f.$digest()}};var v=u.init;u.init=function(){return c&&p.useNative?(t.prop('type','date'),void t.css('-webkit-appearance','textfield')):(d&&(t.prop('type','text'),t.attr('readonly','true'),t.on('click',i)),void v())};var w=u.destroy;u.destroy=function(){c&&p.useNative&&t.off('click',i),w()};var b=u.show;u.show=function(){!d&&t.attr('readonly')||t.attr('disabled')||(b(),l(function(){u.$isShown&&(u.$element.on(d?'touchstart':'mousedown',u.$onMouseDown),p.keyboard&&t.on('keydown',u.$onKeyDown))},0,!1))};var y=u.hide;return u.hide=function(e){u.$isShown&&(u.$element.off(d?'touchstart':'mousedown',u.$onMouseDown),p.keyboard&&t.off('keydown',u.$onKeyDown),y(e))},u}var c=/(ip[ao]d|iphone|android)/gi.test(t.navigator.userAgent),d='createTouch'in t.document&&c;return e.lang||(e.lang=i.getDefaultLocale()),u.defaults=e,u}]}).directive('bsDatepicker',['$window','$parse','$q','$bsDateFormatter','$bsDateParser','$bsDatepicker',function(e,t,n,a,o,i){var r=/(ip[ao]d|iphone|android)/gi.test(e.navigator.userAgent);return{restrict:'EAC',require:'ngModel',link:function(e,t,n,s){function l(e){return e&&e.length?e:null}function u(e){if(angular.isDate(e)){var t=isNaN(p.$options.minDate)||e.getTime()>=p.$options.minDate,n=isNaN(p.$options.maxDate)||e.getTime()<=p.$options.maxDate,a=t&&n;s.$setValidity('date',a),s.$setValidity('min',t),s.$setValidity('max',n),a&&(s.$dateValue=e)}}function c(){return!s.$dateValue||isNaN(s.$dateValue.getTime())?'':m(s.$dateValue,d.dateFormat)}var d={scope:e};angular.forEach(['template','templateUrl','controller','controllerAs','placement','container','delay','trigger','html','animation','autoclose','dateType','dateFormat','timezone','modelDateFormat','dayFormat','strictFormat','startWeek','startDate','useNative','lang','startView','minView','iconLeft','iconRight','daysOfWeekDisabled','id','prefixClass','prefixEvent','hasToday','hasClear'],function(e){angular.isDefined(n[e])&&(d[e]=n[e])});var f=/^(false|0|)$/i;angular.forEach(['html','container','autoclose','useNative','hasToday','hasClear'],function(e){angular.isDefined(n[e])&&f.test(n[e])&&(d[e]=!1)}),angular.forEach(['onBeforeShow','onShow','onBeforeHide','onHide'],function(t){var a='bs'+t.charAt(0).toUpperCase()+t.slice(1);angular.isDefined(n[a])&&(d[t]=e.$eval(n[a]))});var p=i(t,s,d);d=p.$options,r&&d.useNative&&(d.dateFormat='yyyy-MM-dd');var g=d.lang,m=function(e,t){return a.formatDate(e,t,g)},$=o({format:d.dateFormat,lang:g,strict:d.strictFormat});n.bsShow&&e.$watch(n.bsShow,function(e,t){p&&angular.isDefined(e)&&(angular.isString(e)&&(e=!!e.match(/true|,?(datepicker),?/i)),e===!0?p.show():p.hide())}),angular.forEach(['minDate','maxDate'],function(e){angular.isDefined(n[e])&&n.$observe(e,function(t){p.$options[e]=$.getDateForAttribute(e,t),isNaN(p.$options[e])||p.$build(!1),u(s.$dateValue)})}),angular.isDefined(n.dateFormat)&&n.$observe('dateFormat',function(e){p.$options.dateFormat=e}),e.$watch(n.ngModel,function(e,t){p.update(s.$dateValue)},!0),angular.isDefined(n.disabledDates)&&e.$watch(n.disabledDates,function(e,t){e=l(e),t=l(t),e&&p.updateDisabledDates(e)}),s.$parsers.unshift(function(e){var t;if(!e)return s.$setValidity('date',!0),null;var n=$.parse(e,s.$dateValue);return!n||isNaN(n.getTime())?void s.$setValidity('date',!1):(u(n),'string'===d.dateType?(t=$.timezoneOffsetAdjust(n,d.timezone,!0),m(t,d.modelDateFormat||d.dateFormat)):(t=$.timezoneOffsetAdjust(s.$dateValue,d.timezone,!0),'number'===d.dateType?t.getTime():'unix'===d.dateType?t.getTime()/1e3:'iso'===d.dateType?t.toISOString():new Date(t)))}),s.$formatters.push(function(e){var t;return t=angular.isUndefined(e)||null===e?NaN:angular.isDate(e)?e:'string'===d.dateType?$.parse(e,null,d.modelDateFormat):'unix'===d.dateType?new Date(1e3*e):new Date(e),s.$dateValue=$.timezoneOffsetAdjust(t,d.timezone),c()}),s.$render=function(){t.val(c())},e.$on('$destroy',function(){p&&p.destroy(),d=null,p=null})}}}]).provider('bsDatepickerViews',function(){function e(e,t){for(var n=[];e.length>0;)n.push(e.splice(0,t));return n}function t(e,t){return(e%t+t)%t}this.$get=['$bsDateFormatter','$bsDateParser','$sce',function(n,a,o){return function(i){var r=i.$scope,s=i.$options,l=s.lang,u=function(e,t){return n.formatDate(e,t,l)},c=a({format:s.dateFormat,lang:l,strict:s.strictFormat}),d=n.weekdaysShort(l),f=d.slice(s.startWeek).concat(d.slice(0,s.startWeek)),p=o.trustAsHtml('<th class=\"dow text-center\">'+f.join('</th><th class=\"dow text-center\">')+'</th>'),g=i.$date||(s.startDate?c.getDateForAttribute('startDate',s.startDate):new Date),m={year:g.getFullYear(),month:g.getMonth(),date:g.getDate()},$=[{format:s.dayFormat,split:7,steps:{month:1},update:function(e,t){!this.built||t||e.getFullYear()!==m.year||e.getMonth()!==m.month?(angular.extend(m,{year:i.$date.getFullYear(),month:i.$date.getMonth(),date:i.$date.getDate()}),i.$build()):e.getDate()===m.date&&1!==e.getDate()||(m.date=i.$date.getDate(),i.$updateSelected())},build:function(){var n=new Date(m.year,m.month,1),a=n.getTimezoneOffset(),o=new Date(+n-864e5*t(n.getDay()-s.startWeek,7)),l=o.getTimezoneOffset(),d=c.timezoneOffsetAdjust(new Date,s.timezone).toDateString();l!==a&&(o=new Date(+o+6e4*(l-a)));for(var f,g=[],$=0;$<42;$++)f=c.daylightSavingAdjust(new Date(o.getFullYear(),o.getMonth(),o.getDate()+$)),g.push({date:f,isToday:f.toDateString()===d,label:u(f,this.format),selected:i.$date&&this.isSelected(f),muted:f.getMonth()!==m.month,disabled:this.isDisabled(f)});r.title=u(n,s.monthTitleFormat),r.showLabels=!0,r.labels=p,r.rows=e(g,this.split),r.isTodayDisabled=this.isDisabled(new Date),this.built=!0},isSelected:function(e){return i.$date&&e.getFullYear()===i.$date.getFullYear()&&e.getMonth()===i.$date.getMonth()&&e.getDate()===i.$date.getDate()},isDisabled:function(e){var t=e.getTime();if(t<s.minDate||t>s.maxDate)return!0;if(s.daysOfWeekDisabled.indexOf(e.getDay())!==-1)return!0;if(s.disabledDateRanges)for(var n=0;n<s.disabledDateRanges.length;n++)if(t>=s.disabledDateRanges[n].start&&t<=s.disabledDateRanges[n].end)return!0;return!1},onKeyDown:function(e){if(i.$date){var t,n=i.$date.getTime();37===e.keyCode?t=new Date(n-864e5):38===e.keyCode?t=new Date(n-6048e5):39===e.keyCode?t=new Date(n+864e5):40===e.keyCode&&(t=new Date(n+6048e5)),this.isDisabled(t)||i.select(t,!0)}}},{name:'month',format:s.monthFormat,split:4,steps:{year:1},update:function(e,t){this.built&&e.getFullYear()===m.year?e.getMonth()!==m.month&&(angular.extend(m,{month:i.$date.getMonth(),date:i.$date.getDate()}),i.$updateSelected()):(angular.extend(m,{year:i.$date.getFullYear(),month:i.$date.getMonth(),date:i.$date.getDate()}),i.$build())},build:function(){for(var t,n=[],a=0;a<12;a++)t=new Date(m.year,a,1),n.push({date:t,label:u(t,this.format),selected:i.$isSelected(t),disabled:this.isDisabled(t)});r.title=u(t,s.yearTitleFormat),r.showLabels=!1,r.rows=e(n,this.split),this.built=!0},isSelected:function(e){return i.$date&&e.getFullYear()===i.$date.getFullYear()&&e.getMonth()===i.$date.getMonth()},isDisabled:function(e){var t=+new Date(e.getFullYear(),e.getMonth()+1,0);return t<s.minDate||e.getTime()>s.maxDate},onKeyDown:function(e){if(i.$date){var t=i.$date.getMonth(),n=new Date(i.$date);37===e.keyCode?n.setMonth(t-1):38===e.keyCode?n.setMonth(t-4):39===e.keyCode?n.setMonth(t+1):40===e.keyCode&&n.setMonth(t+4),this.isDisabled(n)||i.select(n,!0)}}},{name:'year',format:s.yearFormat,split:4,steps:{year:12},update:function(e,t){!this.built||t||parseInt(e.getFullYear()/20,10)!==parseInt(m.year/20,10)?(angular.extend(m,{year:i.$date.getFullYear(),month:i.$date.getMonth(),date:i.$date.getDate()}),i.$build()):e.getFullYear()!==m.year&&(angular.extend(m,{year:i.$date.getFullYear(),month:i.$date.getMonth(),date:i.$date.getDate()}),i.$updateSelected())},build:function(){for(var t,n=m.year-m.year%(3*this.split),a=[],o=0;o<12;o++)t=new Date(n+o,0,1),a.push({date:t,label:u(t,this.format),selected:i.$isSelected(t),disabled:this.isDisabled(t)});r.title=a[0].label+'-'+a[a.length-1].label,r.showLabels=!1,r.rows=e(a,this.split),this.built=!0},isSelected:function(e){return i.$date&&e.getFullYear()===i.$date.getFullYear()},isDisabled:function(e){var t=+new Date(e.getFullYear()+1,0,0);return t<s.minDate||e.getTime()>s.maxDate},onKeyDown:function(e){if(i.$date){var t=i.$date.getFullYear(),n=new Date(i.$date);37===e.keyCode?n.setYear(t-1):38===e.keyCode?n.setYear(t-4):39===e.keyCode?n.setYear(t+1):40===e.keyCode&&n.setYear(t+4),this.isDisabled(n)||i.select(n,!0)}}}];return{views:s.minView?Array.prototype.slice.call($,s.minView):$,viewDate:m}}}]}),angular.module('mgcrea.ngStrap.collapse',[]).provider('$bsCollapse',function(){var e=this.defaults={animation:'am-collapse',disallowToggle:!1,activeClass:'in',startCollapsed:!1,allowMultiple:!1},t=this.controller=function(t,n,a){function o(e){for(var t=l.$targets.$active,n=0;n<t.length;n++)e<t[n]&&(t[n]=t[n]-1),t[n]===l.$targets.length&&(t[n]=l.$targets.length-1)}function i(e){var t=l.$targets.$active;return t.indexOf(e)!==-1}function r(e){var t=l.$targets.$active.indexOf(e);t!==-1&&l.$targets.$active.splice(t,1)}function s(e){l.$options.allowMultiple||l.$targets.$active.splice(0,1),l.$targets.$active.indexOf(e)===-1&&l.$targets.$active.push(e)}var l=this;l.$options=angular.copy(e),angular.forEach(['animation','disallowToggle','activeClass','startCollapsed','allowMultiple'],function(e){angular.isDefined(a[e])&&(l.$options[e]=a[e])});var u=/^(false|0|)$/i;angular.forEach(['disallowToggle','startCollapsed','allowMultiple'],function(e){angular.isDefined(a[e])&&u.test(a[e])&&(l.$options[e]=!1)}),l.$toggles=[],l.$targets=[],l.$viewChangeListeners=[],l.$registerToggle=function(e){l.$toggles.push(e)},l.$registerTarget=function(e){l.$targets.push(e)},l.$unregisterToggle=function(e){var t=l.$toggles.indexOf(e);l.$toggles.splice(t,1)},l.$unregisterTarget=function(e){var t=l.$targets.indexOf(e);l.$targets.splice(t,1),l.$options.allowMultiple&&r(e),o(t),l.$viewChangeListeners.forEach(function(e){e()})},l.$targets.$active=l.$options.startCollapsed?[]:[0],l.$setActive=t.$setActive=function(e){angular.isArray(e)?l.$targets.$active=e:!l.$options.disallowToggle&&i(e)?r(e):s(e),l.$viewChangeListeners.forEach(function(e){e()})},l.$activeIndexes=function(){return l.$options.allowMultiple?l.$targets.$active:1===l.$targets.$active.length?l.$targets.$active[0]:-1}};this.$get=function(){var n={};return n.defaults=e,n.controller=t,n}}).directive('bsCollapse',['$window','$animate','$bsCollapse',function(e,t,n){return{require:['?ngModel','bsCollapse'],controller:['$scope','$element','$attrs',n.controller],link:function(e,t,n,a){var o=a[0],i=a[1];o&&(i.$viewChangeListeners.push(function(){o.$setViewValue(i.$activeIndexes())}),o.$formatters.push(function(e){if(angular.isArray(e))i.$setActive(e);else{var t=i.$activeIndexes();angular.isArray(t)?t.indexOf(1*e)===-1&&i.$setActive(1*e):t!==1*e&&i.$setActive(1*e)}return e}))}}}]).directive('bsCollapseToggle',function(){return{require:['^?ngModel','^bsCollapse'],link:function(e,t,n,a){var o=a[1];t.attr('data-toggle','collapse'),o.$registerToggle(t),e.$on('$destroy',function(){o.$unregisterToggle(t)}),t.on('click',function(){if(!n.disabled){var a=n.bsCollapseToggle&&'bs-collapse-toggle'!==n.bsCollapseToggle?n.bsCollapseToggle:o.$toggles.indexOf(t);o.$setActive(1*a),e.$apply()}})}}}).directive('bsCollapseTarget',['$animate',function(e){return{require:['^?ngModel','^bsCollapse'],link:function(t,n,a,o){function i(){var t=r.$targets.indexOf(n),a=r.$activeIndexes(),o='removeClass';angular.isArray(a)?a.indexOf(t)!==-1&&(o='addClass'):t===a&&(o='addClass'),e[o](n,r.$options.activeClass)}var r=o[1];n.addClass('collapse'),r.$options.animation&&n.addClass(r.$options.animation),r.$registerTarget(n),t.$on('$destroy',function(){r.$unregisterTarget(n)}),r.$viewChangeListeners.push(function(){i()}),i()}}}]),angular.module('mgcrea.ngStrap.aside',['mgcrea.ngStrap.modal']).provider('$bsAside',function(){var e=this.defaults={animation:'am-fade-and-slide-right',prefixClass:'aside',prefixEvent:'aside',placement:'right',templateUrl:'aside/aside.tpl.html',contentTemplate:!1,container:!1,element:null,backdrop:!0,keyboard:!0,html:!1,show:!0};this.$get=['$bsModal',function(t){function n(n){var a={},o=angular.extend({},e,n);return a=t(o)}return n}]}).directive('bsAside',['$window','$sce','$bsAside',function(e,t,n){return{restrict:'EAC',scope:!0,link:function(e,a,o,i){var r={scope:e,element:a,show:!1};angular.forEach(['template','templateUrl','controller','controllerAs','contentTemplate','placement','backdrop','keyboard','html','container','animation'],function(e){angular.isDefined(o[e])&&(r[e]=o[e])});var s=/^(false|0|)$/i;angular.forEach(['backdrop','keyboard','html','container'],function(e){angular.isDefined(o[e])&&s.test(o[e])&&(r[e]=!1)}),angular.forEach(['onBeforeShow','onShow','onBeforeHide','onHide'],function(t){var n='bs'+t.charAt(0).toUpperCase()+t.slice(1);angular.isDefined(o[n])&&(r[t]=e.$eval(o[n]))}),angular.forEach(['title','content'],function(n){o[n]&&o.$observe(n,function(a,o){e[n]=t.trustAsHtml(a)})}),o.bsAside&&e.$watch(o.bsAside,function(t,n){angular.isObject(t)?angular.extend(e,t):e.content=t},!0);var l=n(r);a.on(o.trigger||'click',l.toggle),e.$on('$destroy',function(){l&&l.destroy(),r=null,l=null})}}}]),angular.module('mgcrea.ngStrap.alert',['mgcrea.ngStrap.modal']).provider('$bsAlert',function(){var e=this.defaults={animation:'am-fade',prefixClass:'alert',prefixEvent:'alert',placement:null,templateUrl:'alert/alert.tpl.html',container:!1,element:null,backdrop:!1,keyboard:!0,show:!0,duration:!1,type:!1,dismissable:!0};this.$get=['$bsModal','$timeout',function(t,n){function a(a){var o={},i=angular.extend({},e,a);o=t(i),o.$scope.dismissable=!!i.dismissable,i.type&&(o.$scope.type=i.type);var r=o.show;return i.duration&&(o.show=function(){r(),n(function(){o.hide()},1e3*i.duration)}),o}return a}]}).directive('bsAlert',['$window','$sce','$bsAlert',function(e,t,n){return{restrict:'EAC',scope:!0,link:function(e,a,o,i){var r={scope:e,element:a,show:!1};angular.forEach(['template','templateUrl','controller','controllerAs','placement','keyboard','html','container','animation','duration','dismissable'],function(e){angular.isDefined(o[e])&&(r[e]=o[e])});var s=/^(false|0|)$/i;angular.forEach(['keyboard','html','container','dismissable'],function(e){angular.isDefined(o[e])&&s.test(o[e])&&(r[e]=!1)}),angular.forEach(['onBeforeShow','onShow','onBeforeHide','onHide'],function(t){var n='bs'+t.charAt(0).toUpperCase()+t.slice(1);angular.isDefined(o[n])&&(r[t]=e.$eval(o[n]))}),e.hasOwnProperty('title')||(e.title=''),angular.forEach(['title','content','type'],function(n){o[n]&&o.$observe(n,function(a,o){e[n]=t.trustAsHtml(a)})}),o.bsAlert&&e.$watch(o.bsAlert,function(t,n){angular.isObject(t)?angular.extend(e,t):e.content=t},!0);var l=n(r);a.on(o.trigger||'click',l.toggle),e.$on('$destroy',function(){l&&l.destroy(),r=null,l=null})}}}]),angular.module('mgcrea.ngStrap.affix',['mgcrea.ngStrap.helpers.dimensions','mgcrea.ngStrap.helpers.debounce']).provider('$bsAffix',function(){var e=this.defaults={offsetTop:'auto',inlineStyles:!0,setWidth:!0};this.$get=['$window','bsDebounce','bsDimensions',function(t,n,a){function o(o,s){function l(e,t,n){var a=u(),o=c();return a<=v?'top':null!==e?a+e<=t.top?'middle':'bottom':null!==w&&t.top+n+$>=o-w?'bottom':'middle'}function u(){return p[0]===t?t.pageYOffset:p[0].scrollTop}function c(){return p[0]===t?t.document.body.scrollHeight:p[0].scrollHeight}var d={},f=angular.extend({},e,s),p=f.target,g='affix affix-top affix-bottom',m=!1,$=0,h=0,v=0,w=0,b=null,y=null,D=o.parent();if(f.offsetParent)if(f.offsetParent.match(/^\\d+$/))for(var S=0;S<1*f.offsetParent-1;S++)D=D.parent();else D=angular.element(f.offsetParent);return d.init=function(){this.$parseOffsets(),h=a.offset(o[0]).top+$,m=f.setWidth&&!o[0].style.width,p.on('scroll',this.checkPosition),p.on('click',this.checkPositionWithEventLoop),r.on('resize',this.$debouncedOnResize),this.checkPosition(),this.checkPositionWithEventLoop()},d.destroy=function(){p.off('scroll',this.checkPosition),p.off('click',this.checkPositionWithEventLoop),r.off('resize',this.$debouncedOnResize)},d.checkPositionWithEventLoop=function(){setTimeout(d.checkPosition,1)},d.checkPosition=function(){var e=u(),t=a.offset(o[0]),n=a.height(o[0]),r=l(y,t,n);b!==r&&(b=r,'top'===r?(y=null,m&&o.css('width',''),f.inlineStyles&&(o.css('position',f.offsetParent?'':'relative'),o.css('top',''))):'bottom'===r?(y=f.offsetUnpin?-(1*f.offsetUnpin):t.top-e,m&&o.css('width',''),f.inlineStyles&&(o.css('position',f.offsetParent?'':'relative'),o.css('top',f.offsetParent?'':i[0].offsetHeight-w-n-h+'px'))):(y=null,m&&o.css('width',o[0].offsetWidth+'px'),f.inlineStyles&&(o.css('position','fixed'),o.css('top',$+'px'))),o.removeClass(g).addClass('affix'+('middle'!==r?'-'+r:'')))},d.$onResize=function(){d.$parseOffsets(),d.checkPosition()},d.$debouncedOnResize=n(d.$onResize,50),d.$parseOffsets=function(){var e=o[0].style.position,t=o[0].style.top;f.inlineStyles&&(o.css('position',f.offsetParent?'':'relative'),o.css('top','')),f.offsetTop&&('auto'===f.offsetTop&&(f.offsetTop='+0'),f.offsetTop.match(/^[-+]\\d+$/)?($=1*-f.offsetTop,v=f.offsetParent?a.offset(D[0]).top+1*f.offsetTop:a.offset(o[0]).top-a.css(o[0],'marginTop',!0)+1*f.offsetTop):v=1*f.offsetTop),f.offsetBottom&&(w=f.offsetParent&&f.offsetBottom.match(/^[-+]\\d+$/)?c()-(a.offset(D[0]).top+a.height(D[0]))+1*f.offsetBottom+1:1*f.offsetBottom),f.inlineStyles&&(o.css('position',e),o.css('top',t))},d.init(),d}var i=angular.element(t.document.body),r=angular.element(t);return o}]}).directive('bsAffix',['$bsAffix','$window','$timeout',function(e,t,n){return{restrict:'EAC',require:'^?bsAffixTarget',link:function(a,o,i,r){var s={scope:a,target:r?r.$element:angular.element(t)};angular.forEach(['offsetTop','offsetBottom','offsetParent','offsetUnpin','inlineStyles','setWidth'],function(e){if(angular.isDefined(i[e])){var t=i[e];/true/i.test(t)&&(t=!0),/false/i.test(t)&&(t=!1),s[e]=t}});var l;n(function(){l=e(o,s)}),a.$on('$destroy',function(){l&&l.destroy(),s=null,l=null})}}}]).directive('bsAffixTarget',function(){return{controller:['$element',function(e){this.$element=e}]}}),angular.module('mgcrea.ngStrap',['mgcrea.ngStrap.modal','mgcrea.ngStrap.aside','mgcrea.ngStrap.alert','mgcrea.ngStrap.button','mgcrea.ngStrap.select','mgcrea.ngStrap.datepicker','mgcrea.ngStrap.timepicker','mgcrea.ngStrap.navbar','mgcrea.ngStrap.tooltip','mgcrea.ngStrap.popover','mgcrea.ngStrap.dropdown','mgcrea.ngStrap.typeahead','mgcrea.ngStrap.scrollspy','mgcrea.ngStrap.affix','mgcrea.ngStrap.tab','mgcrea.ngStrap.collapse'])}(window,document);",
          "comment" : ""
        },
        "redirectURL" : "",
        "headersSize" : 204,
        "bodySize" : 82947,
        "comment" : ""
      },
      "cache" : { },
      "timings" : {
        "comment" : "",
        "connect" : 1853,
        "ssl" : -1,
        "send" : 0,
        "wait" : 0,
        "dns" : -1,
        "blocked" : -1,
        "receive" : 0
      },
      "comment" : "",
      "_katalonRequestInformation" : {
        "name" : "22",
        "testObjectId" : "Temporary RESTful request object",
        "harId" : "99ee19a6-be63-4ee8-99c3-75398ee4d8f8"
      },
      "time" : 1853
    } ],
    "comment" : ""
  }
}