{
  "log" : {
    "version" : "1.2",
    "pages" : [ ],
    "entries" : [ {
      "startedDateTime" : "2019-07-12T07:13:04.225Z",
      "request" : {
        "method" : "GET",
        "url" : "https://frostedc-stg.learningmate.com/js/toc/tocNodeRuleService.js",
        "httpVersion" : "",
        "cookies" : [ ],
        "headers" : [ ],
        "queryString" : [ ],
        "headersSize" : 0,
        "bodySize" : 0,
        "comment" : ""
      },
      "response" : {
        "status" : 200,
        "statusText" : "",
        "httpVersion" : "",
        "cookies" : [ ],
        "headers" : [ {
          "name" : "Accept-Ranges",
          "value" : "bytes"
        }, {
          "name" : null,
          "value" : "HTTP/1.1 200 OK"
        }, {
          "name" : "Server",
          "value" : "nginx/1.13.5"
        }, {
          "name" : "ETag",
          "value" : "\"5d25bc3a-14da\""
        }, {
          "name" : "Connection",
          "value" : "keep-alive"
        }, {
          "name" : "Last-Modified",
          "value" : "Wed, 10 Jul 2019 10:21:46 GMT"
        }, {
          "name" : "Content-Length",
          "value" : "5338"
        }, {
          "name" : "Date",
          "value" : "Fri, 12 Jul 2019 07:14:33 GMT"
        }, {
          "name" : "Content-Type",
          "value" : "application/javascript"
        } ],
        "content" : {
          "size" : 5338,
          "mimeType" : "application/javascript",
          "text" : "/*****\n * Services for TOC\n * Author - Koushik Samanta\n *  \n */\n'use strict';\napp.service('tocNodeRuleService', ['$http', '$q', 'sessionService', '$location', '$rootScope', function ($http, $q, sessionService, $location, $rootScope) {\n        //$rule_array['root_type']['type'] = array('create_child'=>true, 'create_file'=>true);\n\n        this.toc_node_rule = function ($scope) {\n            //var deferred = $q.defer();                     \n            var toc_node_rule = {};\n            if ($scope.project_details.project_type_id == '1') {\n                //Project Type :: PXE\n                toc_node_rule = {\n                    1:\n                            {\n                                1: {\"create_child\": true, \"create_file\": ''},\n                                5: {\"create_child\": '', \"create_file\": true},\n                                6: {\"create_child\": '', \"create_file\": true},\n                                100: {\"create_child\": '', \"create_file\": true}\n                            },\n                    2:\n                            {\n                                2: {\"create_child\": true, \"create_file\": ''},\n                                5: {\"create_child\": true, \"create_file\": true},\n                                6: {\"create_child\": '', \"create_file\": true},\n                                100: {\"create_child\": '', \"create_file\": true}\n                            },\n                    3:\n                            {\n                                3: {\"create_child\": true, \"create_file\": ''},\n                                5: {\"create_child\": true, \"create_file\": true},\n                                101: {\"create_child\": '', \"create_file\": true},\n                                6: {\"create_child\": '', \"create_file\": true},\n                                100: {\"create_child\": '', \"create_file\": true}\n                            }\n                };\n            } else if ($scope.project_details.project_type_id == '2') {\n                //Project Type :: LearningMaterial\n                toc_node_rule = {\n                    \"2\":\n                            {\n                                \"6\": {\"create_child\": true, \"create_file\": true}\n                            },\n                };\n            } else if ($scope.project_details.project_type_id == '3') {\n                //Project Type :: Visual Content Editor\n                toc_node_rule = {\n                    \"2\":\n                            {\n                                \"6\": {\"create_child\": true, \"create_file\": true}\n                            },\n                };\n            } else if ($scope.project_details.project_type_id == '4') {\n                //Project Type :: EBUP / EDUPUB\n                toc_node_rule = {\n                    1:\n                            {\n                                1: {\"create_child\": true, \"create_file\": ''},\n                                5: {\"create_child\": '', \"create_file\": true},\n                                6: {\"create_child\": '', \"create_file\": true},\n                                100: {\"create_child\": '', \"create_file\": true}\n                            },\n                    2:\n                            {\n                                2: {\"create_child\": true, \"create_file\": ''},\n                                5: {\"create_child\": true, \"create_file\": true},\n                                211: {\"create_child\": true, \"create_file\": true},\n                                212: {\"create_child\": '', \"create_file\": true},\n                                214: {\"create_child\": true, \"create_file\": ''},\n                                6: {\"create_child\": '', \"create_file\": true},\n                                100: {\"create_child\": '', \"create_file\": true}\n                            },\n                    3:\n                            {\n                                3: {\"create_child\": true, \"create_file\": ''},\n                                101: {\"create_child\": '', \"create_file\": true},\n                                6: {\"create_child\": '', \"create_file\": true},\n\t\t\t\t214: {\"create_child\": true, \"create_file\": ''},\n                                100: {\"create_child\": '', \"create_file\": true}\n                            },\n                   101:\n                            {\n                                101: {\"create_child\": '', \"create_file\": true}                                \n                            }\n                };\n            } else if ($scope.project_details.project_type_id == '5') {\n                //Project Type :: Course\n                toc_node_rule = {\n                    1:\n                            {\n                                1: {\"create_child\": true, \"create_file\": true}\n                            },\n                    2:\n                            {\n                                2: {\"create_child\": true, \"create_file\": true},\n                                6: {\"create_child\": true, \"create_file\": true},\n                                5: {\"create_child\": true, \"create_file\": true},\n                            },\n                    3:\n                            {\n                                3: {\"create_child\": true, \"create_file\": true}\n                            }\n                };\n            }\n            return toc_node_rule;\n        };\n    }]);",
          "comment" : ""
        },
        "redirectURL" : "",
        "headersSize" : 202,
        "bodySize" : 5338,
        "comment" : ""
      },
      "cache" : { },
      "timings" : {
        "comment" : "",
        "connect" : 1057,
        "ssl" : -1,
        "send" : 0,
        "wait" : 0,
        "dns" : -1,
        "blocked" : -1,
        "receive" : 0
      },
      "comment" : "",
      "_katalonRequestInformation" : {
        "name" : "49",
        "testObjectId" : "Temporary RESTful request object",
        "harId" : "61a55b5e-8cda-41cd-9f0b-15d3d4540c0b"
      },
      "time" : 1057
    } ],
    "comment" : ""
  }
}