{
  "log" : {
    "version" : "1.2",
    "pages" : [ ],
    "entries" : [ {
      "startedDateTime" : "2019-07-12T07:13:22.323Z",
      "request" : {
        "method" : "GET",
        "url" : "https://frostedc-stg.learningmate.com/js/asset/globalRepoController.js",
        "httpVersion" : "",
        "cookies" : [ ],
        "headers" : [ ],
        "queryString" : [ ],
        "headersSize" : 0,
        "bodySize" : 0,
        "comment" : ""
      },
      "response" : {
        "status" : 200,
        "statusText" : "",
        "httpVersion" : "",
        "cookies" : [ ],
        "headers" : [ {
          "name" : "Accept-Ranges",
          "value" : "bytes"
        }, {
          "name" : null,
          "value" : "HTTP/1.1 200 OK"
        }, {
          "name" : "Server",
          "value" : "nginx/1.13.5"
        }, {
          "name" : "ETag",
          "value" : "\"5d25bc3a-4be7\""
        }, {
          "name" : "Connection",
          "value" : "keep-alive"
        }, {
          "name" : "Last-Modified",
          "value" : "Wed, 10 Jul 2019 10:21:46 GMT"
        }, {
          "name" : "Content-Length",
          "value" : "19431"
        }, {
          "name" : "Date",
          "value" : "Fri, 12 Jul 2019 07:14:52 GMT"
        }, {
          "name" : "Content-Type",
          "value" : "application/javascript"
        } ],
        "content" : {
          "size" : 19431,
          "mimeType" : "application/javascript",
          "text" : "/*****\n * Controller for ASSET\n * Author - Alamgir Hossain Sk * \n */\n\n'use strict';\n\napp.controller('global_repo', ['$scope', 'sessionService', '$location', '$routeParams', '$rootScope', '$log', 'SweetAlert', 'assetService', '$modal', 'objectService', '$filter', '$controller', 'taxonomyService', 'keyValueService', 'tagService', 'ivhTreeviewMgr', '$compile', 'userService', '$timeout', function ($scope, sessionService, $location, $routeParams, $rootScope, $log, SweetAlert, assetService, $modal, objectService, $filter, $controller, taxonomyService, keyValueService, tagService, ivhTreeviewMgr, $compile, userService, $timeout) {\n\n        $scope.access_token = sessionService.get('access_token');\n        $scope.user_id = sessionService.get('uid');\n        $scope.user_permissions = JSON.parse(sessionService.get('user_permissions'));\n        $scope.project_id = angular.isUndefined($routeParams.project_id) ? '' : $routeParams.project_id;\n        //$scope.object_id = '';\n        $scope.showAsset = false;\n        $scope.showTemplate = false;\n        $scope.showPattern = false;\n        $scope.showContent = false;\n        $scope.showAccess = false;\n        $scope.showAssessment = true;\n\n\n        if ($scope.user_permissions['global_asset.show.all'].grant) {\n            $scope.showAsset = true;\n        }\n        if ($scope.user_permissions['global_content.show.all'].grant) {\n            $scope.showContent = true;\n        }\n        if ($scope.user_permissions['global_pattern.show.all'].grant) {\n            $scope.showPattern = true;\n        }\n        if ($scope.user_permissions['global_template.show.all'].grant) {\n            $scope.showTemplate = true;\n        }\n\n        /*Make active specific tab after returning from editor */\n        $scope.global_tab = angular.isUndefined($routeParams.global_tab) ? '' : $routeParams.global_tab;\n        \n        /******** Added by lucky chowdhury 20.2.2018 **********/\n        if ($scope.global_tab == 'PATTERNS') {\n            $('.nav-tabs a[data-target=\"#PATTERNS\"]').tab('show');\n        }\n        /******** ended by lucky chowdhury 20.2.2018 **********/\n        \n        \n        if ($scope.global_tab == 'ContentObject') {\n            $scope.showContent = true;\n            $('.nav-tabs a[data-target=\"#ContentObject\"]').tab('show');\n        }\n        if ($scope.global_tab == 'TEMPLATES') {\n            $scope.showTemplate = true;\n            $('.nav-tabs a[data-target=\"#TEMPLATES\"]').tab('show');\n        }\n        if ($scope.global_tab == 'ASSESSMENTS') {\n            $scope.showAssessment = true;\n            $('.nav-tabs a[data-target=\"#ASSESSMENTS\"]').tab('show');\n        }\n        /*End*/\n\n        if ($scope.user_permissions['global_asset.show.all'].grant === false && $scope.user_permissions['global_content.show.all'].grant === false && $scope.user_permissions['global_pattern.show.all'].grant === false && $scope.user_permissions['global_template.show.all'].grant === false) {\n            angular.element(\"#ACCESS\").show();\n            $scope.showAccess = true;\n        }\n\n        if ($scope.showAsset === false && $scope.showContent === true) {\n            $('.nav-tabs a[data-target=\"#ContentObject\"]').tab('show');\n        }\n        if ($scope.showAsset === false && $scope.showContent === false && $scope.showPattern === true) {\n            $('.nav-tabs a[data-target=\"#PATTERNS\"]').tab('show');\n        }\n\n        if ($scope.showAsset === false && $scope.showContent === false && $scope.showPattern === false && $scope.showTemplate === true) {\n            $('.nav-tabs a[data-target=\"#TEMPLATES\"]').tab('show');\n        }\n\n        if (!$scope.access_token && !$scope.user_id) {\n            $location.path('logout');\n            return true;\n        }\n\n        $scope.node_id = 0;\n\n        $scope.showSearchBox = true;\n        $scope.searchModel = {};\n        $scope.searchModel.search_text = '';\n        $scope.searchModel.showSearchIcon = true;\n\n        $scope.advanced_search = {};\n        $scope.advanced_search.enableSearch = false;\n        $scope.advanced_search.title = '';\n        $scope.advanced_search.active = false;\n        $scope.advanced_search.isCollapsed = false;\n        $scope.advanced_search.heading = 'Advanced Search Result:';\n\n        $scope.advanced_search.key_data = {};\n        $scope.advanced_search.value_data = {};\n        $scope.advanced_search.totalKeyArea = 0;\n        $scope.advanced_search.taxonomy = [];\n        $scope.tplFolderOpen = '<span class=\"twistie glyphicon glyphicon-folder-open\"></span>&nbsp;&nbsp;';\n        $scope.tplFolderClose = '<span class=\"twistie glyphicon glyphicon-folder-close\"></span>&nbsp;&nbsp;';\n        $scope.tplLeaf = '<span class=\"twistie glyphicon glyphicon-book\"></span>&nbsp;&nbsp;';\n        // get taxonomy\n        $scope.taxonomyStatus = 1001;\n        taxonomyService.getTaxonomy($scope, $scope.node_id).then(function (data) {\n            if (data.status == 200)\n            {\n                if (data.data != null && angular.isDefined(data.data.children))\n                {\n                    $scope.advanced_search.taxonomy = data.data.children;\n                    // expand nodes\n                    ivhTreeviewMgr.expandRecursive($scope.advanced_search.taxonomy, $scope.advanced_search.taxonomy);\n                }\n            }\n\n        });\n\n        // get tags \n        var tags = [];\n        var object_tags = [];\n\n\n        $scope.advanced_search.tag = {\n            multiple: true,\n            data: tags\n        };\n        tagService.getTagsByObject($scope, $scope.node_id).then(function (data) {\n            if (data.status == 200)\n            {\n                if (data.data != null && angular.isDefined(data.data.tags))\n                {\n                    angular.forEach(data.data.tags, function (value, key) {\n                        tags[key] = {id: value.id, text: value.text};\n                    });\n                    $scope.advanced_search.tag.data = tags;\n                    if (angular.isDefined(data.data.object_tags))\n                    {\n                        angular.forEach(data.data.object_tags, function (value, key) {\n                            object_tags[key] = {id: value.id, text: value.text};\n                        });\n                        $scope.advanced_search.tagValue = object_tags;\n                    }\n                }\n            }\n\n        });\n\n        // get owners \n        var owners = [];\n        var object_owners = [];\n\n        $scope.advanced_search.owner = {\n            multiple: true,\n            data: owners\n        };\n\n        userService.getUsers($scope).then(function (data) {\n            if (data.status == 200)\n            {\n                if (data.data != null)\n                {\n                    angular.forEach(data.data, function (value, key) {\n                        owners[key] = {id: value.id, text: value.username};\n                    });\n                    $scope.advanced_search.owner.data = owners;\n                }\n            }\n\n        });\n\n        $scope.keyOptions = '<option value=\"\"></option>';\n        $scope.keyValueData = '';\n        // get key values\n        keyValueService.getKeyValuesByObject($scope, $scope.node_id).then(function (data) {\n            if (data.status == 200)\n            {\n                $scope.keyValueData = data.data;\n                if (data.data != null && angular.isDefined(data.data.key_values))\n                {\n                    angular.forEach(data.data.key_values, function (value) {\n                        $scope.keyOptions = $scope.keyOptions + '<option value=\"' + value.id + '\">' + value.key_name + '</option>';\n                    });\n\n                    setTimeout(function () {\n                        $scope.advanced_search.totalKeyArea = $scope.advanced_search.totalKeyArea + 1;\n                        var newKeyAreaHtml = $scope.generateKeyValue($scope.advanced_search.totalKeyArea);\n                        angular.element(\"#advancedSearchKeyValuesAreaId\").append($compile(newKeyAreaHtml)($scope));\n\n                    }, 500);\n                }\n            }\n        });\n\n\n        $scope.addKeyValue = function () {\n            $scope.advanced_search.totalKeyArea = $scope.advanced_search.totalKeyArea + 1;\n            var newKeyAreaHtml = $scope.generateKeyValue($scope.advanced_search.totalKeyArea);\n            angular.element(\"#advancedSearchKeyValuesAreaId\").append($compile(newKeyAreaHtml)($scope));\n        };\n\n\n        $scope.onChangeKeyUpdateValue = function (key) {\n            var keyId = $scope.advanced_search.key_data['key_' + key];\n            angular.forEach($scope.keyValueData.key_values, function (value) {\n                if (value.id == keyId)\n                {\n                    if (value.key_type == 'select_list')\n                    {\n                        var valueSelect = '<select style=\"width:100%\" ui-select2 ng-model=\"advanced_search.value_data.key_' + key + '\" data-placeholder=\"Select a Value\">';\n                        valueSelect += '<option value=\"\"></option>';\n                        angular.forEach(value.values, function (valueObj) {\n                            valueSelect += '<option value=\"' + valueObj.value_id + '\">' + valueObj.value + '</option>';\n                        });\n                        valueSelect += '</select>';\n                        valueSelect += '<div class=\"input-group-btn\"><button type=\"button\" class=\"btn btn-success\" ng-click=\"addKeyValue()\"><i class=\"fa fa-plus\"></i></button><button type=\"button\" class=\"btn btn-danger\" ng-click=\"removeKeyValue(\\'advancedSearchKeyValuesArea_' + key + '\\')\"><i class=\"fa fa-trash\"></i></button></div>';\n                        angular.element(\"#advancedSearchKeyValueAreaValue_\" + key).html($compile(valueSelect)($scope));\n                    } else if (value.key_type == 'date_entry') {\n                        var valueInput = '<input type=\"text\" class=\"form-control\" ng-model=\"advanced_search.value_data.key_' + key + '\" data-date-format=\"MM-dd-yyyy\" data-date-type=\"string\" data-min-date=\"02/10/86\" data-autoclose=\"1\" name=\"advanced_search.value_data.key_' + key + '\" bs-datepicker>';\n                        valueInput += '<div class=\"input-group-btn\"><button type=\"button\" class=\"btn btn-success\" ng-click=\"addKeyValue()\"><i class=\"fa fa-plus\"></i></button><button type=\"button\" class=\"btn btn-danger\" ng-click=\"removeKeyValue(\\'advancedSearchKeyValuesArea_' + key + '\\')\"><i class=\"fa fa-trash\"></i></button></div>';\n                        angular.element(\"#advancedSearchKeyValueAreaValue_\" + key).html($compile(valueInput)($scope));\n\n                    } else if (value.key_type == 'time_entry') {\n                        var valueInput = '<input type=\"text\" data-time-type=\"string\" data-time-format=\"HH:mm\" data-length=\"1\" data-minute-step=\"1\" class=\"form-control\" ng-model=\"advanced_search.value_data.key_' + key + '\"  name=\"advanced_search.value_data.key_' + key + '\" bs-timepicker data-arrow-behavior=\"picker\" data-autoclose=\"1\">';\n                        valueInput += '<div class=\"input-group-btn\"><button type=\"button\" class=\"btn btn-success\" ng-click=\"addKeyValue()\"><i class=\"fa fa-plus\"></i></button><button type=\"button\" class=\"btn btn-danger\" ng-click=\"removeKeyValue(\\'advancedSearchKeyValuesArea_' + key + '\\')\"><i class=\"fa fa-trash\"></i></button></div>';\n                        angular.element(\"#advancedSearchKeyValueAreaValue_\" + key).html($compile(valueInput)($scope));\n\n                    } else if (value.key_type == 'number_entry') {\n                        var valueInput = '<input type=\"number\" class=\"form-control\" ng-model=\"advanced_search.value_data.key_' + key + '\">';\n                        valueInput += '<div class=\"input-group-btn\"><button type=\"button\" class=\"btn btn-success\" ng-click=\"addKeyValue()\"><i class=\"fa fa-plus\"></i></button><button type=\"button\" class=\"btn btn-danger\" ng-click=\"removeKeyValue(\\'advancedSearchKeyValuesArea_' + key + '\\')\"><i class=\"fa fa-trash\"></i></button></div>';\n                        angular.element(\"#advancedSearchKeyValueAreaValue_\" + key).html($compile(valueInput)($scope));\n\n                    } else {\n                        var valueInput = '<input type=\"text\"  placeholder=\"Enter value\" class=\"form-control\" ng-model=\"advanced_search.value_data.key_' + key + '\">';\n                        valueInput += '<div class=\"input-group-btn\"><button type=\"button\" class=\"btn btn-success\" ng-click=\"addKeyValue()\"><i class=\"fa fa-plus\"></i></button><button type=\"button\" class=\"btn btn-danger\" ng-click=\"removeKeyValue(\\'advancedSearchKeyValuesArea_' + key + '\\')\"><i class=\"fa fa-trash\"></i></button></div>';\n                        angular.element(\"#advancedSearchKeyValueAreaValue_\" + key).html($compile(valueInput)($scope));\n                    }\n                }\n            });\n\n        };\n\n        $scope.removeKeyValue = function (keyValueArea) {\n            angular.element(\"#\" + keyValueArea).remove();\n            var keyArray = keyValueArea.split('_');\n            delete $scope.advanced_search.key_data['key_' + keyArray[1]];\n            delete $scope.advanced_search.value_data['key_' + keyArray[1]];\n            if (angular.element(\".advanced-search-key-values-area\").length == 0)\n            {\n                $scope.advanced_search.totalKeyArea = 1;\n                $scope.advanced_search.key_data = {};\n                $scope.advanced_search.value_data = {};\n                var newKeyAreaHtml = $scope.generateKeyValue($scope.advanced_search.totalKeyArea);\n                angular.element(\"#advancedSearchKeyValuesAreaId\").append($compile(newKeyAreaHtml)($scope));\n            }\n\n        };\n\n        $scope.generateKeyValue = function (key) {\n            var keySelect = '<div class=\"form-group\"><div class=\"row advanced-search-key-values-area\" id=\"advancedSearchKeyValuesArea_' + key + '\">';\n            keySelect += '<div class=\"col-sm-6\"><label for=\"metadataValue\">Key</label><select style=\"width:100%\" ng-change=\"onChangeKeyUpdateValue(\\'' + key + '\\')\" ui-select2 ng-model=\"advanced_search.key_data.key_' + key + '\" data-placeholder=\"Select a Key\">';\n            keySelect += $scope.keyOptions + '</select></div>';\n            keySelect += '<div class=\"col-sm-6\"><label for=\"metadataValue\">Value</label><div class=\"input-group adv-input-group\" id=\"advancedSearchKeyValueAreaValue_' + key + '\"><input type=\"text\" class=\"form-control\" ng-model=\"advanced_search.value_data.key_' + key + '\" placeholder=\"Enter value\"><div class=\"input-group-btn\"><button type=\"button\" class=\"btn btn-success\" ng-click=\"addKeyValue()\"><i class=\"fa fa-plus\"></i></button><button type=\"button\" class=\"btn btn-danger\" ng-click=\"removeKeyValue(\\'advancedSearchKeyValuesArea_' + key + '\\')\"><i class=\"fa fa-trash\"></i></button></div></div></div>';\n            return keySelect;\n        };\n\n        $scope.applyAdvancedSearch = function () {\n            // check selected tabs are pattern or template\n            var args = {};\n            args.selectedTab = angular.element('.nav-tabs .active').text();\n            if (args.selectedTab == 'Patterns' || args.selectedTab == 'Templates') {\n                $('.nav-tabs a[data-target=\"#ASSETS\"]').tab('show');\n            }\n\n            $scope.showTemplate = false;\n            $scope.showPattern = false;\n            $scope.advanced_search.heading = 'Advanced Search Result:';\n            $scope.advanced_search.enableSearch = true;\n            $scope.advanced_search.active = true;\n            $scope.advanced_search.isCollapsed = false;\n            $scope.searchModel.search_text = '';\n            $scope.searchModel.showSearchIcon = true;\n\n            $rootScope.$broadcast('apply-advaced-search', args);\n            //$scope.generateAdvanceSearchTerm();\n        };\n\n        $scope.clearSearch = function () {\n            $scope.showTemplate = true;\n            $scope.showPattern = true;\n            $scope.advanced_search.active = false;\n            $scope.searchModel.search_text = '';\n            $scope.advanced_search.enableSearch = false;\n            $scope.searchModel.showSearchIcon=true;\n            $scope.applyAdvancedClear();\n            var args = {};\n            args.selectedTab = angular.element('.nav-tabs .active').text();\n            $rootScope.$broadcast('clear-advaced-search', args);\n        };\n\n        $scope.toggleAdvanceSearch = function () {\n            if ($scope.advanced_search.isCollapsed) {\n                $scope.advanced_search.isCollapsed = false;\n                if ($scope.advanced_search.active) {\n                    $scope.advanced_search.enableSearch = true;\n                }\n            } else {\n                $scope.advanced_search.enableSearch = false;\n                $scope.advanced_search.isCollapsed = true;\n            }\n\n        };\n\n        $scope.applyAdvancedClear = function () {\n            $scope.advanced_search.totalKeyArea = $scope.advanced_search.totalKeyArea + 1;\n            var newKeyAreaHtml = $scope.generateKeyValue($scope.advanced_search.totalKeyArea);\n            angular.element(\"#advancedSearchKeyValuesAreaId\").html($compile(newKeyAreaHtml)($scope));\n            $scope.advanced_search.tagValue = [];\n            $scope.advanced_search.ownerValue = [];\n            $scope.advanced_search.title = '';\n            $scope.advanced_search.key_data = {};\n            $scope.advanced_search.value_data = {};\n            ivhTreeviewMgr.deselectAll($scope.advanced_search.taxonomy);\n        };\n\n        $scope.generateAdvanceSearchTerm = function () {\n            var searchTerm = [];\n            var tagList = $scope.advanced_search.tagValue;\n            if (tagList.length > 0) {\n                angular.forEach(tagList, function (tag) {\n                    searchTerm.push(tag.text);\n                });\n            }\n            var ownerList = $scope.advanced_search.ownerValue;\n            if (ownerList.length > 0) {\n                angular.forEach(ownerList, function (owner) {\n                    searchTerm.push(owner.text);\n                });\n            }\n            var taxonomyList = $scope.selectedTaxonomy;\n            if (taxonomyList.length > 0) {\n                angular.forEach(taxonomyList, function (taxonomy) {\n                    searchTerm.push(taxonomy);\n                });\n            }\n\n            if ($scope.advanced_search.title != '') {\n                searchTerm.push($scope.advanced_search.title);\n            }\n\n        };\n\n        $scope.selectedTaxonomy = [];\n        $scope.selectedTaxonomyIds = [];\n\n        $scope.$watch('advanced_search.taxonomy', function (newValues) {\n            $scope.selectedTaxonomy.length = 0;\n            $scope.selectedTaxonomyIds.length = 0;\n            angular.forEach(newValues, function (item) {\n                if (item.selected == true) {\n                    $scope.selectedTaxonomy.push(item.title);\n                    $scope.selectedTaxonomyIds.push(item.id);\n                }\n            });\n        }, true);\n\n        $scope.licenseNotification = function () {\n            SweetAlert.swal({title: \"Notification\", text: \"Asset used on the content has passed the License period.Please go to asset management and update asset/license information.\", showCancelButton: false});\n        };\n        \n        $scope.externalRepoPage=function(){\n           $rootScope.global_tab = (angular.element('.nav-tabs .active').find('a').data('target')).replace('#', '');\n           $location.path('external_repo');\n        }\n        \n        \n    }]);\n\n",
          "comment" : ""
        },
        "redirectURL" : "",
        "headersSize" : 203,
        "bodySize" : 19431,
        "comment" : ""
      },
      "cache" : { },
      "timings" : {
        "comment" : "",
        "connect" : 1298,
        "ssl" : -1,
        "send" : 0,
        "wait" : 0,
        "dns" : -1,
        "blocked" : -1,
        "receive" : 0
      },
      "comment" : "",
      "_katalonRequestInformation" : {
        "name" : "60",
        "testObjectId" : "Temporary RESTful request object",
        "harId" : "2877b80d-1348-4147-bc5c-14864863559d"
      },
      "time" : 1298
    } ],
    "comment" : ""
  }
}