{
  "log" : {
    "version" : "1.2",
    "pages" : [ ],
    "entries" : [ {
      "startedDateTime" : "2019-07-12T07:13:46.994Z",
      "request" : {
        "method" : "GET",
        "url" : "https://frostedc-stg.learningmate.com/js/bootstrap-tabdrop.js",
        "httpVersion" : "",
        "cookies" : [ ],
        "headers" : [ ],
        "queryString" : [ ],
        "headersSize" : 0,
        "bodySize" : 0,
        "comment" : ""
      },
      "response" : {
        "status" : 200,
        "statusText" : "",
        "httpVersion" : "",
        "cookies" : [ ],
        "headers" : [ {
          "name" : "Accept-Ranges",
          "value" : "bytes"
        }, {
          "name" : null,
          "value" : "HTTP/1.1 200 OK"
        }, {
          "name" : "Server",
          "value" : "nginx/1.13.5"
        }, {
          "name" : "ETag",
          "value" : "\"5d25bc3a-c68\""
        }, {
          "name" : "Connection",
          "value" : "keep-alive"
        }, {
          "name" : "Last-Modified",
          "value" : "Wed, 10 Jul 2019 10:21:46 GMT"
        }, {
          "name" : "Content-Length",
          "value" : "3176"
        }, {
          "name" : "Date",
          "value" : "Fri, 12 Jul 2019 07:15:16 GMT"
        }, {
          "name" : "Content-Type",
          "value" : "application/javascript"
        } ],
        "content" : {
          "size" : 3176,
          "mimeType" : "application/javascript",
          "text" : "/* =========================================================\n * bootstrap-tabdrop.js \n * http://www.eyecon.ro/bootstrap-tabdrop\n * =========================================================\n * Copyright 2012 Stefan Petre\n *\n * Licensed under the Apache License, Version 2.0 (the \"License\");\n * you may not use this file except in compliance with the License.\n * You may obtain a copy of the License at\n *\n * http://www.apache.org/licenses/LICENSE-2.0\n *\n * Unless required by applicable law or agreed to in writing, software\n * distributed under the License is distributed on an \"AS IS\" BASIS,\n * WITHOUT WARRANTIES OR CONDITIONS OF ANY KIND, either express or implied.\n * See the License for the specific language governing permissions and\n * limitations under the License.\n * ========================================================= */\n \n!function( $ ) {\n\n\tvar WinReszier = (function(){\n\t\tvar registered = [];\n\t\tvar inited = false;\n\t\tvar timer;\n\t\tvar resize = function(ev) {\n\t\t\tclearTimeout(timer);\n\t\t\ttimer = setTimeout(notify, 100);\n\t\t};\n\t\tvar notify = function() {\n\t\t\tfor(var i=0, cnt=registered.length; i<cnt; i++) {\n\t\t\t\tregistered[i].apply();\n\t\t\t}\n\t\t};\n\t\treturn {\n\t\t\tregister: function(fn) {\n\t\t\t\tregistered.push(fn);\n\t\t\t\tif (inited === false) {\n\t\t\t\t\t$(window).bind('resize', resize);\n\t\t\t\t\tinited = true;\n\t\t\t\t}\n\t\t\t},\n\t\t\tunregister: function(fn) {\n\t\t\t\tfor(var i=0, cnt=registered.length; i<cnt; i++) {\n\t\t\t\t\tif (registered[i] == fn) {\n\t\t\t\t\t\tdelete registered[i];\n\t\t\t\t\t\tbreak;\n\t\t\t\t\t}\n\t\t\t\t}\n\t\t\t}\n\t\t}\n\t}());\n\n\tvar TabDrop = function(element, options) {\n\t\tthis.element = $(element);\n\t\tthis.dropdown = $('<li class=\"dropdown hide pull-right tabdrop\"><a class=\"dropdown-toggle \" data-toggle=\"dropdown\" href=\"#\">'+options.text+' <b class=\"caret\"></b></a><ul class=\"dropdown-menu\"></ul></li>')\n\t\t\t\t\t\t\t.prependTo(this.element);\n\t\tif (this.element.parent().is('.tabs-below')) {\n\t\t\tthis.dropdown.addClass('dropup');\n\t\t}\n\t\tWinReszier.register($.proxy(this.layout, this));\n\t\tthis.layout();\n\t};\n\n\tTabDrop.prototype = {\n\t\tconstructor: TabDrop,\n\n\t\tlayout: function() {\n\t\t\tvar collection = [];\n\t\t\tthis.dropdown.removeClass('hide');\n\t\t\tthis.element\n\t\t\t\t.append(this.dropdown.find('li'))\n\t\t\t\t.find('>li')\n\t\t\t\t.not('.tabdrop')\n\t\t\t\t.each(function(){\n\t\t\t\t\tif(this.offsetTop > 0) {\n\t\t\t\t\t\tcollection.push(this);\n\t\t\t\t\t}\n\t\t\t\t});\n\t\t\tif (collection.length > 0) {\n\t\t\t\tcollection = $(collection);\n\t\t\t\tthis.dropdown\n\t\t\t\t\t.find('ul')\n\t\t\t\t\t.empty()\n\t\t\t\t\t.append(collection);\n\t\t\t\tif (this.dropdown.find('.active').length == 1) {\n\t\t\t\t\tthis.dropdown.addClass('active');\n\t\t\t\t} else {\n\t\t\t\t\tthis.dropdown.removeClass('active');\n\t\t\t\t}\n\t\t\t} else {\n\t\t\t\tthis.dropdown.addClass('hide');\n\t\t\t}\n\t\t}\n\t}\n\n\t$.fn.tabdrop = function ( option ) {\n\t\treturn this.each(function () {\n\t\t\tvar $this = $(this),\n\t\t\t\tdata = $this.data('tabdrop'),\n\t\t\t\toptions = typeof option === 'object' && option;\n\t\t\tif (!data)  {\n\t\t\t\t$this.data('tabdrop', (data = new TabDrop(this, $.extend({}, $.fn.tabdrop.defaults,options))));\n\t\t\t}\n\t\t\tif (typeof option == 'string') {\n\t\t\t\tdata[option]();\n\t\t\t}\n\t\t})\n\t};\n\n\t$.fn.tabdrop.defaults = {\n\t\ttext: '<i class=\"icon-align-justify sprite3\"></i>'\n\t};\n\n\t$.fn.tabdrop.Constructor = TabDrop;\n\n}( window.jQuery );",
          "comment" : ""
        },
        "redirectURL" : "",
        "headersSize" : 201,
        "bodySize" : 3176,
        "comment" : ""
      },
      "cache" : { },
      "timings" : {
        "comment" : "",
        "connect" : 1034,
        "ssl" : -1,
        "send" : 0,
        "wait" : 0,
        "dns" : -1,
        "blocked" : -1,
        "receive" : 0
      },
      "comment" : "",
      "_katalonRequestInformation" : {
        "name" : "80",
        "testObjectId" : "Temporary RESTful request object",
        "harId" : "4f60c4de-499c-4d99-b831-1cae5af5f333"
      },
      "time" : 1034
    } ],
    "comment" : ""
  }
}