{
  "log" : {
    "version" : "1.2",
    "pages" : [ ],
    "entries" : [ {
      "startedDateTime" : "2019-07-17T06:57:51.137Z",
      "request" : {
        "method" : "GET",
        "url" : "https://frostedc-stg.learningmate.com/js/assessment/assessmentService.js",
        "httpVersion" : "",
        "cookies" : [ ],
        "headers" : [ ],
        "queryString" : [ ],
        "headersSize" : 0,
        "bodySize" : 0,
        "comment" : ""
      },
      "response" : {
        "status" : 200,
        "statusText" : "",
        "httpVersion" : "",
        "cookies" : [ ],
        "headers" : [ {
          "name" : "Accept-Ranges",
          "value" : "bytes"
        }, {
          "name" : null,
          "value" : "HTTP/1.1 200 OK"
        }, {
          "name" : "Server",
          "value" : "nginx/1.13.5"
        }, {
          "name" : "ETag",
          "value" : "\"5d2ddd74-5369\""
        }, {
          "name" : "Connection",
          "value" : "keep-alive"
        }, {
          "name" : "Last-Modified",
          "value" : "Tue, 16 Jul 2019 14:21:40 GMT"
        }, {
          "name" : "Content-Length",
          "value" : "21353"
        }, {
          "name" : "Date",
          "value" : "Wed, 17 Jul 2019 06:58:08 GMT"
        }, {
          "name" : "Content-Type",
          "value" : "application/javascript"
        } ],
        "content" : {
          "size" : 21353,
          "mimeType" : "application/javascript",
          "text" : "/*****\n * Specific services Assessments \n */\n'use strict';\napp.service('assessmentService', ['$http', '$q', 'sessionService', '$location', '$rootScope', function ($http, $q, sessionService, $location, $rootScope) {\n\n        /*\n         * Service to get assessments         \n         */\n        this.getAssessments = function ($scope, project_id) {\n            var deferred = $q.defer();\n\n            var params = {};\n            params.meta_deta_search =false;\n            params.access_token = sessionService.get('access_token');\n            params.assessment_local_global = JSON.stringify($scope.assessment_local_global);\n            if ($scope.search_text) {\n                params.search_text = window.btoa($scope.search_text);\n            }\n\n            if (angular.isDefined($scope.pageNumber) && angular.isDefined($scope.itemsPerPage)) {\n                params.pageNumber = $scope.pageNumber;\n                params.itemsPerPage = $scope.itemsPerPage;\n            }\n            \n            if (angular.isDefined($scope.meta_deta_search)) {\n                params.meta_deta_search = $scope.meta_deta_search;\n            }\n\n            if (angular.isDefined($scope.assessment_id) && $scope.assessment_id != '') {\n                params.assessment_id = $scope.assessment_id;\n            }\n\n            if (angular.isDefined($scope.currentOrderByField)) {\n                params.orderField = $scope.currentOrderByField;\n            }\n            if (angular.isDefined($scope.reverseSort)) {\n                var dir = 'ASC';\n                if ($scope.reverseSort)\n                {\n                    dir = 'DESC';\n                }\n                params.orderDirection=dir;\n            }\n\n            // for advance search\n            if (angular.isDefined($scope.advanced_search) && angular.isDefined($scope.advanced_search.active) && $scope.advanced_search.active) {\n                params.advanced_search_enable = $scope.advanced_search.active;\n                params.tags = JSON.stringify($scope.advanced_search.tagValue);\n                params.owners = JSON.stringify($scope.advanced_search.ownerValue);\n                params.key_data = JSON.stringify($scope.advanced_search.key_data);\n                params.value_data = JSON.stringify($scope.advanced_search.value_data);\n                params.taxonomy = JSON.stringify($scope.advanced_search.taxonomy);\n                params.advanced_search_title = window.btoa($scope.advanced_search.title);\n                var deferred = $q.defer();\n                $http.post(serviceEndPoint + 'api/v1/assessment-search/project_id/' + project_id, params)\n                        .success(function (data, status, headers, config) {\n                            //console.log(data);\n                            deferred.resolve(data);\n                        }).error(function (data, status, headers, config) {\n                    $rootScope.unauthorised_redirection(data.status);\n                });\n            } else {\n                var deferred = $q.defer();\n                $http({\n                    method: 'GET',\n                    url: serviceEndPoint + 'api/v1/assessment/project_id/' + project_id,\n                    params: params\n                }).success(function (data, status, headers, config) {\n                    //console.log('assessment'+data);\n                    deferred.resolve(data);\n                }).error(function (data, status, headers, config) {\n                    $rootScope.unauthorised_redirection(data.status);\n                });\n            }\n\n            return deferred.promise;\n        };\n        //End - Method to get Assessment\n        /*\n         * Service to create Assessment         \n         */\n        this.saveAssessment = function ($scope) {\n            var deferred = $q.defer();\n            $http.post(serviceEndPoint + 'api/v1/assessment/project_id/' + $scope.project_id + '?access_token=' + sessionService.get('access_token'), {\n                project_id: $scope.project_id,\n                title: $scope.title,\n                grade_type: $scope.grade_type,\n                description: $scope.description,\n                instruction: $scope.instruction,\n                is_global: $scope.is_global,\n                tags: (angular.isUndefined($scope.tags) ? '' : JSON.stringify($scope.tags)),\n                key_data: (angular.isUndefined($scope.key_data) ? '' : JSON.stringify($scope.key_data)),\n                value_data: (angular.isUndefined($scope.value_data) ? '' : JSON.stringify($scope.value_data)),\n                taxonomy: (angular.isUndefined($scope.taxonomy) ? '' : JSON.stringify($scope.taxonomy))\n            }).success(function (data, status, headers, config) {\n                if (data.projectPermissionGranted == 401) {\n                    $rootScope.move_unauthorised_user_to_toc_with_message(data.projectPermissionGranted, $scope.project_id);\n                }\n                deferred.resolve(data);\n            }).error(function (data, status, headers, config) {\n                deferred.resolve(data);\n                //$rootScope.unauthorised_redirection(data.status);\n            });\n\n            return deferred.promise;\n        }\n        /*\n         * Service to create Assessment         \n         */\n        this.editAssessment = function ($scope) {\n            var deferred = $q.defer();\n            $http.post(serviceEndPoint + 'api/v1/assessment/assessment_id/' + $scope.assessment_id + '?access_token=' + sessionService.get('access_token'), {\n                title: $scope.title,\n                grade_type: $scope.grade_type,\n                description: $scope.description,\n                instruction: $scope.instruction,\n                _method: 'PUT',\n                project_id: $scope.project_id,\n                tags: (angular.isUndefined($scope.tags) ? '' : JSON.stringify($scope.tags)),\n                key_data: (angular.isUndefined($scope.key_data) ? '' : JSON.stringify($scope.key_data)),\n                value_data: (angular.isUndefined($scope.value_data) ? '' : JSON.stringify($scope.value_data)),\n                taxonomy: (angular.isUndefined($scope.taxonomy) ? '' : JSON.stringify($scope.taxonomy))\n            }).success(function (data, status, headers, config) {\n                if (data.projectPermissionGranted == 401) {\n                    $rootScope.move_unauthorised_user_to_toc_with_message(data.projectPermissionGranted, $scope.project_id);\n                }\n                deferred.resolve(data);\n            }).error(function (data, status, headers, config) {\n                deferred.resolve(data);\n                //$rootScope.unauthorised_redirection(data.status);\n            });\n            return deferred.promise;\n        }\n        /*\n         * Delete Assessment         \n         */\n        this.delAssessment = function (assessment_id, project_id) {\n            var deferred = $q.defer();\n            $http.delete(serviceEndPoint + 'api/v1/assessment/assessment_id/' + assessment_id + '?access_token=' + sessionService.get('access_token'), {\n                project_id: project_id,\n            }).success(function (data, status, headers, config) {\n                if (data.projectPermissionGranted == 401) {\n                    $rootScope.move_unauthorised_user_to_toc_with_message(data.projectPermissionGranted, project_id);\n                }\n                deferred.resolve(data);\n            }).error(function (data, status, headers, config) {\n                deferred.resolve(data);\n                $rootScope.unauthorised_redirection(data.status);\n            });\n            return deferred.promise;\n        }\n\n        /*\n         * Service to get Questions         \n         */\n        this.getQuestions = function ($scope) {\n            var deferred = $q.defer();\n            var queryString = '';\n            if (angular.isDefined($scope.pageNumber) && angular.isDefined($scope.itemsPerPage)) {\n                queryString += '&pageNumber=' + $scope.pageNumber + '&itemsPerPage=' + $scope.itemsPerPage;\n            }\n\n            if (angular.isDefined($scope.excludeType)) {\n                queryString += '&excludeType=' + $scope.excludeType;\n            }\n            \n            // apply orderby \n            if (angular.isDefined($scope.currentOrderByField)) {\n                queryString += '&orderField=' + $scope.currentOrderByField;\n            }\n            \n            if (angular.isDefined($scope.reverseSort)) {\n                var dir = 'ASC';\n                if ($scope.reverseSort)\n                {\n                    dir = 'DESC';\n                }\n                queryString += '&orderDirection=' + dir;\n            }\n            \n            $http.get(serviceEndPoint + 'api/v1/assessment-question-list/assessment_id/' + $scope.assessment_id + '/project_id/' + $scope.project_id + '?access_token=' + sessionService.get('access_token') + queryString, {\n            }).success(function (data, status, headers, config) {\n                if (data.projectPermissionGranted == 401) {\n                    $rootScope.move_unauthorised_user_to_toc_with_message(data.projectPermissionGranted, $scope.project_id);\n                }\n                deferred.resolve(data);//Return the question list             \n            }).error(function (data, status, headers, config) {\n                $rootScope.unauthorised_redirection(data.status);\n            });\n            return deferred.promise;\n        };\n        /*\n         * Service to get Questions Types       \n         */\n        this.getQuestionTypes = function ($scope) {\n            var deferred = $q.defer();\n            $http.get(serviceEndPoint + 'api/v1/question-type?access_token=' + sessionService.get('access_token'), {\n            }).success(function (data, status, headers, config) {\n                deferred.resolve(data);//Return question type       \n            }).error(function (data, status, headers, config) {\n                $rootScope.unauthorised_redirection(data.status);\n            });\n            return deferred.promise;\n        };\n        /*\n         * Service to get Questions Detailss       \n         */\n        this.getQuestionDetails = function ($scope) {\n            var deferred = $q.defer();\n            $http.get(serviceEndPoint + 'api/v1/question-details/assessment_id/' + $scope.assessment_id + '/question_id/' + $scope.question_id + '?access_token=' + sessionService.get('access_token'), {\n                project_id: $scope.project_id\n            }).success(function (data, status, headers, config) {\n                if (data.projectPermissionGranted == 401) {\n                    $rootScope.move_unauthorised_user_to_toc_with_message(data.projectPermissionGranted, $scope.project_id);\n                }\n                deferred.resolve(data);//Return the Question Details             \n            }).error(function (data, status, headers, config) {\n                $rootScope.unauthorised_redirection(data.status);\n            });\n            return deferred.promise;\n        };\n\n        /*\n         * Delete Questions         \n         */\n        this.delQuestion = function (question_id) {\n            var deferred = $q.defer();\n            $http.delete(serviceEndPoint + 'api/v1/assessment-question/question_id/' + question_id + '?access_token=' + sessionService.get('access_token'), {\n            }).success(function (data, status, headers, config) {\n                deferred.resolve(data);\n            }).error(function (data, status, headers, config) {\n                deferred.resolve(data);\n                $rootScope.unauthorised_redirection(data.status);\n            });\n            return deferred.promise;\n        };\n\n        this.addQuestion = function ($scope) {\n            var deferred = $q.defer();\n            $http.post(serviceEndPoint + 'api/v1/assessment-question/assessment_id/' + $scope.assessment_id + '?access_token=' + sessionService.get('access_token'), {\n                data_json: JSON.stringify($scope.data_json),\n                title: $scope.title,\n                type: $scope.type,\n                project_id: $scope.project_id\n            }).success(function (data, status, headers, config) {\n                if (data.projectPermissionGranted == 401) {\n                    $rootScope.move_unauthorised_user_to_toc_with_message(data.projectPermissionGranted, $scope.project_id);\n                }\n                deferred.resolve(data);\n            }).error(function (data, status, headers, config) {\n                deferred.resolve(data);\n                //$rootScope.unauthorised_redirection(data.status);\n            });\n\n            return deferred.promise;\n        };\n\n        this.editQuestion = function ($scope, $rootScope) {\n            var deferred = $q.defer();\n            $http.post(serviceEndPoint + 'api/v1/question-details/assessment_id/' + $scope.assessment_id + '/question_id/' + $scope.question_id + '?access_token=' + sessionService.get('access_token'), {\n                data_json: JSON.stringify($scope.data_json),\n                title: $scope.title,\n                type: $scope.type,\n                project_id: $scope.project_id,\n                _method: 'PUT'\n            }).success(function (data, status, headers, config) {\n                if (data.projectPermissionGranted == 401) {\n                    $rootScope.move_unauthorised_user_to_toc_with_message(data.projectPermissionGranted, $scope.project_id);\n                }\n                deferred.resolve(data);\n            }).error(function (data, status, headers, config) {\n                deferred.resolve(data);\n                //$rootScope.unauthorised_redirection(data.status);\n            });\n            return deferred.promise;\n        };\n\n        /*\n         * Service to get Questions Preview       \n         */\n        this.getQuestionPreview = function ($scope) {\n            var deferred = $q.defer();\n            var queryString = '&project_id=' + $scope.project_id + '&project_type_id=' + $scope.project_type_id + '&repo_id=' + $scope.repo_id + '&entity_type_id=' + $scope.entity_type_id;\n            $http.get(serviceEndPoint + 'api/v1/assessment-object-preview?access_token=' + sessionService.get('access_token') + queryString, {\n            }).success(function (data, status, headers, config) {\n                if (data.projectPermissionGranted == 401) {\n                    $rootScope.move_unauthorised_user_to_toc_with_message(data.projectPermissionGranted, $scope.project_id);\n                }\n                deferred.resolve(data);//Return the Question Details             \n            }).error(function (data, status, headers, config) {\n                $rootScope.unauthorised_redirection(data.status);\n            });\n            return deferred.promise;\n\n        };\n        this.getGlobalAssessments = function ($scope) {\n            var params = {};\n            var deferred = $q.defer();\n            \n            //Set metadata search flag\n            params.meta_deta_search =false;\n            if (angular.isDefined($scope.meta_deta_search)) {\n                params.meta_deta_search = $scope.meta_deta_search;\n            }\n\n            if (angular.isDefined($scope.currentOrderByField)) {\n                params.orderField = $scope.currentOrderByField;\n            }\n\n            if (angular.isDefined($scope.searchModel.search_text)) {\n                params.search_text = window.btoa($scope.searchModel.search_text);\n            }\n\n            if (angular.isDefined($scope.reverseSort)) {\n                var dir = 'ASC';\n                if ($scope.reverseSort)\n                {\n                    dir = 'DESC';\n                }\n                params.orderDirection = dir;\n            }\n            params.access_token = sessionService.get('access_token');\n            if (angular.isDefined($scope.pageNumber) && angular.isDefined($scope.itemsPerPage)) {\n                params.pageNumber = $scope.pageNumber;\n                params.itemsPerPage = $scope.itemsPerPage;\n            }\n\n            var deferred = $q.defer();\n            // for advance search\n            if (angular.isDefined($scope.advanced_search.active) && $scope.advanced_search.active) {\n                params.advanced_search_enable = $scope.advanced_search.active;\n                params.tags = JSON.stringify($scope.advanced_search.tagValue);\n                params.owners = JSON.stringify($scope.advanced_search.ownerValue);\n                params.key_data = JSON.stringify($scope.advanced_search.key_data);\n                params.value_data = JSON.stringify($scope.advanced_search.value_data);\n                params.taxonomy = JSON.stringify($scope.advanced_search.taxonomy);\n                params.advanced_search_title = window.btoa($scope.advanced_search.title);\n                params.access_token = sessionService.get('access_token');\n\n                $http.post(serviceEndPoint + 'api/v1/global-assessment-search', params)\n                        .success(function (data, status, headers, config) {\n                            deferred.resolve(data);\n                        }).error(function (data, status, headers, config) {\n                    $rootScope.unauthorised_redirection(data.status);\n                });\n            } else {\n                $http({\n                    method: 'GET',\n                    url: serviceEndPoint + 'api/v1/global-assessment',\n                    params: params\n                }).success(function (data, status, headers, config) {\n                    deferred.resolve(data);\n                }).error(function (data, status, headers, config) {\n                    $rootScope.unauthorised_redirection(data.status);\n                });\n            }\n            return deferred.promise;\n        };\n        /*\n         * Change status to active or inactive\n         */\n        this.changeStatus = function (assessment_id, $scope) {\n            var deferred = $q.defer();\n            $http.post(serviceEndPoint + 'api/v1/assessment/change_status/' + assessment_id + '?access_token=' + sessionService.get('access_token'), {\n                _method: 'PUT'\n            }).success(function (data, status, headers, config) {\n                deferred.resolve(data);\n            }).error(function (data, status, headers, config) {\n                deferred.resolve(data);\n                $rootScope.unauthorised_redirection(data.status);\n            });\n            return deferred.promise;\n        };\n        /*\n         * Service to get Questions Preview global      \n         */\n        this.getGlobalQuestionPreview = function ($scope) {\n            var deferred = $q.defer();\n            var queryString = '&repo_id=' + $scope.repo_id + '&entity_type_id=' + $scope.entity_type_id;\n            $http.get(serviceEndPoint + 'api/v1/assessment-global-preview?access_token=' + sessionService.get('access_token') + queryString, {\n            }).success(function (data, status, headers, config) {\n                if (data.projectPermissionGranted == 401) {\n                    $rootScope.move_unauthorised_user_to_toc_with_message(data.projectPermissionGranted, $scope.project_id);\n                }\n                deferred.resolve(data);//Return the Question Details             \n            }).error(function (data, status, headers, config) {\n                $rootScope.unauthorised_redirection(data.status);\n            });\n            return deferred.promise;\n\n        };\n        /*\n         * service to make global the assessment\n         */\n        this.makeGlobal = function (ids, $scope) {\n            var deferred = $q.defer();\n\n            $http.post(serviceEndPoint + 'api/v1/change-assessment-access?access_token=' + sessionService.get('access_token') + '&assess_id=' + ids + '&is_global=' + $scope.make_global, {\n            }).success(function (data, status, headers, config) {\n//                if (data.projectPermissionGranted == 401) {\n//                    $rootScope.move_unauthorised_user_to_toc_with_message(data.projectPermissionGranted);\n//                }\n                deferred.resolve(data);\n            }).error(function (data, status, headers, config) {\n                deferred.resolve(data);\n                $rootScope.unauthorised_redirection(data.status);\n            });\n            return deferred.promise;\n        };\n        \n        //Get assessment usage count - Lucky Chowdhury @ 4.5.2018\n        this.getAssessmentUsageList = function ($scope) {\n            var params = {};\n            params.access_token = sessionService.get('access_token');\n            var queryString = '';\n            //For Pagination\n            if (angular.isDefined($scope.pageNumber) && angular.isDefined($scope.itemsPerPage)) {\n                queryString += '&pageNumber=' + $scope.pageNumber + '&itemsPerPage=' + $scope.itemsPerPage;\n            }\n            var deferred = $q.defer();\n            $http({\n                method: 'GET',\n                url: serviceEndPoint + 'api/v1/assessment-usage-list/' + $scope.assessment_id + '?access_token=' + sessionService.get('access_token') + queryString,\n                params: params\n            }).success(function (data, status, headers, config) {\n                deferred.resolve(data);\n            }).error(function (data, status, headers, config) {\n                $rootScope.unauthorised_redirection(data.status);\n            });\n            return deferred.promise;\n        }\n        \n    }]);\n\n",
          "comment" : ""
        },
        "redirectURL" : "",
        "headersSize" : 203,
        "bodySize" : 21353,
        "comment" : ""
      },
      "cache" : { },
      "timings" : {
        "comment" : "",
        "ssl" : -1,
        "connect" : 1280,
        "blocked" : -1,
        "receive" : 0,
        "send" : 0,
        "wait" : 0,
        "dns" : -1
      },
      "comment" : "",
      "_katalonRequestInformation" : {
        "name" : "105",
        "testObjectId" : "Temporary RESTful request object",
        "harId" : "cd1aac00-8c35-4558-b612-ef4cda495575"
      },
      "time" : 1280
    } ],
    "comment" : ""
  }
}