{
  "log" : {
    "version" : "1.2",
    "pages" : [ ],
    "entries" : [ {
      "startedDateTime" : "2019-07-17T06:55:53.051Z",
      "request" : {
        "method" : "GET",
        "url" : "https://frostedc-stg.learningmate.com/css/sidecomment/default-theme.min.css",
        "httpVersion" : "",
        "cookies" : [ ],
        "headers" : [ ],
        "queryString" : [ ],
        "headersSize" : 0,
        "bodySize" : 0,
        "comment" : ""
      },
      "response" : {
        "status" : 200,
        "statusText" : "",
        "httpVersion" : "",
        "cookies" : [ ],
        "headers" : [ {
          "name" : "Accept-Ranges",
          "value" : "bytes"
        }, {
          "name" : null,
          "value" : "HTTP/1.1 200 OK"
        }, {
          "name" : "Server",
          "value" : "nginx/1.13.5"
        }, {
          "name" : "ETag",
          "value" : "\"5d2ddd74-d0f\""
        }, {
          "name" : "Connection",
          "value" : "keep-alive"
        }, {
          "name" : "Last-Modified",
          "value" : "Tue, 16 Jul 2019 14:21:40 GMT"
        }, {
          "name" : "Content-Length",
          "value" : "3343"
        }, {
          "name" : "Date",
          "value" : "Wed, 17 Jul 2019 06:56:10 GMT"
        }, {
          "name" : "Content-Type",
          "value" : "text/css"
        } ],
        "content" : {
          "size" : 3343,
          "mimeType" : "text/css",
          "text" : "/*.commentable-container{-webkit-transition:all .22s ease;transition:all .22s ease}.side-comments-open{-webkit-transform:translate(-220px,0);-ms-transform:translate(-220px,0);transform:translate(-220px,0)}.commentable-section{-webkit-box-sizing:border-box;-moz-box-sizing:border-box;box-sizing:border-box;padding-right:30px}.side-comment{padding-bottom:20px}.side-comment .marker{width:20px;height:18px;background:#DEDEDC;border-radius:2px;text-decoration:none}.side-comment .marker span,.side-comment .marker:before{content:\"+\";position:absolute;width:20px;height:18px;line-height:16px;font-size:14px;color:#FFF;text-align:center}.side-comment .marker span{line-height:20px;font-size:12px}.side-comment .marker:after{content:\"\";display:block;position:absolute;bottom:-7px;left:5px;width:0;border-width:7px 8px 0 0;border-style:solid;border-color:#DEDEDC transparent}.side-comment .marker:hover,.side-comment.active .marker{background:#4FAF62}.side-comment .marker:hover:after,.side-comment.active .marker:after{border-color:#4FAF62 transparent}.side-comment .comments-wrapper{top:-22px;width:200px;padding-bottom:120px}.side-comment.active .comments-wrapper{-webkit-animation:fadein .2s;animation:fadein .2s}.side-comment.has-comments .comments-wrapper{top:-22px}.side-comment .comment-form,.side-comment ul.comments li{border:1px solid #F2F2F0;border-left:0;border-right:0;padding:15px 0;margin-top:-1px}.side-comment .comment,.side-comment .comment-box{font-size:14px;line-height:18px}.side-comment .author-avatar{float:left;width:32px;height:32px;margin-right:10px}.side-comment .author-avatar img{width:100%;height:100%}.side-comment .right-of-avatar{float:left;width:158px}.side-comment .author-name{font-size:15px;line-height:16px;margin:0 0 2px;font-weight:700;text-decoration:none;color:#222}.side-comment a.author-name:hover{color:#444}.side-comment .action-link{color:#B3B3B1;font-size:13px;text-decoration:none}.side-comment .action-link:hover{text-decoration:none}.side-comment .action-link.post .post{color:#89C794}.side-comment .action-link.post .post:hover{color:#468c54}.side-comment .action-link.cancel:hover,.side-comment .action-link.delete:hover{color:#57AD68}.side-comment .add-comment{color:#B3B3B1;font-size:14px;line-height:22px;font-weight:300;padding:0 8px;letter-spacing:.05em;text-decoration:none;margin-top:10px}.side-comment .add-comment:before{content:\"+\";border:2px solid #DEDEDC;border-radius:100px;width:23px;height:23px;color:#DEDEDC;display:block;text-align:center;font-size:16px;font-weight:400;line-height:18px;float:left;margin-right:15px;letter-spacing:0;-webkit-box-sizing:border-box;-moz-box-sizing:border-box;box-sizing:border-box}.side-comment .add-comment:hover{text-decoration:none;color:#4FAF62}.side-comment .add-comment:hover:before{border-color:#4FAF62;color:#4FAF62}.side-comment .comment-box{outline:0;border:0;-webkit-box-shadow:none;box-shadow:none;padding:0}.side-comment .actions{margin-top:5px}.side-comment .actions a{float:left}.side-comment .actions .cancel:before{content:'\\00B7';color:#B3B3B1;padding:0 5px}@media (max-width:768px){.side-comments-open{-webkit-transform:translate(-220px,0);-ms-transform:translate(-220px,0);transform:translate(-220px,0)}.side-comment .comments-wrapper{width:200px}.side-comment .right-of-avatar{width:158px}.side-comment .marker{display:block}}*/",
          "comment" : ""
        },
        "redirectURL" : "",
        "headersSize" : 187,
        "bodySize" : 3343,
        "comment" : ""
      },
      "cache" : { },
      "timings" : {
        "comment" : "",
        "ssl" : -1,
        "connect" : 1058,
        "blocked" : -1,
        "receive" : 0,
        "send" : 0,
        "wait" : 0,
        "dns" : -1
      },
      "comment" : "",
      "_katalonRequestInformation" : {
        "name" : "11",
        "testObjectId" : "Temporary RESTful request object",
        "harId" : "4ae58733-a7ec-4dee-87d7-037c78702466"
      },
      "time" : 1058
    } ],
    "comment" : ""
  }
}