{
  "log" : {
    "version" : "1.2",
    "pages" : [ ],
    "entries" : [ {
      "startedDateTime" : "2019-07-17T06:58:06.867Z",
      "request" : {
        "method" : "GET",
        "url" : "https://frostedc-stg.learningmate.com/js/assignment/assignmentService.js",
        "httpVersion" : "",
        "cookies" : [ ],
        "headers" : [ ],
        "queryString" : [ ],
        "headersSize" : 0,
        "bodySize" : 0,
        "comment" : ""
      },
      "response" : {
        "status" : 200,
        "statusText" : "",
        "httpVersion" : "",
        "cookies" : [ ],
        "headers" : [ {
          "name" : "Accept-Ranges",
          "value" : "bytes"
        }, {
          "name" : null,
          "value" : "HTTP/1.1 200 OK"
        }, {
          "name" : "Server",
          "value" : "nginx/1.13.5"
        }, {
          "name" : "ETag",
          "value" : "\"5d2ddd74-373e\""
        }, {
          "name" : "Connection",
          "value" : "keep-alive"
        }, {
          "name" : "Last-Modified",
          "value" : "Tue, 16 Jul 2019 14:21:40 GMT"
        }, {
          "name" : "Content-Length",
          "value" : "14142"
        }, {
          "name" : "Date",
          "value" : "Wed, 17 Jul 2019 06:58:23 GMT"
        }, {
          "name" : "Content-Type",
          "value" : "application/javascript"
        } ],
        "content" : {
          "size" : 14142,
          "mimeType" : "application/javascript",
          "text" : "/*****\n * Specific services Assignments \n */\n'use strict';\napp.service('assignmentService', ['$http', '$q', 'sessionService', '$location', '$rootScope', function ($http, $q, sessionService, $location, $rootScope) {\n\n        /*\n         * Service to get assignments         \n         */\n        this.getAssignments = function ($scope, project_id) {\n            var deferred = $q.defer();\n            var params = {};\n            params.access_token = sessionService.get('access_token');\n            params.assignment_local_global = JSON.stringify($scope.assignment_local_global);\n            params.pageNumber= $scope.pageNumber;\n            params.itemsPerPage=$scope.itemsPerPage;\n            params.orderDirection='DESC';\n            params.orderField='created_at';            \n            if ($scope.project_id) {\n                params.project_id = $scope.project_id;\n            }\n            if (angular.isDefined($scope.meta_deta_search)) {\n                params.meta_deta_search = $scope.meta_deta_search;\n            }\n\n            if (angular.isDefined($scope.search_text)) {\n                params.search_text = window.btoa($scope.search_text);\n            }\n\n            if (angular.isDefined($scope.pageNumber) && angular.isDefined($scope.itemsPerPage)) {\n                params.pageNumber = $scope.pageNumber;\n                params.itemsPerPage = $scope.itemsPerPage;\n            }\n            \n            if (angular.isDefined($scope.assignment_id) && $scope.assignment_id != '') {\n                params.assignment_id = $scope.assignment_id;\n            }            \n            \n            if (angular.isDefined($scope.currentOrderByField)) {\n                params.orderField = $scope.currentOrderByField;\n            }                        \n            if (angular.isDefined($scope.reverseSort)) {\n                var dir = 'ASC';\n                if ($scope.reverseSort)\n                {\n                    dir = 'DESC';\n                }\n                params.orderDirection=dir;\n            }\n\n            // for advance search\n            if (angular.isDefined($scope.advanced_search) && angular.isDefined($scope.advanced_search.active) && $scope.advanced_search.active) {\n                params.advanced_search_enable = $scope.advanced_search.active;\n                params.tags = JSON.stringify($scope.advanced_search.tagValue);\n                params.owners = JSON.stringify($scope.advanced_search.ownerValue);\n                params.key_data = JSON.stringify($scope.advanced_search.key_data);\n                params.value_data = JSON.stringify($scope.advanced_search.value_data);\n                params.taxonomy = JSON.stringify($scope.advanced_search.taxonomy);\n                params.advanced_search_title = window.btoa($scope.advanced_search.title);\n                var deferred = $q.defer();\n                $http.post(serviceEndPoint + 'api/v1/assignment-search/project_id/' + project_id, params)\n                        .success(function (data, status, headers, config) {\n                            //console.log(data);\n                            deferred.resolve(data);\n                        }).error(function (data, status, headers, config) {\n                    $rootScope.unauthorised_redirection(data.status);\n                });\n            } else {\n                var deferred = $q.defer();\n                $http({\n                        method: 'GET',\n                        url: serviceEndPoint + 'api/v1/assignment/project_id/' + project_id,\n                        params: params\n                    }).success(function (data, status, headers, config) {\n                        //console.log(data);\n                        deferred.resolve(data);\n                    }).error(function (data, status, headers, config) {\n                        $rootScope.unauthorised_redirection(data.status);\n                });\n            }\n\n            return deferred.promise;\n        };\n        \n        /**\n         * Get Assignment Details By Id\n         */\n        this.getAssignmentDetailsById = function ($scope, assignment_id) {\n            var params = {};\n            params.access_token = sessionService.get('access_token');\n            var deferred = $q.defer();\n            var queryString = '';\n            $http.get(serviceEndPoint + 'api/v1/assignment/assignment_id/' + assignment_id + '?access_token=' + sessionService.get('access_token') + queryString, {\n            }).success(function (data, status, headers, config) {\n                deferred.resolve(data);\n            }).error(function (data, status, headers, config) {\n                $rootScope.unauthorised_redirection(data.status);\n            });\n            return deferred.promise;\n        };\n        //End - Method to get Assignment\n\n        /*\n         * Service to edit Assignment\n         */\n        this.editAssignment = function ($scope) {\n            var deferred = $q.defer();\n            var lms_settings =  {\n                gradable      :(angular.isUndefined($scope.assignment_gradable) ? '' : $scope.assignment_gradable),\n                grade_points  :(angular.isUndefined($scope.assignment_grade_points) ? '' : $scope.assignment_grade_points),\n            };            \n            if(!lms_settings.gradable){\n                lms_settings.gradable ='';\n                lms_settings.grade_points ='';\n            }\n            \n            var additional_files =  {\n                asset_id      :(angular.isUndefined($scope.assignment_asset_id)     ? '' : $scope.assignment_asset_id),\n                asset_link    :(angular.isUndefined($scope.assignment_asset_link)   ? '' : $scope.assignment_asset_link),\n            };\n            \n            $http.post(serviceEndPoint + 'api/v1/assignment/assignment_id/' + $scope.assignment_id + '?access_token=' + sessionService.get('access_token'), {\n                assignment_type         : $scope.assignment_type,\n                assignment_title        : $scope.assignment_title,\n                assignment_description  : $scope.assignment_description,\n                project_id              : $scope.project_id,\n                tags                    : (angular.isUndefined($scope.tags) ? '' : JSON.stringify($scope.tags)),\n                key_data                : (angular.isUndefined($scope.key_data) ? '' : JSON.stringify($scope.key_data)),\n                value_data              : (angular.isUndefined($scope.value_data) ? '' : JSON.stringify($scope.value_data)),\n                taxonomy                : (angular.isUndefined($scope.taxonomy) ? '' : JSON.stringify($scope.taxonomy)),\n                lms_settings            : JSON.stringify(lms_settings),\n                additional_files        : JSON.stringify(additional_files)\n            }).success(function (data, status, headers, config) {\n                deferred.resolve(data);\n            }).error(function (data, status, headers, config) {\n                $rootScope.unauthorised_redirection(data.status);\n            });\n            return deferred.promise;\n        }\n        \n        /*\n         * Service to create Assignment         \n         */\n        this.saveAssignment = function ($scope) {\n            var deferred = $q.defer(); \n            /*var lms_settings =  {\n                gradable      :(angular.isUndefined($scope.assignment_gradable)       ? '' : $scope.assignment_gradable),\n                grade_points  :(angular.isUndefined($scope.assignment_grade_points)   ? '' : $scope.assignment_grade_points),\n                grade_category:(angular.isUndefined($scope.assignment_grade_category) ? '' : $scope.assignment_grade_category),\n                grade_type    :(angular.isUndefined($scope.assignment_grade_type)     ? '' : $scope.assignment_grade_type),\n            };*/\n            var lms_settings =  {\n                gradable      :(angular.isUndefined($scope.assignment_gradable)       ? '' : $scope.assignment_gradable),\n                grade_points  :(angular.isUndefined($scope.assignment_grade_points)   ? '' : $scope.assignment_grade_points),\n            };\n            \n            var additional_files =  {\n                asset_id      :(angular.isUndefined($scope.assignment_asset_id)       ? '' : $scope.assignment_asset_id),\n                asset_link    :(angular.isUndefined($scope.assignment_asset_link)   ? '' : $scope.assignment_asset_link),\n            };\n\n            $http.post(serviceEndPoint + 'api/v1/assignment/project_id/' + $scope.project_id + '?access_token=' + sessionService.get('access_token'), {\n                assignment_type         : $scope.assignment_type,\n                assignment_title        : $scope.assignment_title,\n                assignment_description  : $scope.assignment_description,\n                tags                    : (angular.isUndefined($scope.tags) ? '' : JSON.stringify($scope.tags)),\n                key_data                : (angular.isUndefined($scope.key_data) ? '' : JSON.stringify($scope.key_data)),\n                value_data              : (angular.isUndefined($scope.value_data) ? '' : JSON.stringify($scope.value_data)),\n                taxonomy                : (angular.isUndefined($scope.taxonomy) ? '' : JSON.stringify($scope.taxonomy)),\n                lms_settings            : JSON.stringify(lms_settings),\n                additional_files        : JSON.stringify(additional_files),\n            }).success(function (data, status, headers, config) {                \n                deferred.resolve(data);\n            }).error(function (data, status, headers, config) {\n                deferred.resolve(data);              \n            });\n\n            return deferred.promise;\n        }\n\n        /*\n         * Delete Assignment         \n         */\n        this.delAssignment = function (assignment_id, project_id) {\n            var deferred = $q.defer();\n            $http.delete(serviceEndPoint + 'api/v1/assignment/assignment_id/' + assignment_id + '?access_token=' + sessionService.get('access_token'), {\n                project_id: project_id,\n            }).success(function (data, status, headers, config) {\n                if (data.projectPermissionGranted == 401) {\n                    $rootScope.move_unauthorised_user_to_toc_with_message(data.projectPermissionGranted, project_id);\n                }\n                deferred.resolve(data);\n            }).error(function (data, status, headers, config) {\n                deferred.resolve(data);\n                $rootScope.unauthorised_redirection(data.status);\n            });\n            return deferred.promise;\n        }\n\n\n        /*\n         * Service to get Questions Preview       \n         */\n        this.getAssignmentPreview = function ($scope) {\n            var deferred = $q.defer();\n            var queryString = '&project_id=' + $scope.project_id + '&project_type_id=' + $scope.project_type_id + '&assignment_id=' + $scope.assignment_id+ '&entity_type_id=' + $scope.entity_type_id;\n            $http.get(serviceEndPoint + 'api/v1/assignment-object-preview?access_token=' + sessionService.get('access_token') + queryString, {\n            }).success(function (data, status, headers, config) {\n                deferred.resolve(data);//Return the Question Details             \n            }).error(function (data, status, headers, config) {\n                $rootScope.unauthorised_redirection(data.status);\n            });\n            return deferred.promise;\n\n        };\n        this.getGlobalAssignments = function ($scope) {\n            var params = {};\n            var deferred = $q.defer();\n\n            if (angular.isDefined($scope.currentOrderByField)) {\n                params.orderField = $scope.currentOrderByField;\n            }\n\n            if (angular.isDefined($scope.searchModel.search_text)) {\n                params.search_text = window.btoa($scope.searchModel.search_text);\n            }\n\n            if (angular.isDefined($scope.reverseSort)) {\n                var dir = 'ASC';\n                if ($scope.reverseSort)\n                {\n                    dir = 'DESC';\n                }\n                params.orderDirection = dir;\n            }\n            params.access_token = sessionService.get('access_token');\n            if (angular.isDefined($scope.pageNumber) && angular.isDefined($scope.itemsPerPage)) {\n                params.pageNumber = $scope.pageNumber;\n                params.itemsPerPage = $scope.itemsPerPage;\n            }\n\n            var deferred = $q.defer();\n            // for advance search\n            if (angular.isDefined($scope.advanced_search.active) && $scope.advanced_search.active) {\n                params.advanced_search_enable = $scope.advanced_search.active;\n                params.tags = JSON.stringify($scope.advanced_search.tagValue);\n                params.owners = JSON.stringify($scope.advanced_search.ownerValue);\n                params.key_data = JSON.stringify($scope.advanced_search.key_data);\n                params.value_data = JSON.stringify($scope.advanced_search.value_data);\n                params.taxonomy = JSON.stringify($scope.advanced_search.taxonomy);\n                params.advanced_search_title = window.btoa($scope.advanced_search.title);\n                params.access_token = sessionService.get('access_token');\n\n                $http.post(serviceEndPoint + 'api/v1/global-assignment-search', params)\n                        .success(function (data, status, headers, config) {\n                            deferred.resolve(data);\n                        }).error(function (data, status, headers, config) {\n                    $rootScope.unauthorised_redirection(data.status);\n                });\n            } else {\n                $http({\n                    method: 'GET',\n                    url: serviceEndPoint + 'api/v1/global-assignment',\n                    params: params\n                }).success(function (data, status, headers, config) {\n                    deferred.resolve(data);\n                }).error(function (data, status, headers, config) {\n                    $rootScope.unauthorised_redirection(data.status);\n                });\n            }\n            return deferred.promise;\n        };\n\n    }]);\n\n",
          "comment" : ""
        },
        "redirectURL" : "",
        "headersSize" : 203,
        "bodySize" : 14142,
        "comment" : ""
      },
      "cache" : { },
      "timings" : {
        "comment" : "",
        "ssl" : -1,
        "connect" : 1030,
        "blocked" : -1,
        "receive" : 0,
        "send" : 0,
        "wait" : 0,
        "dns" : -1
      },
      "comment" : "",
      "_katalonRequestInformation" : {
        "name" : "117",
        "testObjectId" : "Temporary RESTful request object",
        "harId" : "d5752d60-ed14-41cf-a6c2-268ded684e18"
      },
      "time" : 1030
    } ],
    "comment" : ""
  }
}