{
  "log" : {
    "version" : "1.2",
    "pages" : [ ],
    "entries" : [ {
      "startedDateTime" : "2019-07-17T06:58:16.997Z",
      "request" : {
        "method" : "GET",
        "url" : "https://frostedc-stg.learningmate.com/js/sidecomment/side-comments.min.js",
        "httpVersion" : "",
        "cookies" : [ ],
        "headers" : [ ],
        "queryString" : [ ],
        "headersSize" : 0,
        "bodySize" : 0,
        "comment" : ""
      },
      "response" : {
        "status" : 200,
        "statusText" : "",
        "httpVersion" : "",
        "cookies" : [ ],
        "headers" : [ {
          "name" : "Accept-Ranges",
          "value" : "bytes"
        }, {
          "name" : null,
          "value" : "HTTP/1.1 200 OK"
        }, {
          "name" : "Server",
          "value" : "nginx/1.13.5"
        }, {
          "name" : "ETag",
          "value" : "\"5d2ddd74-6f79\""
        }, {
          "name" : "Connection",
          "value" : "keep-alive"
        }, {
          "name" : "Last-Modified",
          "value" : "Tue, 16 Jul 2019 14:21:40 GMT"
        }, {
          "name" : "Content-Length",
          "value" : "28537"
        }, {
          "name" : "Date",
          "value" : "Wed, 17 Jul 2019 06:58:33 GMT"
        }, {
          "name" : "Content-Type",
          "value" : "application/javascript"
        } ],
        "content" : {
          "size" : 28537,
          "mimeType" : "application/javascript",
          "text" : "function require(e,t,n){var r=require.resolve(e);if(null==r){n=n||e,t=t||\"root\";var o=new Error('Failed to require \"'+n+'\" from \"'+t+'\"');throw o.path=n,o.parent=t,o.require=!0,o}var i=require.modules[r];if(!i._resolving&&!i.exports){var s={};s.exports={},s.client=s.component=!0,i._resolving=!0,i.call(this,s.exports,require.relative(r),s),delete i._resolving,i.exports=s.exports}return i.exports}require.modules={},require.aliases={},require.resolve=function(e){\"/\"===e.charAt(0)&&(e=e.slice(1));for(var t=[e,e+\".js\",e+\".json\",e+\"/index.js\",e+\"/index.json\"],n=0;n<t.length;n++){var e=t[n];if(require.modules.hasOwnProperty(e))return e;if(require.aliases.hasOwnProperty(e))return require.aliases[e]}},require.normalize=function(e,t){var n=[];if(\".\"!=t.charAt(0))return t;e=e.split(\"/\"),t=t.split(\"/\");for(var r=0;r<t.length;++r)\"..\"==t[r]?e.pop():\".\"!=t[r]&&\"\"!=t[r]&&n.push(t[r]);return e.concat(n).join(\"/\")},require.register=function(e,t){require.modules[e]=t},require.alias=function(e,t){if(!require.modules.hasOwnProperty(e))throw new Error('Failed to alias \"'+e+'\", it does not exist');require.aliases[t]=e},require.relative=function(e){function t(e,t){for(var n=e.length;n--;)if(e[n]===t)return n;return-1}function n(t){var r=n.resolve(t);return require(r,e,t)}var r=require.normalize(e,\"..\");return n.resolve=function(n){var o=n.charAt(0);if(\"/\"==o)return n.slice(1);if(\".\"==o)return require.normalize(r,n);var i=e.split(\"/\"),s=t(i,\"deps\")+1;return s||(s=0),n=i.slice(0,s+1).join(\"/\")+\"/deps/\"+n},n.exists=function(e){return require.modules.hasOwnProperty(n.resolve(e))},n},require.register(\"component-emitter/index.js\",function(e,t,n){function r(e){return e?o(e):void 0}function o(e){for(var t in r.prototype)e[t]=r.prototype[t];return e}n.exports=r,r.prototype.on=r.prototype.addEventListener=function(e,t){return this._callbacks=this._callbacks||{},(this._callbacks[e]=this._callbacks[e]||[]).push(t),this},r.prototype.once=function(e,t){function n(){r.off(e,n),t.apply(this,arguments)}var r=this;return this._callbacks=this._callbacks||{},n.fn=t,this.on(e,n),this},r.prototype.off=r.prototype.removeListener=r.prototype.removeAllListeners=r.prototype.removeEventListener=function(e,t){if(this._callbacks=this._callbacks||{},0==arguments.length)return this._callbacks={},this;var n=this._callbacks[e];if(!n)return this;if(1==arguments.length)return delete this._callbacks[e],this;for(var r,o=0;o<n.length;o++)if(r=n[o],r===t||r.fn===t){n.splice(o,1);break}return this},r.prototype.emit=function(e){this._callbacks=this._callbacks||{};var t=[].slice.call(arguments,1),n=this._callbacks[e];if(n){n=n.slice(0);for(var r=0,o=n.length;o>r;++r)n[r].apply(this,t)}return this},r.prototype.listeners=function(e){return this._callbacks=this._callbacks||{},this._callbacks[e]||[]},r.prototype.hasListeners=function(e){return!!this.listeners(e).length}}),require.register(\"side-comments/js/main.js\",function(e,t,n){function r(e,t,n){this.$el=a(e),this.$body=a(\"body\"),this.eventPipe=new s,this.currentUser=o.clone(t)||null,this.existingComments=o.cloneDeep(n)||[],this.sections=[],this.activeSection=null,this.eventPipe.on(\"showComments\",o.bind(this.showComments,this)),this.eventPipe.on(\"hideComments\",o.bind(this.hideComments,this)),this.eventPipe.on(\"sectionSelected\",o.bind(this.sectionSelected,this)),this.eventPipe.on(\"sectionDeselected\",o.bind(this.sectionDeselected,this)),this.eventPipe.on(\"commentPosted\",o.bind(this.commentPosted,this)),this.eventPipe.on(\"commentDeleted\",o.bind(this.commentDeleted,this)),this.eventPipe.on(\"addCommentAttempted\",o.bind(this.addCommentAttempted,this)),this.$body.on(\"click\",o.bind(this.bodyClick,this)),this.initialize(this.existingComments)}var o=t(\"./vendor/lodash-custom.js\"),i=t(\"./section.js\"),s=t(\"emitter\"),a=jQuery;s(r.prototype),r.prototype.initialize=function(){o.each(this.$el.find(\".commentable-section\"),function(e){var t=a(e),n=t.data(\"section-id\").toString(),r=o.find(this.existingComments,{sectionId:n});this.sections.push(new i(this.eventPipe,t,this.currentUser,r))},this)},r.prototype.showComments=function(){this.$el.addClass(\"side-comments-open\")},r.prototype.hideComments=function(){this.activeSection&&(this.activeSection.deselect(),this.activeSection=null),this.$el.removeClass(\"side-comments-open\")},r.prototype.sectionSelected=function(e){this.showComments(),this.activeSection&&this.activeSection.deselect(),this.activeSection=e},r.prototype.sectionDeselected=function(){this.hideComments(),this.activeSection=null},r.prototype.commentPosted=function(e){this.emit(\"commentPosted\",e)},r.prototype.commentDeleted=function(e){this.emit(\"commentDeleted\",e)},r.prototype.addCommentAttempted=function(){this.emit(\"addCommentAttempted\")},r.prototype.insertComment=function(e){var t=o.find(this.sections,{id:e.sectionId});t.insertComment(e)},r.prototype.removeComment=function(e,t){var n=o.find(this.sections,{id:e});n.removeComment(t)},r.prototype.deleteComment=function(e,t){var n=o.find(this.sections,{id:e});n.deleteComment(t)},r.prototype.commentsAreVisible=function(){return this.$el.hasClass(\"side-comments-open\")},r.prototype.bodyClick=function(e){var t=a(e.target);t.closest(\".side-comment\").length<1&&t.closest(\"body\").length>0&&(this.activeSection&&this.activeSection.deselect(),this.hideComments())},r.prototype.setCurrentUser=function(e){this.hideComments(),this.currentUser=e,o.each(this.sections,o.bind(function(e){e.currentUser=this.currentUser,e.render()},this))},r.prototype.removeCurrentUser=function(){this.setCurrentUser(null)},r.prototype.destroy=function(){this.hideComments(),this.$el.off()},n.exports=r}),require.register(\"side-comments/js/section.js\",function(e,t,n){function r(e,t,n,r){this.eventPipe=e,this.$el=t,this.comments=r?r.comments:[],this.currentUser=n||null,this.clickEventName=a()?\"touchstart\":\"click\",this.id=t.data(\"section-id\"),this.$el.on(this.clickEventName,\".side-comment .marker\",o.bind(this.markerClick,this)),this.$el.on(this.clickEventName,\".side-comment .add-comment\",o.bind(this.addCommentClick,this)),this.$el.on(this.clickEventName,\".side-comment .post\",o.bind(this.postCommentClick,this)),this.$el.on(this.clickEventName,\".side-comment .cancel\",o.bind(this.cancelCommentClick,this)),this.$el.on(this.clickEventName,\".side-comment .delete\",o.bind(this.deleteCommentClick,this)),this.render()}var o=t(\"./vendor/lodash-custom.js\"),i=t(\"../templates/section.html\"),s=t(\"../templates/comment.html\"),a=t(\"./helpers/mobile-check.js\"),c=jQuery;r.prototype.markerClick=function(e){e.preventDefault(),this.select()},r.prototype.addCommentClick=function(e){e.preventDefault(),this.currentUser?this.showCommentForm():this.eventPipe.emit(\"addCommentAttempted\")},r.prototype.showCommentForm=function(){this.comments.length>0&&(this.$el.find(\".add-comment\").addClass(\"hide\"),this.$el.find(\".comment-form\").addClass(\"active\")),this.focusCommentBox()},r.prototype.hideCommentForm=function(){this.comments.length>0&&(this.$el.find(\".add-comment\").removeClass(\"hide\"),this.$el.find(\".comment-form\").removeClass(\"active\")),this.$el.find(\".comment-box\").empty()},r.prototype.focusCommentBox=function(){setTimeout(o.bind(function(){this.$el.find(\".comment-box\").get(0).focus()},this),300)},r.prototype.cancelCommentClick=function(e){e.preventDefault(),this.cancelComment()},r.prototype.cancelComment=function(){this.comments.length>0?this.hideCommentForm():(this.deselect(),this.eventPipe.emit(\"hideComments\"))},r.prototype.postCommentClick=function(e){e.preventDefault(),this.postComment()},r.prototype.postComment=function(){var e=this.$el.find(\".comment-box\"),t=e.val(),n={sectionId:this.id,comment:t,authorAvatarUrl:this.currentUser.avatarUrl,authorName:this.currentUser.name,authorId:this.currentUser.id,authorUrl:this.currentUser.authorUrl||null};e.val(\"\"),this.eventPipe.emit(\"commentPosted\",n)},r.prototype.insertComment=function(e){this.comments.push(e);var t=o.template(s,{comment:e,currentUser:this.currentUser});this.$el.find(\".comments\").append(t),this.$el.find(\".side-comment\").addClass(\"has-comments\"),this.updateCommentCount(),this.hideCommentForm()},r.prototype.updateCommentCount=function(){this.$el.find(\".marker span\").text(this.comments.length)},r.prototype.deleteCommentClick=function(e){e.preventDefault();var t=c(e.target).closest(\"li\").data(\"comment-id\");window.confirm(\"Are you sure you want to delete this comment?\")&&this.deleteComment(t)},r.prototype.deleteComment=function(e){var t=o.find(this.comments,{id:e});t.sectionId=this.id,this.eventPipe.emit(\"commentDeleted\",t)},r.prototype.removeComment=function(e){this.comments=o.reject(this.comments,{id:e}),this.$el.find('.side-comment .comments li[data-comment-id=\"'+e+'\"]').remove(),this.updateCommentCount(),this.comments.length<1&&this.$el.find(\".side-comment\").removeClass(\"has-comments\")},r.prototype.select=function(){this.isSelected()?(this.deselect(),this.eventPipe.emit(\"sectionDeselected\",this)):(this.$el.find(\".side-comment\").addClass(\"active\"),0===this.comments.length&&this.currentUser&&this.focusCommentBox(),this.eventPipe.emit(\"sectionSelected\",this))},r.prototype.deselect=function(){this.$el.find(\".side-comment\").removeClass(\"active\"),this.hideCommentForm()},r.prototype.isSelected=function(){return this.$el.find(\".side-comment\").hasClass(\"active\")},r.prototype.sectionClasses=function(){var e=\"\";return this.comments.length>0&&(e+=\" has-comments\"),this.currentUser||(e+=\" no-current-user\"),e},r.prototype.render=function(){this.$el.find(\".side-comment\").remove(),c(o.template(i,{commentTemplate:s,comments:this.comments,sectionClasses:this.sectionClasses(),currentUser:this.currentUser})).appendTo(this.$el)},r.prototype.destroy=function(){this.$el.off()},n.exports=r}),require.register(\"side-comments/js/vendor/lodash-custom.js\",function(e,t,n){(function(){function t(e){return\"\\\\\"+ht[e]}function r(){return z.pop()||[]}function o(e){return\"function\"!=typeof e.toString&&\"string\"==typeof(e+\"\")}function i(e){e.length=0,z.length<T&&z.push(e)}function s(e,t,n){t||(t=0),\"undefined\"==typeof n&&(n=e?e.length:0);for(var r=-1,o=n-t||0,i=Array(0>o?0:o);++r<o;)i[r]=e[t+r];return i}function a(){}function c(e){function t(){if(r){var e=s(r);St.apply(e,arguments)}if(this instanceof t){var i=u(n.prototype),a=n.apply(i,e||arguments);return w(a)?a:i}return n.apply(o,e||arguments)}var n=e[0],r=e[2],o=e[4];return zt(t,e),t}function l(e,t,n,a,c){if(n){var u=n(e);if(\"undefined\"!=typeof u)return u}var m=w(e);if(!m)return e;var p=wt.call(e);if(!lt[p]||!It.nodeClass&&o(e))return e;var h=Dt[p];switch(p){case tt:case nt:return new h(+e);case it:case ct:return new h(e);case at:return u=h(e.source,V.exec(e)),u.lastIndex=e.lastIndex,u}var f=Ft(e);if(t){var d=!a;a||(a=r()),c||(c=r());for(var g=a.length;g--;)if(a[g]==e)return c[g];u=f?h(e.length):{}}else u=f?s(e):Jt({},e);return f&&(Pt.call(e,\"index\")&&(u.index=e.index),Pt.call(e,\"input\")&&(u.input=e.input)),t?(a.push(e),c.push(u),(f?Gt:Xt)(e,function(e,r){u[r]=l(e,t,n,a,c)}),d&&(i(a),i(c)),u):u}function u(e){return w(e)?At(e):{}}function m(e,t,n){if(\"function\"!=typeof e)return O;if(\"undefined\"==typeof t||!(\"prototype\"in e))return e;var r=e.__bindData__;if(\"undefined\"==typeof r&&(It.funcNames&&(r=!e.name),r=r||!It.funcDecomp,!r)){var o=jt.call(e);It.funcNames||(r=!W.test(o)),r||(r=K.test(o),zt(e,r))}if(r===!1||r!==!0&&1&r[1])return e;switch(n){case 1:return function(n){return e.call(t,n)};case 2:return function(n,r){return e.call(t,n,r)};case 3:return function(n,r,o){return e.call(t,n,r,o)};case 4:return function(n,r,o,i){return e.call(t,n,r,o,i)}}return q(e,t)}function p(e){function t(){var e=l?a:this;if(o){var g=s(o);St.apply(g,arguments)}if((i||h)&&(g||(g=s(arguments)),i&&St.apply(g,i),h&&g.length<c))return r|=16,p([n,f?r:-4&r,g,null,a,c]);if(g||(g=arguments),m&&(n=e[d]),this instanceof t){e=u(n.prototype);var v=n.apply(e,g);return w(v)?v:e}return n.apply(e,g)}var n=e[0],r=e[1],o=e[2],i=e[3],a=e[4],c=e[5],l=1&r,m=2&r,h=4&r,f=8&r,d=n;return zt(t,e),t}function h(e,t,n,s,a,c){if(n){var l=n(e,t);if(\"undefined\"!=typeof l)return!!l}if(e===t)return 0!==e||1/e==1/t;var u=typeof e,m=typeof t;if(!(e!==e||e&&pt[u]||t&&pt[m]))return!1;if(null==e||null==t)return e===t;var p=wt.call(e),f=wt.call(t);if(p==Z&&(p=st),f==Z&&(f=st),p!=f)return!1;switch(p){case tt:case nt:return+e==+t;case it:return e!=+e?t!=+t:0==e?1/e==1/t:e==+t;case at:case ct:return e==String(t)}var d=p==et;if(!d){var g=Pt.call(e,\"__wrapped__\"),v=Pt.call(t,\"__wrapped__\");if(g||v)return h(g?e.__wrapped__:e,v?t.__wrapped__:t,n,s,a,c);if(p!=st||!It.nodeClass&&(o(e)||o(t)))return!1;var y=!It.argsObject&&b(e)?Object:e.constructor,C=!It.argsObject&&b(t)?Object:t.constructor;if(y!=C&&!(x(y)&&y instanceof y&&x(C)&&C instanceof C)&&\"constructor\"in e&&\"constructor\"in t)return!1}var k=!a;a||(a=r()),c||(c=r());for(var w=a.length;w--;)if(a[w]==e)return c[w]==t;var _=0;if(l=!0,a.push(e),c.push(t),d){if(w=e.length,_=t.length,l=_==w,l||s)for(;_--;){var j=w,P=t[_];if(s)for(;j--&&!(l=h(e[j],P,n,s,a,c)););else if(!(l=h(e[_],P,n,s,a,c)))break}}else Mt(t,function(t,r,o){return Pt.call(o,r)?(_++,l=Pt.call(e,r)&&h(e[r],t,n,s,a,c)):void 0}),l&&!s&&Mt(e,function(e,t,n){return Pt.call(n,t)?l=--_>-1:void 0});return a.pop(),c.pop(),k&&(i(a),i(c)),l}function f(e,t,n,r,o,i){var a=1&t,l=2&t,u=4&t,m=16&t,h=32&t;if(!l&&!x(e))throw new TypeError;m&&!n.length&&(t&=-17,m=n=!1),h&&!r.length&&(t&=-33,h=r=!1);var d=e&&e.__bindData__;if(d&&d!==!0)return d=s(d),d[2]&&(d[2]=s(d[2])),d[3]&&(d[3]=s(d[3])),!a||1&d[1]||(d[4]=o),!a&&1&d[1]&&(t|=8),!u||4&d[1]||(d[5]=i),m&&St.apply(d[2]||(d[2]=[]),n),h&&Et.apply(d[3]||(d[3]=[]),r),d[1]|=t,f.apply(null,d);var g=1==t||17===t?c:p;return g([e,t,n,r,o,i])}function d(){mt.shadowedProps=X,mt.array=mt.bottom=mt.loop=mt.top=\"\",mt.init=\"iterable\",mt.useHas=!0;for(var e,t=0;e=arguments[t];t++)for(var n in e)mt[n]=e[n];var r=mt.args;mt.firstArg=/^[^,]+/.exec(r)[0];var o=Function(\"baseCreateCallback, errorClass, errorProto, hasOwnProperty, indicatorObject, isArguments, isArray, isString, keys, objectProto, objectTypes, nonEnumProps, stringClass, stringProto, toString\",\"return function(\"+r+\") {\\n\"+Nt(mt)+\"\\n}\");return o(m,rt,Ct,Pt,F,b,Ft,_,mt.keys,kt,pt,Lt,ct,xt,wt)}function g(e){return Vt[e]}function v(e){return\"function\"==typeof e&&_t.test(e)}function b(e){return e&&\"object\"==typeof e&&\"number\"==typeof e.length&&wt.call(e)==Z||!1}function y(e,t,n,r){return\"boolean\"!=typeof t&&null!=t&&(r=n,n=t,t=!1),l(e,t,\"function\"==typeof n&&m(n,r,1))}function C(e,t,n){return l(e,!0,\"function\"==typeof t&&m(t,n,1))}function x(e){return\"function\"==typeof e}function w(e){return!(!e||!pt[typeof e])}function _(e){return\"string\"==typeof e||e&&\"object\"==typeof e&&wt.call(e)==ct||!1}function j(e){for(var t=-1,n=Rt(e),r=n.length,o=Array(r);++t<r;)o[t]=e[n[t]];return o}function P(e,t,n){var r=[];if(t=a.createCallback(t,n,3),Ft(e))for(var o=-1,i=e.length;++o<i;){var s=e[o];t(s,o,e)&&r.push(s)}else Gt(e,function(e,n,o){t(e,n,o)&&r.push(e)});return r}function S(e,t,n){if(t=a.createCallback(t,n,3),!Ft(e)){var r;return Gt(e,function(e,n,o){return t(e,n,o)?(r=e,!1):void 0}),r}for(var o=-1,i=e.length;++o<i;){var s=e[o];if(t(s,o,e))return s}}function $(e,t,n){if(t&&\"undefined\"==typeof n&&Ft(e))for(var r=-1,o=e.length;++r<o&&t(e[r],r,e)!==!1;);else Gt(e,t,n);return e}function E(e,t,n){return t=a.createCallback(t,n,3),P(e,function(e,n,r){return!t(e,n,r)})}function q(e,t){return arguments.length>2?f(e,17,s(arguments,2),null,t):f(e,1,null,null,t)}function A(e,t,n){var r=typeof e;if(null==e||\"function\"==r)return m(e,t,n);if(\"object\"!=r)return L(e);var o=Rt(e),i=o[0],s=e[i];return 1!=o.length||s!==s||w(s)?function(t){for(var n=o.length,r=!1;n--&&(r=h(t[o[n]],e[o[n]],null,!0)););return r}:function(e){var t=e[i];return s===t&&(0!==s||1/s==1/t)}}function U(e){return null==e?\"\":String(e).replace(Wt,g)}function O(e){return e}function D(){}function L(e){return function(t){return t[e]}}function I(e,n,r){var o=a.templateSettings;e=String(e||\"\"),r=Kt({},r,o);var i,s=Kt({},r.imports,o.imports),c=Rt(s),l=j(s),u=0,m=r.interpolate||J,p=\"__p += '\",h=RegExp((r.escape||J).source+\"|\"+m.source+\"|\"+(m===G?Q:J).source+\"|\"+(r.evaluate||J).source+\"|$\",\"g\");e.replace(h,function(n,r,o,s,a,c){return o||(o=s),p+=e.slice(u,c).replace(M,t),r&&(p+=\"' +\\n__e(\"+r+\") +\\n'\"),a&&(i=!0,p+=\"';\\n\"+a+\";\\n__p += '\"),o&&(p+=\"' +\\n((__t = (\"+o+\")) == null ? '' : __t) +\\n'\"),u=c+n.length,n}),p+=\"';\\n\";var f=r.variable,d=f;d||(f=\"obj\",p=\"with (\"+f+\") {\\n\"+p+\"\\n}\\n\"),p=(i?p.replace(R,\"\"):p).replace(H,\"$1\").replace(B,\"$1;\"),p=\"function(\"+f+\") {\\n\"+(d?\"\":f+\" || (\"+f+\" = {});\\n\")+\"var __t, __p = '', __e = _.escape\"+(i?\", __j = Array.prototype.join;\\nfunction print() { __p += __j.call(arguments, '') }\\n\":\";\\n\")+p+\"return __p\\n}\";var g=\"\\n/*\\n//# sourceURL=\"+(r.sourceURL||\"/lodash/template/source[\"+Y++ +\"]\")+\"\\n*/\";try{var v=Function(c,\"return \"+p+g).apply(N,l)}catch(b){throw b.source=p,b}return n?v(n):(v.source=p,v)}var N,z=[],F={},T=40,R=/\\b__p \\+= '';/g,H=/\\b(__p \\+=) '' \\+/g,B=/(__e\\(.*?\\)|\\b__t\\)) \\+\\n'';/g,Q=/\\$\\{([^\\\\}]*(?:\\\\.[^\\\\}]*)*)\\}/g,V=/\\w*$/,W=/^\\s*function[ \\n\\r\\t]+\\w/,G=/<%=([\\s\\S]+?)%>/g,J=/($^)/,K=/\\bthis\\b/,M=/['\\n\\r\\t\\u2028\\u2029\\\\]/g,X=[\"constructor\",\"hasOwnProperty\",\"isPrototypeOf\",\"propertyIsEnumerable\",\"toLocaleString\",\"toString\",\"valueOf\"],Y=0,Z=\"[object Arguments]\",et=\"[object Array]\",tt=\"[object Boolean]\",nt=\"[object Date]\",rt=\"[object Error]\",ot=\"[object Function]\",it=\"[object Number]\",st=\"[object Object]\",at=\"[object RegExp]\",ct=\"[object String]\",lt={};lt[ot]=!1,lt[Z]=lt[et]=lt[tt]=lt[nt]=lt[it]=lt[st]=lt[at]=lt[ct]=!0;var ut={configurable:!1,enumerable:!1,value:null,writable:!1},mt={args:\"\",array:null,bottom:\"\",firstArg:\"\",init:\"\",keys:null,loop:\"\",shadowedProps:null,support:null,top:\"\",useHas:!1},pt={\"boolean\":!1,\"function\":!0,object:!0,number:!1,string:!1,undefined:!1},ht={\"\\\\\":\"\\\\\",\"'\":\"'\",\"\\n\":\"n\",\"\\r\":\"r\",\"\t\":\"t\",\"\\u2028\":\"u2028\",\"\\u2029\":\"u2029\"},ft=pt[typeof window]&&window||this,dt=pt[typeof e]&&e&&!e.nodeType&&e,gt=pt[typeof n]&&n&&!n.nodeType&&n,vt=gt&&gt.exports===dt&&dt,bt=pt[typeof global]&&global;!bt||bt.global!==bt&&bt.window!==bt||(ft=bt);var yt=[],Ct=Error.prototype,kt=Object.prototype,xt=String.prototype,wt=kt.toString,_t=RegExp(\"^\"+String(wt).replace(/[.*+?^${}()|[\\]\\\\]/g,\"\\\\$&\").replace(/toString| for [^\\]]+/g,\".*?\")+\"$\"),jt=Function.prototype.toString,Pt=kt.hasOwnProperty,St=yt.push,$t=kt.propertyIsEnumerable,Et=yt.unshift,qt=function(){try{var e={},t=v(t=Object.defineProperty)&&t,n=t(e,e,e)&&t}catch(r){}return n}(),At=v(At=Object.create)&&At,Ut=v(Ut=Array.isArray)&&Ut,Ot=v(Ot=Object.keys)&&Ot,Dt={};Dt[et]=Array,Dt[tt]=Boolean,Dt[nt]=Date,Dt[ot]=Function,Dt[st]=Object,Dt[it]=Number,Dt[at]=RegExp,Dt[ct]=String;var Lt={};Lt[et]=Lt[nt]=Lt[it]={constructor:!0,toLocaleString:!0,toString:!0,valueOf:!0},Lt[tt]=Lt[ct]={constructor:!0,toString:!0,valueOf:!0},Lt[rt]=Lt[ot]=Lt[at]={constructor:!0,toString:!0},Lt[st]={constructor:!0},function(){for(var e=X.length;e--;){var t=X[e];for(var n in Lt)Pt.call(Lt,n)&&!Pt.call(Lt[n],t)&&(Lt[n][t]=!1)}}();var It=a.support={};!function(){var e=function(){this.x=1},t={0:1,length:1},n=[];e.prototype={valueOf:1,y:1};for(var r in new e)n.push(r);for(r in arguments);It.argsClass=wt.call(arguments)==Z,It.argsObject=arguments.constructor==Object&&!(arguments instanceof Array),It.enumErrorProps=$t.call(Ct,\"message\")||$t.call(Ct,\"name\"),It.enumPrototypes=$t.call(e,\"prototype\"),It.funcDecomp=!v(ft.WinRTError)&&K.test(function(){return this}),It.funcNames=\"string\"==typeof Function.name,It.nonEnumArgs=0!=r,It.nonEnumShadows=!/valueOf/.test(n),It.spliceObjects=(yt.splice.call(t,0,1),!t[0]),It.unindexedChars=\"x\"[0]+Object(\"x\")[0]!=\"xx\";try{It.nodeClass=!(wt.call(document)==st&&!({toString:0}+\"\"))}catch(o){It.nodeClass=!0}}(1),a.templateSettings={escape:/<%-([\\s\\S]+?)%>/g,evaluate:/<%([\\s\\S]+?)%>/g,interpolate:G,variable:\"\",imports:{_:a}};var Nt=function(e){var t=\"var index, iterable = \"+e.firstArg+\", result = \"+e.init+\";\\nif (!iterable) return result;\\n\"+e.top+\";\";e.array?(t+=\"\\nvar length = iterable.length; index = -1;\\nif (\"+e.array+\") {  \",It.unindexedChars&&(t+=\"\\n  if (isString(iterable)) {\\n    iterable = iterable.split('')\\n  }  \"),t+=\"\\n  while (++index < length) {\\n    \"+e.loop+\";\\n  }\\n}\\nelse {  \"):It.nonEnumArgs&&(t+=\"\\n  var length = iterable.length; index = -1;\\n  if (length && isArguments(iterable)) {\\n    while (++index < length) {\\n      index += '';\\n      \"+e.loop+\";\\n    }\\n  } else {  \"),It.enumPrototypes&&(t+=\"\\n  var skipProto = typeof iterable == 'function';\\n  \"),It.enumErrorProps&&(t+=\"\\n  var skipErrorProps = iterable === errorProto || iterable instanceof Error;\\n  \");var n=[];if(It.enumPrototypes&&n.push('!(skipProto && index == \"prototype\")'),It.enumErrorProps&&n.push('!(skipErrorProps && (index == \"message\" || index == \"name\"))'),e.useHas&&e.keys)t+=\"\\n  var ownIndex = -1,\\n      ownProps = objectTypes[typeof iterable] && keys(iterable),\\n      length = ownProps ? ownProps.length : 0;\\n\\n  while (++ownIndex < length) {\\n    index = ownProps[ownIndex];\\n\",n.length&&(t+=\"    if (\"+n.join(\" && \")+\") {\\n  \"),t+=e.loop+\";    \",n.length&&(t+=\"\\n    }\"),t+=\"\\n  }  \";else if(t+=\"\\n  for (index in iterable) {\\n\",e.useHas&&n.push(\"hasOwnProperty.call(iterable, index)\"),n.length&&(t+=\"    if (\"+n.join(\" && \")+\") {\\n  \"),t+=e.loop+\";    \",n.length&&(t+=\"\\n    }\"),t+=\"\\n  }    \",It.nonEnumShadows){for(t+=\"\\n\\n  if (iterable !== objectProto) {\\n    var ctor = iterable.constructor,\\n        isProto = iterable === (ctor && ctor.prototype),\\n        className = iterable === stringProto ? stringClass : iterable === errorProto ? errorClass : toString.call(iterable),\\n        nonEnum = nonEnumProps[className];\\n      \",k=0;7>k;k++)t+=\"\\n    index = '\"+e.shadowedProps[k]+\"';\\n    if ((!(isProto && nonEnum[index]) && hasOwnProperty.call(iterable, index))\",e.useHas||(t+=\" || (!nonEnum[index] && iterable[index] !== objectProto[index])\"),t+=\") {\\n      \"+e.loop+\";\\n    }      \";t+=\"\\n  }    \"}return(e.array||It.nonEnumArgs)&&(t+=\"\\n}\"),t+=e.bottom+\";\\nreturn result\"};At||(u=function(){function e(){}return function(t){if(w(t)){e.prototype=t;var n=new e;e.prototype=null}return n||ft.Object()}}());var zt=qt?function(e,t){ut.value=t,qt(e,\"__bindData__\",ut)}:D;It.argsClass||(b=function(e){return e&&\"object\"==typeof e&&\"number\"==typeof e.length&&Pt.call(e,\"callee\")&&!$t.call(e,\"callee\")||!1});var Ft=Ut||function(e){return e&&\"object\"==typeof e&&\"number\"==typeof e.length&&wt.call(e)==et||!1},Tt=d({args:\"object\",init:\"[]\",top:\"if (!(objectTypes[typeof object])) return result\",loop:\"result.push(index)\"}),Rt=Ot?function(e){return w(e)?It.enumPrototypes&&\"function\"==typeof e||It.nonEnumArgs&&e.length&&b(e)?Tt(e):Ot(e):[]}:Tt,Ht={args:\"collection, callback, thisArg\",top:\"callback = callback && typeof thisArg == 'undefined' ? callback : baseCreateCallback(callback, thisArg, 3)\",array:\"typeof length == 'number'\",keys:Rt,loop:\"if (callback(iterable[index], index, collection) === false) return result\"},Bt={args:\"object, source, guard\",top:\"var args = arguments,\\n    argsIndex = 0,\\n    argsLength = typeof guard == 'number' ? 2 : args.length;\\nwhile (++argsIndex < argsLength) {\\n  iterable = args[argsIndex];\\n  if (iterable && objectTypes[typeof iterable]) {\",keys:Rt,loop:\"if (typeof result[index] == 'undefined') result[index] = iterable[index]\",bottom:\"  }\\n}\"},Qt={top:\"if (!objectTypes[typeof iterable]) return result;\\n\"+Ht.top,array:!1},Vt={\"&\":\"&amp;\",\"<\":\"&lt;\",\">\":\"&gt;\",'\"':\"&quot;\",\"'\":\"&#39;\"},Wt=RegExp(\"[\"+Rt(Vt).join(\"\")+\"]\",\"g\"),Gt=d(Ht),Jt=d(Bt,{top:Bt.top.replace(\";\",\";\\nif (argsLength > 3 && typeof args[argsLength - 2] == 'function') {\\n  var callback = baseCreateCallback(args[--argsLength - 1], args[argsLength--], 2);\\n} else if (argsLength > 2 && typeof args[argsLength - 1] == 'function') {\\n  callback = args[--argsLength];\\n}\"),loop:\"result[index] = callback ? callback(result[index], iterable[index]) : iterable[index]\"}),Kt=d(Bt),Mt=d(Ht,Qt,{useHas:!1}),Xt=d(Ht,Qt);x(/x/)&&(x=function(e){return\"function\"==typeof e&&wt.call(e)==ot}),a.assign=Jt,a.bind=q,a.createCallback=A,a.defaults=Kt,a.filter=P,a.forEach=$,a.forIn=Mt,a.forOwn=Xt,a.keys=Rt,a.property=L,a.reject=E,a.values=j,a.each=$,a.extend=Jt,a.select=P,a.clone=y,a.cloneDeep=C,a.escape=U,a.find=S,a.identity=O,a.isArguments=b,a.isArray=Ft,a.isFunction=x,a.isObject=w,a.isString=_,a.noop=D,a.template=I,a.detect=S,a.findWhere=S,a.VERSION=\"2.4.1\",dt&&gt&&(vt?(gt.exports=a)._=a:dt._=a)}).call(this)}),require.register(\"side-comments/js/helpers/mobile-check.js\",function(e,t,n){n.exports=function(){var e=!1;return function(t){(/(android|bb\\d+|meego).+mobile|avantgo|bada\\/|blackberry|blazer|compal|elaine|fennec|hiptop|iemobile|ip(hone|od)|iris|kindle|lge |maemo|midp|mmp|mobile.+firefox|netfront|opera m(ob|in)i|palm( os)?|phone|p(ixi|re)\\/|plucker|pocket|psp|series(4|6)0|symbian|treo|up\\.(browser|link)|vodafone|wap|windows (ce|phone)|xda|xiino/i.test(t)||/1207|6310|6590|3gso|4thp|50[1-6]i|770s|802s|a wa|abac|ac(er|oo|s\\-)|ai(ko|rn)|al(av|ca|co)|amoi|an(ex|ny|yw)|aptu|ar(ch|go)|as(te|us)|attw|au(di|\\-m|r |s )|avan|be(ck|ll|nq)|bi(lb|rd)|bl(ac|az)|br(e|v)w|bumb|bw\\-(n|u)|c55\\/|capi|ccwa|cdm\\-|cell|chtm|cldc|cmd\\-|co(mp|nd)|craw|da(it|ll|ng)|dbte|dc\\-s|devi|dica|dmob|do(c|p)o|ds(12|\\-d)|el(49|ai)|em(l2|ul)|er(ic|k0)|esl8|ez([4-7]0|os|wa|ze)|fetc|fly(\\-|_)|g1 u|g560|gene|gf\\-5|g\\-mo|go(\\.w|od)|gr(ad|un)|haie|hcit|hd\\-(m|p|t)|hei\\-|hi(pt|ta)|hp( i|ip)|hs\\-c|ht(c(\\-| |_|a|g|p|s|t)|tp)|hu(aw|tc)|i\\-(20|go|ma)|i230|iac( |\\-|\\/)|ibro|idea|ig01|ikom|im1k|inno|ipaq|iris|ja(t|v)a|jbro|jemu|jigs|kddi|keji|kgt( |\\/)|klon|kpt |kwc\\-|kyo(c|k)|le(no|xi)|lg( g|\\/(k|l|u)|50|54|\\-[a-w])|libw|lynx|m1\\-w|m3ga|m50\\/|ma(te|ui|xo)|mc(01|21|ca)|m\\-cr|me(rc|ri)|mi(o8|oa|ts)|mmef|mo(01|02|bi|de|do|t(\\-| |o|v)|zz)|mt(50|p1|v )|mwbp|mywa|n10[0-2]|n20[2-3]|n30(0|2)|n50(0|2|5)|n7(0(0|1)|10)|ne((c|m)\\-|on|tf|wf|wg|wt)|nok(6|i)|nzph|o2im|op(ti|wv)|oran|owg1|p800|pan(a|d|t)|pdxg|pg(13|\\-([1-8]|c))|phil|pire|pl(ay|uc)|pn\\-2|po(ck|rt|se)|prox|psio|pt\\-g|qa\\-a|qc(07|12|21|32|60|\\-[2-7]|i\\-)|qtek|r380|r600|raks|rim9|ro(ve|zo)|s55\\/|sa(ge|ma|mm|ms|ny|va)|sc(01|h\\-|oo|p\\-)|sdk\\/|se(c(\\-|0|1)|47|mc|nd|ri)|sgh\\-|shar|sie(\\-|m)|sk\\-0|sl(45|id)|sm(al|ar|b3|it|t5)|so(ft|ny)|sp(01|h\\-|v\\-|v )|sy(01|mb)|t2(18|50)|t6(00|10|18)|ta(gt|lk)|tcl\\-|tdg\\-|tel(i|m)|tim\\-|t\\-mo|to(pl|sh)|ts(70|m\\-|m3|m5)|tx\\-9|up(\\.b|g1|si)|utst|v400|v750|veri|vi(rg|te)|vk(40|5[0-3]|\\-v)|vm40|voda|vulc|vx(52|53|60|61|70|80|81|83|85|98)|w3c(\\-| )|webc|whit|wi(g |nc|nw)|wmlb|wonu|x700|yas\\-|your|zeto|zte\\-/i.test(t.substr(0,4)))&&(e=!0)}(navigator.userAgent||navigator.vendor||window.opera),e}}),require.register(\"side-comments/templates/section.html\",function(e,t,n){n.exports='<div class=\"side-comment <%= sectionClasses %>\">\\n  <a href=\"#\" class=\"marker\">\\n    <span><%= comments.length %></span>\\n  </a>\\n  \\n  <div class=\"comments-wrapper\">\\n    <ul class=\"comments\">\\n      <% _.each(comments, function( comment ){ %>\\n        <%= _.template(commentTemplate, { comment: comment, currentUser: currentUser }) %>\\n      <% }) %>\\n    </ul>\\n    \\n    <a href=\"#\" class=\"add-comment\">Leave a comment</a>\\n    \\n    <% if (currentUser){ %>\\n      <div class=\"comment-form\">\\n        <div class=\"author-avatar\">\\n          <img src=\"<%= currentUser.avatarUrl %>\">\\n        </div>\\n        <p class=\"author-name\">\\n          <%= currentUser.name %>\\n        </p>\\n        <input type=\"text\" class=\"comment-box right-of-avatar\" placeholder=\"Leave a comment...\">\\n        <div class=\"actions right-of-avatar\">\\n          <a href=\"#\" class=\"action-link post\">Post</a>\\n          <a href=\"#\" class=\"action-link cancel\">Cancel</a>\\n        </div>\\n      </div>\\n    <% } %>\\n  </div>\\n</div>'}),require.register(\"side-comments/templates/comment.html\",function(e,t,n){n.exports='<li data-comment-id=\"<%= comment.id %>\">\\n  <div class=\"author-avatar\">\\n    <img src=\"<%= comment.authorAvatarUrl %>\">\\n  </div>\\n  <% if (comment.authorUrl) { %>\\n    <a class=\"author-name right-of-avatar\" href=\"<%= comment.authorUrl %>\">\\n      <%= comment.authorName %>\\n    </a>\\n  <% } else { %>\\n    <p class=\"author-name right-of-avatar\">\\n      <%= comment.authorName %>\\n    </p>\\n  <% } %>\\n  <p class=\"comment right-of-avatar\">\\n    <%= comment.comment %>\\n  </p>\\n  <% if (currentUser && comment.authorId === currentUser.id){ %>\\n  <a href=\"#\" class=\"action-link delete\">Delete</a>\\n  <% } %>\\n</li>'}),require.alias(\"component-emitter/index.js\",\"side-comments/deps/emitter/index.js\"),require.alias(\"component-emitter/index.js\",\"emitter/index.js\"),require.alias(\"side-comments/js/main.js\",\"side-comments/index.js\");",
          "comment" : ""
        },
        "redirectURL" : "",
        "headersSize" : 203,
        "bodySize" : 28537,
        "comment" : ""
      },
      "cache" : { },
      "timings" : {
        "comment" : "",
        "ssl" : -1,
        "connect" : 1325,
        "blocked" : -1,
        "receive" : 0,
        "send" : 0,
        "wait" : 0,
        "dns" : -1
      },
      "comment" : "",
      "_katalonRequestInformation" : {
        "name" : "125",
        "testObjectId" : "Temporary RESTful request object",
        "harId" : "d44c90fb-3745-417f-8132-efdfd0db5a66"
      },
      "time" : 1325
    } ],
    "comment" : ""
  }
}