{
  "log" : {
    "version" : "1.2",
    "pages" : [ ],
    "entries" : [ {
      "startedDateTime" : "2019-07-17T06:56:15.545Z",
      "request" : {
        "method" : "GET",
        "url" : "https://frostedc-stg.learningmate.com/lib/checklist-model.js",
        "httpVersion" : "",
        "cookies" : [ ],
        "headers" : [ ],
        "queryString" : [ ],
        "headersSize" : 0,
        "bodySize" : 0,
        "comment" : ""
      },
      "response" : {
        "status" : 200,
        "statusText" : "",
        "httpVersion" : "",
        "cookies" : [ ],
        "headers" : [ {
          "name" : "Accept-Ranges",
          "value" : "bytes"
        }, {
          "name" : null,
          "value" : "HTTP/1.1 200 OK"
        }, {
          "name" : "Server",
          "value" : "nginx/1.13.5"
        }, {
          "name" : "ETag",
          "value" : "\"5d2ddd74-9b0\""
        }, {
          "name" : "Connection",
          "value" : "keep-alive"
        }, {
          "name" : "Last-Modified",
          "value" : "Tue, 16 Jul 2019 14:21:40 GMT"
        }, {
          "name" : "Content-Length",
          "value" : "2480"
        }, {
          "name" : "Date",
          "value" : "Wed, 17 Jul 2019 06:56:32 GMT"
        }, {
          "name" : "Content-Type",
          "value" : "application/javascript"
        } ],
        "content" : {
          "size" : 2480,
          "mimeType" : "application/javascript",
          "text" : "/**\n * Checklist-model\n * AngularJS directive for list of checkboxes\n */\n\nangular.module('checklist-model', [])\n.directive('checklistModel', ['$parse', '$compile', function($parse, $compile) {\n  // contains\n  function contains(arr, item) {\n    if (angular.isArray(arr)) {\n      for (var i = 0; i < arr.length; i++) {\n        if (angular.equals(arr[i], item)) {\n          return true;\n        }\n      }\n    }\n    return false;\n  }\n\n  // add\n  function add(arr, item) {\n    arr = angular.isArray(arr) ? arr : [];\n    for (var i = 0; i < arr.length; i++) {\n      if (angular.equals(arr[i], item)) {\n        return arr;\n      }\n    }    \n    arr.push(item);\n    return arr;\n  }  \n\n  // remove\n  function remove(arr, item) {\n    if (angular.isArray(arr)) {\n      for (var i = 0; i < arr.length; i++) {\n        if (angular.equals(arr[i], item)) {\n          arr.splice(i, 1);\n          break;\n        }\n      }\n    }\n    return arr;\n  }\n\n  // http://stackoverflow.com/a/19228302/1458162\n  function postLinkFn(scope, elem, attrs) {\n    // compile with `ng-model` pointing to `checked`\n    $compile(elem)(scope);\n\n    // getter / setter for original model\n    var getter = $parse(attrs.checklistModel);\n    var setter = getter.assign;\n\n    // value added to list\n    var value = $parse(attrs.checklistValue)(scope.$parent);\n\n    // watch UI checked change\n    scope.$watch('checked', function(newValue, oldValue) {\n      if (newValue === oldValue) { \n        return;\n      } \n      var current = getter(scope.$parent);\n      if (newValue === true) {\n        setter(scope.$parent, add(current, value));\n      } else {\n        setter(scope.$parent, remove(current, value));\n      }\n    });\n\n    // watch original model change\n    scope.$parent.$watch(attrs.checklistModel, function(newArr, oldArr) {\n      scope.checked = contains(newArr, value);\n    }, true);\n  }\n\n  return {\n    restrict: 'A',\n    priority: 1000,\n    terminal: true,\n    scope: true,\n    compile: function(tElement, tAttrs) {\n      if (tElement[0].tagName !== 'INPUT' || !tElement.attr('type', 'checkbox')) {\n        throw 'checklist-model should be applied to `input[type=\"checkbox\"]`.';\n      }\n\n      if (!tAttrs.checklistValue) {\n        throw 'You should provide `checklist-value`.';\n      }\n\n      // exclude recursion\n      tElement.removeAttr('checklist-model');\n      \n      // local scope var storing individual checkbox model\n      tElement.attr('ng-model', 'checked');\n\n      return postLinkFn;\n    }\n  };\n}]);",
          "comment" : ""
        },
        "redirectURL" : "",
        "headersSize" : 201,
        "bodySize" : 2480,
        "comment" : ""
      },
      "cache" : { },
      "timings" : {
        "comment" : "",
        "ssl" : -1,
        "connect" : 1062,
        "blocked" : -1,
        "receive" : 0,
        "send" : 0,
        "wait" : 0,
        "dns" : -1
      },
      "comment" : "",
      "_katalonRequestInformation" : {
        "name" : "28",
        "testObjectId" : "Temporary RESTful request object",
        "harId" : "d6e58ded-c963-4015-9cd4-c90ab2256721"
      },
      "time" : 1062
    } ],
    "comment" : ""
  }
}