{
  "log" : {
    "version" : "1.2",
    "pages" : [ ],
    "entries" : [ {
      "startedDateTime" : "2019-07-17T06:57:24.506Z",
      "request" : {
        "method" : "GET",
        "url" : "https://frostedc-stg.learningmate.com/js/pattern/patternController.js",
        "httpVersion" : "",
        "cookies" : [ ],
        "headers" : [ ],
        "queryString" : [ ],
        "headersSize" : 0,
        "bodySize" : 0,
        "comment" : ""
      },
      "response" : {
        "status" : 200,
        "statusText" : "",
        "httpVersion" : "",
        "cookies" : [ ],
        "headers" : [ {
          "name" : "Accept-Ranges",
          "value" : "bytes"
        }, {
          "name" : null,
          "value" : "HTTP/1.1 200 OK"
        }, {
          "name" : "Server",
          "value" : "nginx/1.13.5"
        }, {
          "name" : "ETag",
          "value" : "\"5d2ddd74-8c3d\""
        }, {
          "name" : "Connection",
          "value" : "keep-alive"
        }, {
          "name" : "Last-Modified",
          "value" : "Tue, 16 Jul 2019 14:21:40 GMT"
        }, {
          "name" : "Content-Length",
          "value" : "35901"
        }, {
          "name" : "Date",
          "value" : "Wed, 17 Jul 2019 06:57:41 GMT"
        }, {
          "name" : "Content-Type",
          "value" : "application/javascript"
        } ],
        "content" : {
          "size" : 35901,
          "mimeType" : "application/javascript",
          "text" : "/*****\n * Controller for project\n * Author - Arikh Akher * \n */\n\n'use strict';\napp.controller('pattern', ['$scope', '$http', 'sessionService', '$location', 'objectService', 'patternService', '$rootScope', '$modal', '$log', 'SweetAlert', '$routeParams', '$filter', function ($scope, $http, sessionService, $location, objectService, patternService, $rootScope, $modal, $log, SweetAlert, $routeParams, $filter) {\n\n        $scope.access_token = sessionService.get('access_token');\n        $scope.user_permissions = JSON.parse(sessionService.get('user_permissions'));\n        var userinfo = JSON.parse(sessionService.get('userinfo'));\n        $scope.currentOrderByField = 'title';\n        $scope.reverseSort = false;\n        $scope.project_id = $routeParams.project_id;\n        $scope.searchModel = {};\n        $scope.searchModel.showSearchIcon=true;\n        //Check if the session is active        \n        $rootScope.checkActiveSession();\n        if (!$scope.access_token || userinfo == null) {\n            $location.path('logout');\n            return true;\n        }\n\n        $scope.pattern_local_global = {};\n        $scope.pattern_local_global.local = false;\n        $scope.pattern_local_global.global = false;\n\n        if ($scope.user_permissions['global_pattern.show.all'].grant) {\n            $scope.pattern_local_global.global = true;\n        }\n\n        $scope.pageNumber = 1;\n        $scope.itemsPerPage = 10;\n        $scope.currentPage = 1;\n        $scope.listPatterns = function (pageNumber) {\n            $scope.currentPage = pageNumber;\n            $scope.pageNumber = pageNumber;\n            $scope.itemsPerPage = 10;\n            patternService.getPattern($scope).then(function (data) {\n                $scope.patternList = data.data;\n                $scope.totalPatterns = data.totalPatterns;\n            });\n        };\n\n        //$scope.listPatterns(1);\n\n        //For Pagination Of Dashboard\n        $scope.pageChangeHandlerPattern = function (newPage) {\n            $scope.pattern_id = '';\n            $scope.listPatterns(newPage);\n        };\n\n        $scope.addPatternForm = function (size) {\n\n            //$scope.child = child;\n            var modalInstance = $modal.open({\n                templateUrl: 'templates/pattern/myModalContent.html',\n                controller: 'ModalInstanceAddCtrl',\n                size: size,\n                backdrop: 'static',\n                keyboard: false,\n                resolve: {\n                    patternRec: function () {\n                        return '';\n                    },\n                    modalFormText: function () {\n                        return \"You are trying to add a new pattern\";\n                    },\n                    modalFormTile: function () {\n                        return \"Add Pattern\";\n                    },\n                    project_id: function () {\n                        return $scope.project_id;\n                    },\n                    project_permissions: function () {\n                        return $scope.project.project_permissions;\n                    },\n                    project_theme: function () {\n                        return $scope.project.theme;\n                    }\n                }\n            });\n            modalInstance.result.then(function () {\n                //Saving TOC    \n                $scope.pattern_id = '';\n                $scope.listPatterns(1);\n                /*patternService.getPattern($scope).then(function (data) {\n                    $scope.patternList = data.data;\n                    $scope.totalPatterns = data.totalPatterns;\n                    $scope.listPatterns(1);\n                });*/\n            }, function () {\n                $log.info('Modal dismissed at: ' + new Date());\n            });\n        };\n\n        $scope.edit_button = false;\n        $scope.editPattern = function (size, id) {\n            $scope.edit_button = true;\n            var patternRec = {};\n            $scope.pattern_id = id;\n            patternService.getPattern($scope).then(function (data) {\n                patternRec = data.data;\n                var patternTitle = patternRec[0].title;\n                var modalInstance = $modal.open({\n                    templateUrl: 'templates/pattern/myModalContent.html',\n                    controller: 'ModalInstanceAddCtrl',\n                    size: size,\n                    backdrop: 'static',\n                    keyboard: false,\n                    resolve: {\n                        patternRec: function () {\n                            return patternRec;\n                        },\n                        modalFormText: function () {\n                            return \"You are trying to edit pattern [\" + $filter('strLimit')(patternTitle, 20) + \"]\";\n                        },\n                        modalFormTile: function () {\n                            return \"Edit Pattern\";\n                        },\n                        project_id: function () {\n                            return $scope.project_id;\n                        },\n                        project_permissions: function () {\n                            return $scope.project.project_permissions;\n                        },\n                        project_theme: function () {\n                            return $scope.project.theme;\n                        }\n                    }\n                });\n\n                modalInstance.result.then(function () {\n                    //Saving TOC    \n                    $scope.pattern_id = '';\n                    $scope.edit_button = false;\n                    patternService.getPattern($scope).then(function (data) {\n                        $scope.patternList = data.data;\n                        $scope.totalPatterns = data.totalPatterns;\n                    });\n                }, function () {\n                    $scope.edit_button = false;\n                    $log.info('Modal dismissed at: ' + new Date());\n                });\n            });\n        };\n\n        $scope.preview_button = false;\n        $scope.viewPattern = function (size, id) {\n            $scope.preview_button = true;\n            var patternRec = {};\n            $scope.pattern_id = id;\n            patternService.getPattern($scope).then(function (data) {\n                patternRec = data.data;\n\n                var modalInstance = $modal.open({\n                    templateUrl: 'templates/pattern/myModalContentView.html',\n                    controller: 'ModalInstanceAddCtrl',\n                    size: size,\n                    backdrop: 'static',\n                    keyboard: false,\n                    resolve: {\n                        patternRec: function () {\n                            return patternRec;\n                        },\n                        modalFormText: function () {\n                            return \"You are trying to view a pattern\";\n                        },\n                        modalFormTile: function () {\n                            return \"Preview Pattern\";\n                        },\n                        project_id: function () {\n                            return $scope.project_id;\n                        },\n                        project_permissions: function () {\n                            return $scope.project.project_permissions;\n                        },\n                        project_theme: function () {\n                            return $scope.project.theme;\n                        }\n                    }\n                });\n\n                modalInstance.result.then(function () {\n\n                }, function () {\n                    $scope.preview_button = false;\n                    $log.info('Modal dismissed at: ' + new Date());\n                });\n            });\n        };\n\n\n        $scope.deletePattern = function (id, project_id) {\n\n            SweetAlert.swal({\n                title: \"Are you sure?\",\n                text: \"You will not be able to recover this pattern!\",\n                type: \"warning\",\n                showCancelButton: true,\n                confirmButtonColor: \"#DD6B55\",\n                confirmButtonText: \"Yes, delete it!\",\n                cancelButtonText: \"No, cancel!\",\n                closeOnConfirm: false,\n                closeOnCancel: false\n            }, function (isConfirm) {\n                if (isConfirm) {\n                    patternService.delPattern(id, project_id).then(function (data) {\n                        if (data.status == 200) {\n                            $scope.pattern_id = '';\n                            $scope.listPatterns($scope.currentPage);\n                            SweetAlert.swal(\"Success\", \"Pattern has been deleted\", \"success\");\n                        } else {\n                            SweetAlert.swal({\n                                title: \"Cancelled\",\n                                html: data.message,\n                                type: \"error\",\n                            });\n                        }\n                    });\n\n                } else {\n                    SweetAlert.swal(\"Cancelled\", \"Pattern is safe :)\", \"error\");\n                }\n            });\n\n        };\n\n        $scope.redirectPage = function () {\n            $location.path($scope.redirpage);\n        }\n        $scope.applyPermission = 0;\n        $scope.getProject = function () {\n            $scope.project_name = '';\n            if ($scope.project_id != '') {\n                objectService.getProjectDetails($scope).then(function (data) {\n                    if (data == null || (userinfo.user_roles[0].id!=1 && angular.isDefined(data.is_global_project) && data.is_global_project==true)) {\n                        $location.path(\"edit_toc/\" + $scope.project_id);\n                    } else if (angular.isObject(data)) {\n                        $scope.project_name = data.name;\n                        $scope.toc_creation_status = data.toc_creation_status;\n                        $scope.project = data;//{};\n                        $scope.applyPermission = 1;\n                        $scope.project.project_permissions = data.project_permissions;\n                        $scope.project.theme = data.theme_location;\n                        if ($scope.project.project_permissions['pattern.show.all'].grant) {\n                            $scope.pattern_local_global.local = true;\n                        }\n                        $scope.listPatterns(1);\n                    }\n                });\n            }\n        }\n        $scope.getProject();\n\n        $scope.changeStatus = function (pattern_id, project_id) {\n            $scope.project_id = project_id;\n            patternService.changeStatus(pattern_id, $scope).then(function () {\n                $scope.pattern_id = '';\n            });\n        }\n\n        $scope.apply_filter = function () {\n            $scope.pattern_id = '';\n            if ($scope.pattern_local_global.global == false && $scope.pattern_local_global.local == false) {\n                //$scope.pattern_local_global.local = true;\n                //$scope.pattern_local_global.global = true;\n            }\n            $scope.listPatterns(1);\n        }\n\n        $scope.changeAccess = function (id) {\n            SweetAlert.swal({\n                title: \"Are you sure?\",\n                text: _lang['content_global_confirm_message'],\n                type: \"warning\",\n                showCancelButton: true,\n                confirmButtonColor: \"#DD6B55\",\n                confirmButtonText: \"Yes, change it!\",\n                cancelButtonText: \"No, cancel!\",\n                closeOnConfirm: false,\n                closeOnCancel: false\n            }, function (isConfirm) {\n                if (isConfirm) {\n                    patternService.makeGlobal(id, $scope).then(function (data) {\n                        if (data.status == 200) {\n                            $scope.listPatterns(1);\n                            SweetAlert.swal(\"Success\", \"Pattern access changed successfully.\", \"success\");\n                        } else {\n                            if (angular.isDefined(data.projectPermissionGranted) && data.projectPermissionGranted == 401) {\n                                SweetAlert.swal(\"Cancelled\", data.message, \"warning\");\n                            }\n                        }\n                    });\n\n                } else {\n                    SweetAlert.swal(\"Cancelled\", \"Pattern is safe :)\", \"error\");\n                }\n            });\n        };\n\n\n        $scope.applySorting = function (field) {\n            $scope.pattern_id = '';\n            if ($scope.currentOrderByField != field) {\n                $scope.reverseSort = false;\n            } else {\n                if ($scope.reverseSort) {\n                    $scope.reverseSort = false;\n                } else {\n                    $scope.reverseSort = true;\n                }\n            }\n            $scope.currentOrderByField = field;\n            $scope.listPatterns(1);\n        };\n\n        // apply searching\n        $scope.do_search = function () {\n            $scope.pattern_id = '';\n            if(!$scope.search_text){\n                SweetAlert.swal(\"Error\", \"Please enter value in search box\", \"error\");\n                return false;\n            }\n            if ($scope.searchModel.showSearchIcon) { \n                $scope.searchModel.showSearchIcon=false;\n            }\n            else{\n                $scope.search_text = '';\n                $scope.searchModel.showSearchIcon=true; \n            }\n            $scope.listPatterns(1);\n\n        };\n\n    }]);\n\n\napp.controller('ModalInstanceAddCtrl', function ($scope, patternService, sessionService, $modalInstance, modalFormText, modalFormTile, patternRec, project_id, project_permissions, project_theme) {\n    $scope.showedit = 0;\n    $scope.modalFormText = modalFormText;\n    $scope.modalFormTile = modalFormTile;\n    $scope.project_id = project_id;\n    $scope.user_permissions = JSON.parse(sessionService.get('user_permissions'));\n    $scope.project = {'project_permissions': project_permissions};\n    $scope.pattern_classes = [{value: ''}];\n    $scope.project_theme = project_theme;\n\n    if (patternRec.length) {\n\n//        var patternContent = patternRec[0].pattern.replace(/..\\/images/g, 'images');\n        $scope.pattern_id = patternRec[0].id;\n        $scope.pattern_title = patternRec[0].title;\n        $scope.pattern_content = patternRec[0].pattern;\n        $scope.pattern_classes = JSON.parse(patternRec[0].pattern_classes);\n        //$scope.pattern_classes = $scope.pattern_classes.all;\n        //$scope.project_permissions['pattern.update'].grant\n        //console.log($scope.project.project_permissions);\n        $scope.showedit = patternRec.length;\n\n        /*$scope.$watch('pattern_classes', function(newValue, oldValue) {\n         $scope.pattern_classes = newValue;\n         });*/\n\n    } else {\n        $scope.showedit = 0;\n    }\n\n    $scope.add = function () {\n        $scope.formError = {'pattern_title': '', 'pattern_content': ''};\n        //if (angular.isUndefined($scope.pattern_title) == false && angular.isUndefined($scope.pattern_content) == false) {\n        patternService.savePattern($scope).then(function (savedResponse) {\n            if (savedResponse.status == '200') {\n                patternService.getPattern($scope).then(function (data) {\n                    $scope.patternList = data.data;\n                    $modalInstance.close();\n                });\n            } else {\n                if (angular.isDefined(savedResponse.error.title)) {\n                    $scope.formError['pattern_title'] = savedResponse.error.title['0'];\n                }\n                if (angular.isDefined(savedResponse.error.pattern)) {\n                    $scope.formError['pattern_content'] = savedResponse.error.pattern['0'];\n                }\n\n            }\n\n        });\n        //}\n    };\n\n    $scope.edit = function () {\n        $scope.formError = {'pattern_title': '', 'pattern_content': ''};\n        //if (angular.isUndefined($scope.pattern_title) == false && angular.isUndefined($scope.pattern_content) == false) {\n        patternService.editPattern($scope).then(function (savedResponse) {\n            if (savedResponse.status == '200') {\n                patternService.getPattern($scope).then(function (data) {\n                    $scope.patternList = data.data;\n                    $modalInstance.close();\n                });\n            } else {\n                if (angular.isDefined(savedResponse.error.title)) {\n                    $scope.formError['pattern_title'] = savedResponse.error.title['0'];\n                }\n                if (angular.isDefined(savedResponse.error.pattern)) {\n                    $scope.formError['pattern_content'] = savedResponse.error.pattern['0'];\n                }\n\n            }\n\n\n        });\n        //}\n    };\n\n    $scope.cancel = function () {\n        $modalInstance.dismiss('cancel');\n    };\n\n    //Manage pattern_classes    \n    $scope.addClass = function () {\n        $scope.pattern_classes.push({value: ''});\n    };\n    $scope.removeClass = function (index) {\n        // console.log(index);\n        $scope.pattern_classes.splice(index, 1);\n    };\n    //\n\n});\n\napp.controller('global_pattern', ['$scope', '$http', 'sessionService', '$location', 'objectService', 'patternService', '$rootScope', '$modal', '$log', 'SweetAlert', '$routeParams', '$filter', 'paginationService', function ($scope, $http, sessionService, $location, objectService, patternService, $rootScope, $modal, $log, SweetAlert, $routeParams, $filter, paginationService) {\n\n        $scope.access_token = sessionService.get('access_token');\n        $scope.user_permissions = JSON.parse(sessionService.get('user_permissions'));\n        var userinfo = JSON.parse(sessionService.get('userinfo'));\n        $scope.currentOrderByField = 'title';\n        $scope.reverseSort = false;\n        $scope.formdata = {};\n        if (!$scope.access_token || userinfo == null) {\n            $location.path('logout');\n            return true;\n        }\n        $scope.pattern_local_global = {};\n        $scope.pattern_local_global.local = false;\n        $scope.pattern_local_global.global = false;\n\n        if ($scope.user_permissions['global_pattern.show.all'].grant) {\n            $scope.pattern_local_global.global = true;\n        }\n\n        $scope.pageNumber = 1;\n        $scope.itemsPerPage = 10;\n        $scope.currentPage = 1;\n        $scope.listPatterns = function (pageNumber) {\n            $scope.currentPage = pageNumber;\n            $scope.pageNumber = pageNumber;\n            $scope.itemsPerPage = 10;\n            patternService.getPattern($scope).then(function (data) {\n                $scope.patternList = {};\n                $scope.totalPatterns =0;\n                if (data.status == 200) {\n                    $scope.patternList = data.data;\n                    $scope.totalPatterns = data.totalPatterns;\n                } \n            });\n        };\n\n        $scope.listPatterns(1);\n\n        //For Pagination Of Dashboard\n        $scope.pageChangeHandlerPattern = function (newPage) {\n            $scope.pattern_id = '';\n            $scope.listPatterns(newPage);\n        };\n        $scope.setCurrentPageNumber = function(num) { \n            paginationService.setCurrentPage('patternListId', num);\n        };\n\n        $scope.preview_button = false;\n        $scope.viewPattern = function (size, id) {\n            $scope.preview_button = true;\n            var patternRec = {};\n            $scope.pattern_id = id;\n            patternService.getPattern($scope).then(function (data) {\n                patternRec = data.data;\n\n                var modalInstance = $modal.open({\n                    templateUrl: 'templates/pattern/myModalContentView.html',\n                    controller: 'ModalInstanceAddCtrl',\n                    size: size,\n                    backdrop: 'static',\n                    keyboard: false,\n                    resolve: {\n                        patternRec: function () {\n                            return patternRec;\n                        },\n                        modalFormText: function () {\n                            return \"You are trying to view a pattern\";\n                        },\n                        modalFormTile: function () {\n                            return \"Preview Pattern\";\n                        },\n                        project_id: function () {\n                            return 0;\n                        },\n                        project_permissions: function () {\n                            return '';\n                        },\n                        project_theme: function () {\n                            return '';\n                        }\n                    }\n                });\n\n                modalInstance.result.then(function () {\n\n                }, function () {\n                    $scope.preview_button = false;\n                    $log.info('Modal dismissed at: ' + new Date());\n                });\n            });\n        };\n\n        $scope.redirectPage = function () {\n            $location.path($scope.redirpage);\n        }\n\n        $scope.getProject = function () {\n            $scope.project_name = '';\n            if ($scope.project_id != '') {\n                objectService.getProjectDetails($scope).then(function (data) {\n                    if (data == null) {\n                        $location.path(\"edit_toc/\" + $scope.project_id);\n                    } else if (angular.isObject(data)) {\n                        $scope.project_name = data.name;\n                        $scope.toc_creation_status = data.toc_creation_status;\n                        $scope.project = {};\n                        $scope.project.project_permissions = data.project_permissions;\n                        $scope.project.theme = data.theme_location;\n                        if ($scope.project.project_permissions['pattern.show.all'].grant) {\n                            $scope.pattern_local_global.local = true;\n                        }\n                        $scope.listPatterns(1);\n                    }\n                });\n            }\n        }\n        //$scope.getProject();\n\n        $scope.changeStatus = function (pattern_id) {\n            patternService.changeStatus(pattern_id, $scope).then(function () {\n                $scope.pattern_id = '';\n            });\n        }\n\n        $scope.apply_filter = function () {\n            $scope.pattern_id = '';\n            if ($scope.pattern_local_global.global == false && $scope.pattern_local_global.local == false) {\n                $scope.pattern_local_global.local = true;\n                //$scope.pattern_local_global.global = true;\n            }\n            $scope.listPatterns(1);\n        }\n\n        $scope.changeAccess = function (id) {\n            SweetAlert.swal({\n                title: \"Are you sure?\",\n                text: _lang['content_global_confirm_message'],\n                type: \"warning\",\n                showCancelButton: true,\n                confirmButtonColor: \"#DD6B55\",\n                confirmButtonText: \"Yes, change it!\",\n                cancelButtonText: \"No, cancel!\",\n                closeOnConfirm: false,\n                closeOnCancel: false\n            }, function (isConfirm) {\n                if (isConfirm) {\n                    patternService.makeGlobal(id, $scope).then(function (data) {\n                        if (data.status == 200) {\n                            $scope.listPatterns(1);\n                            SweetAlert.swal(\"Success\", \"Pattern access changed successfully.\", \"success\");\n                        } else {\n                            if (angular.isDefined(data.projectPermissionGranted) && data.projectPermissionGranted == 401) {\n                                SweetAlert.swal(\"Cancelled\", data.message, \"warning\");\n                            }\n                        }\n                    });\n\n                } else {\n                    SweetAlert.swal(\"Cancelled\", \"Pattern is safe :)\", \"error\");\n                }\n            });\n        };\n\n\n        $scope.applySorting = function (field) {\n            $scope.pattern_id = '';\n            if ($scope.currentOrderByField != field) {\n                $scope.reverseSort = false;\n            } else {\n                if ($scope.reverseSort) {\n                    $scope.reverseSort = false;\n                } else {\n                    $scope.reverseSort = true;\n                }\n            }\n            $scope.currentOrderByField = field;\n            \n            //Set the pagination\n            if($scope.currentPage>1){ $scope.setCurrentPageNumber(1); }\n            else{$scope.listPatterns(1);}\n\n        };\n\n        $scope.$on('apply-advaced-search', function (event, args) {\n            $scope.pattern_id = '';\n            $scope.listPatterns(1);\n        });\n\n        $scope.$on('clear-advaced-search', function (event, args) {\n            $scope.pattern_id = '';\n            $scope.listPatterns(1);\n        });\n\n        $scope.$on('apply-search', function (event, args) {\n            $scope.pattern_id = '';\n            $scope.listPatterns(1);\n        });\n        /*\n         * @description add pattern in global repo\n         * @author Meghamala Mukherjee\n         * @param {type} size\n         * @returns {undefined}\n         */\n        $scope.addPatternForm = function (size) {\n            patternService.projecttypes().then(function (data) {\n                $scope.project_types = data.data;\n                selectedKey = $scope.arrayIterate($scope.project_types, 4);\n                $scope.project_type = $scope.project_types[selectedKey];\n                \n                var modalInstance = $modal.open({\n                    templateUrl: 'templates/pattern/addGlobalPattern.html',\n                    controller: 'GlobalModalPatternAddCtrl',\n                    size: size,\n                    backdrop: 'static',\n                    keyboard: false,\n                    resolve: {\n                        patternRec: function () {\n                            return '';\n                        },\n                        modalFormText: function () {\n                            return \"You are trying to add a new pattern\";\n                        },\n                        modalFormTile: function () {\n                            return \"Add Pattern\";\n                        },\n                        project_id: function () {\n                            return 0;\n                        },\n                        /*project_permissions: function () {\n                            return 1;//$scope.project.project_permissions;\n                        },\n                        project_theme: function () {\n                            return 0;\n                        }*/\n                        project_types: function () {\n                            return $scope.project_types;\n                        },\n                        project_type:function(){\n                            return $scope.project_type;\n                        }\n                    }\n                });\n                modalInstance.result.then(function () {\n                    //Saving TOC    \n                    $scope.pattern_id = '';\n                    $scope.setCurrentPageNumber(1);\n                    patternService.getPattern($scope).then(function (data) {\n                        $scope.patternList = data.data;\n                        $scope.totalPatterns = data.totalPatterns;\n                        $scope.setCurrentPageNumber(1);\n                    });\n                }, function () {\n                    $log.info('Modal dismissed at: ' + new Date());\n                });\n\n            });\n            //$scope.child = child;\n        };\n        \n        /*\n         * @description add pattern in global repo\n         * @author Koushik Samanta\n         * @param {type} size\n         * @returns {undefined}\n         */\n        $scope.edit_button = false;\n        $scope.editPattern = function (size, id) {\n            $scope.edit_button = true;\n            var patternRec = {};\n            $scope.pattern_id = id;\n            patternService.getPattern($scope).then(function (data) {\n                patternRec = data.data;\n                var patternTitle = patternRec[0].title;\n                var modalInstance = $modal.open({\n                    templateUrl: 'templates/pattern/addGlobalPattern.html',\n                    controller: 'GlobalModalPatternAddCtrl',\n                    size: size,\n                    backdrop: 'static',\n                    keyboard: false,\n                    resolve: {\n                        patternRec: function () {\n                            return patternRec;\n                        },\n                        modalFormText: function () {\n                            return \"You are trying to edit pattern [\" + $filter('strLimit')(patternTitle, 20) + \"]\";\n                        },\n                        modalFormTile: function () {\n                            return \"Edit Pattern\";\n                        },\n                        project_id: function () {\n                            return 0;\n                        },\n                        project_types: function () {\n                            return $scope.project_types;\n                        },\n                        project_type:function(){\n                            return $scope.project_type;\n                        }\n                    }\n                });\n\n                modalInstance.result.then(function () {\n                    //Saving TOC    \n                    $scope.pattern_id = '';\n                    $scope.edit_button = false;\n                    patternService.getPattern($scope).then(function (data) {\n                        $scope.patternList = data.data;\n                        $scope.totalPatterns = data.totalPatterns;\n                    });\n                }, function () {\n                    $scope.edit_button = false;\n                    $log.info('Modal dismissed at: ' + new Date());\n                });\n            });\n        };\n\n        /*\n         * @description Array index find for selected type\n         * @author Meghamala Mukherjee\n         * @param {type} size\n         * @returns {undefined}\n         */\n        var selectedKey = '';\n        $scope.arrayIterate = function (lists, project_type_id) {\n            angular.forEach(lists, function (value, key) {\n                if (value.id == project_type_id) {\n                    selectedKey = key;\n                }\n            });\n            return selectedKey;\n        }\n        \n        $scope.deleteGlobalPattern = function (id, project_id) {\n\n            SweetAlert.swal({\n                title: \"Are you sure?\",\n                text: \"You will not be able to recover this pattern!\",\n                type: \"warning\",\n                showCancelButton: true,\n                confirmButtonColor: \"#DD6B55\",\n                confirmButtonText: \"Yes, delete it!\",\n                cancelButtonText: \"No, cancel!\",\n                closeOnConfirm: false,\n                closeOnCancel: false\n            }, function (isConfirm) {\n                if (isConfirm) {\n                    patternService.delPattern(id, project_id).then(function (data) {\n                        if (data.status == 200) {\n                            $scope.pattern_id = '';\n                            //$scope.listPatterns(1);\n                            $scope.listPatterns($scope.currentPage);\n                            SweetAlert.swal(\"Success\", \"Pattern has been deleted\", \"success\");\n                        } else {\n                            SweetAlert.swal({\n                                title: \"Cancelled\",\n                                html: data.message,\n                                type: \"error\",\n                            });\n                        }\n                    });\n\n                } else {\n                    SweetAlert.swal(\"Cancelled\", \"Pattern is safe :)\", \"error\");\n                }\n            });\n\n        };\n        \n    }]);\n\n\napp.controller('GlobalModalPatternAddCtrl', function ($scope, patternService, sessionService, $modalInstance, modalFormText, modalFormTile, patternRec, project_id, project_types) {\n    $scope.showedit = 0;\n    $scope.modalFormText = modalFormText;\n    $scope.modalFormTile = modalFormTile;\n    $scope.project_id = project_id;\n    $scope.user_permissions = JSON.parse(sessionService.get('user_permissions'));\n    //$scope.project = {'project_permissions': project_permissions};\n    $scope.pattern_classes = [{value: ''}];\n    //$scope.project_theme = project_theme;\n    $scope.project_types = project_types;\n    $scope.project_type = '';\n    $scope.pattern_id = '';\n    if (patternRec.length) {\n        \n//        var patternContent = patternRec[0].pattern.replace(/..\\/images/g, 'images');\n        $scope.pattern_id = patternRec[0].id;\n        $scope.pattern_title = patternRec[0].title;\n        $scope.pattern_content = patternRec[0].pattern;\n        $scope.pattern_classes = JSON.parse(patternRec[0].pattern_classes);\n        //$scope.pattern_classes = $scope.pattern_classes.all;\n        //$scope.project_permissions['pattern.update'].grant\n        //console.log($scope.project.project_permissions);\n        $scope.showedit = patternRec.length;\n\n        /*$scope.$watch('pattern_classes', function(newValue, oldValue) {\n         $scope.pattern_classes = newValue;\n         });*/\n\n    } else {\n        $scope.showedit = 0;\n    }\n\n    $scope.add = function () {\n        $scope.formError = {'pattern_title': '', 'pattern_content': ''};\n        //if (angular.isUndefined($scope.pattern_title) == false && angular.isUndefined($scope.pattern_content) == false) {\n        $scope.is_global=1;\n        patternService.savePattern($scope).then(function (savedResponse) {\n            if (savedResponse.status == '200') {\n                patternService.getPattern($scope).then(function (data) {\n                    $scope.patternList = data.data;\n                    $modalInstance.close();\n                });\n            } else {\n                if (angular.isDefined(savedResponse.error.title)) {\n                    $scope.formError['pattern_title'] = savedResponse.error.title['0'];\n                }\n                if (angular.isDefined(savedResponse.error.pattern)) {\n                    $scope.formError['pattern_content'] = savedResponse.error.pattern['0'];\n                }\n                if (angular.isDefined(savedResponse.error.project_type_id)) {\n                    $scope.formError['project_type_id'] = savedResponse.error.project_type_id['0'];\n                }\n\n            }\n\n        });\n        //}\n    };\n\n    $scope.edit = function () {\n        $scope.formError = {'pattern_title': '', 'pattern_content': ''};\n        //if (angular.isUndefined($scope.pattern_title) == false && angular.isUndefined($scope.pattern_content) == false) {\n        patternService.editPattern($scope).then(function (savedResponse) {\n            if (savedResponse.status == '200') {\n                patternService.getPattern($scope).then(function (data) {\n                    $scope.patternList = data.data;\n                    $modalInstance.close();\n                });\n            } else {\n                if (angular.isDefined(savedResponse.error.title)) {\n                    $scope.formError['pattern_title'] = savedResponse.error.title['0'];\n                }\n                if (angular.isDefined(savedResponse.error.pattern)) {\n                    $scope.formError['pattern_content'] = savedResponse.error.pattern['0'];\n                }\n\n            }\n\n\n        });\n        //}\n    };\n\n    $scope.cancel = function () {\n        $modalInstance.dismiss('cancel');\n    };\n\n    //Manage pattern_classes    \n    $scope.addClass = function () {\n        $scope.pattern_classes.push({value: ''});\n    };\n    $scope.removeClass = function (index) {\n        // console.log(index);\n        $scope.pattern_classes.splice(index, 1);\n    };\n    //\n\n});\n\n\n",
          "comment" : ""
        },
        "redirectURL" : "",
        "headersSize" : 203,
        "bodySize" : 35901,
        "comment" : ""
      },
      "cache" : { },
      "timings" : {
        "comment" : "",
        "ssl" : -1,
        "connect" : 1338,
        "blocked" : -1,
        "receive" : 0,
        "send" : 0,
        "wait" : 0,
        "dns" : -1
      },
      "comment" : "",
      "_katalonRequestInformation" : {
        "name" : "83",
        "testObjectId" : "Temporary RESTful request object",
        "harId" : "539efe43-29f7-44ee-b79b-929275169bb7"
      },
      "time" : 1338
    } ],
    "comment" : ""
  }
}