{
  "log" : {
    "version" : "1.2",
    "pages" : [ ],
    "entries" : [ {
      "startedDateTime" : "2019-07-17T06:57:35.922Z",
      "request" : {
        "method" : "GET",
        "url" : "https://frostedc-stg.learningmate.com/js/activity_log/activityLogController.js",
        "httpVersion" : "",
        "cookies" : [ ],
        "headers" : [ ],
        "queryString" : [ ],
        "headersSize" : 0,
        "bodySize" : 0,
        "comment" : ""
      },
      "response" : {
        "status" : 200,
        "statusText" : "",
        "httpVersion" : "",
        "cookies" : [ ],
        "headers" : [ {
          "name" : "Accept-Ranges",
          "value" : "bytes"
        }, {
          "name" : null,
          "value" : "HTTP/1.1 200 OK"
        }, {
          "name" : "Server",
          "value" : "nginx/1.13.5"
        }, {
          "name" : "ETag",
          "value" : "\"5d2ddd74-c78\""
        }, {
          "name" : "Connection",
          "value" : "keep-alive"
        }, {
          "name" : "Last-Modified",
          "value" : "Tue, 16 Jul 2019 14:21:40 GMT"
        }, {
          "name" : "Content-Length",
          "value" : "3192"
        }, {
          "name" : "Date",
          "value" : "Wed, 17 Jul 2019 06:57:52 GMT"
        }, {
          "name" : "Content-Type",
          "value" : "application/javascript"
        } ],
        "content" : {
          "size" : 3192,
          "mimeType" : "application/javascript",
          "text" : "/*****\n * Controller for TOC\n * Author - Arikh Akher * \n */\n\n'use strict';\nvar access_token = '';\nvar returnPatterns = '';\nvar toc_type = '';\nvar tooltipDesc = '';\napp.controller('activity_log', ['$scope', 'sessionService', 'tocService', '$location', '$routeParams', '$route', '$rootScope', 'activityLogService', function ($scope, sessionService, tocService, $location, $routeParams, $route, $rootScope, activityLogService) {\n\n        $scope.access_token = sessionService.get('access_token');\n        $scope.user_permissions = JSON.parse(sessionService.get('user_permissions'));\n        // passing access_token to simple editor\n        access_token = $scope.access_token;\n        $scope.userdetails = JSON.parse(sessionService.get('userinfo'));\n        $scope.user_id = $scope.userdetails.id;\n\n        if (!$scope.access_token && !$scope.user_id) {\n            $location.path('logout');\n        } else {\n            if ($scope.user_id !== 1) {\n                $rootScope.goto('dashboard');\n            }\n            //call the service and fetch the activity logs listed therein.\n//            $scope.pageNumber = pageNumber;\n//            $scope.itemsPerPage = '';\n            $scope.currentPage = 1;\n            $scope.pageNumber = '';\n            $scope.itemsPerPage = '';\n            $scope.totalLog = 1;\n            $scope.getActivityLog = function (pageNumber) {\n                $scope.pageNumber = pageNumber;\n                $scope.itemsPerPage = 20;\n                activityLogService.getLogs($scope).then(function (data) {\n                    if (data.data != null) {\n                        $scope.loggedActivity = data.data[\"ActivityLog\"];\n                        $scope.totalLog = data.data[\"totalLog\"];\n                    }\n                    else {\n                        $scope.loggedActivity = [{\"message\": \"No activity Logged.\", \"startdate\": \"\"}];\n                        $scope.totalLog = 0;\n                    }\n                });\n            }\n            $scope.getActivityLog(1);\n            //For Pagination Of Dashboard\n            $scope.pageChangeHandlerActivityLog = function (newPage) {\n                $scope.getActivityLog(newPage);\n            };\n\n\n            //Static approach\n//            $scope.reverse = true;\n//            $scope.logJson = {\"status\": 200, \"data\": {\"ActivityLog\": [{\"message\": \"admin has created a project, named \\\"pxe1\\\" on 2015-07-13 17:06:00 \", \"startdate\": \"2015-07-13 05:06:01\"}, {\"message\": \"Default TOC has been created for project \\\"Edupub\\\" by \\\"admin\\\" \", \"startdate\": \"2015-07-13 05:28:35\"}, {\"message\": \"admin has created a project, named \\\"Edupub\\\" on 2015-07-13 17:28:29 \", \"startdate\": \"2015-07-13 05:28:35\"}, {\"message\": \"Default TOC has been created for project \\\"pxe1\\\" by \\\"admin\\\" \", \"startdate\": \"2015-07-13 06:16:37\"}, {\"message\": \"admin has created a project, named \\\"Pxe 2\\\" on 2015-07-14 16:10:31 \", \"startdate\": \"2015-07-14 04:10:32\"}]}, \"message\": null, \"error\": null};\n//\n//            $scope.loggedActivity = $scope.logJson.data[\"ActivityLog\"];\n            $scope.reverse = true;\n            $scope.order = function () {\n                $scope.reverse = !$scope.reverse;\n            }\n\n        }\n    }]);",
          "comment" : ""
        },
        "redirectURL" : "",
        "headersSize" : 201,
        "bodySize" : 3192,
        "comment" : ""
      },
      "cache" : { },
      "timings" : {
        "comment" : "",
        "ssl" : -1,
        "connect" : 1046,
        "blocked" : -1,
        "receive" : 0,
        "send" : 0,
        "wait" : 0,
        "dns" : -1
      },
      "comment" : "",
      "_katalonRequestInformation" : {
        "name" : "93",
        "testObjectId" : "Temporary RESTful request object",
        "harId" : "e8f2fb45-deba-4059-910e-4d2ffb097c3e"
      },
      "time" : 1046
    } ],
    "comment" : ""
  }
}