{
  "log" : {
    "version" : "1.2",
    "pages" : [ ],
    "entries" : [ {
      "startedDateTime" : "2019-07-15T04:37:22.534Z",
      "request" : {
        "method" : "GET",
        "url" : "https://frostedc-stg.learningmate.com/css/sidecomment/basics.css",
        "httpVersion" : "",
        "cookies" : [ ],
        "headers" : [ ],
        "queryString" : [ ],
        "headersSize" : 0,
        "bodySize" : 0,
        "comment" : ""
      },
      "response" : {
        "status" : 200,
        "statusText" : "",
        "httpVersion" : "",
        "cookies" : [ ],
        "headers" : [ {
          "name" : "Accept-Ranges",
          "value" : "bytes"
        }, {
          "name" : null,
          "value" : "HTTP/1.1 200 OK"
        }, {
          "name" : "Server",
          "value" : "nginx/1.13.5"
        }, {
          "name" : "ETag",
          "value" : "\"5d2873c2-13a\""
        }, {
          "name" : "Connection",
          "value" : "keep-alive"
        }, {
          "name" : "Last-Modified",
          "value" : "Fri, 12 Jul 2019 11:49:22 GMT"
        }, {
          "name" : "Content-Length",
          "value" : "314"
        }, {
          "name" : "Date",
          "value" : "Mon, 15 Jul 2019 04:37:39 GMT"
        }, {
          "name" : "Content-Type",
          "value" : "text/css"
        } ],
        "content" : {
          "size" : 314,
          "mimeType" : "text/css",
          "text" : "/*.container {\n\tmargin: 0 auto;\n}\n\nh1,h2,h3,h4,div,p,li {\n\tfont-family: 'Helvetica', sans-serif;\n}\n\n#fixtures {\n\tmargin-bottom: 100px;\n}\n\nh1.title {\n  text-align: center;\n  margin-bottom: 40px;\n}\n\np {\n  line-height: 26px;\n  margin-bottom: 20px;\n}\n\n#commentable-container {\n  margin-top: 60px;\n  max-width: 90%;\n}*/",
          "comment" : ""
        },
        "redirectURL" : "",
        "headersSize" : 186,
        "bodySize" : 314,
        "comment" : ""
      },
      "cache" : { },
      "timings" : {
        "comment" : "",
        "dns" : -1,
        "send" : 0,
        "wait" : 0,
        "receive" : 0,
        "blocked" : -1,
        "connect" : 1048,
        "ssl" : -1
      },
      "comment" : "",
      "_katalonRequestInformation" : {
        "name" : "12",
        "testObjectId" : "Temporary RESTful request object",
        "harId" : "1c19aafe-975a-47c1-b1cc-9b532ad90de3"
      },
      "time" : 1048
    } ],
    "comment" : ""
  }
}