{
  "log" : {
    "version" : "1.2",
    "pages" : [ ],
    "entries" : [ {
      "startedDateTime" : "2019-07-15T04:37:11.693Z",
      "request" : {
        "method" : "GET",
        "url" : "https://frostedc-stg.learningmate.com/angular-ivh-treeview-master/dist/ivh-treeview.css",
        "httpVersion" : "",
        "cookies" : [ ],
        "headers" : [ ],
        "queryString" : [ ],
        "headersSize" : 0,
        "bodySize" : 0,
        "comment" : ""
      },
      "response" : {
        "status" : 200,
        "statusText" : "",
        "httpVersion" : "",
        "cookies" : [ ],
        "headers" : [ {
          "name" : "Accept-Ranges",
          "value" : "bytes"
        }, {
          "name" : null,
          "value" : "HTTP/1.1 200 OK"
        }, {
          "name" : "Server",
          "value" : "nginx/1.13.5"
        }, {
          "name" : "ETag",
          "value" : "\"5d2873c2-305\""
        }, {
          "name" : "Connection",
          "value" : "keep-alive"
        }, {
          "name" : "Last-Modified",
          "value" : "Fri, 12 Jul 2019 11:49:22 GMT"
        }, {
          "name" : "Content-Length",
          "value" : "773"
        }, {
          "name" : "Date",
          "value" : "Mon, 15 Jul 2019 04:37:28 GMT"
        }, {
          "name" : "Content-Type",
          "value" : "text/css"
        } ],
        "content" : {
          "size" : 773,
          "mimeType" : "text/css",
          "text" : "/**\n * Treeview styles\n *\n * @private\n * @package ivh.treeview\n * @copyright 2014 iVantage Health Analytics, Inc.\n */\nul.ivh-treeview li.ivh-treeview-node-collapsed ul.ivh-treeview {\n  display: none;\n}\nul.ivh-treeview .ivh-treeview-twistie-leaf,\nul.ivh-treeview .ivh-treeview-twistie-collapsed {\n  display: none;\n}\nul.ivh-treeview .ivh-treeview-node-collapsed .ivh-treeview-twistie-collapsed {\n  display: inline;\n}\nul.ivh-treeview .ivh-treeview-node-collapsed .ivh-treeview-twistie-expanded {\n  display: none;\n}\nul.ivh-treeview li.ivh-treeview-node-leaf .ivh-treeview-twistie-leaf {\n  display: inline;\n}\nul.ivh-treeview li.ivh-treeview-node-leaf .ivh-treeview-twistie-expanded,\nul.ivh-treeview li.ivh-treeview-node-leaf .ivh-treeview-twistie-collapsed {\n  display: none;\n}\n",
          "comment" : ""
        },
        "redirectURL" : "",
        "headersSize" : 186,
        "bodySize" : 773,
        "comment" : ""
      },
      "cache" : { },
      "timings" : {
        "comment" : "",
        "dns" : -1,
        "send" : 0,
        "wait" : 0,
        "receive" : 0,
        "blocked" : -1,
        "connect" : 1053,
        "ssl" : -1
      },
      "comment" : "",
      "_katalonRequestInformation" : {
        "name" : "4",
        "testObjectId" : "Temporary RESTful request object",
        "harId" : "5d0b06a0-9018-432a-a1c5-1b7727cc6120"
      },
      "time" : 1053
    } ],
    "comment" : ""
  }
}