{
  "log" : {
    "version" : "1.2",
    "pages" : [ ],
    "entries" : [ {
      "startedDateTime" : "2019-07-17T05:14:12.270Z",
      "request" : {
        "method" : "GET",
        "url" : "https://frostedc-stg.learningmate.com/js/linkcheck/linkcheckController.js",
        "httpVersion" : "",
        "cookies" : [ ],
        "headers" : [ ],
        "queryString" : [ ],
        "headersSize" : 0,
        "bodySize" : 0,
        "comment" : ""
      },
      "response" : {
        "status" : 200,
        "statusText" : "",
        "httpVersion" : "",
        "cookies" : [ ],
        "headers" : [ {
          "name" : "Accept-Ranges",
          "value" : "bytes"
        }, {
          "name" : null,
          "value" : "HTTP/1.1 200 OK"
        }, {
          "name" : "Server",
          "value" : "nginx/1.13.5"
        }, {
          "name" : "ETag",
          "value" : "\"5d2ddd74-81b\""
        }, {
          "name" : "Connection",
          "value" : "keep-alive"
        }, {
          "name" : "Last-Modified",
          "value" : "Tue, 16 Jul 2019 14:21:40 GMT"
        }, {
          "name" : "Content-Length",
          "value" : "2075"
        }, {
          "name" : "Date",
          "value" : "Wed, 17 Jul 2019 05:14:29 GMT"
        }, {
          "name" : "Content-Type",
          "value" : "application/javascript"
        } ],
        "content" : {
          "size" : 2075,
          "mimeType" : "application/javascript",
          "text" : "'use strict';\n// image popup controller\napp.controller('linkcheckcontroller', ['$scope', '$http', 'sessionService', '$location', 'objectService', 'linkcheckService', '$rootScope', '$modal', '$log', 'SweetAlert', '$routeParams', '$filter', function($scope, $http, sessionService, $location, objectService, linkcheckService, $rootScope, $modal, $log, SweetAlert, $routeParams, $filter) {\n    $scope.currentOrderByField = 'name';\n    $scope.reverseSort = false;\n    //// listing\n    $scope.pageNumber = 1;\n    $scope.itemsPerPage = 10;\n    $scope.currentPage = 1;\n\n    $scope.linkChecker = function() {\n        linkcheckService.projectValidation($scope).then(function(data) {\n            $scope.link_validation_status = data.link_validation_status;\n            $scope.showTable = false;\n        });\n    };\n    $scope.listBrokenLinks = function(pageNumber) {\n        $scope.currentPage = pageNumber;\n        $scope.pageNumber = pageNumber;\n        $scope.itemsPerPage = 10;\n        linkcheckService.projectBrokenLinks($scope).then(function(data) {\n            $scope.link_validation_status = data.link_validation_status;\n            if (data.link_validation_status == 3) {\n                $scope.linkList = data.data;\n                $scope.totalLinks = data.totalLinks;\n                $scope.showTable = data.status;\n            } else {\n                $scope.showTable = false;\n            }\n        });\n    };\n\n    $scope.listBrokenLinks(1);\n\n    $scope.pageChangeHandlerLink = function(newPage) {\n        $scope.listBrokenLinks(newPage);\n    };\n    ////// listing\n\n    // add class\n    /*$scope.linkChecker = function () {\n     $scope.listLinks(1);\n     };*/\n    $scope.applySorting = function(field) {\n        if ($scope.currentOrderByField != field) {\n            $scope.reverseSort = false;\n        } else {\n            if ($scope.reverseSort) {\n                $scope.reverseSort = false;\n            } else {\n                $scope.reverseSort = true;\n            }\n        }\n        $scope.currentOrderByField = field;\n        $scope.listBrokenLinks(1);\n    };\n\n\n}]);",
          "comment" : ""
        },
        "redirectURL" : "",
        "headersSize" : 201,
        "bodySize" : 2075,
        "comment" : ""
      },
      "cache" : { },
      "timings" : {
        "comment" : "",
        "connect" : 1062,
        "ssl" : -1,
        "dns" : -1,
        "receive" : 0,
        "wait" : 0,
        "blocked" : -1,
        "send" : 0
      },
      "comment" : "",
      "_katalonRequestInformation" : {
        "name" : "114",
        "testObjectId" : "Temporary RESTful request object",
        "harId" : "d6290f7e-8bc4-4c0a-bd20-55e337d1b174"
      },
      "time" : 1062
    } ],
    "comment" : ""
  }
}