{
  "log" : {
    "version" : "1.2",
    "pages" : [ ],
    "entries" : [ {
      "startedDateTime" : "2019-07-17T05:14:30.755Z",
      "request" : {
        "method" : "GET",
        "url" : "https://frostedc-stg.learningmate.com/js/compare/compareController.js",
        "httpVersion" : "",
        "cookies" : [ ],
        "headers" : [ ],
        "queryString" : [ ],
        "headersSize" : 0,
        "bodySize" : 0,
        "comment" : ""
      },
      "response" : {
        "status" : 200,
        "statusText" : "",
        "httpVersion" : "",
        "cookies" : [ ],
        "headers" : [ {
          "name" : "Accept-Ranges",
          "value" : "bytes"
        }, {
          "name" : null,
          "value" : "HTTP/1.1 200 OK"
        }, {
          "name" : "Server",
          "value" : "nginx/1.13.5"
        }, {
          "name" : "ETag",
          "value" : "\"5d2ddd74-b4d\""
        }, {
          "name" : "Connection",
          "value" : "keep-alive"
        }, {
          "name" : "Last-Modified",
          "value" : "Tue, 16 Jul 2019 14:21:40 GMT"
        }, {
          "name" : "Content-Length",
          "value" : "2893"
        }, {
          "name" : "Date",
          "value" : "Wed, 17 Jul 2019 05:14:47 GMT"
        }, {
          "name" : "Content-Type",
          "value" : "application/javascript"
        } ],
        "content" : {
          "size" : 2893,
          "mimeType" : "application/javascript",
          "text" : "/*****\n * Controller for Comopare version files\n * Author - Indranil Ghosh\n ***/\n\n'use strict';\n\napp.controller('compare', ['$scope', 'sessionService', 'compareService', '$location', '$routeParams', '$rootScope', '$modal', '$log', 'objectService', 'SweetAlert', '$window', '$filter', '$timeout', '$controller', '$interval', 'assetService', function ($scope, sessionService, compareService, $location, $routeParams, $rootScope, $modal, $log, objectService, SweetAlert, $window, $filter, $timeout, $controller, $interval, assetService) {\n        $scope.access_token = sessionService.get('access_token');\n        $scope.user_permissions = JSON.parse(sessionService.get('user_permissions'));\n        var userinfo = JSON.parse(sessionService.get('userinfo'));\n        $scope.user_id = userinfo.id;\n\n        if (!$scope.access_token && !$scope.user_id) {\n            $location.path('logout');\n            return true;\n        }\n        $scope.project_id = $routeParams.project_id;\n        $scope.object_id = $routeParams.object_id;\n        $scope.object = {};\n\n        $scope.getProject = function () {\n            $scope.project_name = '';\n            if ($scope.project_id != '') {\n                objectService.getProjectDetails($scope).then(function (data) {\n                    $scope.project_name = data.name;\n                    $scope.toc_creation_status = data.toc_creation_status;\n                    $scope.project = {};\n                    $scope.project.project_permissions = data.project_permissions;\n                });\n            }\n        }\n        $scope.getProject();\n\n        objectService.getObjectDetailsById($scope.object_id).then(function (data) {\n            $scope.object.title = data.data.name;\n        });\n        $scope.pid = $scope.project_id;\n        $scope.oid = $scope.object_id;\n        objectService.get_version_list($scope).then(function (data) {\n            $scope.versionList = data.data;\n        });\n        $scope.file1 = {};\n        $scope.file2 = {};\n        $scope.compareFiles = function (file1, file2) {\n            $scope.file1 = file1;\n            $scope.file2 = file2;\n            compareService.getFileCompare($scope).then(function (data) {\n                var d = dmp.diff_main(data.file1_content, data.file2_content);\n                dmp.diff_cleanupSemantic(d);\n                var ds = dmp.diff_prettyHtml(d);\n\n                //$scope.compare_result = data.data;                \n                //console.info(data.data);\n                \n                /*\n                var htmlContent = data.data.replace(/..\\/images\\/default-img.png/g, 'images/default-img.png');\n                htmlContent = htmlContent.replace(/..\\/images\\/default-video.jpg/g, 'images/default-video.jpg');\n                jQuery('iframe#iframeId').contents().find('#outputDiv').html(htmlContent);\n                */\n                \n            });\n        };\n    }]);",
          "comment" : ""
        },
        "redirectURL" : "",
        "headersSize" : 201,
        "bodySize" : 2893,
        "comment" : ""
      },
      "cache" : { },
      "timings" : {
        "comment" : "",
        "connect" : 1060,
        "ssl" : -1,
        "dns" : -1,
        "receive" : 0,
        "wait" : 0,
        "blocked" : -1,
        "send" : 0
      },
      "comment" : "",
      "_katalonRequestInformation" : {
        "name" : "128",
        "testObjectId" : "Temporary RESTful request object",
        "harId" : "6b23dc76-e106-49a2-bf56-4175c60f4825"
      },
      "time" : 1060
    } ],
    "comment" : ""
  }
}