{
  "log" : {
    "version" : "1.2",
    "pages" : [ ],
    "entries" : [ {
      "startedDateTime" : "2019-07-17T05:12:09.386Z",
      "request" : {
        "method" : "GET",
        "url" : "https://frostedc-stg.learningmate.com/",
        "httpVersion" : "",
        "cookies" : [ ],
        "headers" : [ ],
        "queryString" : [ ],
        "headersSize" : 0,
        "bodySize" : 0,
        "comment" : ""
      },
      "response" : {
        "status" : 200,
        "statusText" : "",
        "httpVersion" : "",
        "cookies" : [ ],
        "headers" : [ {
          "name" : "Accept-Ranges",
          "value" : "bytes"
        }, {
          "name" : null,
          "value" : "HTTP/1.1 200 OK"
        }, {
          "name" : "Server",
          "value" : "nginx/1.13.5"
        }, {
          "name" : "ETag",
          "value" : "\"5d2ddd74-3f97\""
        }, {
          "name" : "Connection",
          "value" : "keep-alive"
        }, {
          "name" : "Last-Modified",
          "value" : "Tue, 16 Jul 2019 14:21:40 GMT"
        }, {
          "name" : "Content-Length",
          "value" : "16279"
        }, {
          "name" : "Date",
          "value" : "Wed, 17 Jul 2019 05:12:26 GMT"
        }, {
          "name" : "Content-Type",
          "value" : "text/html"
        } ],
        "content" : {
          "size" : 16279,
          "mimeType" : "text/html",
          "text" : "<!DOCTYPE html>\n<html lang=\"en\" ng-app=\"TemplatesApp\">\n\n<head>\n    <meta charset=\"utf-8\">\n    <meta http-equiv=\"X-UA-Compatible\" content=\"IE=edge\">\n    <meta name=\"viewport\" content=\"width=device-width, initial-scale=1\">\n\n    <meta http-equiv=\"cache-control\" content=\"max-age=0\">\n    <meta http-equiv=\"cache-control\" content=\"no-cache\">\n    <meta http-equiv=\"expires\" content=\"0\">\n    <meta http-equiv=\"expires\" content=\"Tue, 01 Jan 1980 1:00:00 GMT\">\n    <meta http-equiv=\"pragma\" content=\"no-cache\">\n    <meta name=\"viewport\" content=\"user-scalable=no, initial-scale=1.0, maximum-scale=1.0, width=device-width\">\n    <title>.:: FROST ::.</title>\n    <script src=\"js/lang/en/_lang.js\"></script>\n    <script src=\"js/rule.js\"></script>\n\n    <!-- Bootstrap e-->\n\n    <!-- Latest compiled and minified CSS -->\n    <!--<link rel=\"stylesheet\" href=\"//maxcdn.bootstrapcdn.com/bootstrap/3.2.0/css/bootstrap.min.css\">\n\n        <!-- Optional theme ->\n        <link rel=\"stylesheet\" href=\"//maxcdn.bootstrapcdn.com/bootstrap/3.2.0/css/bootstrap-theme.min.css\">\n\n        <link rel=\"stylesheet\" href=\"css/style.css\" type=\"text/css\">-->\n    <!--link href='http://fonts.googleapis.com/css?family=Ubuntu:300,400,500,700,300italic,500italic' rel='stylesheet' type='text/css'>\n        <link href='http://fonts.googleapis.com/css?family=Roboto+Condensed:300italic,400italic,700italic,400,300,700' rel='stylesheet' type='text/css'>\n        <link href='http://fonts.googleapis.com/css?family=Hind:400,500,300,600,700' rel='stylesheet' type='text/css'>-->\n    <link href='//fonts.googleapis.com/css?family=Roboto:400,500,300|Roboto+Condensed:400,300' rel='stylesheet' type='text/css'>\n    <link href='//fonts.googleapis.com/css?family=Source+Sans+Pro:300,400,600,700,400italic,600italic,700italic' rel='stylesheet' type='text/css'>\n    <!-- <link rel=\"stylesheet\" href=\"//maxcdn.bootstrapcdn.com/font-awesome/4.3.0/css/font-awesome.min.css\"> -->\n    <!-- <link rel=\"stylesheet\" type=\"text/css\" href=\"./templates/assessment/mcss/css/font-awesome.min2.css\"> -->\n    <link rel=\"stylesheet\" href=\"https://use.fontawesome.com/releases/v5.8.1/css/all.css\" integrity=\"sha384-50oBUHEmvpQ+1lW4y57PTFmhCaXp0ML5d60M1M7uH2+nqUivzIebhndOJK28anvf\" crossorigin=\"anonymous\">\n    <link href=\"css/bootstrap.min.css\" rel=\"stylesheet\">\n    <link rel=\"stylesheet\" href=\"//maxcdn.bootstrapcdn.com/bootstrap/3.3.6/css/bootstrap-theme.min.css\">\n    <link rel=\"stylesheet\" href=\"bower_components/select2/select2.css\">\n    <link rel=\"stylesheet\" href=\"angular-ivh-treeview-master/dist/ivh-treeview.css\">\n    <link rel=\"stylesheet\" href=\"angular-ivh-treeview-master/dist/ivh-treeview-theme-basic.css\">\n    <link href=\"css/style.css\" rel=\"stylesheet\">\n    <link href=\"css/dashboard.css\" rel=\"stylesheet\" type=\"text/css\" />\n    <!-- <link href=\"css/bootstrap-theme.css\" rel=\"stylesheet\">-->\n    <link href=\"css/loading-bar.css\" rel=\"stylesheet\">\n    <link href=\"css/sweetalert2.css\" rel=\"stylesheet\" type=\"text/css\" />\n    <link href=\"css/sidecomment/side-comments.min.css\" rel=\"stylesheet\" type=\"text/css\" />\n    <link href=\"css/sidecomment/default-theme.min.css\" rel=\"stylesheet\" type=\"text/css\" />\n    <link href=\"css/sidecomment/basics.css\" rel=\"stylesheet\" type=\"text/css\" />\n    <!--link href=\"css/jquery-ui.css\" rel=\"stylesheet\"-->\n\n    <!-- HTML5 Shim and Respond.js IE8 support of HTML5 elements and media queries -->\n    <!-- WARNING: Respond.js doesn't work if you view the page via file:// -->\n    <!--[if lt IE 9]>\n              <script src=\"https://oss.maxcdn.com/libs/html5shiv/3.7.0/html5shiv.js\"></script>\n              <script src=\"https://oss.maxcdn.com/libs/respond.js/1.4.2/respond.min.js\"></script>\n            <![endif]-->\n    <!-- jQuery (necessary for Bootstrap's JavaScript plugins) -->\n    <script src=\"lib/jquery.min.js\"></script>\n    <script src=\"lib/jquery-ui.min.js\"></script>\n    <!--        <script src=\"http://ckeditor.com/apps/ckeditor/4.1/ckeditor.js\"></script>-->\n    <script src=\"bower_components/select2/select2.js\"></script>\n    <style>\n        .iconpicker-container {\n            width: 236px !important;\n        }\n    </style>\n\n</head>\n\n<body class=\"{{showMenuClass}} {{fullScreen}}\" resize>\n\n    <div class=\"menu-wrap\" data-level=\"1\">\n        <nav class=\"menu\">\n            <h2>Add a diary entry</h2>\n            <div class=\"content-edit\" contenteditable=\"true\"></div>\n            <button class=\"default-button\">Save entry</button>\n        </nav>\n        <button class=\"close-button\" id=\"close-button-sub\" ng-click=\"toggleShowMenuClass()\">Close Menu</button>\n    </div>\n    <div ng-view style=\"height:100%\"></div>\n\n    <script src=\"js/service-end-point.js\"></script>\n\n    <script src=\"lib/angular.js\"></script>\n    <script src=\"bower_components/angular-ui-select2/src/select2.js\"></script>\n    <script src=\"angular-ivh-treeview-master/dist/ivh-treeview.js\"></script>\n    <script src=\"bower_components/angular-strap/dist/angular-strap.compat.min.js\"></script>\n    <script src=\"bower_components/angular-strap/dist/angular-strap.tpl.min.js\"></script>\n    <!--for-nav js-->\n    <script src=\"js/classie.js\"></script>\n    <!--\t\t<script src=\"js/main2.js\"></script>-->\n    <!--/for-nav js-->\n    <script src=\"lib/angular-route.js\"></script>\n    <script src=\"js/jquery.ui.touch-punch.js\"></script>\n    <!--script src=\"https://rawgithub.com/angular-ui/ui-sortable/angular1.2/src/sortable.js\"></script-->\n    <script src=\"lib/sortable.js\"></script>\n    <script src=\"lib/angular-dragdrop.min.js\"></script>\n    <script src=\"lib/checklist-model.js\"></script>\n    <script src=\"lib/xml2json.js\"></script>\n    <script src=\"lib/loading-bar.js\"></script>\n\n    <script src=\"lib/angular-sanitize.js\"></script>\n\n    <script src=\"js/app.js\"></script>\n    <script src=\"js/config.js\"></script>\n    <script src=\"js/directives.js\"></script>\n    <script src=\"js/filters.js\"></script>\n\n\n    <script src=\"js/common/utilityService.js\"></script>\n    <script src=\"js/common/objectService.js\"></script>\n    <script src=\"js/common/sessionService.js\"></script>\n    <script src=\"js/common/tokenService.js\"></script>\n\n    <script src=\"js/login/loginController.js\"></script>\n    <script src=\"js/login/loginService.js\"></script>\n\n    <script src=\"js/dashboard/dashboardController.js\"></script>\n    <script src=\"js/dashboard/dashboardService.js\"></script>\n\n    <script src=\"js/project/projectController.js\"></script>\n    <script src=\"js/project/projectService.js\"></script>\n\n    <script src=\"js/project/pdfImportController.js\"></script>\n    <script src=\"js/project/pdfImportService.js\"></script>\n\n    <script src=\"js/toc/tocNodeRuleService.js\"></script>\n    <script src=\"js/toc/tocEditController.js\"></script>\n    <script src=\"js/toc/pxeController.js\"></script>\n    <script src=\"js/toc/edupubController.js\"></script>\n    <script src=\"js/toc/courseController.js\"></script>\n    <script src=\"js/toc/lmController.js\"></script>\n    <script src=\"js/toc/vcController.js\"></script>\n    <script src=\"js/toc/globalContentController.js\"></script>\n    <script src=\"js/toc/globalContentLOController.js\"></script>\n\n    <script src=\"js/project_preview/projectPreviewController.js\"></script>\n\n    <script src=\"js/asset/assetController.js\"></script>\n    <script src=\"js/asset/globalRepoController.js\"></script>\n    <script src=\"js/asset/globalAssetController.js\"></script>\n\n    <!-- For external repo -- merlot -->\n    <script src=\"js/external_repo/externalRepoController.js\"></script>\n    <script src=\"js/external_repo/externalRepoService.js\"></script>\n\n    <script src=\"js/asset/assetService.js\"></script>\n    <!--script src=\"js/asset/taxonomyService.js\"></script-->\n    <script src=\"js/asset/assetPreviewController.js\"></script>\n\n    <script src=\"js/acl/aclController.js\"></script>\n    <script src=\"js/acl/aclService.js\"></script>\n    <script src=\"js/toc/tocService.js\" type=\"text/javascript\"></script>\n    <script src=\"js/widget/widgetController.js\"></script>\n    <script src=\"js/widget/widgetService.js\"></script>\n    <script src=\"js/widget/testHarnessController.js\"></script>\n    <script src=\"js/toc/tocContentController.js\" type=\"text/javascript\"></script>\n    <!--        <script src=\"js/toc/expressEditorController.js\" type=\"text/javascript\"></script>-->\n    <script src=\"js/header/headerController.js\" type=\"text/javascript\"></script>\n    <script src=\"js/settings.js\" type=\"text/javascript\"></script>\n\n    <script src=\"js/user/userController.js\"></script>\n    <script src=\"js/user/userService.js\"></script>\n    <!--<script>\n            jQuery(document).ready(function () {\n                resizeContent();\n            });\n            jQuery(window).resize(function () {\n                resizeContent();\n            });\n\n            function  resizeContent() {\n                var iBody = jQuery(\"#contentPreviewiframe\").contents().find(\"body\");\n                var windowHeight = jQuery(window).innerHeight(),\n                        headerHeight = jQuery(\"#testPreviewModalHeader\").outerHeight(),\n                        frameHeight = windowHeight - headerHeight,\n                        parentFrameHeight = frameHeight - parseInt(jQuery(\"#testPreviewModalContent\").css(\"padding-top\")),\n                        childFrameHeight = parentFrameHeight - parseInt(iBody.find(\".from-container-row\").css(\"padding-top\")) - parseInt(iBody.find(\".from-container-row\").css(\"padding-bottom\")),\n                        tocHeight = childFrameHeight - parseInt(iBody.find(\".navigator\").css(\"height\"));\n                jQuery(\"#contentPreviewiframe\").css(\"height\", parentFrameHeight);\n                jQuery(\"#testPreviewModalContent\").height(frameHeight);\n                iBody.find(\".toccontent-container-cont\").height(childFrameHeight);\n                iBody.find(\".toccontent-container\").height(tocHeight - 10);\n                iBody.find(\"#content_preview_iframe3\").attr(\"height\", childFrameHeight);\n                iBody.find(\".product-inner\").height(parentFrameHeight);\n            }\n        </script>-->\n\n\n\n    <!-- Nested tree-->\n    <script src=\"js/toc/jquery.mjs.nestedSortable.js\"></script>\n    <!-- Chunk Upload -->\n    <script src=\"lib/ng-flow-standalone.js\" type=\"text/javascript\"></script>\n\n\n    <!-- Include all compiled plugins (below), or include individual files as needed -->\n    <script src=\"js/bootstrap.min.js\"></script>\n    <script src=\"js/bootstrap-tabdrop.js\"></script>\n    <script src=\"js/ui-bootstrap-tpls-0.11.2.js\"></script>\n    <script src=\"lib/sweetalert2.min.js\" type=\"text/javascript\"></script>\n    <script src=\"js/common/SweetAlert.js\" type=\"text/javascript\"></script>\n    <script src=\"js/pattern/patternController.js\" type=\"text/javascript\"></script>\n    <script src=\"js/pattern/patternService.js\" type=\"text/javascript\"></script>\n    <script src=\"js/profile/profileController.js\" type=\"text/javascript\"></script>\n    <script src=\"js/profile/profileService.js\" type=\"text/javascript\"></script>\n    <script src=\"js/glossary/glossaryController.js\" type=\"text/javascript\"></script>\n    <script src=\"js/glossary/glossaryService.js\" type=\"text/javascript\"></script>\n    <script src=\"js/plugin/flowpluginController.js\" type=\"text/javascript\"></script>\n    <script src=\"js/comment/commentController.js\" type=\"text/javascript\"></script>\n    <script src=\"js/comment/globalCommentController.js\" type=\"text/javascript\"></script>\n    <script src=\"js/comment/commentService.js\" type=\"text/javascript\"></script>\n    <script src=\"js/activity_log/activityLogController.js\" type=\"text/javascript\"></script>\n    <script src=\"js/activity_log/activityLogService.js\" type=\"text/javascript\"></script>\n\n    <script src=\"js/taxonomy/taxonomyController.js\"></script>\n    <script src=\"js/taxonomy/taxonomyService.js\"></script>\n    <script src=\"js/tag/tagController.js\"></script>\n    <script src=\"js/tag/tagService.js\"></script>\n    <script src=\"js/element/elementController.js\"></script>\n    <script src=\"js/element/elementService.js\"></script>\n\n    <!--This is for asset usage statistics-->\n    <script src=\"js/project/assetUsageController.js\"></script>\n    <script src=\"js/project/assetUsageService.js\"></script>\n    <script src=\"js/project/assetUsageMoreController.js\"></script>\n    <!--This is for asset usage statistics-->\n    <script src=\"js/assessment/assessmentController.js\" type=\"text/javascript\"></script>\n    <script src=\"js/assessment/assessmentService.js\" type=\"text/javascript\"></script>\n    <script src=\"js/assessment/assessmentQuestionController.js\" type=\"text/javascript\"></script>\n\n    <script src=\"js/dataset/datasetController.js\" type=\"text/javascript\"></script>\n    <script src=\"js/dataset/datasetService.js\" type=\"text/javascript\"></script>\n    <script src=\"js/dataset/datasetRecordController.js\" type=\"text/javascript\"></script>\n\n    <script src=\"js/imagepopup/imagepopupController.js\" type=\"text/javascript\"></script>\n    <script src=\"js/imagepopup/imagepopupService.js\" type=\"text/javascript\"></script>\n\n\n    <script src=\"js/linkcheck/utilityController.js\" type=\"text/javascript\"></script>\n    <script src=\"js/linkcheck/wordCountController.js\" type=\"text/javascript\"></script>\n    <script src=\"js/linkcheck/linkcheckController.js\" type=\"text/javascript\"></script>\n    <script src=\"js/linkcheck/linkcheckService.js\" type=\"text/javascript\"></script>\n    <script src=\"js/assignment/assignmentController.js\" type=\"text/javascript\"></script>\n    <script src=\"js/assignment/assignmentService.js\" type=\"text/javascript\"></script>\n\n    <script src=\"js/lms_grade_category/lmsGradeCategoryController.js\" type=\"text/javascript\"></script>\n    <script src=\"js/lms_grade_category/lmsGradeCategoryService.js\" type=\"text/javascript\"></script>\n\n    <!-- Forums Controller and service -->\n    <script src=\"js/forums/forumsController.js\" type=\"text/javascript\"></script>\n    <script src=\"js/forums/forumsService.js\" type=\"text/javascript\"></script>\n\n    <!-- User Project Controller and service -->\n    <script src=\"js/user_project/userProjectController.js\" type=\"text/javascript\"></script>\n    <script src=\"js/user_project/userProjectService.js\" type=\"text/javascript\"></script>\n\n    <!--<script src=\"simple_editor/js/lib/ckeditor.js\"></script>-->\n\n    <script src=\"lib/angular-utils-pagination/dirPagination.js\"></script>\n\n    <div class=\"modal fade bs-example-modal-lg get-media modalForProj\" tabindex=\"-1\" role=\"dialog\" aria-labelledby=\"myLargeModalLabel\" aria-hidden=\"true\">\n        <div class=\"modal-dialog modal-lg\">\n            <div class=\"modal-content\">\n                <div class=\"modal-header header-m ng-binding\">\n\n                </div>\n                <div class=\"sub-title ng-binding\"></div>\n                <div class=\"modal-content-container\"></div>\n                <div class=\"modal-footer\">\n                    <button class=\"btn btn-warning\" data-dismiss=\"modal\" ng-click=\"cancel()\">CANCEL</button>\n                    <button class=\"btn btn-primary cont\">Continue</button></div>\n            </div>\n        </div>\n    </div>\n    <script src=\"js/sidecomment/side-comments.min.js\" type=\"text/javascript\"></script>\n    <script src=\"js/sidecomment/test_data.js\" type=\"text/javascript\"></script>\n    <script src=\"lib/diff_match_patch.js\" type=\"text/javascript\"></script>\n    <script src=\"js/compare/compareController.js\" type=\"text/javascript\"></script>\n    <script src=\"js/compare/compareService.js\" type=\"text/javascript\"></script>\n    <script src=\"js/template/templateController.js\"></script>\n    <script src=\"js/template/templateService.js\"></script>\n    <script src=\"js/key_value/keyValueController.js\"></script>\n    <script src=\"js/key_value/keyValueService.js\"></script>\n    <script src=\"js/activity_log/errorLogService.js\" type=\"text/javascript\"></script>\n    <script src=\"js/activity_log/errorLogController.js\" type=\"text/javascript\"></script>\n    <script src=\"js/search_replace/searchReplaceController.js\" type=\"text/javascript\"></script>\n    <script src=\"js/metadata/metadata.js\" type=\"text/javascript\"></script>\n    <script>\n        $(document).on('click', 'table#example th,.sortOption li', function() {\n            headerText = $(this).text();\n            $(\".selectedAsset span\").text(headerText);\n            if ($(\"table#example span\").hasClass(\"defaultSorted\")) {\n                $(\"span.defaultSorted\").removeClass(\"glyphicon-arrow-down\")\n            }\n\n        });\n    </script>\n\n</body>\n\n</html>",
          "comment" : ""
        },
        "redirectURL" : "",
        "headersSize" : 190,
        "bodySize" : 16279,
        "comment" : ""
      },
      "cache" : { },
      "timings" : {
        "comment" : "",
        "connect" : 1308,
        "ssl" : -1,
        "dns" : -1,
        "receive" : 0,
        "wait" : 0,
        "blocked" : -1,
        "send" : 0
      },
      "comment" : "",
      "_katalonRequestInformation" : {
        "name" : "16",
        "testObjectId" : "Temporary RESTful request object",
        "harId" : "c21f70aa-4959-409b-aabe-7cb6748ac3d2"
      },
      "time" : 1308
    } ],
    "comment" : ""
  }
}