{
  "log" : {
    "version" : "1.2",
    "pages" : [ ],
    "entries" : [ {
      "startedDateTime" : "2019-07-17T05:12:49.053Z",
      "request" : {
        "method" : "GET",
        "url" : "https://frostedc-stg.learningmate.com/js/toc/tocEditController.js",
        "httpVersion" : "",
        "cookies" : [ ],
        "headers" : [ ],
        "queryString" : [ ],
        "headersSize" : 0,
        "bodySize" : 0,
        "comment" : ""
      },
      "response" : {
        "status" : 200,
        "statusText" : "",
        "httpVersion" : "",
        "cookies" : [ ],
        "headers" : [ {
          "name" : "Accept-Ranges",
          "value" : "bytes"
        }, {
          "name" : null,
          "value" : "HTTP/1.1 200 OK"
        }, {
          "name" : "Server",
          "value" : "nginx/1.13.5"
        }, {
          "name" : "ETag",
          "value" : "\"5d2ddd74-95ef\""
        }, {
          "name" : "Connection",
          "value" : "keep-alive"
        }, {
          "name" : "Last-Modified",
          "value" : "Tue, 16 Jul 2019 14:21:40 GMT"
        }, {
          "name" : "Content-Length",
          "value" : "38383"
        }, {
          "name" : "Date",
          "value" : "Wed, 17 Jul 2019 05:13:06 GMT"
        }, {
          "name" : "Content-Type",
          "value" : "application/javascript"
        } ],
        "content" : {
          "size" : 38383,
          "mimeType" : "application/javascript",
          "text" : "/*****\n * Controller for TOC\n * Author - Arikh Akher\n ***/\n\n'use strict';\n\napp.controller('toc_edit', ['$scope', 'sessionService', 'tocService', '$location', '$routeParams', '$rootScope', '$modal', '$log', 'objectService', 'SweetAlert', '$window', '$filter', '$timeout', '$controller', '$interval', 'tocNodeRuleService', function ($scope, sessionService, tocService, $location, $routeParams, $rootScope, $modal, $log, objectService, SweetAlert, $window, $filter, $timeout, $controller, $interval, tocNodeRuleService) {\n        //jQuery(\".live .ui-sortable\").nestedSortable({handle: '.toggle'});\n        $scope.access_token = sessionService.get('access_token');\n        $scope.user_permissions = JSON.parse(sessionService.get('user_permissions'));\n        var userinfo = JSON.parse(sessionService.get('userinfo'));\n        $scope.isAdminOrProjectAdmin = false;\n        //added for persistent Swal after Release Lock by Mrinmoy Starts\n        if (angular.isDefined($routeParams.show_msg) && $routeParams.show_msg == \"true\") {\n            SweetAlert.swal({\n                title: \"Info\",\n                text: \"This page was unlocked by an admin.\",\n                type: \"warning\",\n                confirmButtonColor: \"#DD6B55\",\n            }, function (isConfirm) {\n                if (isConfirm) {\n                    $location.url($location.path());\n                }\n            });\n        }\n        //added by Mrinmoy Ends\n        //Check if the session is active\t\n        $rootScope.checkActiveSession();\n        if (!$scope.access_token || userinfo == null) {\n            $location.path('logout');\n            return true;\n        }\n        $scope.user_id = userinfo.id;\n        $scope.project_id = $routeParams.project_id;\n        $scope.objArr = new Array();\n        $scope.outerIndex = 0;\n        $scope.show_lock_btn = 0;\n        // Fetch Toc Types\n        $scope.TocTypes = '{}';\n        $scope.exclude_types = '';\n        $scope.trigger = 0;\n        //alert(userinfo.role_id);\n\n\n        $scope.lock_project = function () {\n            $scope.trigger = 1;\n            tocService.lockEntry($scope).then(function (data) {\n                $scope.project_details.is_locked = Number(data.current_lock);\n            });\n        }\n        //PDF-HTML Condition to show download imscc button/pdf to html\n        $scope.show_download_imscc = false;\n        $scope.download_imscc_link = '';\n        $scope.loadToc = function () {\n            //tocService.getTocTypes($scope).then(function(TocTypes) {\n            //$scope.TocTypes = TocTypes;\n\n            // Fetch Object Details\n            objectService.getProjectDetails($scope).then(function (data) {\n                if (!angular.isObject(data)) {\n                    $scope.show_project_error_msg = true;\n                    return true;\n                } else if (data.is_global_project) {\n                    $scope.show_project_error_msg = true;\n                    return true;\n                }\n                $scope.check_license_validity = true;\n                $scope.check_update_availability = true;\n                //tocService.getProjectObjectStatus($scope, '').then(function(projObjStatusResponse) {\n                //$scope.projObjStatus = projObjStatusResponse.projObjStatus;\n                //console.log($scope.projObjStatus);\n                tocService.getTicketStatusCount($scope).then(function (TocStatusCountResponse) {\n                    //console.log(TocStatusCountResponse);\n                    //var TocStatusCount = {};\n                    //TocStatusCount = TocStatusCountResponse.ticket_status_count\n                    $scope.ticket_status_count = TocStatusCountResponse.TocStatusCount.ticket_status_count;\n                    $scope.TicketTotalCountsByStatus = TocStatusCountResponse.TicketTotalCountsByStatus;\n                    $scope.total_ticket = TocStatusCountResponse.total_ticket;\n                    $scope.update_date_obj = {};\n                    $scope.proj_obj_status = {};\n                    /*angular.forEach($scope.projObjStatus, function(key, value) {\n                     $scope.proj_obj_status[value] = key.progress_status_value;\n                     });*/\n                    angular.forEach($scope.ticket_status_count, function (key, value) {\n                        $scope.update_date_obj[value] = key.object_updated_at;\n                    });\n                    $scope.project_details = $scope.project = data;\n                    //$rootScope.project_export_count = data.project_export_count;\n\n                    if ($scope.project_details.created_by == $scope.user_id || $scope.user_id == 1) {\n                        $scope.show_lock_btn = 1;\n                    }\n                    //console.log($scope.project_details);\n                    if ($scope.project_details.role_id == 1 || $scope.project_details.role_id == 2) {\n                        $scope.isAdminOrProjectAdmin = true;\n                    }\n\n                    if ($scope.project_details.created_by != $scope.user_id && $scope.project_details.is_locked == 1 && $scope.user_id != 1) {\n                        SweetAlert.swal(\"Cancelled\", \"You cannot access this project right now as it is locked!\", \"error\");\n                        $rootScope.goto(\"dashboard\");\n                    }\n                    $scope.data = JSON.parse(data.toc);\n                    // reindex toc if required (not required)\n                    /*var tocData = JSON.parse(data.toc);\n                    if (tocData.children[0]) {\n                        $scope.data = JSON.parse(data.toc);\n                    } else {\n                        var tocArray = [];\n                        for (var k in tocData.children) {\n                            tocArray.push(tocData.children[k]);\n                        }\n                        tocData.children = tocArray;\n                        $scope.data = tocData;\n                    }*/\n\n                    //console.info($scope.ticket_status_count);\n                    //console.info($scope.data);\n                    //toccontent-container\n                    //popover on TOC @Mrinmoy Mukherjee   \n                    setTimeout(function () {\n                        $('[data-toggle=\"popover\"]').popover({\n                            trigger: 'hover'\n                        });\n\n                    }, 2000);\n                    //Project Type Specific Controller\n                    var dst = {};\n                    if ($scope.project_details.project_type_id == '1') {\n                        angular.extend(dst, $controller('pxe', {$scope: $scope}));\n                    } else if ($scope.project_details.project_type_id == '2') {\n                        angular.extend(dst, $controller('lm', {$scope: $scope}));\n                    } else if ($scope.project_details.project_type_id == '3') {\n                        angular.extend(dst, $controller('vc', {$scope: $scope}));\n                    } else if ($scope.project_details.project_type_id == '4') {\n                        angular.extend(dst, $controller('edupub', {$scope: $scope}));\n                    } else if ($scope.project_details.project_type_id == '5') {\n                        angular.extend(dst, $controller('course', {$scope: $scope}));\n                    }\n                    $scope.toc_node_rule = tocNodeRuleService.toc_node_rule($scope);\n                    //console.log($scope.toc_node_rule);\n                    //======//\n\n                });\n                //});\n\n\n                //$scope.project_details = data;\n                //$scope.data = JSON.parse(data.toc);\n                $scope.tocRowHoverClass = '';\n                //                    /$scope.project = data.project_permissions;//{'project_permissions': data.project_permissions};\n\n                if (data.toc_creation_status == 3001) {\n                    $rootScope.show_toc = 1;\n                } else {\n                    $rootScope.show_toc = 0;\n                }\n\n                /*tocService.getTicketStatusCount($scope).then(function () {\n                 objectService.getTocObjectStatus($scope, 0, 0).then(function (data) {\n                 $scope.contentStatus = new Array();\n                 $scope.contentStatus = data.status_list;\n                 //console.info($scope.contentStatus);\n                 });\n                 });*/\n                var import_package_info = angular.fromJson(data.import_package_info);\n                $scope.asset_import_info = \"<ul>\";\n                angular.forEach(import_package_info, function (val, key) {\n                    if (key == 'audio_counter' && val !== 0) {\n                        $scope.asset_import_info += '<li>Number of audio(s) imported:' + val + '</li>';\n                    }\n                    if (key == 'video_counter' && val !== 0) {\n                        $scope.asset_import_info += '<li>Number of video(s) imported:' + val + '</li>';\n                    }\n                    if (key == 'image_counter' && val !== 0) {\n                        $scope.asset_import_info += '<li>Number of image(s) imported:' + val + '</li>';\n                    }\n                    if (key == 'html_count' && val !== 0) {\n                        $scope.asset_import_info += '<li>Number of page(s) imported:' + val + '</li>';\n                    }\n                    if (key == 'glossary_counter' && val !== 0) {\n                        $scope.asset_import_info += '<li>Number of glossary(s) imported:' + val + '</li>';\n                    }\n                    if (key == 'widget_counter' && val !== 0) {\n                        $scope.asset_import_info += '<li>Number of widget(s) imported:' + val + '</li>';\n                    }\n                    if (key == 'gadget_counter' && val !== 0) {\n                        $scope.asset_import_info += '<li>Number of gadget(s) imported:' + val + '</li>';\n                    }\n\n                    //PDF-HTML Condition to show download imscc button/pdf to html\n                    if (key == 'mime' && val.indexOf('pdf') !== -1) {\n                        $scope.show_download_imscc = true;\n                        $scope.download_imscc_link = serviceEndPoint + 'api/v1/pdf-imscc-download/' + $scope.project_id;\n                    }\n                });\n                $scope.asset_import_info += \"</ul>\";\n                if (data.import_package_info_status == 1002) {\n                    $scope.show_success_msg = 1;\n                    tocService.updateImportStatus($scope);\n                }\n\n\n            });\n            //});\n        };\n        $scope.loadToc();\n        /*angular.extend(this, $controller('createproject', { $scope: $scope }));\n         $scope.$watch('leftPaneHeight()', function(val) {\n         $scope.tempVal = val;\n         $timeout(function() {\n         $scope.rightPaneLinkHeight = $scope.tempVal;\n         }, 1000, false);\n         });\n         \n         $scope.leftPaneHeight = function() {\n         return jQuery(\".toc-panel-left\").css(\"height\");\n         }*/\n\n        //$scope.project = \"{}\";\n        /*$scope.$watch('project', function (newVal, oldValue) {\n         //console.log(newVal);\n         if(angular.isDefined(newVal) && angular.isDefined(newVal.id)){\n         console.info(newVal.id);\n         $scope.project = newVal;\n         }\n         });*/\n\n        // Fetch Toc and orgToc\n        /*tocService.getToc($scope).then(function(data) {\n         $scope.data = data;\n         });*/\n\n        $scope.exportHistory = function (size, pid) {\n            //$scope.child = child;\n            var modalInstance = $modal.open({\n                templateUrl: 'templates/project/modal_exportlist.html',\n                controller: 'ModalExportHistory',\n                size: size,\n                backdrop: 'static',\n                keyboard: false,\n                resolve: {\n                    project_id: function () {\n                        return pid;\n                    },\n                    project_permissions: function () {\n                        return $scope.project.project_permissions;\n                    }\n                }\n            });\n            modalInstance.result.then(function () {\n\n            }, function () {\n                $log.info('Modal dismissed at: ' + new Date());\n            });\n\n        };\n\n        $scope.data = {\n            children: [{\n                    id: guid('-'),\n                    title: \"Add here..\",\n                    type: '2',\n                    root_type: '2',\n                    children: []\n                }]\n        };\n\n        $scope.toggleMinimized = function (child) {\n            child.minimized = !child.minimized;\n        };\n\n        $scope.remove = function (child, parent_node_id) {\n            var toc = {};\n            function walk(target) {\n                var children = target.children,\n                        i;\n                if (children) {\n                    i = children.length;\n                    while (i--) {\n                        if (children[i] === child) {\n                            //Delete Starts\n                            toc = {\n                                children: [children[i]]\n                            };\n                            //console.log(node_ids);\n                            return children.splice(i, 1);\n                        } else {\n                            walk(children[i]);\n                        }\n                    }\n                }\n            }\n\n            SweetAlert.swal({\n                title: \"Are you sure?\",\n                text: \"You will not be able to recover this node!\",\n                type: \"warning\",\n                showCancelButton: true,\n                confirmButtonColor: \"#DD6B55\",\n                confirmButtonText: \"Yes, delete it!\",\n                cancelButtonText: \"No, cancel!\",\n                closeOnConfirm: false,\n                closeOnCancel: false\n            }, function (isConfirm) {\n                if (isConfirm) {\n                    //console.log(child);\n                    jQuery.when(walk($scope.data)).done(function () {\n                        tocService.delete_toc_node($scope, toc, child, parent_node_id).then(function (data) {\n                            if (data.status == 200) {\n                                SweetAlert.swal(\"Success\", data.message, \"success\");\n                                tocService.getTicketStatusCount($scope).then(function (TocStatusCountResponse) {\n                                    //var TocStatusCount = {};\n                                    //TocStatusCount = TocStatusCountResponse.ticket_status_count\n                                    $scope.ticket_status_count = TocStatusCountResponse.TocStatusCount.ticket_status_count;\n                                    $scope.TicketTotalCountsByStatus = TocStatusCountResponse.TicketTotalCountsByStatus;\n                                    $scope.total_ticket = TocStatusCountResponse.total_ticket;\n                                });\n                            } else {\n                                SweetAlert.swal(\"Cancelled\", data.message, \"error\");\n                                $scope.loadToc();\n                            }\n                            $scope.changeLockStatus();\n                        });\n                    });\n                } else {\n                    SweetAlert.swal(\"Cancelled\", \"Node is safe :)\", \"error\");\n                }\n            });\n        };\n\n        /*$scope.update = function (event, ui) {\n         var root = event.target,\n         item = ui.item,\n         parent = item.parent(),\n         target = (parent[0] === root) ? $scope.data : parent.scope().child,\n         child = item.scope().child,\n         index = item.index();\n         \n         target.children || (target.children = []);\n         \n         function walk(target, child) {\n         var children = target.children, i;\n         if (children) {\n         i = children.length;\n         while (i--) {\n         if (children[i] === child) {\n         return children.splice(i, 1);\n         } else {\n         walk(children[i], child);\n         }\n         }\n         }\n         }\n         walk($scope.data, child);\n         target.children.splice(index, 0, child);\n         \n         console.log(child.id+' = '+child.section_page + ' = '+child.title);\n         \n         //Saving TOC\n         tocService.rearrangeTocTree($scope);\n         };*/\n\n        $scope.external_link = function (url) {\n            var win = window.open(url, '_blank');\n            win.focus();\n        }\n\n        $scope.items = ['item1', 'item2', 'item3'];\n\n\n\n        // Get TOC Type Details\n        $scope.showTypedetails = function (type_id) {\n            var found = $filter('getById')($scope.TocTypes, type_id);\n            if (found) {\n                return found.title;\n            }\n        }\n\n\n        $scope.changeLockStatus = function (child) {\n            /*$scope.setLock = 0;\n             if (child) {\n             $scope.object_id = child.id;\n             $scope.flag_on = 1;\n             $scope.flag_off = 0;\n             }*/\n            objectService.getTocObjectStatus($scope).then(function (data) {\n\n                //$scope.object_status = data.object_status;\n                $scope.objStatus = data.status_list;\n                //$scope.objLockedUser = data.locked_by_user_list;\n                //$scope.setLock = 1;\n                //console.info(Object.keys($scope.objStatus).length);\n            });\n        };\n\n        /*objectService.releaseLockStatusAuto($scope).then(function(data) {\n         $scope.changeLockStatus();\n         });*/\n\n        // Go to TOC Content Editor\n        $scope.gotoContentEditor = function (child, project_id, version_id) {\n            //$scope.changeLockStatus(child);\n            $scope.object_id = child.id;\n            tocService.checkObjectLock($scope).then(function (data) {\n                //console.info(Number(data.current_lock));\n                //console.log(data);\n                if (Number(data.current_lock)) {\n                    if ($scope.isAdminOrProjectAdmin) {\n                        SweetAlert.swal(\"Locked\", \"This page is locked by \" + data.lock_user_details + \".  Go to Project Preview to preview the page. You can unlock the page by clicking the lock icon.\", \"info\");\n                    } else {\n                        SweetAlert.swal(\"Locked\", \"This page is locked by \" + data.lock_user_details + \".  Go to Project Preview to preview the page.\", \"info\");\n                    }\n                    $rootScope.goto(\"edit_toc/\" + project_id);\n                    $scope.loadToc();\n                    return false;\n                } else {\n                    tocService.getProjectObjectStatus($scope, child.id).then(function (objStatus) {\n                        //return false;\n                        var type_title = ''; //$scope.showTypedetails(child.type);\n                        if ($scope.project_details.project_type_id == 2) {\n                            //Learningmate Editor\n                            $window.location.href = \"EDITOR/express.html?access_token=\" + $scope.access_token + \"&project_id=\" + project_id + '&node_id=' + child.id + '&project_type_id=' + $scope.project_details.project_type_id;\n                        } else if ($scope.project_details.project_type_id == 1) {\n                            //PXE Editor\n                            //$location.url(\"toc_content?access_token=\" + $scope.access_token + \"&node_id=\" + child.id + \"&project_id=\" + project_id + \"&title=\" + child.title + \"&type=\" + type_title + \"&typeId=\" + child.type);\n                            if (child.type == 101 || angular.lowercase(child.title) == 'glossary') {\n                                $window.location.href = \"simple_editor/glossary_view.html?access_token=\" + $scope.access_token + \"&project_id=\" + project_id + '&node_id=' + child.id + '&node_title=' + child.title + '&node_type_name=' + type_title + '&node_type_id=' + child.type + '&project_type_id=' + $scope.project_details.project_type_id + '&content_from=';\n                            } else {\n                                var vid = version_id ? '&version_id=' + version_id : \"\";\n                                $window.location.href = \"simple_editor/index.html?access_token=\" + $scope.access_token + \"&project_id=\" + project_id + '&node_id=' + child.id + '&node_title=' + child.title + '&node_type_name=' + type_title + '&node_type_id=' + child.type + '&project_type_id=' + $scope.project_details.project_type_id + vid + '&content_from=';\n                            }\n\n                        } else if ($scope.project_details.project_type_id == 3) {\n                            //Visual or Bootstrap Editor\n                            $window.location.href = \"bootstrap_editor/index.html?access_token=\" + $scope.access_token + \"&project_id=\" + project_id + '&node_id=' + child.id + '&node_title=' + child.title + '&node_type_name=' + type_title + '&node_type_id=' + child.type + '&project_type_id=' + $scope.project_details.project_type_id;\n                        } else if ($scope.project_details.project_type_id == 4) {\n                            //Visual or Bootstrap Editor\n                            if (child.type == 101 && angular.lowercase(child.title) == 'glossary') {\n                                $window.location.href = \"edupub_editor/glossary_view.html?access_token=\" + $scope.access_token + \"&project_id=\" + project_id + '&node_id=' + child.id + '&node_title=' + encodeURIComponent(child.title) + '&node_type_name=' + type_title + '&node_type_id=' + child.type + '&project_type_id=' + $scope.project_details.project_type_id + '&content_from=';\n                            } else {\n                                $window.location.href = \"edupub_editor/index.html?access_token=\" + $scope.access_token + \"&project_id=\" + project_id + '&node_id=' + child.id + '&node_title=' + encodeURIComponent(child.title) + '&node_type_name=' + type_title + '&node_type_id=' + child.type + '&project_type_id=' + $scope.project_details.project_type_id + '&section_id=' + child.file.split(\"#\")[1] + '&user_id=' + $scope.user_id + '&content_from=';\n                            }\n\n\n                        } else if ($scope.project_details.project_type_id == 5) {\n                            //console.log(objStatus.projObjStatus);\n                            //Course Editor\n                            if ((objStatus.projObjStatus[child.id].progress_status == \"1098\" || objStatus.projObjStatus[child.id].progress_status == \"1099\")) {\n                                $window.location.href = \"pdf_editor/index.html?access_token=\" + $scope.access_token + \"&project_id=\" + project_id + '&node_id=' + child.id + '&node_title=' + encodeURIComponent(child.title) + '&node_type_name=' + type_title + '&node_type_id=' + child.type + '&project_type_id=' + $scope.project_details.project_type_id;\n                            } else {\n                                $window.location.href = \"course_editor/index.html?access_token=\" + $scope.access_token + \"&project_id=\" + project_id + '&node_id=' + child.id + '&node_title=' + encodeURIComponent(child.title) + '&node_type_name=' + type_title + '&node_type_id=' + child.type + '&project_type_id=' + $scope.project_details.project_type_id + '&content_from=';\n                            }\n\n                        }\n                    });\n\n                }\n            });\n\n            //$scope.$watch('setLock', function (val) {\n            //if (val && $scope.object_status == 1001) {\n\n            //}\n            //});\n        }\n        //Unlocking Node Lock By Admin/Project Admin @Mrinmoy Mukherjee\n        $scope.gotoLockRelease = function (child, project_id) {\n            $scope.lock_user_id = child.locked_by_user;\n            $scope.role_id = $scope.project_details.role_id;\n            $scope.user_id = $scope.project_details.user_id;\n            $scope.object_id = child.id;\n\n            //Release Lock\n            if ($scope.role_id == 1 || $scope.role_id == 2 || $scope.lock_user_id == $scope.user_id) {\n                objectService.releaseObjectLock($scope).then(function (data) {\n                    $scope.loadToc();\n\n                });\n            }\n        }\n        //View ToolTip Message For Admin/Project ADmin and Normal User @Mrinmoy Mukherjee\n        $scope.viewToolTip = function (child, project_id) {\n            $scope.role_id = $scope.project_details.role_id;\n            $scope.user_id = $scope.project_details.user_id;\n            $scope.object_id = child.id;\n            $scope.lock_user_details = child.lock_user_details;\n            if ($scope.role_id == 1 || $scope.role_id == 2) {\n                //SweetAlert.swal(\"Info\", \"This page is locked by \" + $scope.lock_user_details + \". Go to Project Preview to preview the page. You can unlock the page by clicking the lock icon.\", \"warning\");\n            } else {\n                //SweetAlert.swal(\"Info\", \"This page is locked by \" + $scope.lock_user_details + \". Go to Project Preview to preview the page.\", \"warning\");\n            }\n        }\n\n\n        $scope.gotoPreview = function (child, project_id, version_id) {\n            //var type_title = $scope.showTypedetails(child.type);\n            var type_title = '';\n            if ($scope.project_details.project_type_id == 1 || $scope.project_details.project_type_id == 4 || $scope.project_details.project_type_id == 5) { //for PXE editor\n                var vid = version_id ? '&version_id=' + version_id : \"\";\n                $window.location.href = \"content_preview/index.html?access_token=\" + $scope.access_token + \"&project_id=\" + project_id + '&node_id=' + child.id + '&node_title=' + child.title + '&node_type_name=' + type_title + '&node_type_id=' + child.type + '&project_type_id=' + $scope.project_details.project_type_id + vid + '&user_id=' + $scope.user_id;\n            }\n        }\n\n\n        $scope.getVersions = function (size, object) {\n\n            $scope.pid = $routeParams.project_id;\n            $scope.oid = object.id;\n            objectService.get_version_list($scope).then(function (data) {\n                $scope.versionList = data.data;\n                var modalInstance = $modal.open({\n                    templateUrl: 'templates/project/modal_versions.html',\n                    controller: 'ModalVersions',\n                    size: size,\n                    backdrop: 'static',\n                    keyboard: false,\n                    resolve: {\n                        project_id: function () {\n                            return $scope.project_id\n                        },\n                        object: function () {\n                            return object;\n                        },\n                        versionList: function () {\n                            return $scope.versionList;\n                        },\n                        project_permissions: function () {\n                            return $scope.project.project_permissions;\n                        }\n                    }\n                });\n                modalInstance.result.then(function () {\n\n                }, function () {\n                    $log.info('Modal dismissed at: ' + new Date());\n                });\n\n            });\n\n        };\n\n\n        $scope.compareVersions = function (size, object) {\n\n            $scope.pid = $routeParams.project_id;\n            $scope.oid = object.id;\n            objectService.get_version_list($scope).then(function (data) {\n                $scope.versionList = data.data;\n                var modalInstance = $modal.open({\n                    templateUrl: 'templates/project/compare_versions.html',\n                    controller: 'CompareModalVersions',\n                    size: size,\n                    backdrop: 'static',\n                    keyboard: false,\n                    resolve: {\n                        project_id: function () {\n                            return $scope.project_id\n                        },\n                        object: function () {\n                            return object;\n                        },\n                        versionList: function () {\n                            return $scope.versionList;\n                        },\n                        project_permissions: function () {\n                            return $scope.project.project_permissions;\n                        }\n                    }\n                });\n                modalInstance.result.then(function () {\n\n                }, function () {\n                    $log.info('Modal dismissed at: ' + new Date());\n                });\n\n            });\n\n        };\n\n\n\n        //        if ($rootScope.show_success_msg == 1) {\n        //            setTimeout(function () {\n        //                $rootScope.show_success_msg = 0;\n        //            }, 5000);\n        //        }\n\n        $scope.copy_project = function () {\n\n            SweetAlert.swal({\n                title: \"Are you sure?\",\n                text: \"You are going to copy current project, after success it will appear in the project listing dashboard!\",\n                type: \"warning\",\n                showCancelButton: true,\n                confirmButtonColor: \"#DD6B55\",\n                confirmButtonText: \"Yes, copy it!\",\n                cancelButtonText: \"No, cancel!\",\n                closeOnConfirm: true,\n                closeOnCancel: false\n            }, function (isConfirm) {\n                if (isConfirm) {\n                    if (angular.isDefined($scope.project_id)) {\n                        tocService.copyProject($scope).then(function (result) {\n                            if (result.status == 400 && angular.isDefined(result.projectPermissionGranted) && result.projectPermissionGranted == 401) {\n                                $rootScope.move_unauthorised_user_to_toc_with_message(result.projectPermissionGranted);\n                                SweetAlert.swal(\"Cancelled\", result.message, \"warning\");\n                            }\n                            if (result.status == 200) {\n                                SweetAlert.swal(\"Success\", \"Project copied successfully\", \"success\");\n                                $scope.loadToc();\n                            }\n                        });\n                    }\n                } else {\n                    SweetAlert.swal(\"Cancelled\", \"Copy is cancelled :)\", \"error\");\n                }\n            });\n        }\n\n        $scope.searchReplace = function () {\n            SweetAlert.swal({\n                title: \"Search Text\",\n                html: \"<p><textarea id='search_text' class='form-control' autofocus></textarea>\",\n                type: \"info\",\n                showCancelButton: true,\n                confirmButtonColor: \"#DD6B55\",\n                confirmButtonText: \"Search\",\n                cancelButtonText: \"Cancel!\",\n                closeOnConfirm: true,\n                closeOnCancel: false\n            }, function (isConfirm) {\n                if (isConfirm) {\n                    if (angular.isDefined($scope.project_id) && $('#search_text').val()) {\n                        $scope.search_text = $('#search_text').val();\n                        $window.location.href = \"/#/search_replace/\" + $scope.project_id + \"/\" + $scope.search_text;\n                    } else {\n                        SweetAlert.swal({html: 'Please enter a search text'});\n                    }\n                } else {\n                    SweetAlert.swal(\"Cancelled\", \"Replace is cancelled :)\", \"error\");\n                }\n            });\n        };\n    }]);\n//End of Toc Edit Controller\n\napp.controller('ModalExportHistory', function ($scope, project_id, project_permissions, $modalInstance) {\n    $scope.cancel = function () {\n        $modalInstance.dismiss('cancel');\n    };\n});\n\napp.controller('ModalVersions', function ($scope, $modalInstance, project_id, object, versionList, project_permissions) {\n    $scope.versionList = versionList;\n    $scope.project_permissions = project_permissions;\n    $scope.versionListCount = $scope.versionList.length;\n    $scope.object = object;\n    $scope.cancel = function () {\n        $modalInstance.dismiss('cancel');\n    };\n});\n\napp.controller('CompareModalVersions', function ($scope, $modalInstance, project_id, object, versionList, project_permissions, tocService) {\n    $scope.versionList = versionList;\n    $scope.project_permissions = project_permissions;\n    $scope.versionListCount = $scope.versionList.length;\n    $scope.object = object;\n    $scope.project_id = project_id;\n    $scope.file1 = {};\n    $scope.file2 = {};\n    //var dmp = new diff_match_patch();\n\n    $scope.compareFiles = function (file1, file2) {\n        $scope.file1 = file1;\n        $scope.file2 = file2;\n        //console.info($scope.object);         //console.log(file2.version_id);\n        tocService.getFileCompare($scope).then(function (data) {\n            //var d = dmp.diff_main(data.file1_content, data.file2_content);\n            //dmp.diff_cleanupSemantic(d);\n            //var ds = dmp.diff_prettyHtml(d);\n\n            //$scope.compare_result = data.data;\n            jQuery('iframe#iframeId').contents().find('#outputDiv').html(data.data);\n        });\n    };\n    $scope.cancel = function () {\n        $modalInstance.dismiss('cancel');\n    };\n});\n\n\napp.controller('ExportOption', function ($scope, $modalInstance, $controller, tocService, SweetAlert) {\n    angular.extend(this, $controller('toc_edit', {$scope: $scope}));\n    $scope.export_type = {\n        option: 1\n    };\n    $scope.submit = function () {\n        $(\"#export_btn\").attr(\"disabled\", true);\n        if ($scope.export_type.option == '4') {\n            $scope.project_details.project_type_id = 4;\n            $scope.exportType = 'edupub';\n        }\n\n\n        tocService.initiateExport($scope).then(function (data) {\n\n            if (data.status == 200) {\n                var error_response = '';\n                tocService.getTicketStatusCount($scope).then(function (data) {\n                    if (parseInt(data.TicketTotalCountsByStatus['OPEN']) > 0 || parseInt(data.TicketTotalCountsByStatus['IN PROGRESS']) > 0) {\n                        error_response += \"--------------------------------------------------------\";\n                        error_response += \"<div>Following are issues available in your package:</div>\";\n                    }\n                    if (parseInt(data.TicketTotalCountsByStatus['OPEN'])) {\n                        error_response += '<div>OPEN=>' + parseInt(data.TicketTotalCountsByStatus['OPEN']) + '</div>';\n                    }\n                    if (parseInt(data.TicketTotalCountsByStatus['IN PROGRESS'])) {\n                        error_response += '<div> IN PROGRESS=>' + parseInt(data.TicketTotalCountsByStatus['IN PROGRESS']) + '</div>';\n                    }\n                });\n\n                $modalInstance.close();\n                setTimeout(function () {\n                    SweetAlert.swal({title: 'Success', html: data.message + \"<div style='width:100%;overflow-y:auto;max-height:250px;'>\" + error_response + \"</div>\"});\n                }, 500);\n                //<div style='width:100%;overflow-y:auto;max-height:250px;'>\" + error_response + \"</div>\"\n                $scope.project.project_export_count = 1;\n                //$rootScope.project_export_count = 1;\n            }\n            $(\"#export_btn\").removeAttr(\"disabled\");\n        });\n    }\n    $scope.cancel = function () {\n        $modalInstance.dismiss('cancel');\n    };\n});\n\napp.controller('PartialExport', function ($scope, $modalInstance, $controller, SweetAlert, tocService, project_id, modalFormTile, modalFormText, cfi_domain_name, cfi_book_id, data, $rootScope) {\n    $scope.project_id = project_id;\n    $scope.modalFormTile = modalFormTile;\n    $scope.modalFormText = modalFormText;\n    $scope.cfi_domain_name = cfi_domain_name;\n    $scope.cfi_book_id = cfi_book_id;\n    $scope.data = data;\n    $scope.selectedTocNode = {};\n    $scope.resultTocNode = {};\n    $scope.export = function () {\n        var cnt = 0;\n        angular.forEach($scope.selectedTocNode, function (v, k) {\n            if (v === true) {\n                $scope.resultTocNode[cnt] = k;\n                cnt++;\n            }\n        });\n\n        if (cnt < 1) {\n            SweetAlert.swal(\"Please choose node to export\", data.message, \"error\");\n        } else {\n            tocService.partialExportService($scope).then(function (data) {\n                if (data.status == 200) {\n                    $modalInstance.close();\n                    SweetAlert.swal(\"Success\", data.message, \"success\");\n                } else {\n                    $modalInstance.close();\n                    SweetAlert.swal(\"Cancelled\", data.message, \"error\");\n                }\n            });\n        }\n    };\n    //$rootScope.$broadcast('SOME_TAG', $rootScope.project_export_count);\n    //console.info($rootScope.project_export_count);\n    $scope.cancel = function () {\n        $modalInstance.dismiss('cancel');\n    };\n});\n\n\n/*\n * GLobal Content Usage Modal window Controller\n */\napp.controller('ModalContentObjectUsagCtrl', function ($scope, $location, $modalInstance, $window, SweetAlert, assetService, sessionService, objectService, asset_id) {\n    $scope.asset_id = asset_id;\n\n    $scope.asset_usage_list = [];\n    //For pagination\n    $scope.currentPage = 1;\n    $scope.itemsPerPage = 10;\n    //\n    $scope.asset_usage_total = 0;\n    $scope.getAssetUsageList = function (pageNumber) {\n        $scope.pageNumber = pageNumber;\n        assetService.getAssetUsageList($scope).then(function (data) {\n            if (data.status == '200') {\n                $scope.asset_usage_list = data.data.list;\n                $scope.asset_usage_total = data.data.total;\n            }\n        });\n    }\n    $scope.getAssetUsageList(1);\n\n    $scope.pageChangeHandlerObject = function (newPageNumber) {\n        $scope.getAssetUsageList(newPageNumber);\n    }\n\n    $scope.goToProjectDashboard = function (list) {\n        $scope.project_id = list.project_id;\n        objectService.getProjectDetails($scope).then(function (data) {\n            if (data != null) {\n                $location.path(\"edit_toc/\" + list.project_id);\n            } else {\n                SweetAlert.swal({html: 'Either the project does not exist or you are no longer allocated to this project.', width: 540, type: \"warning\"});\n            }\n        });\n    }\n\n\n    $scope.cancel = function () {\n        $modalInstance.dismiss('cancel');\n    };\n});",
          "comment" : ""
        },
        "redirectURL" : "",
        "headersSize" : 203,
        "bodySize" : 38383,
        "comment" : ""
      },
      "cache" : { },
      "timings" : {
        "comment" : "",
        "connect" : 1304,
        "ssl" : -1,
        "dns" : -1,
        "receive" : 0,
        "wait" : 0,
        "blocked" : -1,
        "send" : 0
      },
      "comment" : "",
      "_katalonRequestInformation" : {
        "name" : "49",
        "testObjectId" : "Temporary RESTful request object",
        "harId" : "0854bec6-6534-4e34-97b2-5948648e016d"
      },
      "time" : 1304
    } ],
    "comment" : ""
  }
}