{
  "log" : {
    "version" : "1.2",
    "pages" : [ ],
    "entries" : [ {
      "startedDateTime" : "2019-07-17T05:13:17.904Z",
      "request" : {
        "method" : "GET",
        "url" : "https://frostedc-stg.learningmate.com/js/widget/widgetService.js",
        "httpVersion" : "",
        "cookies" : [ ],
        "headers" : [ ],
        "queryString" : [ ],
        "headersSize" : 0,
        "bodySize" : 0,
        "comment" : ""
      },
      "response" : {
        "status" : 200,
        "statusText" : "",
        "httpVersion" : "",
        "cookies" : [ ],
        "headers" : [ {
          "name" : "Accept-Ranges",
          "value" : "bytes"
        }, {
          "name" : null,
          "value" : "HTTP/1.1 200 OK"
        }, {
          "name" : "Server",
          "value" : "nginx/1.13.5"
        }, {
          "name" : "ETag",
          "value" : "\"5d2ddd74-1b17\""
        }, {
          "name" : "Connection",
          "value" : "keep-alive"
        }, {
          "name" : "Last-Modified",
          "value" : "Tue, 16 Jul 2019 14:21:40 GMT"
        }, {
          "name" : "Content-Length",
          "value" : "6935"
        }, {
          "name" : "Date",
          "value" : "Wed, 17 Jul 2019 05:13:34 GMT"
        }, {
          "name" : "Content-Type",
          "value" : "application/javascript"
        } ],
        "content" : {
          "size" : 6935,
          "mimeType" : "application/javascript",
          "text" : "/*****\n * Generic Object Services\n * Author - Arikh Akher * \n */\n'use strict';\n\napp.service('widgetService', ['$http', '$q', 'sessionService', '$location', '$rootScope', function ($http, $q, sessionService, $location, $rootScope) {\n\n        // Start -- Method to save widget\n        this.save = function (formdata, $scope) {\n            var deferred = $q.defer();\n            var fd = new FormData();\n            var type_id ='';\n            if(angular.isDefined($scope.formData.type) && angular.isDefined($scope.formData.type.id)) {\n                type_id = $scope.formData.type.id;\n            }\n            fd.append('name', (angular.isDefined($scope.formData.name) ? $scope.formData.name : ''));\n            fd.append('type', type_id);\n            fd.append('description', (angular.isDefined($scope.formData.description) ? $scope.formData.description : ''));\n            fd.append('widget_file', (angular.isDefined($scope.formData.widget_file) ? $scope.formData.widget_file : ''));\n            //fd.append('_method', 'POST');\n            //fd.append('access_token', sessionService.get('access_token'));\n            var apiUrl = serviceEndPoint + 'api/v1/widget' + '?access_token=' + sessionService.get('access_token');\n            $http({\n                method: 'POST',\n                url: apiUrl,\n                data: fd,\n                transformRequest: angular.identity,\n                headers: {'Content-Type': undefined}\n            }).success(function (data, status, headers, config) {\n                deferred.resolve(data);\n            }).error(function (data, status, headers, config) {\n                $rootScope.unauthorised_redirection(data.status);\n            });\n            return deferred.promise;\n        };\n        //End - Method to save widget\n\n        // Start -- Method to update widget\n        this.update = function (formdata, $scope) {\n            var deferred = $q.defer();\n            var fd = new FormData();\n            fd.append('name', (angular.isDefined(formdata.name) ? formdata.name : ''));\n            fd.append('type', (angular.isDefined($scope.formData.type) ? $scope.formData.type : ''));\n            fd.append('description', (angular.isDefined(formdata.description) ? formdata.description : ''));\n            fd.append('widget_file', (angular.isDefined(formdata.widget_file) ? formdata.widget_file : ''));\n            fd.append('id', (angular.isDefined($scope.widget_id) ? $scope.widget_id : ''));\n            fd.append('_method', 'PUT');\n            //fd.append('access_token', sessionService.get('access_token'));\n            var apiUrl = serviceEndPoint + 'api/v1/widget' + '?access_token=' + sessionService.get('access_token');\n            $http({\n                method: 'POST',\n                url: apiUrl,\n                data: fd,\n                transformRequest: angular.identity,\n                headers: {'Content-Type': undefined}\n            }).success(function (data, status, headers, config) {\n                deferred.resolve(data);\n            }).error(function (data, status, headers, config) {\n                $rootScope.unauthorised_redirection(data.status);\n            });\n            return deferred.promise;\n        };\n        //End - Method to update widget\n        /**\n         * Get Mime Types\n         */\n        this.getWidgets = function ($scope) {\n            var params = {};\n            params.access_token = sessionService.get('access_token');\n            var deferred = $q.defer();\n\n            var queryString = '';\n            if (angular.isDefined($scope.pageNumber) && angular.isDefined($scope.itemsPerPage)) {\n                queryString += '&pageNumber=' + $scope.pageNumber + '&itemsPerPage=' + $scope.itemsPerPage;\n            }\n\n            if (angular.isDefined($scope.currentOrderByField)) {\n                queryString += '&orderField=' + $scope.currentOrderByField;\n            }\n\n            if (angular.isDefined($scope.search_text)) {\n                queryString += '&search_text=' + window.btoa($scope.search_text);\n            }\n\n            if (angular.isDefined($scope.reverseSort)) {\n                var dir = 'ASC';\n                if ($scope.reverseSort)\n                {\n                    dir = 'DESC';\n                }\n                queryString += '&orderDirection=' + dir;\n            }\n\n            $http.get(serviceEndPoint + 'api/v1/widget?access_token=' + sessionService.get('access_token') + queryString, {\n            }).success(function (data, status, headers, config) {\n                deferred.resolve(data);\n            }).error(function (data, status, headers, config) {\n                $rootScope.unauthorised_redirection(data.status);\n            });\n            return deferred.promise;\n        };\n\n        /*\n         * Change status to active or inactive\n         */\n        this.changeStatus = function (widget_id, $scope) {\n            var deferred = $q.defer();\n            $http.post(serviceEndPoint + 'api/v1/widget-activate-inactivate/widget_id/' + widget_id + '?access_token=' + sessionService.get('access_token'), {\n                _method: 'PUT'\n            }).success(function (data, status, headers, config) {\n                deferred.resolve(data);\n            }).error(function (data, status, headers, config) {\n                deferred.resolve(data);\n                $rootScope.unauthorised_redirection(data.status);\n            });\n            return deferred.promise;\n        };\n\n        this.getWidgetsById = function ($scope) {\n            var params = {};\n            params.access_token = sessionService.get('access_token');\n            var widget_id = $scope.widget_id;\n            var deferred = $q.defer();\n\n            var queryString = '';\n            if (angular.isDefined($scope.pageNumber) && angular.isDefined($scope.itemsPerPage)) {\n                queryString += '&pageNumber=' + $scope.pageNumber + '&itemsPerPage=' + $scope.itemsPerPage;\n            }\n            $http.get(serviceEndPoint + 'api/v1/widget/widget_id/' + widget_id + '?access_token=' + sessionService.get('access_token') + queryString, {\n            }).success(function (data, status, headers, config) {\n                deferred.resolve(data);\n            }).error(function (data, status, headers, config) {\n                $rootScope.unauthorised_redirection(data.status);\n            });\n            return deferred.promise;\n        };\n\n        this.getWidgetTypes = function ($scope) {\n            var deferred = $q.defer();\n            var queryString = '';\n            $http.get(serviceEndPoint + 'api/v1/widget-types?access_token=' + sessionService.get('access_token') + queryString, {\n            }).success(function (data, status, headers, config) {\n                deferred.resolve(data);\n            }).error(function (data, status, headers, config) {\n                $rootScope.unauthorised_redirection(data.status);\n            });\n            return deferred.promise;\n        };\n\n    }]);\n\n",
          "comment" : ""
        },
        "redirectURL" : "",
        "headersSize" : 202,
        "bodySize" : 6935,
        "comment" : ""
      },
      "cache" : { },
      "timings" : {
        "comment" : "",
        "connect" : 1057,
        "ssl" : -1,
        "dns" : -1,
        "receive" : 0,
        "wait" : 0,
        "blocked" : -1,
        "send" : 0
      },
      "comment" : "",
      "_katalonRequestInformation" : {
        "name" : "69",
        "testObjectId" : "Temporary RESTful request object",
        "harId" : "402c6a1e-9589-48d4-8e63-a2b10942d0a4"
      },
      "time" : 1057
    } ],
    "comment" : ""
  }
}