{
  "log" : {
    "version" : "1.2",
    "pages" : [ ],
    "entries" : [ {
      "startedDateTime" : "2019-07-17T05:11:59.535Z",
      "request" : {
        "method" : "GET",
        "url" : "https://frostedc-stg.learningmate.com/css/sweetalert2.css",
        "httpVersion" : "",
        "cookies" : [ ],
        "headers" : [ ],
        "queryString" : [ ],
        "headersSize" : 0,
        "bodySize" : 0,
        "comment" : ""
      },
      "response" : {
        "status" : 200,
        "statusText" : "",
        "httpVersion" : "",
        "cookies" : [ ],
        "headers" : [ {
          "name" : "Accept-Ranges",
          "value" : "bytes"
        }, {
          "name" : null,
          "value" : "HTTP/1.1 200 OK"
        }, {
          "name" : "Server",
          "value" : "nginx/1.13.5"
        }, {
          "name" : "ETag",
          "value" : "\"5d2ddd74-349a\""
        }, {
          "name" : "Connection",
          "value" : "keep-alive"
        }, {
          "name" : "Last-Modified",
          "value" : "Tue, 16 Jul 2019 14:21:40 GMT"
        }, {
          "name" : "Content-Length",
          "value" : "13466"
        }, {
          "name" : "Date",
          "value" : "Wed, 17 Jul 2019 05:12:16 GMT"
        }, {
          "name" : "Content-Type",
          "value" : "text/css"
        } ],
        "content" : {
          "size" : 13466,
          "mimeType" : "text/css",
          "text" : ".sweet-overlay {\n  background-color: rgba(0, 0, 0, 0.4);\n  position: fixed;\n  left: 0;\n  right: 0;\n  top: 0;\n  bottom: 0;\n  display: none;\n  z-index: 1000; }\n\n.sweet-alert {\n  background-color: #fff;\n  font-family: \"Helvetica Neue\", Helvetica, Arial, sans-serif;\n  border-radius: 5px;\n  box-sizing: border-box;\n  text-align: center;\n  position: fixed;\n  left: 50%;\n  top: 50%;\n  margin-top: -200px;\n  overflow: hidden;\n  display: none;\n  z-index: 2000; }\n  .sweet-alert h2 {\n    color: #575757;\n    font-size: 30px;\n    text-align: center;\n    font-weight: 600;\n    text-transform: none;\n    position: relative;\n    margin: 0;\n    padding: 0;\n    line-height: 60px;\n    display: block; }\n  .sweet-alert p {\n    font-size: 16px;\n    text-align: center;\n    font-weight: 300;\n    position: relative;\n    float: none;\n    margin: 0;\n    padding: 0;\n    line-height: normal; }\n  .sweet-alert hr {\n    height: 10px;\n    color: transparent;\n    border: 0; }\n  .sweet-alert button {\n    color: #fff;\n    border: 0;\n    box-shadow: none;\n    font-size: 17px;\n    font-weight: 500;\n    border-radius: 5px;\n    padding: 10px 32px;\n    margin: 0 5px;\n    cursor: pointer; }\n    .sweet-alert button:focus {\n      outline: none; }\n    .sweet-alert button.cancel[disabled] {\n      opacity: 0.4; }\n    .sweet-alert button.confirm[disabled] {\n      border: 4px solid transparent;\n      border-color: transparent;\n      width: 40px;\n      height: 40px;\n      padding: 0;\n      margin: 0 30px;\n      vertical-align: middle;\n      background-color: transparent !important;\n      color: transparent;\n      cursor: default;\n      border-radius: 100%;\n      -webkit-animation: rotate-loading 1.5s linear 0s infinite normal;\n              animation: rotate-loading 1.5s linear 0s infinite normal; }\n    .sweet-alert button::-moz-focus-inner {\n      border: 0; }\n  .sweet-alert[data-has-cancel-button=false] button {\n    box-shadow: none !important; }\n  .sweet-alert .icon {\n    width: 80px;\n    height: 80px;\n    border: 4px solid #808080;\n    border-radius: 50%;\n    margin: 20px auto;\n    padding: 0;\n    position: relative;\n    box-sizing: content-box; }\n    .sweet-alert .icon.error {\n      border-color: #f27474; }\n      .sweet-alert .icon.error .x-mark {\n        position: relative;\n        display: block; }\n      .sweet-alert .icon.error .line {\n        position: absolute;\n        height: 5px;\n        width: 47px;\n        background-color: #f27474;\n        display: block;\n        top: 37px;\n        border-radius: 2px; }\n        .sweet-alert .icon.error .line.left {\n          -webkit-transform: rotate(45deg);\n              -ms-transform: rotate(45deg);\n                  transform: rotate(45deg);\n          left: 17px; }\n        .sweet-alert .icon.error .line.right {\n          -webkit-transform: rotate(-45deg);\n              -ms-transform: rotate(-45deg);\n                  transform: rotate(-45deg);\n          right: 16px; }\n    .sweet-alert .icon.warning {\n      border-color: #f8bb86; }\n      .sweet-alert .icon.warning .body {\n        position: absolute;\n        width: 5px;\n        height: 47px;\n        left: 50%;\n        top: 10px;\n        border-radius: 2px;\n        margin-left: -2px;\n        background-color: #f8bb86; }\n      .sweet-alert .icon.warning .dot {\n        position: absolute;\n        width: 7px;\n        height: 7px;\n        border-radius: 50%;\n        margin-left: -3px;\n        left: 50%;\n        bottom: 10px;\n        background-color: #f8bb86; }\n    .sweet-alert .icon.info {\n      border-color: #c9dae1; }\n      .sweet-alert .icon.info::before {\n        content: '';\n        position: absolute;\n        width: 5px;\n        height: 29px;\n        left: 50%;\n        bottom: 17px;\n        border-radius: 2px;\n        margin-left: -2px;\n        background-color: #c9dae1; }\n      .sweet-alert .icon.info::after {\n        content: '';\n        position: absolute;\n        width: 7px;\n        height: 7px;\n        border-radius: 50%;\n        margin-left: -3px;\n        top: 19px;\n        background-color: #c9dae1; }\n    .sweet-alert .icon.success {\n      border-color: #a5dc86; }\n      .sweet-alert .icon.success::before, .sweet-alert .icon.success::after {\n        content: '';\n        border-radius: 50%;\n        position: absolute;\n        width: 60px;\n        height: 120px;\n        background: #fff;\n        -webkit-transform: rotate(45deg);\n            -ms-transform: rotate(45deg);\n                transform: rotate(45deg); }\n      .sweet-alert .icon.success::before {\n        border-radius: 120px 0 0 120px;\n        top: -7px;\n        left: -33px;\n        -webkit-transform: rotate(-45deg);\n            -ms-transform: rotate(-45deg);\n                transform: rotate(-45deg);\n        -webkit-transform-origin: 60px 60px;\n            -ms-transform-origin: 60px 60px;\n                transform-origin: 60px 60px; }\n      .sweet-alert .icon.success::after {\n        border-radius: 0 120px 120px 0;\n        top: -11px;\n        left: 30px;\n        -webkit-transform: rotate(-45deg);\n            -ms-transform: rotate(-45deg);\n                transform: rotate(-45deg);\n        -webkit-transform-origin: 0 60px;\n            -ms-transform-origin: 0 60px;\n                transform-origin: 0 60px; }\n      .sweet-alert .icon.success .placeholder {\n        width: 80px;\n        height: 80px;\n        border: 4px solid rgba(165, 220, 134, 0.2);\n        border-radius: 50%;\n        box-sizing: content-box;\n        position: absolute;\n        left: -4px;\n        top: -4px;\n        z-index: 2; }\n      .sweet-alert .icon.success .fix {\n        width: 5px;\n        height: 90px;\n        background-color: #fff;\n        position: absolute;\n        left: 28px;\n        top: 8px;\n        z-index: 1;\n        -webkit-transform: rotate(-45deg);\n            -ms-transform: rotate(-45deg);\n                transform: rotate(-45deg); }\n      .sweet-alert .icon.success .line {\n        height: 5px;\n        background-color: #a5dc86;\n        display: block;\n        border-radius: 2px;\n        position: absolute;\n        z-index: 2; }\n        .sweet-alert .icon.success .line.tip {\n          width: 25px;\n          left: 14px;\n          top: 46px;\n          -webkit-transform: rotate(45deg);\n              -ms-transform: rotate(45deg);\n                  transform: rotate(45deg); }\n        .sweet-alert .icon.success .line.long {\n          width: 47px;\n          right: 8px;\n          top: 38px;\n          -webkit-transform: rotate(-45deg);\n              -ms-transform: rotate(-45deg);\n                  transform: rotate(-45deg); }\n    .sweet-alert .icon.custom {\n      background-size: contain;\n      border-radius: 0;\n      border: 0;\n      background-position: center center;\n      background-repeat: no-repeat; }\n\n@-webkit-keyframes showSweetAlert {\n  0% {\n    -webkit-transform: scale(0.7);\n            transform: scale(0.7); }\n\n  45% {\n    -webkit-transform: scale(1.05);\n            transform: scale(1.05); }\n\n  80% {\n    -webkit-transform: scale(0.95);\n            transform: scale(0.95); }\n\n  100% {\n    -webkit-transform: scale(1);\n            transform: scale(1); } }\n\n@keyframes showSweetAlert {\n  0% {\n    -webkit-transform: scale(0.7);\n            transform: scale(0.7); }\n\n  45% {\n    -webkit-transform: scale(1.05);\n            transform: scale(1.05); }\n\n  80% {\n    -webkit-transform: scale(0.95);\n            transform: scale(0.95); }\n\n  100% {\n    -webkit-transform: scale(1);\n            transform: scale(1); } }\n\n@-webkit-keyframes hideSweetAlert {\n  0% {\n    -webkit-transform: scale(1);\n            transform: scale(1); }\n\n  100% {\n    -webkit-transform: scale(0.5);\n            transform: scale(0.5); } }\n\n@keyframes hideSweetAlert {\n  0% {\n    -webkit-transform: scale(1);\n            transform: scale(1); }\n\n  100% {\n    -webkit-transform: scale(0.5);\n            transform: scale(0.5); } }\n\n.show-sweet-alert {\n  -webkit-animation: showSweetAlert 0.3s;\n          animation: showSweetAlert 0.3s; }\n  .show-sweet-alert.no-animation {\n    -webkit-animation: none;\n            animation: none; }\n\n.hide-sweet-alert {\n  -webkit-animation: hideSweetAlert 0.2s;\n          animation: hideSweetAlert 0.2s; }\n  .hide-sweet-alert.no-animation {\n    -webkit-animation: none;\n            animation: none; }\n\n@-webkit-keyframes animate-success-tip {\n  0% {\n    width: 0;\n    left: 1px;\n    top: 19px; }\n\n  54% {\n    width: 0;\n    left: 1px;\n    top: 19px; }\n\n  70% {\n    width: 50px;\n    left: -8px;\n    top: 37px; }\n\n  84% {\n    width: 17px;\n    left: 21px;\n    top: 48px; }\n\n  100% {\n    width: 25px;\n    left: 14px;\n    top: 45px; } }\n\n@keyframes animate-success-tip {\n  0% {\n    width: 0;\n    left: 1px;\n    top: 19px; }\n\n  54% {\n    width: 0;\n    left: 1px;\n    top: 19px; }\n\n  70% {\n    width: 50px;\n    left: -8px;\n    top: 37px; }\n\n  84% {\n    width: 17px;\n    left: 21px;\n    top: 48px; }\n\n  100% {\n    width: 25px;\n    left: 14px;\n    top: 45px; } }\n\n@-webkit-keyframes animate-success-long {\n  0% {\n    width: 0;\n    right: 46px;\n    top: 54px; }\n\n  65% {\n    width: 0;\n    right: 46px;\n    top: 54px; }\n\n  84% {\n    width: 55px;\n    right: 0;\n    top: 35px; }\n\n  100% {\n    width: 47px;\n    right: 8px;\n    top: 38px; } }\n\n@keyframes animate-success-long {\n  0% {\n    width: 0;\n    right: 46px;\n    top: 54px; }\n\n  65% {\n    width: 0;\n    right: 46px;\n    top: 54px; }\n\n  84% {\n    width: 55px;\n    right: 0;\n    top: 35px; }\n\n  100% {\n    width: 47px;\n    right: 8px;\n    top: 38px; } }\n\n@-webkit-keyframes rotatePlaceholder {\n  0% {\n    -webkit-transform: rotate(-45deg);\n            transform: rotate(-45deg); }\n\n  5% {\n    -webkit-transform: rotate(-45deg);\n            transform: rotate(-45deg); }\n\n  12% {\n    -webkit-transform: rotate(-405deg);\n            transform: rotate(-405deg); }\n\n  100% {\n    -webkit-transform: rotate(-405deg);\n            transform: rotate(-405deg); } }\n\n@keyframes rotatePlaceholder {\n  0% {\n    -webkit-transform: rotate(-45deg);\n            transform: rotate(-45deg); }\n\n  5% {\n    -webkit-transform: rotate(-45deg);\n            transform: rotate(-45deg); }\n\n  12% {\n    -webkit-transform: rotate(-405deg);\n            transform: rotate(-405deg); }\n\n  100% {\n    -webkit-transform: rotate(-405deg);\n            transform: rotate(-405deg); } }\n\n.animate-success-tip {\n  -webkit-animation: animate-success-tip 0.75s;\n          animation: animate-success-tip 0.75s; }\n\n.animate-success-long {\n  -webkit-animation: animate-success-long 0.75s;\n          animation: animate-success-long 0.75s; }\n\n.icon.success.animate::after {\n  -webkit-animation: rotatePlaceholder 4.25s ease-in;\n          animation: rotatePlaceholder 4.25s ease-in; }\n\n@-webkit-keyframes animate-error-icon {\n  0% {\n    -webkit-transform: rotateX(100deg);\n            transform: rotateX(100deg);\n    opacity: 0; }\n\n  100% {\n    -webkit-transform: rotateX(0deg);\n            transform: rotateX(0deg);\n    opacity: 1; } }\n\n@keyframes animate-error-icon {\n  0% {\n    -webkit-transform: rotateX(100deg);\n            transform: rotateX(100deg);\n    opacity: 0; }\n\n  100% {\n    -webkit-transform: rotateX(0deg);\n            transform: rotateX(0deg);\n    opacity: 1; } }\n\n.animate-error-icon {\n  -webkit-animation: animate-error-icon 0.5s;\n          animation: animate-error-icon 0.5s; }\n\n@-webkit-keyframes animate-x-mark {\n  0% {\n    -webkit-transform: scale(0.4);\n            transform: scale(0.4);\n    margin-top: 26px;\n    opacity: 0; }\n\n  50% {\n    -webkit-transform: scale(0.4);\n            transform: scale(0.4);\n    margin-top: 26px;\n    opacity: 0; }\n\n  80% {\n    -webkit-transform: scale(1.15);\n            transform: scale(1.15);\n    margin-top: -6px; }\n\n  100% {\n    -webkit-transform: scale(1);\n            transform: scale(1);\n    margin-top: 0;\n    opacity: 1; } }\n\n@keyframes animate-x-mark {\n  0% {\n    -webkit-transform: scale(0.4);\n            transform: scale(0.4);\n    margin-top: 26px;\n    opacity: 0; }\n\n  50% {\n    -webkit-transform: scale(0.4);\n            transform: scale(0.4);\n    margin-top: 26px;\n    opacity: 0; }\n\n  80% {\n    -webkit-transform: scale(1.15);\n            transform: scale(1.15);\n    margin-top: -6px; }\n\n  100% {\n    -webkit-transform: scale(1);\n            transform: scale(1);\n    margin-top: 0;\n    opacity: 1; } }\n\n.animate-x-mark {\n  -webkit-animation: animate-x-mark 0.5s;\n          animation: animate-x-mark 0.5s; }\n\n@-webkit-keyframes pulse-warning {\n  0% {\n    border-color: #f8d486; }\n\n  100% {\n    border-color: #f8bb86; } }\n\n@keyframes pulse-warning {\n  0% {\n    border-color: #f8d486; }\n\n  100% {\n    border-color: #f8bb86; } }\n\n.pulse-warning {\n  -webkit-animation: pulse-warning 0.75s infinite alternate;\n          animation: pulse-warning 0.75s infinite alternate; }\n\n@-webkit-keyframes pulse-warning-ins {\n  0% {\n    background-color: #f8d486; }\n\n  100% {\n    background-color: #f8bb86; } }\n\n@keyframes pulse-warning-ins {\n  0% {\n    background-color: #f8d486; }\n\n  100% {\n    background-color: #f8bb86; } }\n\n.pulse-warning-ins {\n  -webkit-animation: pulse-warning-ins 0.75s infinite alternate;\n          animation: pulse-warning-ins 0.75s infinite alternate; }\n\n@-webkit-keyframes rotate-loading {\n  0% {\n    -webkit-transform: rotate(0deg);\n            transform: rotate(0deg); }\n\n  100% {\n    -webkit-transform: rotate(360deg);\n            transform: rotate(360deg); } }\n\n@keyframes rotate-loading {\n  0% {\n    -webkit-transform: rotate(0deg);\n            transform: rotate(0deg); }\n\n  100% {\n    -webkit-transform: rotate(360deg);\n            transform: rotate(360deg); } }\n",
          "comment" : ""
        },
        "redirectURL" : "",
        "headersSize" : 189,
        "bodySize" : 13466,
        "comment" : ""
      },
      "cache" : { },
      "timings" : {
        "comment" : "",
        "connect" : 1049,
        "ssl" : -1,
        "dns" : -1,
        "receive" : 0,
        "wait" : 0,
        "blocked" : -1,
        "send" : 0
      },
      "comment" : "",
      "_katalonRequestInformation" : {
        "name" : "9",
        "testObjectId" : "Temporary RESTful request object",
        "harId" : "cb377853-5a82-400b-83bf-17ed13a62e3b"
      },
      "time" : 1049
    } ],
    "comment" : ""
  }
}