{
  "log" : {
    "version" : "1.2",
    "pages" : [ ],
    "entries" : [ {
      "startedDateTime" : "2019-07-17T10:06:58.113Z",
      "request" : {
        "method" : "GET",
        "url" : "https://canvas.instructure.com/web-app-manifest/manifest.json",
        "httpVersion" : "",
        "cookies" : [ ],
        "headers" : [ ],
        "queryString" : [ ],
        "headersSize" : 0,
        "bodySize" : 0,
        "comment" : ""
      },
      "response" : {
        "status" : 200,
        "statusText" : "",
        "httpVersion" : "",
        "cookies" : [ ],
        "headers" : [ {
          "name" : null,
          "value" : "HTTP/1.1 200 OK"
        }, {
          "name" : "X-Request-Processor",
          "value" : "093c69fa9a088183b"
        }, {
          "name" : "Server",
          "value" : "Apache"
        }, {
          "name" : "Connection",
          "value" : "keep-alive"
        }, {
          "name" : "Last-Modified",
          "value" : "Tue, 16 Jul 2019 17:12:26 GMT"
        }, {
          "name" : "P3P",
          "value" : "CP=\"None, see http://www.instructure.com/privacy-policy\""
        }, {
          "name" : "Date",
          "value" : "Wed, 17 Jul 2019 10:07:14 GMT"
        }, {
          "name" : "Accept-Ranges",
          "value" : "bytes"
        }, {
          "name" : "ETag",
          "value" : "\"2ac-58dcf7b10d280\""
        }, {
          "name" : "Vary",
          "value" : "Accept-Encoding"
        }, {
          "name" : "Content-Length",
          "value" : "684"
        }, {
          "name" : "X-A11y-Ally",
          "value" : "Dana Danger Grey"
        }, {
          "name" : "Content-Type",
          "value" : "application/json"
        } ],
        "content" : {
          "size" : 684,
          "mimeType" : "application/json",
          "text" : "{\n  \"name\": \"Canvas\",\n  \"short_name\": \"Canvas\",\n  \"icons\": [\n    {\n      \"src\": \"/web-app-manifest/logo.png\",\n      \"sizes\": \"144x144\",\n      \"type\": \"image/png\"\n    },\n    {\n      \"src\": \"/web-app-manifest/logo.png\",\n      \"sizes\": \"192x192\",\n      \"type\": \"image/png\"\n    }\n  ],\n  \"prefer_related_applications\": true,\n  \"related_applications\": [\n    {\n      \"platform\": \"play\",\n      \"url\": \"https://play.google.com/store/apps/details?id=com.instructure.candroid\",\n      \"id\": \"com.instructure.candroid\"\n    },\n    {\n      \"platform\": \"itunes\",\n      \"url\": \"https://itunes.apple.com/app/canvas-by-instructure/id480883488\"\n    }\n  ],\n  \"start_url\": \"/\",\n  \"display\": \"minimal-ui\"\n}\n",
          "comment" : ""
        },
        "redirectURL" : "",
        "headersSize" : 334,
        "bodySize" : 684,
        "comment" : ""
      },
      "cache" : { },
      "timings" : {
        "comment" : "",
        "dns" : -1,
        "connect" : 862,
        "wait" : 0,
        "blocked" : -1,
        "send" : 0,
        "receive" : 0,
        "ssl" : -1
      },
      "comment" : "",
      "_katalonRequestInformation" : {
        "name" : "1",
        "testObjectId" : "Temporary RESTful request object",
        "harId" : "6845892d-096d-4427-a3e0-418319bc1b31"
      },
      "time" : 862
    } ],
    "comment" : ""
  }
}