{
  "log" : {
    "version" : "1.2",
    "pages" : [ ],
    "entries" : [ {
      "startedDateTime" : "2019-07-17T10:11:22.429Z",
      "request" : {
        "method" : "GET",
        "url" : "https://canvas.instructure.com/courses/1618395/modules/items/23674126",
        "httpVersion" : "",
        "cookies" : [ ],
        "headers" : [ ],
        "queryString" : [ ],
        "headersSize" : 0,
        "bodySize" : 0,
        "comment" : ""
      },
      "response" : {
        "status" : 200,
        "statusText" : "",
        "httpVersion" : "",
        "cookies" : [ ],
        "headers" : [ {
          "name" : null,
          "value" : "HTTP/1.1 200 OK"
        }, {
          "name" : "X-Request-Processor",
          "value" : "0d1c18e8dffce4af7"
        }, {
          "name" : "X-Request-Context-Id",
          "value" : "05992e66-551f-420c-a128-77c368b388ea"
        }, {
          "name" : "Server",
          "value" : "Apache"
        }, {
          "name" : "X-Runtime",
          "value" : "0.133973"
        }, {
          "name" : "X-Request-Cost",
          "value" : "0.12073040900012733"
        }, {
          "name" : "P3P",
          "value" : "CP=\"None, see http://www.instructure.com/privacy-policy\""
        }, {
          "name" : "X-Frame-Options",
          "value" : "SAMEORIGIN"
        }, {
          "name" : "Strict-Transport-Security",
          "value" : "max-age=31536000"
        }, {
          "name" : "X-Canvas-Meta",
          "value" : "q=898;a=10;g=ff2e5780-fa5b-012d-f7b3-123135003972;s=7;c=cluster7;z=us-east-1e;o=login/canvas;n=new;b=1696200;m=1696200;u=0.11;y=0.00;d=0.01;"
        }, {
          "name" : "Set-Cookie",
          "value" : "canvas_session=jNwoMhw11QppHdzK4O3iWQ+qBHKApYlixeE-i4i8i_LOEjsQoxhwj8zfxNXp6h1yB7bbu6ivbnfC4UJ5qTMjobSN_KLiP1tKpUwBtVMy1nrBXJxl9TGa_Njr4yaM-wtwMEdbJfneZQ-3C0TBiJ_ggSNK6lRqY2mBw5FzyPv9JvxRw.6FiR9CXMrKzp_bWnck517wrXZnA.XS70XQ; path=/; secure; HttpOnly"
        }, {
          "name" : "Set-Cookie",
          "value" : "log_session_id=47e968af2a6832c3569c39e61df6d4ea; path=/"
        }, {
          "name" : "Set-Cookie",
          "value" : "_csrf_token=e0Aq1HJj5BcRgTJNBBrACIPAj4mcjhzFkX5c29jl1%2BI%2BE2DlHCe1eXXnUy9PVbZc1vS3zNXXbbLfTQqdjoidkg%3D%3D; path=/; secure"
        }, {
          "name" : "X-XSS-Protection",
          "value" : "1; mode=block"
        }, {
          "name" : "Content-Type",
          "value" : "text/html; charset=utf-8"
        }, {
          "name" : "Status",
          "value" : "200 OK"
        }, {
          "name" : "Transfer-Encoding",
          "value" : "chunked"
        }, {
          "name" : "X-Session-Id",
          "value" : "47e968af2a6832c3569c39e61df6d4ea"
        }, {
          "name" : "X-Content-Type-Options",
          "value" : "nosniff"
        }, {
          "name" : "Connection",
          "value" : "keep-alive"
        }, {
          "name" : "Pragma",
          "value" : "no-cache"
        }, {
          "name" : "Date",
          "value" : "Wed, 17 Jul 2019 10:11:41 GMT"
        }, {
          "name" : "X-UA-Compatible",
          "value" : "IE=Edge,chrome=1"
        }, {
          "name" : "Cache-Control",
          "value" : "no-cache, no-store"
        }, {
          "name" : "X-Rate-Limit-Remaining",
          "value" : "700.0"
        }, {
          "name" : "Vary",
          "value" : "Accept-Encoding"
        }, {
          "name" : "X-A11y-Ally",
          "value" : "Dana Danger Grey"
        } ],
        "content" : {
          "size" : 59053,
          "mimeType" : "text/html; charset=utf-8",
          "text" : "\n<!DOCTYPE html>\n<html class=\"scripts-not-loaded\" dir=\"ltr\"   lang=\"en\">\n<head>\n  <meta charset=\"utf-8\">\n  <title>Log In to Canvas</title>\n  <link rel=\"preconnect\" href=\"https://fonts.gstatic.com/\" crossorigin>\n  <link href=\"https://fonts.googleapis.com/css?family=Lato:300,400,400i,700&amp;subset=latin-ext&amp;display=swap\" rel=\"stylesheet\">\n  <!--[if lte IE 9]> <meta http-equiv=refresh content=\"0; URL=/ie-9-is-not-supported.html\" /> <![endif]-->\n  \n  <link rel=\"shortcut icon\" type=\"image/x-icon\" href=\"https://du11hjcvx0uqb.cloudfront.net/dist/images/favicon-e10d657a73.ico\" />\n  <link rel=\"apple-touch-icon\" href=\"https://du11hjcvx0uqb.cloudfront.net/dist/images/apple-touch-icon-585e5d997d.png\" />\n  \n  <link rel=\"stylesheet\" media=\"all\" href=\"https://du11hjcvx0uqb.cloudfront.net/dist/brandable_css/8f4e87695dec9985fc00f551e06fd101/variables-8f05bb49a3f36c1ed21c589576567137.css\" />\n  <link rel=\"stylesheet\" media=\"all\" href=\"https://du11hjcvx0uqb.cloudfront.net/dist/brandable_css/new_styles_normal_contrast/bundles/common-9138505e4c.css\" />\n  <script>\n//<![CDATA[\n\n!function(){\n  function get(u){document.write('<scr'+'ipt src=\"'+ u +'\"></sc'+'ript>')}\n  var o,s,v;\n  if (!(window.Promise && Object.assign && Object.values && [].find && [].includes && (o={},s=Symbol(),v={},o[s]=v,o[s]===v) && (function f(){}).bind().name==='bound f')) {\n    get(\"https://du11hjcvx0uqb.cloudfront.net/dist/ie11-polyfill-88f282b932.js\");\n  }\n  window.fetch || get(\"https://cdnjs.cloudflare.com/ajax/libs/fetch/2.0.4/fetch.min.js\");\n}();\n      \n//]]>\n</script>\n  \n  <meta name=\"apple-itunes-app\" content=\"app-id=480883488\" />\n<link rel=\"manifest\" href=\"/web-app-manifest/manifest.json\" />\n  <meta name=\"viewport\" content=\"width=device-width, initial-scale=1\">\n  <meta name=\"theme-color\" content=\"#008EE2\">\n  <link rel=\"stylesheet\" media=\"all\" href=\"https://du11hjcvx0uqb.cloudfront.net/dist/brandable_css/new_styles_normal_contrast/bundles/login-172cde0ffb.css\" />\n  \n  \n  <script>\n    function _earlyClick(e){\n      var c = e.target\n      while (c && c.ownerDocument) {\n        if (c.getAttribute('href') == '#' || c.getAttribute('data-method')) {\n          e.preventDefault()\n          (_earlyClick.clicks = _earlyClick.clicks || []).push(c)\n          break\n        }\n        c = c.parentNode\n      }\n    }\n    document.addEventListener('click', _earlyClick)\n  </script>\n  <script src=\"https://du11hjcvx0uqb.cloudfront.net/dist/brandable_css/8f4e87695dec9985fc00f551e06fd101/variables-8f05bb49a3f36c1ed21c589576567137.js\" defer=\"defer\"></script>\n  <link rel=\"preload\" href=\"https://du11hjcvx0uqb.cloudfront.net/dist/timezone/America/Denver-40670c6af7.js\" as=\"script\" type=\"text/javascript\"><link rel=\"preload\" href=\"https://du11hjcvx0uqb.cloudfront.net/dist/timezone/en_US-80a0ce259b.js\" as=\"script\" type=\"text/javascript\"><link rel=\"preload\" href=\"https://du11hjcvx0uqb.cloudfront.net/dist/webpack-production/main-e-313a61a5b1.js\" as=\"script\" type=\"text/javascript\"><script src=\"https://du11hjcvx0uqb.cloudfront.net/dist/timezone/America/Denver-40670c6af7.js\" defer=\"defer\"></script>\n<script src=\"https://du11hjcvx0uqb.cloudfront.net/dist/timezone/en_US-80a0ce259b.js\" defer=\"defer\"></script>\n<script src=\"https://du11hjcvx0uqb.cloudfront.net/dist/webpack-production/main-e-313a61a5b1.js\" defer=\"defer\"></script>\n</head>\n\n<body class=\"full-width ic-Login-Body no-headers  primary-nav-expanded\">\n\n<noscript>\n  <div role=\"alert\" class=\"ic-flash-static ic-flash-error\">\n    <div class=\"ic-flash__icon\" aria-hidden=\"true\">\n      <i class=\"icon-warning\"></i>\n    </div>\n    <h1>You need to have JavaScript enabled in order to access this site.</h1>\n  </div>\n</noscript>\n\n\n\n\n\n<ul id=\"flash_message_holder\"></ul>\n<div id=\"flash_screenreader_holder\"></div>\n\n<div id=\"application\" class=\"ic-app\">\n  \n\n  <div id=\"instructure_ajax_error_box\">\n    <div style=\"text-align: right; background-color: #fff;\"><a href=\"#\" class=\"close_instructure_ajax_error_box_link\">Close</a></div>\n    <iframe id=\"instructure_ajax_error_result\" src=\"about:blank\" style=\"border: 0;\" title=\"Error\"></iframe>\n  </div>\n\n  \n\n  <div id=\"wrapper\" class=\"ic-Layout-wrapper\">\n    <div id=\"main\" class=\"ic-Layout-columns\">\n      <div id=\"not_right_side\" class=\"ic-app-main-content\">\n        <div id=\"content-wrapper\" class=\"ic-Layout-contentWrapper\">\n          \n          <div id=\"content\" class=\"ic-Layout-contentMain\" role=\"main\">\n            \n\n\n\n\n<div class=\"ic-Login\">\n  <div class=\"ic-Login__container\">\n    <div class=\"ic-Login__content\">\n      <div class=\"ic-Login__innerContent\">\n\n        <div class=\"ic-Login-header\">\n          \n<div class=\"ic-Login-header__logo\">\n    <img alt=\"Free For Teacher\" src=\"https://instructure-uploads.s3.amazonaws.com/account_70000000000010/attachments/78292919/2019_CanvasLogoHorizontal_White_FFT-01.png\" />\n</div>\n\n          <div class=\"ic-Login-header__links\">\n            \n\n    <a id=\"register_link\" class=\"ic-Login__link ic-Login__register-banner\" href=\"/register_from_website\">\n      <div class=\"ic-Login__banner-title\">\n        Need a Canvas Account?\n      </div>\n      <div class=\"ic-Login__banner-subtitle\">\n        Click Here, It&#39;s Free!\n      </div>\n</a>\n\n              <a href=\"/search/all_courses\" class=\"ic-Login__link\">\n                Browse courses\n              </a>\n          </div>\n        </div>\n\n        <div class=\"ic-Login__body\">\n          <form id=\"login_form\" action=\"/login/canvas\" accept-charset=\"UTF-8\" method=\"post\"><input name=\"utf8\" type=\"hidden\" value=\"&#x2713;\" /><input type=\"hidden\" name=\"authenticity_token\" value=\"lXvwV0qNfJ6hKPAqpom9pGhg7YllUlNsclxDYlAzDrvQKLpmJMkt8MVOkUjtxsvwPVTVzCwLIhs8bxUkBl5Eyw==\" />\n            <h1 class=\"ui-helper-hidden-accessible\">\n              Log In\n            </h1>\n            \n            <input type=\"hidden\" name=\"redirect_to_ssl\" value=\"1\"/>\n            <div class=\"ic-Form-control ic-Form-control--login\">\n              <label class=\"ic-Label\" for=\"pseudonym_session_unique_id\">Email</label>\n              <input class=\"ic-Input text\" autofocus=\"autofocus\" type=\"text\" name=\"pseudonym_session[unique_id]\" id=\"pseudonym_session_unique_id\" />\n            </div>\n            <div class=\"ic-Form-control ic-Form-control--login\">\n              <label class=\"ic-Label\" for=\"pseudonym_session_password\">Password</label>\n              <input class=\"ic-Input text\" role=\"textbox\" type=\"password\" name=\"pseudonym_session[password]\" id=\"pseudonym_session_password\" />\n            </div>\n            <div class=\"ic-Login__actions\">\n              <div class=\"ic-Login__actions-timeout\">\n                    <input name=\"pseudonym_session[remember_me]\" type=\"hidden\" value=\"0\" /><input type=\"checkbox\" value=\"1\" name=\"pseudonym_session[remember_me]\" id=\"pseudonym_session_remember_me\" />\n                    <label for=\"pseudonym_session_remember_me\">Stay signed in</label>\n\n                <div class=\"ic-Login__forgot\">\n                  \n<a class=\"ic-Login__link forgot_password_link\" id=\"login_forgot_password\" href=\"#\">Forgot Password?</a>\n\n                </div>\n              </div>\n              <div class=\"ic-Form-control ic-Form-control--login\">\n                <button type=\"submit\" class=\"Button Button--login\">\n                  Log In\n                </button>\n              </div>\n            </div> <!-- ic-Login__actions -->\n            \n  <div class=\"ic-Login__sso\">\n    <ul class=\"ic-Login__sso-list\">\n        <li class=\"ic-Login__sso-list__item\">\n          <a href=\"/login/facebook\"\n             class=\"Button Button--primary ic-Login__sso-button ic-Login__sso-button--facebook\">\n              \n<span class=\"ic-Login_icon-sso ic-Login_icon-sso--icon-only\" role=\"presentation\">\n  <svg\n  class=\"ic-icon-svg ic-icon-svg--facebook\"\n  version=\"1.1\"\n  viewBox=\"0 0 32 32\"\n  xmlns=\"http://www.w3.org/2000/svg\">\n<path d=\"M26.7,0H5.3C2.4,0,0,2.4,0,5.3v21.3C0,29.6,2.4,32,5.3,32h21.3c2.9,0,5.3-2.4,5.3-5.3V5.3C32,2.4,29.6,0,26.7,0z M27.2,16\n\tH22v14h-6V16h-2.9v-4.6H16v-3c0-4,1.7-6.4,6.5-6.4H28v5h-4.5c-1.3,0-1.5,0.7-1.5,2l0,2.5h6L27.2,16z\"/>\n</svg>\n\n</span>\n  <span class=\"screenreader-only\">Login with Facebook<span>\n\n          </a>\n\n        </li>\n        <li class=\"ic-Login__sso-list__item\">\n          <a href=\"/login/github\"\n             class=\"Button Button--primary ic-Login__sso-button ic-Login__sso-button--github\">\n              \n<span class=\"ic-Login_icon-sso ic-Login_icon-sso--icon-only\" role=\"presentation\">\n  <svg\n  class=\"ic-icon-svg ic-icon-svg--github\"\n  version=\"1.1\"\n  xmlns=\"http://www.w3.org/2000/svg\" xmlns:xlink=\"http://www.w3.org/1999/xlink\" \n  x=\"0px\" y=\"0px\"\n  viewBox=\"0 0 30 32\">\n<path d=\"M11.4,21.7c0,0.5-0.1,1-0.2,1.5s-0.4,1-0.8,1.4c-0.4,0.4-0.8,0.6-1.3,0.6c-0.5,0-0.9-0.2-1.3-0.6c-0.4-0.4-0.6-0.9-0.8-1.4\n\tc-0.1-0.5-0.2-1-0.2-1.5c0-0.5,0.1-1,0.2-1.5c0.1-0.5,0.4-1,0.8-1.4c0.4-0.4,0.8-0.6,1.3-0.6s0.9,0.2,1.3,0.6\n\tc0.4,0.4,0.6,0.9,0.8,1.4S11.4,21.2,11.4,21.7z M22.9,21.7c0,0.5-0.1,1-0.2,1.5s-0.4,1-0.8,1.4s-0.8,0.6-1.3,0.6\n\tc-0.5,0-0.9-0.2-1.3-0.6s-0.6-0.9-0.8-1.4s-0.2-1-0.2-1.5c0-0.5,0.1-1,0.2-1.5s0.4-1,0.8-1.4s0.8-0.6,1.3-0.6s0.9,0.2,1.3,0.6\n\ts0.6,0.9,0.8,1.4S22.9,21.2,22.9,21.7z M25.7,21.7c0-1.4-0.4-2.6-1.2-3.6c-0.8-1-1.9-1.5-3.3-1.5c-0.5,0-1.6,0.1-3.5,0.4\n\tc-0.8,0.1-1.8,0.2-2.8,0.2s-2-0.1-2.8-0.2c-1.8-0.2-3-0.4-3.5-0.4c-1.4,0-2.5,0.5-3.3,1.5S4,20.3,4,21.7c0,1,0.2,2,0.6,2.7\n\tC5,25.2,5.4,25.8,6,26.3c0.6,0.4,1.3,0.8,2.2,1.1c0.9,0.3,1.7,0.4,2.5,0.5c0.8,0.1,1.7,0.1,2.7,0.1h3c1,0,1.9,0,2.7-0.1\n\tc0.8-0.1,1.6-0.3,2.5-0.5c0.9-0.3,1.6-0.6,2.2-1.1s1.1-1.1,1.4-1.8C25.5,23.7,25.7,22.8,25.7,21.7z M29.7,18.6\n\tc0,2.5-0.4,4.4-1.1,5.9c-0.5,0.9-1.1,1.7-1.9,2.4c-0.8,0.7-1.6,1.2-2.5,1.5s-1.9,0.6-3,0.8c-1.1,0.2-2.2,0.3-3.1,0.4\n\tc-0.9,0.1-1.9,0.1-3,0.1c-0.9,0-1.8,0-2.5-0.1c-0.8,0-1.6-0.1-2.6-0.2s-1.9-0.3-2.7-0.5c-0.8-0.2-1.6-0.6-2.4-0.9\n\tc-0.8-0.4-1.5-0.9-2.2-1.4s-1.1-1.3-1.5-2.1C0.4,23,0,21,0,18.6c0-2.8,0.8-5.2,2.4-7.1c-0.3-1-0.5-2-0.5-3c0-1.4,0.3-2.7,0.9-3.9\n\tc1.3,0,2.4,0.2,3.4,0.7s2.1,1.2,3.4,2.2c1.8-0.4,3.6-0.6,5.5-0.6c1.8,0,3.4,0.2,5,0.6c1.2-1,2.4-1.7,3.3-2.2c1-0.5,2.1-0.7,3.4-0.7\n\tc0.6,1.2,0.9,2.5,0.9,3.9c0,1-0.2,2-0.5,3C28.9,13.4,29.7,15.7,29.7,18.6L29.7,18.6z\"/>\n</svg>\n\n</span>\n  <span class=\"screenreader-only\">Login with GitHub<span>\n\n          </a>\n\n        </li>\n        <li class=\"ic-Login__sso-list__item\">\n          <a href=\"/login/google\"\n             class=\"Button Button--primary ic-Login__sso-button ic-Login__sso-button--google\">\n              \n<span class=\"ic-Login_icon-sso ic-Login_icon-sso--icon-only\" role=\"presentation\">\n  <svg\n  class=\"ic-icon-svg ic-icon-svg--google\"\n  version=\"1.1\"\n  viewBox=\"0 0 32 32\"\n  xmlns=\"http://www.w3.org/2000/svg\" xmlns:xlink=\"http://www.w3.org/1999/xlink\"\n  x=\"0px\" y=\"0px\"\n  xml:space=\"preserve\">\n<path d=\"M29,0H3C1.4,0,0,1.4,0,3v26c0,1.6,1.4,3,3,3h26c1.6,0,3-1.4,3-3V3C32,1.4,30.6,0,29,0z M16.2,28c-6.6,0-12-5.4-12-12\n\ts5.4-12,12-12c3.2,0,5.9,1.2,8,3.1L21,10.3c-0.9-0.9-2.5-1.9-4.8-1.9c-4.1,0-7.4,3.4-7.4,7.6s3.3,7.6,7.4,7.6c4.8,0,6.5-3.4,6.8-5.2\n\th-6.8v-4.1h11.3c0.1,0.6,0.2,1.2,0.2,2C27.8,23.1,23.2,28,16.2,28L16.2,28z\"/>\n</svg>\n\n</span>\n  <span class=\"screenreader-only\">Login with Google<span>\n\n          </a>\n\n        </li>\n        <li class=\"ic-Login__sso-list__item\">\n          <a href=\"/login/linkedin\"\n             class=\"Button Button--primary ic-Login__sso-button ic-Login__sso-button--linkedin\">\n              \n<span class=\"ic-Login_icon-sso ic-Login_icon-sso--icon-only\" role=\"presentation\">\n  <svg\n  class=\"ic-icon-svg ic-icon-svg--linkedin\"\n  version=\"1.1\"\n  xmlns=\"http://www.w3.org/2000/svg\"\n  viewBox=\"0 0 32 32\"\n  xml:space=\"preserve\">\n  <path d=\"M29,0H3C1.4,0,0,1.4,0,3v26c0,1.6,1.4,3,3,3h26c1.6,0,3-1.4,3-3V3C32,1.4,30.6,0,29,0z M12,26H8V12h4V26z M10,10\n  \tc-1.1,0-2-0.9-2-2s0.9-2,2-2s2,0.9,2,2S11.1,10,10,10z M26,26h-4v-8c0-1.1-0.9-2-2-2s-2,0.9-2,2v8h-4V12h4v2.5\n  \tc0.8-1.1,2.1-2.5,3.5-2.5c2.5,0,4.5,2.2,4.5,5V26z\"/>\n  </svg>\n\n</span>\n  <span class=\"screenreader-only\">Login with LinkedIn<span>\n\n          </a>\n\n        </li>\n        <li class=\"ic-Login__sso-list__item\">\n          <a href=\"/login/microsoft\"\n             class=\"Button Button--primary ic-Login__sso-button ic-Login__sso-button--microsoft\">\n              \n<span class=\"ic-Login_icon-sso ic-Login_icon-sso--icon-only\" role=\"presentation\">\n  <svg\n\tclass=\"ic-icon-svg ic-icon-svg--microsoft\"\n\tversion=\"1.1\"\n\txmlns=\"http://www.w3.org/2000/svg\" xmlns:xlink=\"http://www.w3.org/1999/xlink\"\n\tviewBox=\"0 0 30 30\">\n\t<path d=\"M26,0H4C1.8,0,0,1.8,0,4v22c0,2.2,1.8,4,4,4h22c2.2,0,4-1.8,4-4V4C30,1.8,28.2,0,26,0z M24.1,23.6l-6.6,1.6l-11-3.8l11,1.4\n\t\tV7.2l-7.6,2v10.4l-4,1.6V8l11.6-4l6.6,1.6V23.6z\"/>\n\t</svg>\n\n</span>\n  <span class=\"screenreader-only\">Login with Microsoft<span>\n\n          </a>\n\n        </li>\n        <li class=\"ic-Login__sso-list__item\">\n          <a href=\"/login/twitter\"\n             class=\"Button Button--primary ic-Login__sso-button ic-Login__sso-button--twitter\">\n              \n<span class=\"ic-Login_icon-sso ic-Login_icon-sso--icon-only\" role=\"presentation\">\n  <svg\n  xmlns=\"http://www.w3.org/2000/svg\"\n  class=\"ic-icon-svg ic-icon-svg--twitter\"\n  viewBox=\"0 0 21 18\" version=\"1.1\">\n  <path d=\"M22 3C21.2 3.4 20.4 3.6 19.5 3.7 20.4 3.2 21.1 2.3 21.4 1.3 20.6 1.8 19.7 2.2 18.7 2.4 17.9 1.5 16.8 1 15.5 1 13.2 1 11.2 2.9 11.2 5.3 11.2 5.6 11.3 6 11.3 6.3 7.8 6.1 4.6 4.4 2.5 1.8 2.1 2.4 1.9 3.2 1.9 4 1.9 5.4 2.6 6.8 3.8 7.5 3.1 7.5 2.4 7.3 1.8 7 1.8 7 1.8 7 1.8 7.1 1.8 9.1 3.3 10.9 5.3 11.3 4.9 11.4 4.6 11.4 4.2 11.4 3.9 11.4 3.6 11.4 3.4 11.4 3.9 13.1 5.5 14.3 7.4 14.3 5.9 15.5 4 16.2 2 16.2 1.7 16.2 1.3 16.2 1 16.1 2.9 17.3 5.2 18.1 7.6 18.1 15.5 18.1 19.9 11.5 19.9 5.8 19.9 5.6 19.9 5.4 19.8 5.2 20.7 4.6 21.4 3.9 22 3L22 3Z\"/></svg>\n\n</span>\n  <span class=\"screenreader-only\">Login with Twitter<span>\n\n          </a>\n\n        </li>\n    </ul>\n  </div>\n\n</form>          <form id=\"forgot_password_form\" style=\"display: none;\" action=\"/forgot_password\" accept-charset=\"UTF-8\" method=\"post\"><input name=\"utf8\" type=\"hidden\" value=\"&#x2713;\" /><input type=\"hidden\" name=\"authenticity_token\" value=\"e0Aq1HJj5BcRgTJNBBrACIPAj4mcjhzFkX5c29jl1+I+E2DlHCe1eXXnUy9PVbZc1vS3zNXXbbLfTQqdjoidkg==\" />\n            <h1 class=\"ui-helper-hidden-accessible\">Forgot Password?</h1>\n            <p id=\"forgot_password_instructions\" class=\"ic-Login__forgot-text\">\n              Enter your Email and we&#39;ll send you a link to change your password.\n            </p>\n            <div class=\"ic-Form-control ic-Form-control--login\">\n              <label for=\"pseudonym_session_unique_id_forgot\" class=\"ic-Label\">\n                Email\n              </label>\n              <input aria-describedby=\"forgot_password_instructions\" class=\"ic-Input email_address text\" type=\"text\" name=\"pseudonym_session[unique_id_forgot]\" value=\"\" id=\"pseudonym_session_unique_id_forgot\" />\n\n            </div>\n            <div class=\"ic-Form-control ic-Form-control--login\">\n              <div class=\"ic-Login__actions\">\n                <a class=\"ic-Login__actions--left ic-Login__link login_link\" href=\"/login\">Back to Login</a>\n                <button type=\"submit\" class=\"Button Button--login\">\n                  Request Password\n                </button>\n              </div> <!-- end ic-Login__actions -->\n            </div>\n</form>        </div> <!-- end ic-Login__body -->\n      </div> <!-- end ic-Login__innerContent  -->\n      <footer role=\"contentinfo\" id=\"footer\" class=\"ic-Login-footer\">\n\n        <div id=\"footer-links\" class=\"ic-Login-footer__links\">\n          <a class=\"support_url help_dialog_trigger\" data-track-category=\"help system\" data-track-label=\"help button\" href=\"http://help.instructure.com/\">Help</a>\n          <a href=\"https://canvas.instructure.com/privacy_policy\">Privacy Policy</a>\n    <span id=\"terms_of_service_footer_link\" class=\"terms_of_service_link terms-of-service__link\"></span>\n<a href=\"http://facebook.com/instructure\">Facebook</a>\n<a href=\"http://twitter.com/instructure\">Twitter</a>\n\n        </div>\n        <a href=\"http://www.instructure.com\" class=\"ic-Login-footer__logo-link\" aria-label=\"By Instructure\">\n          <svg xmlns=\"http://www.w3.org/2000/svg\" width=\"110\" height=\"16\" viewBox=\"25 265 743 80\"><title>Instructure</title>\n<g class=\"ic-Instructure-Logo\">\n\t<g>\n\t\t<polygon class=\"st0\" points=\"23.8,331.5 72.3,358.8 120.7,331.5 72.3,304.2 \t\t\"/>\n\t\t<polygon class=\"st0\" points=\"98.4,293.7 120.7,281.1 98.3,268.5 76,281.1 \t\t\"/>\n\t\t<polygon class=\"st0\" points=\"94.6,266.4 72.3,253.8 49.9,266.4 72.3,279 \t\t\"/>\n\t\t<polygon class=\"st0\" points=\"68.5,281.1 46.2,268.5 23.8,281.1 46.2,293.7 \t\t\"/>\n\t</g>\n\t<g>\n\t\t<path class=\"st0\" d=\"M166.3,344.9v-78.1h12.9v78.1H166.3z\"/>\n\t\t<path class=\"st0\" d=\"M202,344.9v-78.1H215l16.4,48.3v-48.3h11.8v78.1h-12.3l-17.1-50.7v50.7H202z\"/>\n\t\t<path class=\"st0\" d=\"M357.4,278.2h-13v66.7h-12.9v-66.7h-13v-11.4h39V278.2z\"/>\n\t\t<path class=\"st0\" d=\"M404.6,344.9l-9.9-31.1h-6.5v31.1h-12.9v-78.1h20.2c11.8,0,19.6,4.7,19.6,16.5v13.9c0,7.5-3.1,12.2-8.5,14.5\n\t\t\tl11.2,33.1H404.6z M388.2,302.7h6.8c4.2,0,7.1-1.6,7.1-7.1v-10.1c0-5.6-2.9-7.1-7.1-7.1h-6.8V302.7z\"/>\n\t\t<path class=\"st0\" d=\"M475.4,329.3c0,12-7.6,16.5-19.4,16.5h-0.4c-11.8,0-19.4-4.4-19.4-16.5v-62.5h12.9v60.5\n\t\t\tc0,5.6,2.5,7.1,6.7,7.1c4.2,0,6.7-1.6,6.7-7.1v-60.5h12.9V329.3z\"/>\n\t\t<path class=\"st0\" d=\"M536.5,329.3c0,12-7.8,16.5-19.6,16.5h-0.2c-11.8,0-19.6-4.4-19.6-16.5v-46.8c0-11.6,7.8-16.5,19.6-16.5h0.2\n\t\t\tc11.8,0,19.6,4.9,19.6,16.5v9h-12.9v-7c0-5.5-2.7-7.1-6.8-7.1c-4.1,0-6.8,1.7-6.8,7.1v42.8c0,5.5,2.7,7.1,6.8,7.1\n\t\t\tc4.1,0,6.8-1.7,6.8-7.1v-8.9h12.9V329.3z\"/>\n\t\t<path class=\"st0\" d=\"M592.1,278.2h-13v66.7h-12.9v-66.7h-13v-11.4h39V278.2z\"/>\n\t\t<path class=\"st0\" d=\"M649,329.3c0,12-7.6,16.5-19.4,16.5h-0.4c-11.8,0-19.4-4.4-19.4-16.5v-62.5h12.9v60.5c0,5.6,2.5,7.1,6.7,7.1\n\t\t\tc4.2,0,6.7-1.6,6.7-7.1v-60.5H649V329.3z\"/>\n\t\t<path class=\"st0\" d=\"M700.4,344.9l-9.9-31.1H684v31.1H671v-78.1h20.2c11.8,0,19.6,4.7,19.6,16.5v13.9c0,7.5-3.1,12.2-8.5,14.5\n\t\t\tl11.2,33.1H700.4z M684,302.7h6.8c4.2,0,7.1-1.6,7.1-7.1v-10.1c0-5.6-2.9-7.1-7.1-7.1H684V302.7z\"/>\n\t\t<path class=\"st0\" d=\"M289.8,289.5v-5.7c0-4.9-2.8-6.7-6.6-6.7c-3.8,0-6.6,1.8-6.6,6.7v5.4c0,4,1.3,5.8,5,7.9l9.1,5.1\n\t\t\tc7.5,4.2,11.9,7.7,11.9,16.1v11.3c0,12-7.5,16.3-19.3,16.3h-0.2c-11.8,0-19.3-4.1-19.3-16.3v-8.4h12.7v6.6c0,4.8,2.8,6.9,6.7,6.9\n\t\t\tc3.9,0,6.7-2.1,6.7-6.9v-6.1c0-4-1.2-6-5.1-8.1l-9-5.1c-7.6-4.3-11.9-7.9-11.9-16.1V282c0-11.6,8.5-16.1,19.2-16.1h0.2\n\t\t\tc10.7,0,19.2,4.5,19.2,16.1v7.5H289.8z\"/>\n\t\t<polygon class=\"st0\" points=\"732.5,344.9 732.5,266.9 766.7,266.9 766.7,278.2 745.4,278.2 745.4,299.6 763.3,299.6 763.3,311 \n\t\t\t745.4,311 745.4,333.5 767,333.5 767,344.9 \t\t\"/>\n\t</g>\n</g>\n\n</svg>\n\n        </a>\n    </footer>\n    </div> <!-- end ic-Login__content -->\n  </div>\n</div> <!-- end ic-Login -->\n\n\n<img alt=\"\" src=\"//sso.canvaslms.com/set_cookie?canvas_host=canvas.instructure.com\" width=\"0\" height=\"0\" style=\"position:absolute\" />\n\n\n\n          </div>\n        </div>\n        <div id=\"right-side-wrapper\" class=\"ic-app-main-content__secondary\">\n          <aside id=\"right-side\" role=\"complementary\">\n            \n          </aside>\n        </div>\n      </div>\n    </div>\n  </div>\n\n\n\n    <div style=\"display:none;\"><!-- Everything inside of this should always stay hidden -->\n        <a id=\"equella_endpoint_url\" href=\"http://oer.equella.com/signon.do\">&nbsp;</a>\n        <a id=\"equella_callback_url\" href=\"https://canvas.instructure.com/external_content/success/equella\">&nbsp;</a>\n        <a id=\"equella_cancel_url\" href=\"https://canvas.instructure.com/external_content/cancel/equella\">&nbsp;</a>\n        <a id=\"equella_action\" href=\"selectOrAdd\">&nbsp;</a>\n          <div id=\"equella_teaser\">Equella is a shared content repository that organizations can use to easily track and reuse content.  This OER repository is a collection of free resources provided by Equella.</div>\n    </div>\n  <div id='aria_alerts' class='hide-text affix' role=\"alert\" aria-live=\"assertive\"></div>\n  <div id='StudentTray__Container'></div>\n  \n\n<script>\n  INST = {\"environment\":\"production\",\"kalturaSettings\":{\"domain\":\"nv.instructuremedia.com\",\"resource_domain\":\"nv.instructuremedia.com\",\"rtmp_domain\":\"iad.rtmp.instructuremedia.com\",\"partner_id\":\"9\",\"subpartner_id\":\"0\",\"player_ui_conf\":\"0\",\"kcw_ui_conf\":\"0\",\"upload_ui_conf\":\"0\",\"max_file_size_bytes\":534773760,\"do_analytics\":false,\"hide_rte_button\":false,\"js_uploader\":true},\"equellaEnabled\":true,\"googleAnalyticsAccount\":\"UA-9138420-1\",\"maxVisibleEditorButtons\":3,\"editorButtons\":[],\"pandaPubSettings\":{\"push_url\":\"https://pp-beta.instructure.com/push\",\"application_id\":\"o9lhB0KU5xBx3SIiP8et\"}};\n  ENV = {\"ASSET_HOST\":\"https://du11hjcvx0uqb.cloudfront.net\",\"active_brand_config_json_url\":\"https://du11hjcvx0uqb.cloudfront.net/dist/brandable_css/8f4e87695dec9985fc00f551e06fd101/variables-8f05bb49a3f36c1ed21c589576567137.json\",\"url_to_what_gets_loaded_inside_the_tinymce_editor_css\":[\"https://du11hjcvx0uqb.cloudfront.net/dist/brandable_css/8f4e87695dec9985fc00f551e06fd101/variables-8f05bb49a3f36c1ed21c589576567137.css\",\"https://du11hjcvx0uqb.cloudfront.net/dist/brandable_css/new_styles_normal_contrast/bundles/what_gets_loaded_inside_the_tinymce_editor-d27e5a86e6.css\"],\"url_for_high_contrast_tinymce_editor_css\":[\"https://du11hjcvx0uqb.cloudfront.net/dist/brandable_css/default/variables-high_contrast-8f05bb49a3f36c1ed21c589576567137.css\",\"https://du11hjcvx0uqb.cloudfront.net/dist/brandable_css/new_styles_high_contrast/bundles/what_gets_loaded_inside_the_tinymce_editor-e7fd85d5f7.css\"],\"current_user_id\":null,\"current_user_roles\":null,\"current_user_disabled_inbox\":null,\"files_domain\":\"cluster7.canvas-user-content.com\",\"DOMAIN_ROOT_ACCOUNT_ID\":70000000000010,\"k12\":false,\"use_responsive_layout\":false,\"use_rce_enhancements\":null,\"use_unsplash_image_search\":null,\"help_link_name\":\"Help\",\"help_link_icon\":\"help\",\"use_high_contrast\":null,\"LTI_LAUNCH_FRAME_ALLOWANCES\":[\"geolocation\",\"microphone\",\"camera\",\"midi\",\"encrypted-media\",\"autoplay\"],\"DEEP_LINKING_POST_MESSAGE_ORIGIN\":\"https://canvas.instructure.com\",\"DEEP_LINKING_LOGGING\":null,\"SETTINGS\":{\"open_registration\":true,\"eportfolios_enabled\":true,\"collapse_global_nav\":null,\"show_feedback_link\":true,\"enable_profiles\":true},\"current_user\":{},\"context_asset_string\":null,\"TIMEZONE\":\"America/Denver\",\"LOCALE\":\"en\",\"BIGEASY_LOCALE\":\"en_US\",\"FULLCALENDAR_LOCALE\":\"en\",\"MOMENT_LOCALE\":\"en\",\"TERMS_OF_SERVICE_CUSTOM_CONTENT\":\"\\u003ch3\\u003eAGREEMENT BETWEEN YOU AND INSTRUCTURE\\u003c/h3\\u003e\\n\\u003cp\\u003eLast Updated Date: August 30th, 2016\\u003c/p\\u003e\\n\\u003cp\\u003ePLEASE READ THIS TERMS OF USE AGREEMENT (THE\\u003cspan\\u003e \\u003c/span\\u003e\\u003cstrong\\u003e“TERMS”\\u003c/strong\\u003e) CAREFULLY. BY ACCESSING OR USING THIS WEBSITE OR ANY OTHER WEBSITES OF INSTRUCTURE, INC. (\\u003cstrong\\u003e“INSTRUCTURE”\\u003c/strong\\u003e) WITH LINKS TO THIS AGREEMENT (COLLECTIVELY, THE\\u003cspan\\u003e \\u003c/span\\u003e\\u003cstrong\\u003e“WEBSITE”\\u003c/strong\\u003e) IN ANY WAY, INCLUDING USING THE SERVICES ENABLED VIA THE WEBSITE (THE\\u003cspan\\u003e \\u003c/span\\u003e\\u003cstrong\\u003e“SERVICES”\\u003c/strong\\u003e) BY INSTRUCTURE OR USERS OF THE SITE (\\u003cstrong\\u003e“USERS”\\u003c/strong\\u003e), CLICKING THE “I ACCEPT” CHECK BOX, OR MERELY BROWSING THE WEBSITE, YOU REPRESENT THAT YOU HAVE READ, UNDERSTAND, AND AGREE TO BE BOUND BY THE TERMS.\\u003cspan\\u003e \\u003c/span\\u003e\\u003cstrong\\u003eIF YOU DO NOT AGREE TO BE BOUND BY THE TERMS, YOU MAY NOT ACCESS OR USE THIS WEBSITE OR THE SERVICES.\\u003c/strong\\u003e\\u003c/p\\u003e\\n\\u003cp\\u003eThe Services include, but are not limited to, a learning management system that entities (\\u003cstrong\\u003e“ENTITIES”\\u003c/strong\\u003e) may subscribe to and provide to their instructors and learners (\\u003cstrong\\u003e“INSTRUCTORS”\\u003c/strong\\u003e\\u003cspan\\u003e \\u003c/span\\u003eand\\u003cspan\\u003e \\u003c/span\\u003e\\u003cstrong\\u003e“LEARNERS”\\u003c/strong\\u003e) in connection with courses (each, a\\u003cspan\\u003e \\u003c/span\\u003e\\u003cstrong\\u003e“COURSE”\\u003c/strong\\u003e). Instructure provides an account that enables a designated User to manage the Services, manage Learner and Instructor access to the Services, and provide general support on behalf of an Entity. “User” means any user of the Services, including Learners, and Instructors.\\u003c/p\\u003e\\n\\u003cp\\u003ePLEASE NOTE THAT THE TERMS ARE SUBJECT TO CHANGE BY INSTRUCTURE IN ITS SOLE DISCRETION AT ANY TIME. When changes are made, Instructure will make a new copy of the Terms available at the Website. We will also update the “Last Updated” date at the top of the Terms. If we make any material changes, and you have registered to use the Services, we will also send an e-mail to you at the last e-mail address you provided to us. Any changes to the Terms will be effective immediately for new Users of the Website or Services and will be effective thirty (30) days after posting of notice of such changes on the Website for existing User. Instructure may require you to provide consent to the updated Terms in a specified manner before further use of the Website or the Services is permitted. If you do not agree to any change(s) after receiving a notice of such change(s), you shall stop using the Website and/or the Services. Otherwise, your continued use of the Website and/or the Services constitutes your acceptance of such change(s). PLEASE REGULARLY CHECK THE WEBSITE TO VIEW THE THEN-CURRENT TERMS.\\u003c/p\\u003e\\n\\u003cp\\u003e\\u003cstrong\\u003e1. USE OF THE SERVICES AND INSTRUCTURE PROPERTIES.\\u003c/strong\\u003e\\u003cspan\\u003e \\u003c/span\\u003eThe Website, the Services, and the information and content made available (\\u003cstrong\\u003e“CONTENT”\\u003c/strong\\u003e) by Instructure on the Website and in the Services (collectively, the\\u003cspan\\u003e \\u003c/span\\u003e\\u003cstrong\\u003e“INSTRUCTURE PROPERTIES”\\u003c/strong\\u003e) are protected by copyright laws throughout the world. Subject to the Terms, Instructure grants you a limited license to reproduce portions of the Instructure Properties for the sole purpose of using the Services for your personal purposes or, in the event you are an Instructor, your educational purposes.\\u003c/p\\u003e\\n\\u003cp\\u003e\\u003cstrong\\u003e1.1 APPLICATION LICENSE.\\u003c/strong\\u003e\\u003cspan\\u003e \\u003c/span\\u003eInstructure also provides a mobile application (the\\u003cspan\\u003e \\u003c/span\\u003e\\u003cstrong\\u003e“APPLICATION”\\u003c/strong\\u003e) for use with the Services. Your use of the Application is governed by the End User License Agreement that accompanies the Application in the marketplace where you download it.\\u003c/p\\u003e\\n\\u003cp\\u003e\\u003cstrong\\u003e1.2 CERTAIN RESTRICTIONS.\\u003c/strong\\u003e\\u003cspan\\u003e \\u003c/span\\u003eThe rights granted to you in the Terms are subject to the following restrictions: (a) you shall not license, sell, rent, lease, transfer, assign, reproduce, distribute, host or otherwise commercially exploit the Instructure Properties, (b) you shall not use framing techniques to enclose any trademark, logo, or other Instructure Properties; (c) you shall not use any metatags or other “hidden text” using Instructure’s name or trademarks; (d) you shall not modify, translate, adapt, merge, make derivative works of, disassemble, decompile, reverse compile or reverse engineer any part of the Instructure Properties except to the extent the foregoing restrictions are expressly prohibited by applicable law; (e) you shall not use any manual or automated software, devices, or other processes (including but not limited to spiders, robots, scrapers, crawlers, avatars, data mining tools, or the like) to “scrape” or download data from any web pages contained in the Website; (f) except as expressly stated herein, no part of the Instructure Properties may be copied, reproduced, distributed, republished, downloaded, displayed, posted or transmitted in any form or by any means; and (g) you shall not remove or destroy any copyright notices or other proprietary markings contained on or in the Instructure Properties. Any future release, update or other addition to the Instructure Properties shall be subject to the Terms. Instructure, its suppliers and service providers reserve all rights not granted in the Terms. Any unauthorized use of the Instructure Properties terminates the licenses granted by Instructure pursuant to the Terms.\\u003c/p\\u003e\\n\\u003cp\\u003e\\u003cstrong\\u003e2. REGISTRATION.\\u003c/strong\\u003e\\u003cspan\\u003e \\u003c/span\\u003eIn order to access certain features of the Instructure Properties you must create an account (\\u003cstrong\\u003e“ACCOUNT”\\u003c/strong\\u003e) by providing necessary information when registering (\\u003cstrong\\u003e“REGISTRATION DATA”\\u003c/strong\\u003e) and accept the Terms.\\u003c/p\\u003e\\n\\u003cp\\u003e\\u003cstrong\\u003e2.1 REGISTRATION DATA.\\u003c/strong\\u003e\\u003cspan\\u003e \\u003c/span\\u003eIn registering for the Services, you agree to (1) provide true, current, and complete Registration Data; and (2) maintain and promptly update the Registration Data to keep it true, current, and complete. You are responsible for all activities that occur under your Account. You may not share your Account or password with anyone, and you agree to notify Instructure immediately of any unauthorized use of your password or any other breach of security. You agree not to create or access an Account using a false identity or information, or on behalf of someone other than yourself. You agree that you shall not have more than one Account at any given time. You agree not to create an Account or use the Instructure Properties if you have been previously removed by Instructure, or if you have been previously banned from any of the Instructure Properties.\\u003c/p\\u003e\\n\\u003cp\\u003e\\u003cstrong\\u003e2.2 NECESSARY EQUIPMENT AND SOFTWARE.\\u003c/strong\\u003e\\u003cspan\\u003e \\u003c/span\\u003eYou must provide all equipment and software necessary to connect to the Instructure Properties, including but not limited to, a mobile device that is suitable to connect with and use the Application. You are solely responsible for any fees, including Internet connection or mobile fees, that you incur when accessing the Instructure Properties.\\u003c/p\\u003e\\n\\u003cp\\u003e\\u003cstrong\\u003e3. RESPONSIBILITY FOR CONTENT.\\u003c/strong\\u003e\\u003c/p\\u003e\\n\\u003cp\\u003e\\u003cstrong\\u003e3.1 TYPES OF CONTENT.\\u003c/strong\\u003e\\u003cspan\\u003e \\u003c/span\\u003eYou acknowledge that all Content, including the Instructure Properties, is the sole responsibility of the party from whom such Content originated. This means that you, and not Instructure, are entirely responsible for all Content that you upload, post, e-mail, transmit or otherwise make available (\\u003cstrong\\u003e“MAKE AVAILABLE”\\u003c/strong\\u003e) through the Instructure Properties (\\u003cstrong\\u003e“YOUR CONTENT”\\u003c/strong\\u003e). Other Users of the Instructure Properties, and not Instructure, are similarly responsible for all Content such other Users Make Available through the Instructure Properties (\\u003cstrong\\u003e“USER CONTENT”\\u003c/strong\\u003e).\\u003c/p\\u003e\\n\\u003cp\\u003e\\u003cstrong\\u003e3.2 NO OBLIGATION TO PRE-SCREEN CONTENT.\\u003c/strong\\u003e\\u003cspan\\u003e \\u003c/span\\u003eYou acknowledge that Instructure has no obligation to pre-screen Content (including, but not limited to, Your Content and User Content), although Instructure reserves the right in its sole discretion to pre-screen, refuse, or remove any Content that (1) violates any law or regulation, (2) violates these Terms, including the User Code of Conduct set forth in Section 4.4 hereof, and/or (3) otherwise creates liability for Instructure.\\u003c/p\\u003e\\n\\u003cp\\u003e\\u003cstrong\\u003e4. OWNERSHIP.\\u003c/strong\\u003e\\u003c/p\\u003e\\n\\u003cp\\u003e\\u003cstrong\\u003e4.1 INSTRUCTURE PROPERTIES.\\u003c/strong\\u003e\\u003cspan\\u003e \\u003c/span\\u003eExcept with respect to Your Content and User Content, you agree that Instructure and its suppliers own all rights, title and interest in the Instructure Properties. Instructure’s name and other related graphics, logos, service marks and trade names used on or in connection with the Instructure Properties are the trademarks of Instructure and may not be used without permission in connection with any third-party products or services. Other trademarks, service marks and trade names that may appear on or in the Instructure Properties are the property of their respective owners.\\u003c/p\\u003e\\n\\u003cp\\u003e\\u003cstrong\\u003e4.2 YOUR CONTENT.\\u003c/strong\\u003e\\u003cspan\\u003e \\u003c/span\\u003eYour Content shall at all times remain your sole property and you agree that you have no right, title or interest in or to any other Content that appears on or in the Instructure Properties. You represent that you have all necessary right, power and authority to post Your Content to the Instructure Properties. You agree to allow Instructure and its applicable contractors to freely host, reproduce, transmit, modify, display and otherwise use Your Content (in whole or in part) as reasonably necessary to provide the Services to you, and in accordance with Instructure’s agreement with your Entity, if applicable.\\u003c/p\\u003e\\n\\u003cp\\u003e\\u003cstrong\\u003e4.3 YOUR ACCOUNT.\\u003c/strong\\u003e\\u003cspan\\u003e \\u003c/span\\u003eNotwithstanding anything contained herein to the contrary, by submitting Your Content to any forums, comments or any other area on or in the Instructure Properties, you hereby expressly permit Instructure to identify you by your username as the contributor of Your Content in any publication in any form, media, or technology now known or later developed in connection with Your Content.\\u003c/p\\u003e\\n\\u003cp\\u003e\\u003cstrong\\u003e4.4 USER CODE OF CONDUCT.\\u003c/strong\\u003e\\u003cspan\\u003e \\u003c/span\\u003eAs a condition of use, you agree not to use the Instructure Properties for any purpose that is prohibited by the Terms or by applicable law. Do not post, or permit others to post, content on the Instructure Properties or on your profile that (i) encourages illegal activities, is fraudulent, or is unlawful; (ii) insults, defames, harasses, or threatens others; (iii) violates the copyright or intellectual property or privacy rights of others; (iv) contains obscene, vulgar, pornographic, or libelous material; (v) harms or impersonates others, including other Users; or (vi) advertises or sells a product or service. Do not reproduce content from your Course or other Learners unless allowed by the express copyright terms laid out by the Instructor (e.g. Creative Commons). Do not share the solutions to assignments with others unless this is expressly authorized by the Instructor. Do not submit the work of others as your own work. Respect the privacy of other Users. Respect the diversity of opinions and cultures that will be presented by other Users. Do not attempt or engage in, any potentially harmful acts that are directed against the Instructure Properties, including but not limited to violating or attempting to violate any security features of the Instructure Properties, introducing viruses, worms, or similar harmful code into the Instructure Properties, or interfering or attempting to interfere with use of the Instructure Properties by any other user, host or network, including by means of overloading, “flooding,” “spamming,” “mail bombing,” or “crashing” the Instructure Properties. If you believe that someone has violated this code of conduct, begin by notifying the Instructor of the Course. If the issue is not addressed by the Instructor to your satisfaction, contact\\u003cspan\\u003e \\u003c/span\\u003e\\u003ca href=\\\"mailto:conduct@canvas.net\\\" target=\\\"_blank\\\"\\u003econduct@canvas.net\\u003c/a\\u003e\\u003cspan\\u003e \\u003c/span\\u003ewith your concerns.\\u003c/p\\u003e\\n\\u003cp\\u003e\\u003cstrong\\u003e4.5 FEEDBACK.\\u003c/strong\\u003e\\u003cspan\\u003e \\u003c/span\\u003eYou agree that submission of any ideas, suggestions, documents, and/or proposals to Instructure through its suggestion, feedback, wiki, forum or similar pages (\\u003cstrong\\u003e“FEEDBACK”\\u003c/strong\\u003e) is at your own risk and that Instructure has no obligations (including without limitation obligations of confidentiality) with respect to such Feedback. You represent and warrant that you have all rights necessary to submit the Feedback. You hereby grant to Instructure a fully paid, royalty-free, perpetual, irrevocable, worldwide, non-exclusive, and fully sublicensable right and license to use, reproduce, perform, display, distribute, adapt, modify, re-format, create derivative works of, and otherwise commercially or non-commercially exploit in any manner, any and all Feedback, and to sublicense the foregoing rights, in connection with the operation and maintenance of the Instructure Properties.\\u003c/p\\u003e\\n\\u003cp\\u003e\\u003cstrong\\u003e5. INVESTIGATIONS.\\u003c/strong\\u003e\\u003cspan\\u003e \\u003c/span\\u003eInstructure may, but is not obligated to, monitor or review the Instructure Properties and Content at any time. Without limiting the foregoing, Instructure shall have the right, in its sole discretion, to remove any of Your Content for any reason (or no reason), including if such Content violates the Terms or any applicable law. Although Instructure does not generally monitor user activity occurring in connection with the Instructure Properties, if Instructure becomes aware of any possible violations by you of any provision of the Terms, Instructure reserves the right to investigate such violations, and Instructure may, at its sole discretion, terminate your license to use the Instructure Properties, or change, alter or remove Your Content, in whole or in part.\\u003c/p\\u003e\\n\\u003cp\\u003e\\u003cstrong\\u003e6. INTERACTIONS WITH OTHER USERS.\\u003c/strong\\u003e\\u003c/p\\u003e\\n\\u003cp\\u003e\\u003cstrong\\u003e6.1 USER RESPONSIBILITY.\\u003c/strong\\u003e\\u003cspan\\u003e \\u003c/span\\u003eYou are solely responsible for your interactions with other Users of the Services and any other parties with whom you interact through the Services; provided, however, that Instructure reserves the right, but has no obligation, to intercede in disputes among Users. You agree that Instructure will not be responsible for any liabilities incurred as the result of such interaction.\\u003c/p\\u003e\\n\\u003cp\\u003e\\u003cstrong\\u003e6.2 CONTENT PROVIDED BY OTHER USERS.\\u003c/strong\\u003e\\u003cspan\\u003e \\u003c/span\\u003eThe Instructure Properties may contain User Content provided by other Users. Instructure is not responsible for and does not control User Content. Instructure has no obligation to review or monitor, and does not approve, endorse or make any representations or warranties with respect to User Content. You use all User Content and interact with other Users at your own risk.\\u003c/p\\u003e\\n\\u003cp\\u003e\\u003cstrong\\u003e7. THIRD-PARTY WEBSITES.\\u003c/strong\\u003e\\u003c/p\\u003e\\n\\u003cp\\u003e\\u003cstrong\\u003e7.1 THIRD-PARTY WEBSITES.\\u003c/strong\\u003e\\u003cspan\\u003e \\u003c/span\\u003eThe Instructure Properties may contain links to third-party websites (\\u003cstrong\\u003e“THIRD-PARTY WEBSITES”\\u003c/strong\\u003e). When you click on a link to a Third-Party Website, we will not warn you that you have left the Instructure Properties and are subject to separate terms and conditions or privacy policies. Such Third-Party Websites are not under the control of Instructure. Instructure is not responsible for any Third-Party Websites and does not review, approve, monitor, endorse, warrant, or make any representations with respect to Third-Party Websites, or their products or services. You use all links in Third-Party Websites at your own risk. You should review applicable terms and policies, including privacy and data gathering practices, of any Third-Party Websites, and should make whatever investigation you feel necessary or appropriate before proceeding with any transaction with any third-party.\\u003c/p\\u003e\\n\\u003cp\\u003e\\u003cstrong\\u003e7.2 APP STORES.\\u003c/strong\\u003e\\u003cspan\\u003e \\u003c/span\\u003eYou acknowledge and agree that the availability of the Application and the Services is dependent on the third-party from which you received the Application, e.g., the Apple or Android app stores.\\u003c/p\\u003e\\n\\u003cp\\u003e\\u003cstrong\\u003e8. INDEMNIFICATION.\\u003c/strong\\u003e\\u003cspan\\u003e \\u003c/span\\u003eYou agree to indemnify, defend, and hold Instructure, its parents, subsidiaries, affiliates, officers, employees, agents, partners and licensors (collectively the\\u003cspan\\u003e \\u003c/span\\u003e\\u003cstrong\\u003e“INSTRUCTURE PARTIES”\\u003c/strong\\u003e) harmless from any losses, costs, liabilities and expenses (including reasonable attorneys’ fees) relating to or arising out of: (a) Your Content; (b) your use of, or inability to use, the Instructure Properties; (c) your violation of the Terms; (d) your violation of any rights of another party, including any User; or (e) your violation of any applicable laws, rules or regulations. Instructure reserves the right, at its own cost, to assume the exclusive defense and control of any matter otherwise subject to indemnification by you, in which event you will fully cooperate with Instructure in asserting any available defenses. You agree that the provisions in this section will survive any termination of your Account, the Terms, or your access to the Instructure Properties.\\u003c/p\\u003e\\n\\u003cp\\u003e\\u003cstrong\\u003e9. DISCLAIMER OF WARRANTIES.\\u003c/strong\\u003e\\u003cspan\\u003e \\u003c/span\\u003eYOU EXPRESSLY UNDERSTAND AND AGREE THAT TO THE EXTENT PERMITTED BY APPLICABLE LAW, YOUR USE OF THE INSTRUCTURE PROPERTIES IS AT YOUR SOLE RISK, AND THE INSTRUCTURE PROPERTIES ARE PROVIDED ON AN “AS IS” AND “AS AVAILABLE” BASIS, WITH ALL FAULTS. INSTRUCTURE PARTIES EXPRESSLY DISCLAIM ALL WARRANTIES, REPRESENTATIONS, AND CONDITIONS OF ANY KIND, WHETHER EXPRESS OR IMPLIED, INCLUDING, BUT NOT LIMITED TO, THE IMPLIED WARRANTIES OR CONDITIONS OF MERCHANTABILITY, FITNESS FOR A PARTICULAR PURPOSE AND NON-INFRINGEMENT. INSTRUCTURE PARTIES MAKE NO WARRANTY, REPRESENTATION OR CONDITION THAT: (1) THE INSTRUCTURE PROPERTIES WILL MEET YOUR REQUIREMENTS; (2) YOUR USE OF THE INSTRUCTURE PROPERTIES WILL BE UNINTERRUPTED, TIMELY, SECURE OR ERROR-FREE; (3) THE RESULTS THAT MAY BE OBTAINED FROM USE OF THE INSTRUCTURE PROPERTIES WILL BE ACCURATE OR RELIABLE; OR (4) ANY ERRORS IN THE INSTRUCTURE PROPERTIES WILL BE CORRECTED. ANY CONTENT DOWNLOADED FROM OR OTHERWISE ACCESSED THROUGH THE INSTRUCTURE PROPERTIES IS ACCESSED AT YOUR OWN RISK, AND YOU SHALL BE SOLELY RESPONSIBLE FOR ANY DAMAGE TO YOUR PROPERTY OR PERSON, INCLUDING, BUT NOT LIMITED TO, YOUR COMPUTER SYSTEM AND ANY DEVICE YOU USE TO ACCESS THE INSTRUCTURE PROPERTIES, OR ANY OTHER LOSS THAT RESULTS FROM ACCESSING SUCH CONTENT. THE SERVICES MAY BE SUBJECT TO DELAYS, CANCELLATIONS AND OTHER DISRUPTIONS. INSTRUCTURE MAKES NO WARRANTY, REPRESENTATION OR CONDITION WITH RESPECT TO THE SERVICES, INCLUDING BUT NOT LIMITED TO, THE QUALITY, EFFECTIVENESS, REPUTATION AND OTHER CHARACTERISTICS OF THE SERVICES. NO ADVICE OR INFORMATION, WHETHER ORAL OR WRITTEN, OBTAINED FROM INSTRUCTURE OR THROUGH THE INSTRUCTURE PROPERTIES WILL CREATE ANY WARRANTY NOT EXPRESSLY MADE HEREIN.\\u003c/p\\u003e\\n\\u003cp\\u003e\\u003cstrong\\u003e10. LIMITATION OF LIABILITY.\\u003c/strong\\u003e\\u003c/p\\u003e\\n\\u003cp\\u003e\\u003cstrong\\u003e10.1 DISCLAIMER OF CERTAIN DAMAGES.\\u003c/strong\\u003e\\u003cspan\\u003e \\u003c/span\\u003eYOU UNDERSTAND AND AGREE THAT IN NO EVENT SHALL INSTRUCTURE PARTIES BE LIABLE FOR ANY INDIRECT, INCIDENTAL, SPECIAL, EXEMPLARY, OR CONSEQUENTIAL DAMAGES ARISING OUT OF OR IN CONNECTION WITH THE INSTRUCTURE PROPERTIES, INCLUDING, WITHOUT LIMITATION, ANY DAMAGES RESULTING FROM LOSS OF USE, DATA, OR PROFITS, WHETHER OR NOT INSTRUCTURE HAS BEEN ADVISED OF THE POSSIBILITY OF SUCH DAMAGES, OR FOR ANY DAMAGES FOR PERSONAL OR BODILY INJURY OR EMOTIONAL DISTRESS ARISING OUT OF OR IN CONNECTION WITH THE TERMS, OR FROM ANY COMMUNICATIONS, INTERACTIONS OR MEETINGS WITH OTHER USERS OF THE INSTRUCTURE PROPERTIES, ON ANY THEORY OF LIABILITY, RESULTING FROM: (1) THE USE OR INABILITY TO USE THE INSTRUCTURE PROPERTIES; (2) THE COST OF PROCUREMENT OF SUBSTITUTE GOODS OR SERVICES RESULTING FROM ANY GOODS, DATA, INFORMATION OR SERVICES PURCHASED OR OBTAINED OR MESSAGES RECEIVED FOR TRANSACTIONS ENTERED INTO THROUGH THE INSTRUCTURE PROPERTIES; (3) UNAUTHORIZED ACCESS TO OR ALTERATION OF YOUR TRANSMISSIONS OR DATA; (4) STATEMENTS OR CONDUCT OF ANY THIRD-PARTY ON INSTRUCTURE PROPERTIES; OR (5) ANY OTHER MATTER RELATED TO THE INSTRUCTURE PROPERTIES, WHETHER BASED ON WARRANTY, COPYRIGHT, CONTRACT, TORT (INCLUDING NEGLIGENCE), PRODUCT LIABILITY OR ANY OTHER LEGAL THEORY.\\u003c/p\\u003e\\n\\u003cp\\u003e\\u003cstrong\\u003e10.2 CAP ON LIABILITY.\\u003c/strong\\u003e\\u003cspan\\u003e \\u003c/span\\u003eUNDER NO CIRCUMSTANCES WILL INSTRUCTURE PARTIES BE LIABLE TO YOU FOR MORE THAN THE ANY AMOUNTS RECEIVED BY INSTRUCTURE AS A RESULT OF YOUR USE OF THE INSTRUCTURE PROPERTIES IN THE 12 MONTHS PRECEDING YOUR CLAIM. IF YOU HAVE NOT PAID INSTRUCTURE ANY AMOUNTS IN THE 12 MONTHS PRECEDING YOUR CLAIM, INSTRUCTURE’S SOLE AND EXCLUSIVE LIABILITY SHALL BE FIFTY DOLLARS ($50).\\u003c/p\\u003e\\n\\u003cp\\u003e\\u003cstrong\\u003e10.3 USER CONTENT.\\u003c/strong\\u003e\\u003cspan\\u003e \\u003c/span\\u003eINSTRUCTURE PARTIES ASSUME NO RESPONSIBILITY FOR THE TIMELINESS, DELETION, MIS-DELIVERY OR FAILURE TO STORE ANY CONTENT (INCLUDING, BUT NOT LIMITED TO, YOUR CONTENT AND USER CONTENT), USER COMMUNICATIONS OR PERSONALIZATION SETTINGS.\\u003c/p\\u003e\\n\\u003cp\\u003e\\u003cstrong\\u003e10.4 NO LIABILITY FOR CONDUCT OF THIRD PARTIES OR OTHER USERS.\\u003c/strong\\u003e\\u003cspan\\u003e \\u003c/span\\u003eYOU ACKNOWLEDGE AND AGREE THAT INSTRUCTURE PARTIES ARE NOT LIABLE, AND YOU AGREE NOT TO SEEK TO HOLD INSTRUCTURE PARTIES LIABLE, FOR THE CONDUCT OF THIRD PARTIES, INCLUDING OPERATORS OF EXTERNAL SITES, AND THAT THE RISK OF INJURY FROM SUCH THIRD PARTIES RESTS ENTIRELY WITH YOU. YOU ARE SOLELY RESPONSIBLE FOR ALL OF YOUR COMMUNICATIONS AND INTERACTIONS WITH OTHER USERS OF THE INSTRUCTURE PROPERTIES. YOU UNDERSTAND THAT INSTRUCTURE DOES NOT MAKE ANY ATTEMPT TO VERIFY THE STATEMENTS OF USERS OF THE INSTRUCTURE PROPERTIES.\\u003c/p\\u003e\\n\\u003cp\\u003e\\u003cstrong\\u003e10.5 BASIS OF THE BARGAIN.\\u003c/strong\\u003e\\u003cspan\\u003e \\u003c/span\\u003eTHE LIMITATIONS OF DAMAGES SET FORTH ABOVE ARE FUNDAMENTAL ELEMENTS OF THE BASIS OF THE BARGAIN BETWEEN INSTRUCTURE AND YOU.\\u003c/p\\u003e\\n\\u003cp\\u003e\\u003cstrong\\u003e11. PROCEDURE FOR MAKING CLAIMS OF COPYRIGHT INFRINGEMENT.\\u003c/strong\\u003e\\u003cspan\\u003e \\u003c/span\\u003eIt is Instructure’s policy to terminate membership privileges of any User who repeatedly infringes copyright upon prompt notification to Instructure by the copyright owner or the copyright owner’s legal agent. Without limiting the foregoing, if you believe that your work has been copied and posted on the Instructure Properties in a way that constitutes copyright infringement, please provide our Copyright Agent with the following information: (1) an electronic or physical signature of the person authorized to act on behalf of the owner of the copyright interest; (2) a description of the copyrighted work that you claim has been infringed; (3) a description of the location on the Instructure Properties of the material that you claim is infringing; (4) your address, telephone number and e-mail address; (5) a written statement by you that you have a good faith belief that the disputed use is not authorized by the copyright owner, its agent or the law; (6) a statement by you, made under penalty of perjury, that the above information in your notice is accurate and that you are the copyright owner or authorized to act on the copyright owner’s behalf. Contact information for Instructure’s Copyright Agent for notice of claims of copyright infringement is as follows: Howard Baik; 6330 South 3000 East, Suite 700, Salt Lake City, UT 84121;\\u003cspan\\u003e \\u003c/span\\u003e\\u003ca href=\\\"mailto:legal@instructure.com\\\" target=\\\"_blank\\\"\\u003elegal@instructure.com\\u003c/a\\u003e.\\u003c/p\\u003e\\n\\u003cp\\u003e\\u003cstrong\\u003e12. TERM AND TERMINATION.\\u003c/strong\\u003e\\u003c/p\\u003e\\n\\u003cp\\u003e\\u003cstrong\\u003e12.1 TERM.\\u003c/strong\\u003e\\u003cspan\\u003e \\u003c/span\\u003eThe Terms commence on the date when you accept them (as described in the preamble above) and remain in full force and effect while you use the Instructure Properties, unless terminated earlier in accordance with the Terms.\\u003c/p\\u003e\\n\\u003cp\\u003e\\u003cstrong\\u003e12.2 TERMINATION OF SERVICES BY INSTRUCTURE.\\u003c/strong\\u003e\\u003cspan\\u003e \\u003c/span\\u003eIf you have breached any provision of the Terms, or if Instructure is required to do so by law (e.g., where the provision of the Website, the Application, or the Services is, or becomes, unlawful), Instructure has the right to suspend or terminate any Services provided to you or to delete any of Your Content. You agree that all terminations for cause shall be made in Instructure’s sole discretion and that Instructure shall not be liable to you or any third-party for any termination of your Account. Termination of any Service includes removal of access to such Service and barring of further use of the Service. Termination of all Services also may include deletion of your password and all related information, files and Content associated with or inside your Account (or any part thereof), including Your Content. Upon termination of any Service, your right to use such Service will automatically terminate immediately. Instructure will not have any liability whatsoever to you for any suspension or termination, including for deletion of Your Content. All provisions of the Terms which by their nature should survive, shall survive termination of Services, including without limitation, ownership provisions, warranty disclaimers, and limitation of liability.\\u003c/p\\u003e\\n\\u003cp\\u003e\\u003cstrong\\u003e13. GENERAL PROVISIONS.\\u003c/strong\\u003e\\u003c/p\\u003e\\n\\u003cp\\u003e\\u003cstrong\\u003e13.1 ELECTRONIC COMMUNICATIONS.\\u003c/strong\\u003e\\u003cspan\\u003e \\u003c/span\\u003eThe communications between you and Instructure use electronic means, whether you visit the Instructure Properties or send Instructure e-mails, or whether Instructure posts notices on the Instructure Properties or communicates with you via e-mail. For contractual purposes, you (1) consent to receive communications from Instructure in an electronic form; and (2) agree that all terms and conditions, agreements, notices, disclosures, and other communications that Instructure provides to you electronically satisfy any legal requirement that such communications would satisfy if it were to be in writing. The foregoing does not affect any statutory rights you may have.\\u003c/p\\u003e\\n\\u003cp\\u003e\\u003cstrong\\u003e13.2 RELEASE.\\u003c/strong\\u003e\\u003cspan\\u003e \\u003c/span\\u003eYou hereby release Instructure Parties and their successors from claims, demands, any and all losses, damages, rights, and actions of any kind, including personal injuries, death, and property damage, that is either directly or indirectly related to or arises from any interactions with or conduct of other Website Users or third-party websites of any kind arising in connection with or as a result of the Terms or your use of the Instructure Properties. If you are a California resident, you hereby waive California Civil Code Section 1542, which states, “A general release does not extend to claims which the creditor does not know or suspect to exist in his favor at the time of executing the release, which, if known by him must have materially affected his settlement with the debtor.”\\u003c/p\\u003e\\n\\u003cp\\u003e\\u003cstrong\\u003e13.3 ASSIGNMENT.\\u003c/strong\\u003e\\u003cspan\\u003e \\u003c/span\\u003eThe Terms, and your rights and obligations hereunder, may not be assigned, subcontracted, delegated, or otherwise transferred by you without Instructure’s prior written consent, and any attempted assignment, subcontract, delegation, or transfer in violation of the foregoing will be null and void. Instructure may assign its rights and obligations under these Terms to a third party without your consent.\\u003c/p\\u003e\\n\\u003cp\\u003e\\u003cstrong\\u003e13.4 FORCE MAJEURE.\\u003c/strong\\u003e\\u003cspan\\u003e \\u003c/span\\u003eInstructure shall not be liable for any delay or failure to perform resulting from causes outside its reasonable control, including, but not limited to, acts of God, war, terrorism, riots, embargos, acts of civil or military authorities, fire, floods, accidents, strikes or shortages of transportation facilities, fuel, energy, labor or materials.\\u003c/p\\u003e\\n\\u003cp\\u003e\\u003cstrong\\u003e13.5 COMPLIANCE.\\u003c/strong\\u003e\\u003cspan\\u003e \\u003c/span\\u003eIf you believe that Instructure has not adhered to the Terms, please contact Instructure by emailing us at\\u003cspan\\u003e \\u003c/span\\u003e\\u003ca href=\\\"mailto:legal@instructure.com\\\" target=\\\"_blank\\\"\\u003elegal@instructure.com\\u003c/a\\u003e. We will do our best to address your concerns. If you feel that your complaint has been addressed incompletely, we invite you to let us know for further investigation.\\u003c/p\\u003e\\n\\u003cp\\u003e\\u003cstrong\\u003e13.6 GOVERNING LAW; JURISDICTION.\\u003c/strong\\u003e\\u003cspan\\u003e \\u003c/span\\u003eUnless otherwise required by applicable law, the Terms and any action related thereto will be governed and interpreted by and under the laws of the State of Utah, without giving effect to any conflicts of law principles that provide for the application of the law of another jurisdiction. The United Nations Convention on Contracts for the International Sale of Goods does not apply to the Terms. Any claim, dispute, or action arising, directly or indirectly, to the Terms shall be litigated in the state or federal courts located in Salt Lake County, Utah and the parties hereto agree to submit to the personal jurisdiction of such courts.\\u003c/p\\u003e\\n\\u003cp\\u003e\\u003cstrong\\u003e13.7 NOTICE.\\u003c/strong\\u003e\\u003cspan\\u003e \\u003c/span\\u003eWhere Instructure requires that you provide an e-mail address to access certain features of the Instructure Properties, you are responsible for providing Instructure with your most current e-mail address. In the event that the last e-mail address you provided to Instructure is not valid, or for any reason is not capable of delivering to you any notices required/ permitted by the Terms, Instructure’s dispatch of the e-mail containing such notice will nonetheless constitute effective notice. You may give notice to Instructure at the following address: Attn: Legal Department, 6330 South 3000 East, Suite 700, Salt Lake City, UT 84121. Such notice shall be deemed given when received by Instructure by letter delivered by nationally recognized overnight delivery service or first class postage prepaid mail at the above address.\\u003c/p\\u003e\\n\\u003cp\\u003e\\u003cstrong\\u003e13.8 WAIVER.\\u003c/strong\\u003e\\u003cspan\\u003e \\u003c/span\\u003eAny waiver or failure by Instructure to enforce any provision of the Terms on one occasion will not be deemed a waiver of any other provision or of such provision on any other occasion.\\u003c/p\\u003e\\n\\u003cp\\u003e\\u003cstrong\\u003e13.9 SEVERABILITY.\\u003c/strong\\u003e\\u003cspan\\u003e \\u003c/span\\u003eIf any provision of the Terms is, for any reason, held to be invalid or unenforceable, the other provisions of the Terms will remain enforceable, and the invalid or unenforceable provision will be deemed modified so that it is valid and enforceable to the maximum extent permitted by law.\\u003c/p\\u003e\\n\\u003cp\\u003e\\u003cstrong\\u003e13.10 ENTIRE AGREEMENT.\\u003c/strong\\u003e\\u003cspan\\u003e \\u003c/span\\u003eThe Terms are the final, complete and exclusive agreement of the parties with respect to the subject matter hereof and supersedes and merges all prior discussions between the parties with respect to such subject matter.\\u003c/p\\u003e\\n\\u003cp\\u003eThese terms of use govern unless your institution has negotiated a set of terms of use with Instructure. Please check with your institution if there are any questions.\\u003c/p\\u003e\\n\",\"CONFIRMED\":null,\"current_user_created_at\":null,\"notices\":[]};\n</script>\n\n<link rel=\"preload\" href=\"https://du11hjcvx0uqb.cloudfront.net/dist/webpack-production/0-c-af280e6588.js\" as=\"script\" type=\"text/javascript\"><link rel=\"preload\" href=\"https://du11hjcvx0uqb.cloudfront.net/dist/webpack-production/6-c-8c98a311e9.js\" as=\"script\" type=\"text/javascript\"><link rel=\"preload\" href=\"https://du11hjcvx0uqb.cloudfront.net/dist/webpack-production/49-c-b96742ac6d.js\" as=\"script\" type=\"text/javascript\"><link rel=\"preload\" href=\"https://du11hjcvx0uqb.cloudfront.net/dist/webpack-production/78-c-ec9cc9f038.js\" as=\"script\" type=\"text/javascript\"><link rel=\"preload\" href=\"https://du11hjcvx0uqb.cloudfront.net/dist/webpack-production/login-c-3b55b5cd5e.js\" as=\"script\" type=\"text/javascript\"><link rel=\"preload\" href=\"https://du11hjcvx0uqb.cloudfront.net/dist/webpack-production/1-c-4ac86ef318.js\" as=\"script\" type=\"text/javascript\"><link rel=\"preload\" href=\"https://du11hjcvx0uqb.cloudfront.net/dist/webpack-production/2-c-cfad67cc1c.js\" as=\"script\" type=\"text/javascript\"><link rel=\"preload\" href=\"https://du11hjcvx0uqb.cloudfront.net/dist/webpack-production/3-c-0720aa65c4.js\" as=\"script\" type=\"text/javascript\"><link rel=\"preload\" href=\"https://du11hjcvx0uqb.cloudfront.net/dist/webpack-production/4-c-0de4e47220.js\" as=\"script\" type=\"text/javascript\"><link rel=\"preload\" href=\"https://du11hjcvx0uqb.cloudfront.net/dist/webpack-production/5-c-124499549e.js\" as=\"script\" type=\"text/javascript\"><link rel=\"preload\" href=\"https://du11hjcvx0uqb.cloudfront.net/dist/webpack-production/7-c-d5f6ceef46.js\" as=\"script\" type=\"text/javascript\"><link rel=\"preload\" href=\"https://du11hjcvx0uqb.cloudfront.net/dist/webpack-production/11-c-711d0da023.js\" as=\"script\" type=\"text/javascript\"><link rel=\"preload\" href=\"https://du11hjcvx0uqb.cloudfront.net/dist/webpack-production/13-c-b761dfd4ea.js\" as=\"script\" type=\"text/javascript\"><link rel=\"preload\" href=\"https://du11hjcvx0uqb.cloudfront.net/dist/webpack-production/22-c-53fac55bf3.js\" as=\"script\" type=\"text/javascript\"><link rel=\"preload\" href=\"https://du11hjcvx0uqb.cloudfront.net/dist/webpack-production/24-c-2704becd33.js\" as=\"script\" type=\"text/javascript\"><link rel=\"preload\" href=\"https://du11hjcvx0uqb.cloudfront.net/dist/webpack-production/terms_of_service_modal-c-86ced4993c.js\" as=\"script\" type=\"text/javascript\"><script>\n//<![CDATA[\n(window.bundles || (window.bundles = [])).push('login');\n(window.bundles || (window.bundles = [])).push('terms_of_service_modal');\n//]]>\n</script>\n<script src=\"https://instructure-uploads.s3.amazonaws.com/account_70000000000010/attachments/71505558/fft-javascript-nov-2018.js\" defer=\"defer\"></script>\n\n</div> <!-- #application -->\n</body>\n</html>\n",
          "comment" : ""
        },
        "redirectURL" : "",
        "headersSize" : 1246,
        "bodySize" : 58849,
        "comment" : ""
      },
      "cache" : { },
      "timings" : {
        "comment" : "",
        "dns" : -1,
        "connect" : 3441,
        "wait" : 0,
        "blocked" : -1,
        "send" : 0,
        "receive" : 0,
        "ssl" : -1
      },
      "comment" : "",
      "_katalonRequestInformation" : {
        "name" : "102",
        "testObjectId" : "Temporary RESTful request object",
        "harId" : "1087ebab-235b-4907-ad75-8f4c863020d9"
      },
      "time" : 3441
    } ],
    "comment" : ""
  }
}