{
  "log" : {
    "version" : "1.2",
    "pages" : [ ],
    "entries" : [ {
      "startedDateTime" : "2019-07-16T05:33:28.049Z",
      "request" : {
        "method" : "GET",
        "url" : "https://frostedc-stg.learningmate.com/js/assessment/assessmentQuestionController.js",
        "httpVersion" : "",
        "cookies" : [ ],
        "headers" : [ ],
        "queryString" : [ ],
        "headersSize" : 0,
        "bodySize" : 0,
        "comment" : ""
      },
      "response" : {
        "status" : 200,
        "statusText" : "",
        "httpVersion" : "",
        "cookies" : [ ],
        "headers" : [ {
          "name" : "Accept-Ranges",
          "value" : "bytes"
        }, {
          "name" : null,
          "value" : "HTTP/1.1 200 OK"
        }, {
          "name" : "Server",
          "value" : "nginx/1.13.5"
        }, {
          "name" : "ETag",
          "value" : "\"5d2ca960-14ed4\""
        }, {
          "name" : "Connection",
          "value" : "keep-alive"
        }, {
          "name" : "Last-Modified",
          "value" : "Mon, 15 Jul 2019 16:27:12 GMT"
        }, {
          "name" : "Content-Length",
          "value" : "85716"
        }, {
          "name" : "Date",
          "value" : "Tue, 16 Jul 2019 05:33:45 GMT"
        }, {
          "name" : "Content-Type",
          "value" : "application/javascript"
        } ],
        "content" : {
          "size" : 85716,
          "mimeType" : "application/javascript",
          "text" : "/*****\n * Controller for Question Authoring\n * Author - Atin Roy*\n */\n\n'use strict';\napp.controller('assessmentQuestion', ['$scope', '$http', 'sessionService', '$location', 'objectService', 'assessmentService', '$rootScope', '$modal', '$log', 'SweetAlert', '$routeParams', '$filter', function($scope, $http, sessionService, $location, objectService, assessmentService, $rootScope, $modal, $log, SweetAlert, $routeParams, $filter) {\n\n    $scope.access_token = sessionService.get('access_token');\n    $scope.user_permissions = JSON.parse(sessionService.get('user_permissions'));\n    var userinfo = JSON.parse(sessionService.get('userinfo'));\n    $scope.project_id = $routeParams.project_id;\n    $scope.assessment_id = $routeParams.assessment_id;\n    $scope.question_type_id = $routeParams.question_type_id;\n    $scope.question_id = $routeParams.question_id;\n    $scope.project_type_id = 4;\n    $scope.createQuesButtonEnable = true;\n    $scope.enableAdd = false;\n    $scope.enableEdit = false;\n    $scope.ext_res_block = false;\n    $scope.ext_ico_block = false;\n    $scope.questionSelection = false;\n    $scope.selected_data = [];\n    $scope.err_message = '';\n    $scope.mediaSelected = false;\n    $scope.textwith_blanks = '';\n    $scope.location = $location;\n    $scope.is_global_project = false;\n    $scope.currentOrderByField = 'id';\n    $scope.reverseSort = false;\n    if (angular.isDefined($routeParams.question_type_id)) {\n        $scope.createQuesButtonEnable = false;\n        $scope.question_type_folder = ($routeParams.question_type_id == \"MCQ\") ? \"mcss\" : $scope.question_type_id;\n        $scope.question_type_folder = $scope.question_type_folder.toLowerCase();\n        $scope.template_folder = 'templates/assessment/' + $scope.question_type_folder + '/' + $scope.question_type_folder + '.html';\n        $scope.script_path = 'templates/assessment/' + $scope.question_type_folder + '/js/getSetContent.js';\n        if (!angular.isDefined($routeParams.question_id)) {\n            $scope.enableAdd = true;\n        }\n\n    }\n    //Check if the session is active\n    $rootScope.checkActiveSession();\n    if (!$scope.access_token || userinfo == null) {\n        $location.path('logout');\n        return true;\n    }\n    // setTimeout(function() {\n    //     angular.element('.demo').iconpicker();\n    // }, 3000);\n    //Get Project Detail\n    $scope.project_name = '';\n    $scope.getProject = function() {\n        if ($scope.project_id != '') {\n            objectService.getProjectDetails($scope).then(function(data) {\n                if (data == null || (angular.isDefined(data.is_global_project) && data.is_global_project == true)) {\n                    $scope.is_global_project = data.is_global_project;\n                }\n                $scope.project_name = data.name;\n                $scope.project = data;\n                $scope.applyPermission = 1;\n                $scope.project.project_permissions = data.project_permissions;\n            });\n        }\n    }\n    $scope.getProject();\n    //Fetch Questions\n    $scope.pageNumber = 1;\n    $scope.itemsPerPage = 25;\n    $scope.currentPage = 1;\n    $scope.listQuestions = function(pageNumber, items_per_page_param) {\n        $scope.currentPage = pageNumber;\n        $scope.pageNumber = pageNumber;\n        $scope.paginationText;\n        var max;\n        if (items_per_page_param) {\n            $scope.itemsPerPage = items_per_page_param;\n        }\n        // $scope.itemsPerPage = 10;\n        assessmentService.getQuestions($scope).then(function(data) {\n            $scope.questionList = data.data.question_list;\n            $scope.questionTotal = data.data.total;\n            if (pageNumber == 1) {\n                max = $scope.itemsPerPage > $scope.questionTotal ? $scope.questionTotal : $scope.itemsPerPage;\n                $scope.paginationText = \"1 to \" + max;\n            } else {\n                max = ((($scope.itemsPerPage * (pageNumber - 1)) + 1) + $scope.itemsPerPage) > $scope.questionTotal ? $scope.questionTotal : (($scope.itemsPerPage * (pageNumber - 1)) + 1) + $scope.itemsPerPage;\n                $scope.paginationText = (($scope.itemsPerPage * (pageNumber - 1)) + 1) + \" to \" + max;\n            }\n        });\n    };\n    $scope.listQuestions(1);\n\n    $scope.applySorting = function(field) {\n        if ($scope.currentOrderByField != field) {\n            $scope.reverseSort = false;\n        } else {\n            if ($scope.reverseSort) {\n                $scope.reverseSort = false;\n            } else {\n                $scope.reverseSort = true;\n            }\n        }\n        $scope.currentOrderByField = field;\n        $scope.listQuestions($scope.currentPage);\n    };\n    //Upload Flow\n    var scopecounter = 0;\n    $scope.MsgCounter = 1;\n    $scope.SuccessMsgCounter = 0;\n    $scope.fileUploadMessage = '';\n    $scope.$watch('$flow.progress()', function(val) {\n        if ($filter('number')(val * 100, 0) == 100) {\n\n        }\n    });\n    $scope.$on('flow::fileAdded', function(event, $flow, flowFile) {\n        $flow.opts.query = { project_id: $scope.project_id, assessment_id: $scope.assessment_id, temp_guid: guid('') };\n    });\n\n    $scope.uploader = {\n        controllerFn: function($flow, $file, $message) {\n            console.log($message);\n            $file.msg = $message; // Just display message for a convenience\n            if ($file.size == 0) {\n                $scope.fileUploadMessage += '<p> File <span style=\"word-wrap: break-word;\">' + $file.name + '<span> should have some content' + '</p>';\n                $scope.MsgCounter = $scope.MsgCounter + 1;\n            } else {\n                if ($file.msg.split(':')[0] == 'Error') {\n                    $scope.fileUploadMessage += '<p>' + $file.msg.substring($file.msg.indexOf(':') + 1) + ' </p>';\n                    $scope.MsgCounter = $scope.MsgCounter + 1;\n                } else {\n                    $scope.SuccessMsgCounter = $scope.SuccessMsgCounter + 1;\n                }\n            }\n            scopecounter = scopecounter + 1;\n            if ($scope.$flow.files.length === scopecounter) {\n                if ($scope.SuccessMsgCounter > 0) {\n                    if ($scope.MsgCounter === 1) {\n                        $scope.HtmlSuccess = '<p>';\n                    } else {\n                        $scope.HtmlSuccess = '<p style=\"text-align:left\">' + $scope.MsgCounter + '. ';\n                    }\n                    console.log($file.msg.split(':')[0]);\n                    if ($file.msg.split(':')[0] == 'Success') {\n                        $scope.fileUploadMessage += $file.msg.split(':')[1] + '</p>';\n                    } else {\n                        $scope.fileUploadMessage += $file.msg.split(':')[1] + ' </p>';\n                    }\n                }\n                SweetAlert.swal({ html: $scope.fileUploadMessage, width: 540, type: \"warning\" });\n                $scope.$flow.files.length = 0;\n                scopecounter = 0;\n                $scope.fileUploadMessage = '';\n                $scope.MsgCounter = 1;\n                $scope.SuccessMsgCounter = 0;\n            }\n        }\n    };\n\n\n\n    $scope.getQuestionDetails = function(assessment_id, question_id) {\n        $scope.question_id = question_id;\n        assessmentService.getQuestionDetails($scope).then(function(data) {\n            if (data.status == 200) {\n                $scope.fetched_data = data.data.question_data.QuestionData;\n                if ($scope.question_type_id === 'MCQ') {\n                    if (data.data.question_data.QuestionData.media.caption) {\n                        $scope.mediaSelected = \"true\";\n                    }\n                    mcq.renderQuestionData(data.data.question_data.QuestionData);\n                } else if ($scope.question_type_id === 'FIB') {\n                    angular.element('.textWithBlankError').css('display', 'none');\n                    fib.renderQuestionData(data.data.question_data.QuestionData);\n                } else if ($scope.question_type_id === 'FIB-DRAGDROP') {\n                    angular.element('.textWithBlankError').css('display', 'none');\n                    fibdrag.renderQuestionData(data.data.question_data.QuestionData);\n                } else if ($scope.question_type_id === 'FIB-DROPDOWN') {\n                    angular.element('.textWithBlankError').css('display', 'none');\n                    fib.renderQuestionData(data.data.question_data.QuestionData);\n                } else if ($scope.question_type_id === 'MULTI-PART') {\n                    multipart.renderQuestionData(data.data.question_data.QuestionData);\n                    $scope.selected_data = data.data.question_data.QuestionData.subquestions;\n                    $scope.fetched_data = data.data.question_data.QuestionData;\n                    for (var i = 0; i < $scope.selected_data.length; i++) {\n                        $scope.fetched_data.subquestions[i] = JSON.parse($scope.fetched_data.subquestions[i]).question_id;\n                    }\n                } else if ($scope.question_type_id === 'IN-CONTEXT') {\n                    incontext.renderQuestionData(data.data.question_data.QuestionData);\n                } else {\n                    openended.renderQuestionData(data.data.question_data.QuestionData);\n                }\n                // bind all events after render data\n                common_assessment_utility.ckeditorBindEvent();\n\n                var dataset = data.data.question_data.QuestionData;\n                if (angular.isDefined(dataset.media)) {\n                    if (dataset.media.type != 'no-media') {\n                        $scope.media = {\n                            type: \"media\"\n                        };\n                        $scope.ext_res_url = dataset.media.url;\n                        if (dataset.media.type === 'brightcove') {\n                            $scope.ext_res_title = '<b>Video ID:</b> <br>' + dataset.media.brightcove_id;\n                            $scope.ext_res_title_id = dataset.media.brightcove_id;\n                            $scope.ext_res_width = parseInt(dataset.media.width);\n                            $scope.ext_res_height = parseInt(dataset.media.height);\n                            angular.element('#ext_res_title').val($scope.ext_res_title);\n                            angular.element('#ext_res_title_id').val($scope.ext_res_title_id);\n                            angular.element('#media_type').val('brightcove');\n                            angular.element('#ext_res_width').val($scope.ext_res_width);\n                            angular.element('#ext_res_height').val($scope.ext_res_height);\n                            angular.element('#brightcove_button').text('Edit Brightcove Video');\n                            $scope.ext_res_type = dataset.media.type;\n                        } else {\n                            $scope.ext_res_title = dataset.media.title;\n                            $scope.ext_res_type = dataset.media.asset_type;\n                            angular.element('#ext_res_title').val($scope.ext_res_title);\n                            angular.element('#ext_res_type').val($scope.ext_res_type);\n                            angular.element('#media_type').val('assets');\n                            if ($scope.ext_res_type == 'image' || $scope.ext_res_type == 'Image') {\n                                $scope.ext_ico_block = true;\n                            } else {\n                                $scope.ext_ico_block = false;\n                            }\n                            angular.element('#brightcove_button').text('Add Brightcove Video');\n                        }\n                        //$scope.ext_res_type = dataset.media.type;\n                        angular.element('#ext_res_url').val($scope.ext_res_url);\n                    }\n                }\n\n            } else {\n                SweetAlert.swal(\"Oops...\", \"Something went wrong!\", \"error\");\n            }\n\n        });\n    };\n    //For Page Change from paging\n    $scope.pageChangeHandlerQuestion = function(newPage) {\n        //$scope.assessment_id = '';\n        $scope.listQuestions(newPage);\n    };\n    $scope.question_types = [];\n    assessmentService.getQuestionTypes($scope).then(function(data) {\n        var question_types = data.data.question_types;\n        angular.forEach(question_types, function(value, key) {\n            $scope.question_types.push({\n                'id': key,\n                'name': value\n            });\n        });\n    });\n    $scope.backToAssessment = function(assessment_id) {\n        $location.path('assessment/' + assessment_id);\n    }\n    $scope.backToGlobalRepo = function(assessment_id) {\n        $location.path('global_repo/ASSESSMENTS');\n    }\n    $scope.backToQuestion = function(project_id, assessment_id) {\n        if ($scope.question_type_id === 'MCQ') {\n            $scope.compare_data_json = mcq.generateQuestionData();\n        } else if ($scope.question_type_id === 'FIB') {\n            $scope.compare_data_json = fib.generateQuestionData();\n        } else if ($scope.question_type_id === 'FIB-DRAGDROP') {\n            $scope.compare_data_json = fibdrag.generateQuestionData();\n        } else if ($scope.question_type_id === 'FIB-DROPDOWN') {\n            $scope.compare_data_json = fib.generateQuestionData();\n        } else if ($scope.question_type_id === 'MULTI-PART') {\n            $scope.compare_data_json = multipart.generateQuestionData();\n        } else if ($scope.question_type_id === 'IN-CONTEXT') {\n            $scope.compare_data_json = incontext.generateQuestionData();\n        } else {\n            $scope.compare_data_json = openended.generateQuestionData();\n        }\n        var i = 0;\n        angular.forEach(angular.element(\".requires\"), function(value, key) {\n            var a = angular.element(value);\n            if (a.hasClass('ckeditor')) { // for all ckeditor\n                var field_value = common_assessment_utility.getFieldValue(a.prop('id'), true);\n                if (field_value.trim().length === 0) {\n                    a.parent().addClass('has-error');\n                    i++;\n                } else { // for all input box\n                    a.parent().removeClass('has-error');\n                }\n            } else {\n                if (a.val().trim().length === 0) {\n                    a.parent().addClass('has-error');\n                    i++;\n                } else {\n                    a.parent().removeClass('has-error');\n                }\n            }\n        });\n        var compare = JSON.stringify($scope.fetched_data) === JSON.stringify($scope.compare_data_json);\n        if (!compare) {\n            SweetAlert.swal({\n                title: \"Are you sure?\",\n                text: \"You are leaving the authoring page\",\n                type: \"warning\",\n                showCancelButton: true,\n                confirmButtonColor: \"#DD6B55\",\n                confirmButtonText: \"Yes, Save it\",\n                cancelButtonText: \"No, Don't save\",\n                closeOnConfirm: true,\n                closeOnCancel: true\n            }, function(isConfirm) {\n                if (isConfirm) {\n                    if ($scope.enableAdd) {\n                        if (i === 0) {\n                            $scope.addQuestions();\n                        }\n                        //$location.path('assessment_question/' + assessment_id + '/' + project_id);\n                    } else {\n                        if (i === 0) {\n                            $scope.editQuestion(true);\n                        }\n                    }\n                } else {\n                    $location.path('assessment_question/' + assessment_id + '/' + project_id);\n                }\n            });\n        } else {\n            $location.path('assessment_question/' + assessment_id + '/' + project_id);\n        }\n    };\n    $scope.backToQuestionGlobal = function(project_id, assessment_id) {\n        if ($scope.question_type_id === 'MCQ') {\n            $scope.compare_data_json = mcq.generateQuestionData();\n        } else if ($scope.question_type_id === 'FIB') {\n            $scope.compare_data_json = fib.generateQuestionData();\n        } else if ($scope.question_type_id === 'FIB-DRAGDROP') {\n            $scope.compare_data_json = fibdrag.generateQuestionData();\n        } else if ($scope.question_type_id === 'FIB-DROPDOWN') {\n            $scope.compare_data_json = fib.generateQuestionData();\n        } else if ($scope.question_type_id === 'MULTI-PART') {\n            $scope.compare_data_json = multipart.generateQuestionData();\n        } else if ($scope.question_type_id === 'IN-CONTEXT') {\n            $scope.compare_data_json = incontext.generateQuestionData();\n        } else {\n            $scope.compare_data_json = openended.generateQuestionData();\n        }\n        var i = 0;\n        angular.forEach(angular.element(\".requires\"), function(value, key) {\n            var a = angular.element(value);\n            if (a.hasClass('ckeditor')) { // for all ckeditor\n                var field_value = common_assessment_utility.getFieldValue(a.prop('id'), true);\n                if (field_value.trim().length === 0) {\n                    a.parent().addClass('has-error');\n                    i++;\n                } else { // for all input box\n                    a.parent().removeClass('has-error');\n                }\n            } else {\n                if (a.val().trim().length === 0) {\n                    a.parent().addClass('has-error');\n                    i++;\n                } else {\n                    a.parent().removeClass('has-error');\n                }\n            }\n        });\n        var compare = JSON.stringify($scope.fetched_data) === JSON.stringify($scope.compare_data_json);\n        if (!compare) {\n            SweetAlert.swal({\n                title: \"Are you sure?\",\n                text: \"You are leaving the authoring page\",\n                type: \"warning\",\n                showCancelButton: true,\n                confirmButtonColor: \"#DD6B55\",\n                confirmButtonText: \"Yes, Save it\",\n                cancelButtonText: \"No, Don't save\",\n                closeOnConfirm: true,\n                closeOnCancel: true\n            }, function(isConfirm) {\n                if (isConfirm) {\n                    if ($scope.enableAdd) {\n                        if (i === 0) {\n                            $scope.addQuestions();\n                        }\n                        //$location.path('assessment_question/' + assessment_id + '/' + project_id);\n                    } else {\n                        if (i === 0) {\n                            $scope.editQuestion(true);\n                        }\n                    }\n                } else {\n                    $location.path('assessment_question/' + assessment_id + '/' + project_id + '/global_repo');\n                }\n            });\n        } else {\n            $location.path('assessment_question/' + assessment_id + '/' + project_id + '/global_repo');\n        }\n    };\n    $scope.addForm = function(size) {\n        var modalInstance = $modal.open({\n            templateUrl: 'templates/assessment/questionTypeModal.html',\n            controller: 'ModalInstanceQuestionCtrl',\n            size: size,\n            backdrop: 'static',\n            keyboard: false,\n            resolve: {\n                modalFormText: function() {\n                    return \"\";\n                },\n                modalFormTile: function() {\n                    return \"Choose question type\";\n                },\n                project_id: function() {\n                    return $scope.project_id;\n                },\n                assessment_id: function() {\n                    return $scope.assessment_id;\n                },\n                project_permissions: function() {\n                    return $scope.project.project_permissions;\n                },\n                question_types: function() {\n                    return $scope.question_types;\n                }\n            }\n        });\n        modalInstance.result.then(function(modalCloseParameter) {\n            $scope.assessment_id = modalCloseParameter.assessment_id;\n            if (modalCloseParameter.global === '1') {\n                $location.path('assessment_question/' + modalCloseParameter.assessment_id + '/' + modalCloseParameter.project_id + '/' + modalCloseParameter.question_type_id + '/global_repo');\n            } else {\n                $location.path('assessment_question/' + modalCloseParameter.assessment_id + '/' + modalCloseParameter.project_id + '/' + modalCloseParameter.question_type_id);\n            }\n        }, function() {\n            $log.info('Modal dismissed at: ' + new Date());\n        });\n    };\n    $scope.addQuestions = function() {\n        $scope.title = angular.element('#question_title').val();\n        if (jQuery(\"input[class='assess_radio']:checked\").length < 1) {\n            SweetAlert.swal(\"Error\", 'Select right choice', \"error\");\n            return false;\n        } else {\n            if (angular.element('#question_title').val().length < 256) {\n                //$scope.stem = angular.element('#question_stem').val();\n                $scope.stem = common_assessment_utility.getFieldValue('question_stem', true);\n                var i = 0;\n                var error = 0;\n                angular.forEach(angular.element(\".requires\"), function(value, key) {\n                    var a = angular.element(value);\n                    var field_value = '';\n                    if (a.hasClass('ckeditor')) {\n                        field_value = common_assessment_utility.getFieldValue(a.context.id, true);\n                    } else {\n                        field_value = a.val();\n                    }\n\n                    //if (a.val().length === 0)\n                    if (field_value.trim().length === 0) {\n                        a.parent().addClass('has-error');\n                        if (a.context.id.indexOf('Distractor') != -1) {\n                            var id = a.context.id;\n                            var idnum = id.replace(/Distractor/g, '');\n                            if ($scope.question_type_id == 'FIB-DROPDOWN') {\n                                fib.toggleOption(idnum);\n                            }\n                        }\n                        i++;\n                    } else {\n                        a.parent().removeClass('has-error');\n                    }\n                });\n                if (i === 0) {\n                    if ($scope.question_type_id === 'MCQ') {\n                        $scope.data_json = mcq.generateQuestionData();\n                    } else if ($scope.question_type_id === 'FIB') {\n                        var questionData = fib.generateQuestionData();\n                        if (questionData == false) {\n                            //                            if($('#textWithBlankErrorVisibility').val()==\"true\"){\n                            //                                angular.element('.textWithBlankError').css('display', 'block');\n                            //                            }\n                            SweetAlert.swal(\"Error\", 'Question can\\'t be saved as it contains error', \"error\");\n                            error = 1;\n                        } else {\n                            $scope.data_json = questionData;\n                        }\n                    } else if ($scope.question_type_id === 'FIB-DRAGDROP') {\n                        var questionData = fibdrag.generateQuestionData();\n                        if (questionData == false) {\n                            //                             if($('#textWithBlankErrorVisibility').val()==\"true\"){\n                            //                                angular.element('.textWithBlankError').css('display', 'block');\n                            //                             }\n                            SweetAlert.swal(\"Error\", 'Question can\\'t be saved as it contains error', \"error\");\n                            error = 1;\n                        } else {\n                            $scope.data_json = questionData;\n                        }\n                    } else if ($scope.question_type_id === 'FIB-DROPDOWN') {\n                        var questionData = fib.generateQuestionData();\n                        if (questionData == false) {\n                            //                             if($('#textWithBlankErrorVisibility').val()==\"true\"){\n                            //                                angular.element('.textWithBlankError').css('display', 'block');\n                            //                             }\n                            SweetAlert.swal(\"Error\", 'Question can\\'t be saved as it contains error', \"error\");\n                            error = 1;\n                        } else {\n                            $scope.data_json = questionData;\n                        }\n                    } else if ($scope.question_type_id === 'MULTI-PART') {\n                        $scope.data_json = multipart.generateQuestionData();\n                    } else if ($scope.question_type_id === 'IN-CONTEXT') {\n                        $scope.data_json = incontext.generateQuestionData();\n                    } else {\n                        $scope.data_json = openended.generateQuestionData();\n                    }\n\n                    $scope.type = $scope.question_type_id;\n                    if (!error) {\n                        $scope.disableAdd = true;\n                        assessmentService.addQuestion($scope, $rootScope).then(function(data) {\n                            if (data.status === 200) {\n                                SweetAlert.swal(\"Success\", \"Question has been successfully added\", \"success\");\n                                $scope.disableAdd = false;\n                                if ($scope.location.$$path.indexOf('global_repo') !== -1) {\n                                    $location.path('assessment_question/' + $scope.assessment_id + '/' + $scope.project_id + '/global_repo');\n                                } else {\n                                    $location.path('assessment_question/' + $scope.assessment_id + '/' + $scope.project_id);\n                                }\n                            } else {\n                                SweetAlert.swal(\"Oops...\", \"Something went wrong!\", \"error\");\n                            }\n\n                        });\n                    }\n                } else {\n                    //SweetAlert.swal(\"Oops...\", \"Please Enter data into the blank fileds!\", \"error\");\n                }\n            } else {\n                SweetAlert.swal(\"Oops...\", \"Question title charecter should be not more than 255\", \"error\");\n            }\n        }\n\n\n    };\n    $scope.editQuestion = function(fromGoBack) {\n        $scope.title = angular.element('#question_title').val();\n        var error = 0;\n        if (jQuery(\"input[class='assess_radio']:checked\").length < 1) {\n            SweetAlert.swal(\"Error\", 'Select right choice', \"error\");\n            return false;\n        } else {\n\n            if (angular.element('#question_title').val().length < 256) {\n                if ($scope.question_type_id === 'MCQ') {\n                    $scope.data_json = mcq.generateQuestionData();\n                } else if ($scope.question_type_id === 'FIB') {\n                    var questionData = fib.generateQuestionData();\n                    if (questionData == false) {\n                        //                        if($('#textWithBlankErrorVisibility').val()==\"true\"){\n                        //                            angular.element('.textWithBlankError').css('display', 'block');\n                        //                        }\n                        SweetAlert.swal(\"Error\", 'Question can\\'t be saved as it contains error', \"error\");\n                        error = 1;\n                    } else {\n                        $scope.data_json = questionData;\n                    }\n                } else if ($scope.question_type_id === 'FIB-DRAGDROP') {\n                    var questionData = fibdrag.generateQuestionData();\n                    if (questionData == false) {\n                        //                             if($('#textWithBlankErrorVisibility').val()==\"true\"){\n                        //                                angular.element('.textWithBlankError').css('display', 'block');\n                        //                             }\n                        SweetAlert.swal(\"Error\", 'Question can\\'t be saved as it contains error', \"error\");\n                        error = 1;\n                    } else {\n                        $scope.data_json = questionData;\n                    }\n                } else if ($scope.question_type_id === 'FIB-DROPDOWN') {\n                    var questionData = fib.generateQuestionData();\n                    if (questionData == false) {\n                        //                             if($('#textWithBlankErrorVisibility').val()==\"true\"){\n                        //                                angular.element('.textWithBlankError').css('display', 'block');\n                        //                             }\n                        SweetAlert.swal(\"Error\", 'Question can\\'t be saved as it contains error', \"error\");\n                        error = 1;\n                    } else {\n                        $scope.data_json = questionData;\n                    }\n                } else if ($scope.question_type_id === 'MULTI-PART') {\n                    $scope.data_json = multipart.generateQuestionData();\n                } else if ($scope.question_type_id === 'IN-CONTEXT') {\n                    $scope.data_json = incontext.generateQuestionData();\n                } else {\n                    $scope.data_json = openended.generateQuestionData();\n                }\n\n                $scope.fetched_data = $scope.data_json;\n                $scope.type = $scope.question_type_id;\n                var i = 0;\n                angular.forEach(angular.element(\".requires\"), function(value, key) {\n                    var a = angular.element(value);\n                    var field_value = '';\n                    if (a.hasClass('ckeditor')) {\n                        field_value = common_assessment_utility.getFieldValue(a.context.id, true);\n                    } else {\n                        field_value = a.val();\n                    }\n                    if (field_value.trim().length === 0) {\n                        a.parent().addClass('has-error');\n                        i++;\n                    } else {\n                        a.parent().removeClass('has-error');\n                    }\n                });\n                if (i == 0) {\n                    if (!error) {\n                        $scope.disableEdit = true;\n                        assessmentService.editQuestion($scope, $rootScope).then(function(data) {\n                            if (data.status == 200) {\n                                $scope.disableEdit = false;\n                                if ($('.textWithBlankError').parent().hasClass('has-error')) {\n                                    $('.textWithBlankError').parent().removeClass('has-error')\n                                }\n                                SweetAlert.swal(\"Success\", \"Question has been successfully edited\", \"success\");\n                                if (angular.element(\"input[name='response_type']:checked\").val() == 'with-response') {\n                                    angular.element('#answer').val('');\n                                    if (angular.element(\"input[name='grade_type']:checked\").val() == 'with-grading') {\n                                        angular.element('#sample_answer').val('');\n                                        angular.element('#feedback').val('');\n                                    } else {\n                                        angular.element('#feedback_grade').val('');\n                                    }\n                                } else {\n                                    angular.element('#sample_answer').val('');\n                                    angular.element('#feedback').val('');\n                                    angular.element('#feedback_grade').val('');\n                                }\n                                if (fromGoBack) {\n                                    if ($scope.location.$$path.indexOf('global_repo') !== -1) {\n                                        $location.path('assessment_question/' + $scope.assessment_id + '/' + $scope.project_id + '/global_repo');\n                                    } else {\n                                        $location.path('assessment_question/' + $scope.assessment_id + '/' + $scope.project_id);\n                                    }\n                                }\n                            } else {\n                                SweetAlert.swal(\"Oops...\", \"Something went wrong!\", \"error\");\n                            }\n                        });\n                    }\n                }\n            } else {\n                SweetAlert.swal(\"Oops...\", \"Question title should be not more than 255 characters\", \"error\");\n            }\n\n        }\n\n    };\n    $scope.delete = function(id) {\n        SweetAlert.swal({\n            title: \"Are you sure?\",\n            text: \"You will not be able to recover this Question!\",\n            type: \"warning\",\n            showCancelButton: true,\n            confirmButtonColor: \"#DD6B55\",\n            confirmButtonText: \"Yes, delete it!\",\n            cancelButtonText: \"No, cancel!\",\n            closeOnConfirm: false,\n            closeOnCancel: false\n        }, function(isConfirm) {\n            if (isConfirm) {\n                assessmentService.delQuestion(id).then(function(data) {\n                    if (data.status == 200) {\n                        $scope.listQuestions(1);\n                        SweetAlert.swal(\"Success\", \"Question has been deleted\", \"success\");\n                    } else {\n                        SweetAlert.swal({\n                            title: \"Cancelled\",\n                            html: data.message,\n                            type: \"error\",\n                        });\n                    }\n\n                });\n            } else {\n                SweetAlert.swal(\"Cancelled\", \"Question is safe :)\", \"error\");\n            }\n        });\n    };\n    $scope.media = {\n        type: \"no-media\"\n    };\n    $scope.$watch('media.type', function(val) {\n        if (val == 'no-media') {\n            $scope.ext_res_block = false;\n            angular.element('#ext_res_url').val('');\n            angular.element('#ext_res_title').val('');\n            angular.element('#ext_res_width').val('');\n            angular.element('#ext_res_height').val('');\n            $scope.ext_res_title = '';\n            $scope.ext_res_title_id = '';\n            $scope.ext_res_width = '';\n            $scope.ext_res_height = '';\n            $scope.ext_res_url = '';\n            angular.element('#brightcove_button').text('Add Brightcove Video');\n        } else {\n            $scope.ext_res_block = true;\n        }\n    });\n    $scope.add_media_button = false;\n    $scope.addAssestModal = function(flag) {\n        $scope.currentCkInstance = CKEDITOR.currentInstance;\n        $scope.add_media_button = true;\n        var size = 'lg';\n        var modal_form_title = 'Asset Library';\n        var modalInstance = $modal.open({\n            templateUrl: 'templates/assessment/externalResourceModal.html',\n            controller: 'ModalAssetsCtrl',\n            size: size,\n            scope: $scope,\n            backdrop: 'static',\n            keyboard: false,\n            resolve: {\n                modalFormTitle: function() {\n                    return modal_form_title;\n                },\n                project_id: function() {\n                    return $scope.project_id;\n                },\n                ext_res_url: function() {\n                    return $scope.ext_res_url;\n                },\n                ext_res_title: function() {\n                    return angular.element('#ext_res_title').val();\n                },\n                ext_res_type: function() {\n                    return angular.element('#ext_res_type').val();\n                },\n                flag: function() {\n                    return flag;\n                },\n                from_global_repo: function() {\n                    return $scope.is_global_project;\n                }\n            }\n        });\n        modalInstance.result.then(function(modalCloseParameter) {\n            // modalCloseParameter\n            $scope.add_media_button = false;\n            if (modalCloseParameter != null) {\n                $scope.ext_res_url = modalCloseParameter.ext_res_location;\n                $scope.ext_res_title = modalCloseParameter.ext_res_title;\n                $scope.ext_res_type = modalCloseParameter.ext_res_type;\n                $scope.mediaSelected = true;\n                angular.element('#ext_res_url').val($scope.ext_res_url);\n                angular.element('#ext_res_title').val($scope.ext_res_title);\n                angular.element('#ext_res_type').val($scope.ext_res_type);\n                angular.element('#ext_res_width').val('');\n                angular.element('#ext_res_height').val('');\n                $scope.ext_res_title_id = '';\n                $scope.ext_res_width = '';\n                $scope.ext_res_height = '';\n                angular.element('#media_type').val('assets');\n                if ($scope.ext_res_type == 'image' || $scope.ext_res_type == 'Image') {\n                    $scope.ext_ico_block = true;\n                } else {\n                    $scope.ext_ico_block = false;\n                }\n                $scope.add_media_button = false;\n            }\n        }, function() {\n            $scope.add_media_button = false;\n            $log.info('Modal dismissed at: ' + new Date());\n        });\n    };\n    $scope.addBrightCoveModal = function() {\n        $scope.add_media_button = true;\n        var size = 'md';\n        var modal_form_title = 'Brightcove Configuration';\n        var modalInstance = $modal.open({\n            templateUrl: 'templates/assessment/brightcoveModal.html',\n            controller: 'ModalBrightcoveCtrl',\n            size: size,\n            backdrop: 'static',\n            keyboard: false,\n            resolve: {\n                modalFormTitle: function() {\n                    return modal_form_title;\n                },\n                brightCoveId: function() {\n                    return $scope.ext_res_title_id;\n                },\n                brightCoveWidth: function() {\n                    return parseInt($scope.ext_res_width);\n                },\n                brightCoveHeight: function() {\n                    return parseInt($scope.ext_res_height);\n                }\n            }\n        });\n        modalInstance.result.then(function(modalCloseParameter) {\n            $scope.ext_res_url = modalCloseParameter.ext_res_location;\n            $scope.ext_res_title = '<b>Video ID:</b> <br>' + modalCloseParameter.ext_res_title;\n            $scope.ext_res_title_id = modalCloseParameter.ext_res_title;\n            $scope.ext_res_width = parseInt(modalCloseParameter.ext_res_width);\n            $scope.ext_res_height = parseInt(modalCloseParameter.ext_res_height);\n            $scope.ext_res_type = modalCloseParameter.ext_res_type;\n            angular.element('#ext_res_title').val($scope.ext_res_title);\n            angular.element('#ext_res_url').val($scope.ext_res_url);\n            angular.element('#ext_res_title_id').val($scope.ext_res_title_id);\n            angular.element('#media_type').val('brightcove');\n            angular.element('#ext_res_width').val($scope.ext_res_width);\n            angular.element('#ext_res_height').val($scope.ext_res_height);\n            angular.element('#brightcove_button').text('Edit Brightcove Video');\n            $scope.ext_ico_block = false;\n            $scope.add_media_button = false;\n        }, function() {\n            $scope.add_media_button = false;\n            $log.info('Modal dismissed at: ' + new Date());\n        });\n    };\n    $scope.questionSelect = function() {\n        var size = 'lg';\n        var modal_form_title = 'Select Questions';\n        var modalInstance = $modal.open({\n            templateUrl: 'templates/assessment/questionModal.html',\n            controller: 'ModalQuestionSelectCtrl',\n            size: size,\n            backdrop: 'static',\n            keyboard: false,\n            resolve: {\n                modalFormTitle: function() {\n                    return modal_form_title;\n                },\n                project_id: function() {\n                    return $scope.project_id;\n                },\n                project_type_id: function() {\n                    return $scope.project_type_id;\n                },\n                selected_questions: function() {\n                    var subquestions = [];\n                    var total_subquestions = $('.question-container').length;\n                    for (var i = 1; i <= total_subquestions; i++) {\n                        subquestions.push($('#selected_question_' + i).val());\n                    }\n                    return subquestions;\n                }\n            }\n        });\n        modalInstance.result.then(function(modalCloseParameter) {\n            $scope.selected_data = modalCloseParameter.selected_data;\n            multipart.renderSubquestion(modalCloseParameter.selected_data);\n        });\n    };\n    $scope.parseJson = function(json) {\n        return JSON.parse(json);\n    };\n    $scope.deleteResource = function() {\n        $scope.ext_res_url = '';\n        $scope.ext_res_title = null;\n        $scope.ext_res_type = '';\n        $scope.ext_res_width = '';\n        $scope.ext_res_height = '';\n        $scope.ext_res_title_id = '';\n        angular.element('#ext_res_title').val('');\n        angular.element('#ext_res_url').val('');\n        angular.element('#media_type').val('');\n        angular.element('#ext_res_width').val('');\n        angular.element('#ext_res_height').val('');\n        angular.element('#brightcove_button').text('Add Brightcove Video');\n    };\n    //Preview Questions\n    $scope.preview_button_disabled = false;\n    $scope.preview_question = function(search_name) {\n        $scope.preview_button_disabled = true;\n        var size = 'lg';\n        var modal_form_title = 'Question Preview';\n        var modalInstance = $modal.open({\n            templateUrl: 'templates/assessment/previewModal.html',\n            controller: 'ModalPreviewCtrl',\n            size: size,\n            backdrop: 'static',\n            keyboard: false,\n            resolve: {\n                modalFormTitle: function() {\n                    return modal_form_title;\n                },\n                shortcode: function() {\n                    return search_name;\n                },\n                project_id: function() {\n                    return $scope.project_id;\n                },\n                project_type_id: function() {\n                    return $scope.project_type_id;\n                },\n                entity_type_id: function() {\n                    return 3;\n                }\n            }\n        });\n        modalInstance.result.then(function(modalCloseParameter) {}, function() {\n            $scope.preview_button_disabled = false;\n            $log.info('Modal dismissed at: ' + new Date());\n        });\n    };\n    // when authoring content is loaded including javascript\n    $scope.contentLoaded = function() {\n        if (angular.isDefined($routeParams.question_id)) { // edit questing\n            $scope.enableEdit = true;\n            setTimeout(function() {\n                $scope.getQuestionDetails($scope.assessment_id, $scope.question_id);\n            }, 1800);\n        }\n    };\n    $scope.checkType = function(question_type_id) {\n        for (var i = 0; i < $scope.question_types.length; i++) {\n            if ($scope.question_types[i].id == question_type_id) {\n                return $scope.question_types[i].name;\n            }\n        }\n    };\n    $scope.bindEvent = function(elem) {\n        $scope.elem = elem;\n        var modalInstance = $modal.open({\n            template: '<div class=\"modal-header\" style=\"background:white\"><h4 class=\"modal-title\" id=\"myModalLabel\">Configure Image</h4></div><div class=\"modal-body\"  style=\"background:white\"><form class=\"\"><div class=\"row\"><div class=\"col-sm-5\"><div class=\"form-group\"><label class=\"control-label\" for=\"width\">Width:</label><input type=\"number\" ng-model=\"imgWidth\" ng-change=\"adjustAspectRatio(this)\" class=\"form-control\" id=\"width\" placeholder=\"Enter width\"></div></div><div class=\"col-sm-5\"><div class=\"form-group\"><label class=\"control-label\" for=\"height\">Height:</label><input type=\"number\" ng-change=\"adjustAspectRatio(this)\" class=\"form-control\" ng-model=\"imgHeight\" id=\"height\" placeholder=\"Enter height\"></div></div><div class=\"col-sm-2\"><div class=\"form-group\"><label class=\"control-label\"></label><div style=\"margin-top: 5px;\"><button ng-click=\"resetImageSize()\" class=\"btn btn-default\"><i class=\"fa fa-refresh\" aria-hidden=\"true\"></i></button></div></div></div><div class=\"col-sm-12\"><div class=\"form-group\"><label class=\"control-label\" for=\"height\">Alt Text:</label><input type=\"text\"  class=\"form-control\" ng-model=\"altText\" id=\"height\" placeholder=\"Enter alternative text\"></div><div class=\"col-sm-12\"><div class=\"form-group\"><div><label class=\"control-label\" for=\"height\">Alignment:</label></div><label class=\"radio-inline\"><input type=\"radio\" name=\"inlineRadioOptions\" alignImg=\"none\" class=\"configRad\"   id=\"inlineRadio1\" checked value=\"option1\">None</label><label class=\"radio-inline\"><input type=\"radio\" name=\"inlineRadioOptions\" alignImg=\"left\" class=\"configRad\" id=\"inlineRadio2\" value=\"option2\">Left </label><label class=\"radio-inline\"><input type=\"radio\" name=\"inlineRadioOptions\" alignImg=\"center\" class=\"configRad\"  id=\"inlineRadio3\" value=\"option3\">Center </label><label class=\"radio-inline\"><input type=\"radio\" name=\"inlineRadioOptions\" alignImg=\"right\" class=\"configRad\"  id=\"inlineRadio4\" value=\"option4\">Right </label></div></div></div></form></div><div class=\"modal-footer\"><div class=\"row\"><div class=\"col-sm-4 text-left\"><button ng-click=\"deleteImg()\" class=\"btn btn-default\">Delete image</button></div><div class=\"col-sm-8 text-right\"><button type=\"button\" class=\"btn btn-default\" ng-click=\"dismissModal()\" data-dismiss=\"modal\">Cancel</button><button ng-click=\"ConfigureImg()\" class=\"btn btn-primary\">Submit</button></div></div></div>',\n            backdrop: 'static',\n            controller: 'ckImgController',\n            scope: $scope,\n            keyboard: false,\n            resolve: {\n                elem: function() {\n                    return $scope.elem;\n                }\n            }\n        });\n        modalInstance.result.then(function(params) {\n            var height = params.height;\n            var width = params.width;\n            var altText = params.altText;\n            var radChecked = params.checked;\n            $(params.elem.currentTarget).attr('height', height).attr('width', width).attr('alt', altText).attr('radChecked', radChecked);\n        }, function() {\n            $log.info('Modal dismissed at: ' + new Date());\n        });\n    };\n\n    $scope.jsRegisterer = function(elem) {\n        $(elem).off().on('dblclick click', $scope.bindEvent.bind(this));\n    };\n    /*\n     *@description : check the sentence format for FIB type,whether for example,[[1]] exists atleast one in the sentence\n     *@author : Meghamala Mukherjee\n     *@created on 21st August,2017\n     */\n    $scope.checkTextWithBlankFormat = function() {\n        var queTextwithblanks = this.textwith_blanks;\n        if (!queTextwithblanks.match(/(\\[\\[[1]]])/gi)) {\n            angular.element('.textWithBlankError').css('display', 'block');\n            this.textwith_blanks = '';\n        } else {\n            angular.element('.textWithBlankError').css('display', 'none');\n        }\n    };\n}]);\napp.controller('ckImgController', function($scope, $modalInstance, elem) {\n    $scope.imgWidth = elem.currentTarget.clientWidth;\n    $scope.imgHeight = elem.currentTarget.clientHeight;\n    $scope.altText = elem.currentTarget.getAttribute('alt');\n    window.setTimeout(function() {\n        angular.element('#' + elem.currentTarget.getAttribute('radChecked')).prop('checked', true);\n    }, 200);\n\n    $scope.ConfigureImg = function() {\n        var params = $scope.resizeImg();\n        params.checked = angular.element('.configRad:checked').attr('id');\n        $scope.imgAlignment(angular.element('.configRad:checked')[0]);\n\n        $modalInstance.close(params);\n    }\n    $scope.dismissModal = function() {\n        $modalInstance.dismiss('cancel');\n    }\n    $scope.adjustAspectRatio = function() {\n        var trueWidth = $scope.getDimension().trueWidth;\n        var trueHeight = $scope.getDimension().trueHeight;\n        var htRatio = (trueHeight / (trueHeight + trueWidth));\n        var widRatio = 1 - htRatio;\n        if (event.target.getAttribute('id') === 'height') {\n            var currHt = $scope.imgHeight;\n            var newWidth = parseInt(currHt * widRatio / htRatio);\n            $scope.imgWidth = newWidth;\n        }\n        if (event.target.getAttribute('id') === 'width') {\n            var currWd = $scope.imgWidth;\n            var newHeight = parseInt(currWd * htRatio / widRatio);\n            $scope.imgHeight = newHeight;\n        }\n\n    }\n    $scope.getDimension = function() {\n        var dimension = {\n            \"trueWidth\": elem.currentTarget.clientWidth,\n            \"trueHeight\": elem.currentTarget.clientHeight\n        }\n        return dimension;\n    }\n    $scope.imgAlignment = function(element) {\n        if (angular.element(elem.currentTarget).parents('p').length === 0) {\n            angular.element(elem.target).wrap('<p></p>');\n        }\n        if (element.getAttribute('alignImg') === 'center') {\n            angular.element(elem.currentTarget).parents('p')[0].style.textAlign = 'center';\n            elem.currentTarget.removeAttribute('style');\n        } else {\n            elem.currentTarget.style.float = element.getAttribute('alignImg');\n            angular.element(elem.currentTarget).parents('p')[0].removeAttribute('style');\n        }\n    }\n    $scope.resetImageSize = function() {\n        $scope.imgWidth = elem.currentTarget.naturalWidth;\n        $scope.imgHeight = elem.currentTarget.naturalHeight;\n    }\n    $scope.deleteImg = function() {\n        angular.element(elem.currentTarget).parents('p')[0].removeAttribute('style');\n        elem.currentTarget.remove();\n        $modalInstance.dismiss('cancel');\n    }\n    $scope.resizeImg = function() {\n        var params = {\n            height: this.imgHeight,\n            width: this.imgWidth,\n            altText: this.altText,\n            elem: elem\n        }\n        return params;\n\n    }\n});\napp.controller('ModalPreviewCtrl', function($scope, assessmentService, sessionService, $modalInstance, modalFormTitle, shortcode, project_id, project_type_id, entity_type_id) {\n    $scope.modalFormTitle = modalFormTitle;\n    $scope.repo_id = shortcode;\n    $scope.project_id = project_id;\n    $scope.project_type_id = project_type_id;\n    $scope.entity_type_id = entity_type_id;\n    assessmentService.getQuestionPreview($scope).then(function(data) {\n        if (data.status === 200) {\n            angular.element('#parentFrame').attr('src', data.widget_launch_file);\n            angular.element('#parentFrame').attr('data-path', data.json_file_path);\n            var lastPos;\n            $(window).on(\"message\", function(data) {\n                //mock implementation of parents message listener\n                if (data.originalEvent.data.height) {\n                    if (data.originalEvent.data.type == 'adjustIframe') {\n                        lastPos = $(window).scrollTop();\n                    }\n\n\n                    angular.element('#parentFrame').css({ 'height': data.originalEvent.data.height, overflow: data.originalEvent.data.overflow });\n                    var scrollTo = angular.element('#parentFrame').offset().top;\n                    if (data.originalEvent.data.scroll) {\n\n                        $(window).scrollTop(scrollTo)\n                    }\n                    if (data.originalEvent.data.type == 'close') {\n                        $(window).scrollTop(lastPos)\n                    }\n\n                }\n                var iframeWindow = angular.element('#parentFrame')[0].contentWindow;\n                var dataPath = angular.element('#parentFrame').attr(\"data-path\");\n                iframeWindow.postMessage({\n                    \"data_path\": dataPath\n                }, \"*\");\n            });\n        } else {\n\n        }\n\n    });\n    $scope.cancel = function() {\n        $modalInstance.dismiss('cancel');\n    };\n});\napp.controller('ModalInstanceQuestionCtrl', function($scope, $location, assessmentService, sessionService, $modalInstance, modalFormText, modalFormTile, project_id, assessment_id, project_permissions, question_types) {\n    $scope.showedit = 0;\n    $scope.modalFormText = modalFormText;\n    $scope.modalFormTile = modalFormTile;\n    $scope.project_id = project_id;\n    $scope.assessment_id = assessment_id;\n    $scope.question_types = question_types;\n    $scope.location = $location;\n    $scope.user_permissions = JSON.parse(sessionService.get('user_permissions'));\n    $scope.project = {\n        'project_permissions': project_permissions\n    };\n    $scope.add = function() {\n        $scope.formError = {\n            'question_type': ''\n        };\n        if (angular.isDefined($scope.question_type) && $scope.question_type != '') {\n            var modalCloseParameter = {\n                question_type_id: $scope.question_type.id,\n                project_id: $scope.project_id,\n                assessment_id: $scope.assessment_id\n            };\n            $modalInstance.close(modalCloseParameter);\n        } else {\n            $scope.formError = {\n                'question_type': 'Choose a type'\n            };\n        }\n\n    };\n    $scope.addGlobal = function() {\n        $scope.formError = {\n            'question_type': ''\n        };\n        if (angular.isDefined($scope.question_type) && $scope.question_type != '') {\n            var modalCloseParameter = {\n                question_type_id: $scope.question_type.id,\n                project_id: $scope.project_id,\n                assessment_id: $scope.assessment_id,\n                global: '1'\n            };\n            $modalInstance.close(modalCloseParameter);\n        } else {\n            $scope.formError = {\n                'question_type': 'Choose a type'\n            };\n        }\n\n    };\n    $scope.cancel = function() {\n        $modalInstance.dismiss('cancel');\n    };\n});\napp.controller('ModalAssetsCtrl', function($scope, $modalInstance, assetService, project_id, modalFormTitle, ext_res_url, ext_res_title, ext_res_type, objectService, SweetAlert, flag, keyValueService, tagService, taxonomyService, userService, ivhTreeviewMgr, $compile, $filter, paginationService, from_global_repo) {\n    $scope.cancel = function() {\n        $modalInstance.dismiss('cancel');\n    };\n    $scope.ext_res_location = ext_res_url;\n    $scope.modalFormTitle = modalFormTitle;\n    $scope.project_id = project_id;\n    $scope.taxonomy_id = 0;\n    $scope.searchModel = {\n        \"search_text\": ''\n    };\n    $scope.advanced_search = {\n        \"active\": null\n    };\n    if (flag) {\n        $scope.asset_filter = {\n            \"images\": true,\n            \"videos\": false,\n            \"gadgets\": false\n        };\n    } else {\n        $scope.asset_filter = {\n            \"images\": true,\n            \"videos\": true,\n            \"audio\": true,\n            \"gadgets\": false\n        };\n    }\n\n    $scope.asset_local_global = {\n        \"local\": true,\n        \"global\": true\n    };\n    $scope.pageNumber = 1;\n    $scope.itemsPerPage = 8;\n    $scope.ext_res_location = ext_res_url;\n    $scope.ext_res_title = ext_res_title;\n    $scope.ext_res_type = ext_res_type;\n    $scope.meta_deta_search = false;\n    $scope.is_global_project = false;\n    if (from_global_repo) {\n        $scope.asset_local_global.local = false;\n        $scope.asset_local_global.global = true;\n        $scope.is_global_project = true;\n    }\n\n    $scope.getAssets = function(pageNumber) {\n        $scope.removeErrors = 1;\n        $scope.showCheckAll = 0;\n        $scope.showMakeGlobal = 0;\n        $scope.pageNumber = pageNumber;\n        $scope.itemsPerPage = 8;\n        assetService.getMimes().then(function(mimes) {\n            angular.element('#submit_resource').attr('disabled', 'disabled');\n            $scope.mimes = mimes.data;\n            assetService.getAssets($scope).then(function(data) {\n                $scope.assets = data.data;\n                //50 nano seconds delay\n                setTimeout(function() {\n                    angular.element('.label-checkbox').removeAttr('style');\n                    angular.forEach($scope.assets, function(value, key) {\n                        if (value.asset_location == $scope.ext_res_location) {\n                            value.Selected = $scope.ext_res_location;\n                            value.Style = \"opacity:1 !important;\";\n                            angular.element('#check-box-label-' + $scope.asset_id).attr('style', 'opacity:1 !important;');\n                            angular.element('#submit_resource').attr('disabled', false);\n                            angular.element('#submit_resource').focus();\n                        }\n                        //                    else if ($scope.ext_res_location == '') {\n                        //                        angular.element('#submit_resource').attr('disabled', 'disabled');\n                        //                    } else {\n                        //                        angular.element('#submit_resource').attr('disabled', false);\n                        //                    }\n                    });\n                }, 50);\n                $scope.totalAssets = data.totalAssets;\n                $scope.removeErrors = angular.isDefined(data.totalAssets) ? data.totalAssets : 0;\n            });\n        });\n    };\n    $scope.getAssets(1);\n\n    //Get Project Detail\n    $scope.getProject = function() {\n        $scope.project_name = '';\n        if ($scope.object_id != '') {\n            objectService.getProjectDetails($scope).then(function(data) {\n                $scope.project_name = data.name;\n                $scope.project_type_id = data.project_type_id;\n                $scope.toc_creation_status = data.toc_creation_status;\n                $scope.project = data;\n                $scope.actual_permission = data.project_permissions['asset.use_global'].grant;\n            });\n        }\n    };\n    $scope.getProject();\n    //For Pagination Of Dashboard\n    $scope.pageChangeHandlerAsset = function(newPage) {\n        angular.element('.label-checkbox').removeAttr('style');\n        $scope.getAssets(newPage);\n        if (angular.isDefined($scope.ext_res_location)) {\n            angular.element('#submit_resource').removeAttr('disabled');\n            angular.element('#submit_resource').focus();\n        }\n\n    };\n    $scope.setCurrentPageNumber = function(num) {\n        paginationService.setCurrentPage('assetListId', num);\n    };\n    /*$scope.$watch('search_text', function (val) {\n        $scope.advanced_search.active = false;\n        $scope.advanced_search.enableSearch = false;\n        $scope.searchModel = {\n            \"search_text\": val\n        };\n        $scope.getAssets(1);\n    });*/\n    $scope.search = function() {\n        if (!$scope.search_text) {\n            SweetAlert.swal(\"Error\", \"Please enter value in search box\", \"error\");\n            return false;\n        }\n        $scope.advanced_search.active = false;\n        $scope.advanced_search.heading = 'Search Result For: ' + $scope.search_text;\n        $scope.advanced_search.enableSearch = true;\n        $scope.advanced_search.isCollapsed = false;\n        $scope.searchModel = {\n            \"search_text\": $scope.search_text\n        };\n        //Set the pagination\n        if ($scope.pageNumber > 1) { $scope.setCurrentPageNumber(1); } else { $scope.getAssets(1); }\n    }\n    $scope.apply_filter = function() {\n        $scope.getAssets();\n    };\n    $scope.selectOption = function(asset_id, asset_location, title, type, is_global) {\n        if (is_global === 1 && $scope.actual_permission === false) {\n            angular.element('.label-checkbox').removeAttr('style');\n            angular.element('#submit_resource').attr('disabled', 'disabled');\n            SweetAlert.swal(\"Cancelled\", \"Permission Denied!\", \"error\");\n        } else {\n            angular.element('.label-checkbox').removeAttr('style');\n            angular.element('#check-box-label-' + asset_id).attr('style', 'opacity:1 !important;');\n            $scope.ext_res_location = asset_location;\n            $scope.ext_res_title = title;\n            $scope.ext_res_type = type;\n            $scope.asset_id = asset_id;\n            angular.element('#submit_resource').attr('disabled', false);\n            angular.element('#submit_resource').focus();\n        }\n    };\n    $scope.submitResource = function(callby) {\n        if ($scope.currentCkInstance) {\n            var oEditor = $scope.currentCkInstance;\n            var html = \"<img class='ckImg' alt='' width='' height= '' src='\" + $scope.ext_res_location + \"'/>\";\n\n            var newElement = CKEDITOR.dom.element.createFromHtml(html, oEditor.document);\n            oEditor.insertElement(newElement);\n            var elem = oEditor.document.find('.ckImg').$;\n            //oEditor.on('setData', $scope.jsRegisterer(oEditor.document.find('.ckImg').$));\n            $(elem).off().on('click', $scope.bindEvent.bind(this));\n            $modalInstance.close(null);\n        } else {\n            var modalCloseParameter = {\n                ext_res_location: $scope.ext_res_location,\n                ext_res_title: $scope.ext_res_title,\n                ext_res_type: $scope.ext_res_type\n            };\n            $modalInstance.close(modalCloseParameter);\n        }\n    };\n\n    //=========================================//\n    //Advance Search For Metadata = Starts Here\n    //=========================================//\n    $scope.node_id = 0;\n    $scope.advanced_search = {};\n    $scope.advanced_search.enableSearch = false;\n    $scope.advanced_search.title = '';\n    $scope.advanced_search.active = false;\n    $scope.advanced_search.isCollapsed = false;\n    $scope.advanced_search.heading = 'Advanced Search Result:';\n\n    $scope.advanced_search.key_data = {};\n    $scope.advanced_search.value_data = {};\n    $scope.advanced_search.totalKeyArea = 0;\n    $scope.advanced_search.taxonomy = [];\n    $scope.tplFolderOpen = '<span class=\"twistie glyphicon glyphicon-folder-open\"></span>&nbsp;&nbsp;';\n    $scope.tplFolderClose = '<span class=\"twistie glyphicon glyphicon-folder-close\"></span>&nbsp;&nbsp;';\n    $scope.tplLeaf = '<span class=\"twistie glyphicon glyphicon-book\"></span>&nbsp;&nbsp;';\n\n    // get taxonomy\n    $scope.taxonomyStatus = 1001;\n    taxonomyService.getTaxonomy($scope, $scope.node_id).then(function(data) {\n        if (data.status == 200) {\n            if (data.data != null && angular.isDefined(data.data.children)) {\n                $scope.advanced_search.taxonomy = data.data.children;\n                // expand nodes\n                ivhTreeviewMgr.expandRecursive($scope.advanced_search.taxonomy, $scope.advanced_search.taxonomy);\n            }\n        }\n\n    });\n\n    // get tags\n    var tags = [];\n    var object_tags = [];\n\n\n    $scope.advanced_search.tag = {\n        multiple: true,\n        data: tags\n    };\n    tagService.getTagsByObject($scope, $scope.node_id).then(function(data) {\n        if (data.status == 200) {\n            if (data.data != null && angular.isDefined(data.data.tags)) {\n                angular.forEach(data.data.tags, function(value, key) {\n                    tags[key] = { id: value.id, text: value.text };\n                });\n                $scope.advanced_search.tag.data = tags;\n                if (angular.isDefined(data.data.object_tags)) {\n                    angular.forEach(data.data.object_tags, function(value, key) {\n                        object_tags[key] = { id: value.id, text: value.text };\n                    });\n                    $scope.advanced_search.tagValue = object_tags;\n                }\n            }\n        }\n\n    });\n\n    // get owners\n    var owners = [];\n    var object_owners = [];\n\n    $scope.advanced_search.owner = {\n        multiple: true,\n        data: owners\n    };\n\n    userService.getUsers($scope).then(function(data) {\n        if (data.status == 200) {\n            if (data.data != null) {\n                angular.forEach(data.data, function(value, key) {\n                    owners[key] = { id: value.id, text: value.username };\n                });\n                $scope.advanced_search.owner.data = owners;\n            }\n        }\n\n    });\n\n    $scope.keyOptions = '<option value=\"\"></option>';\n    $scope.keyValueData = '';\n    // get key values\n    keyValueService.getKeyValuesByObject($scope, $scope.node_id).then(function(data) {\n        //        if (data.projectPermissionGranted == 401) {\n        //            SweetAlert.swal(\"Cancelled\", \"Access prohibited!\", \"error\");\n        //            $location.path(\"dashboard\");\n        //        }\n        if (data.status == 200) {\n            $scope.keyValueData = data.data;\n            if (data.data != null && angular.isDefined(data.data.key_values)) {\n                angular.forEach(data.data.key_values, function(value) {\n                    if (value.key_name != 'License Type' && value.key_name != 'License Valid Till') {\n                        $scope.keyOptions = $scope.keyOptions + '<option value=\"' + value.id + '\">' + $filter('strLimit')(value.key_name, 20) + '</option>';\n                    }\n                });\n                setTimeout(function() {\n                    $scope.totalKeyArea = $scope.totalKeyArea + 1;\n                    var newKeyAreaHtml = $scope.generateKeyValue($scope.totalKeyArea);\n                    angular.element(\"#advancedSearchKeyValuesAreaId\").append($compile(newKeyAreaHtml)($scope));\n                }, 500);\n            }\n\n            if (data.count == 0) {\n                setTimeout(function() {\n                    $scope.totalKeyArea = $scope.totalKeyArea + 1;\n                    var newKeyAreaHtml = $scope.generateKeyValue($scope.totalKeyArea);\n                    angular.element(\"#advancedSearchKeyValuesAreaId\").append($compile(newKeyAreaHtml)($scope));\n                }, 500);\n            }\n        }\n    });\n\n\n    $scope.addKeyValue = function() {\n        $scope.advanced_search.totalKeyArea = $scope.advanced_search.totalKeyArea + 1;\n        var newKeyAreaHtml = $scope.generateKeyValue($scope.advanced_search.totalKeyArea);\n        angular.element(\"#advancedSearchKeyValuesAreaId\").append($compile(newKeyAreaHtml)($scope));\n    };\n\n\n    $scope.onChangeKeyUpdateValue = function(key) {\n        var keyId = $scope.advanced_search.key_data['key_' + key];\n        angular.forEach($scope.keyValueData.key_values, function(value) {\n            if (value.id == keyId) {\n                if (value.key_type == 'select_list') {\n                    var valueSelect = '<select style=\"width:100%\" ui-select2 ng-model=\"advanced_search.value_data.key_' + key + '\" data-placeholder=\"Select a Value\">';\n                    valueSelect += '<option value=\"\"></option>';\n                    angular.forEach(value.values, function(valueObj) {\n                        valueSelect += '<option value=\"' + valueObj.value_id + '\">' + valueObj.value + '</option>';\n                    });\n                    valueSelect += '</select>';\n                    valueSelect += '<div class=\"input-group-btn\"><button type=\"button\" class=\"btn btn-success\" ng-click=\"addKeyValue()\"><i class=\"fa fa-plus\"></i></button><button type=\"button\" class=\"btn btn-danger\" ng-click=\"removeKeyValue(\\'advancedSearchKeyValuesArea_' + key + '\\')\"><i class=\"fa fa-trash\"></i></button></div>';\n                    angular.element(\"#advancedSearchKeyValueAreaValue_\" + key).html($compile(valueSelect)($scope));\n                } else if (value.key_type == 'date_entry') {\n                    //$scope.value_data['key_' + key] = null;\n                    var valueInput = '<input type=\"text\" class=\"form-control\" ng-model=\"advanced_search.value_data.key_' + key + '\" data-date-format=\"MM-dd-yyyy\" data-date-type=\"string\" data-min-date=\"02/10/86\" data-autoclose=\"1\" name=\"advanced_search.value_data.key_' + key + '\" bs-datepicker>';\n                    valueInput += '<div class=\"input-group-btn\"><button type=\"button\" class=\"btn btn-success\" ng-click=\"addKeyValue()\"><i class=\"fa fa-plus\"></i></button><button type=\"button\" class=\"btn btn-danger\" ng-click=\"removeKeyValue(\\'advancedSearchKeyValuesArea_' + key + '\\')\"><i class=\"fa fa-trash\"></i></button></div>';\n                    angular.element(\"#advancedSearchKeyValueAreaValue_\" + key).html($compile(valueInput)($scope));\n                } else if (value.key_type == 'time_entry') {\n                    //$scope.value_data['key_' + key] = null;\n                    var valueInput = '<input type=\"text\" data-time-type=\"string\" data-time-format=\"HH:mm\" data-length=\"1\" data-minute-step=\"1\" class=\"form-control\" ng-model=\"advanced_search.value_data.key_' + key + '\"  name=\"value_data.key_' + key + '\" bs-timepicker data-arrow-behavior=\"picker\" data-autoclose=\"1\">';\n                    valueInput += '<div class=\"input-group-btn\"><button type=\"button\" class=\"btn btn-success\" ng-click=\"addKeyValue()\"><i class=\"fa fa-plus\"></i></button><button type=\"button\" class=\"btn btn-danger\" ng-click=\"removeKeyValue(\\'advancedSearchKeyValuesArea_' + key + '\\')\"><i class=\"fa fa-trash\"></i></button></div>';\n                    angular.element(\"#advancedSearchKeyValueAreaValue_\" + key).html($compile(valueInput)($scope));\n\n                } else if (value.key_type == 'number_entry') {\n                    //$scope.value_data['key_' + key] = null;\n                    var valueInput = '<input type=\"number\" class=\"form-control\" ng-model=\"advanced_search.value_data.key_' + key + '\">';\n                    valueInput += '<div class=\"input-group-btn\"><button type=\"button\" class=\"btn btn-success\" ng-click=\"addKeyValue()\"><i class=\"fa fa-plus\"></i></button><button type=\"button\" class=\"btn btn-danger\" ng-click=\"removeKeyValue(\\'advancedSearchKeyValuesArea_' + key + '\\')\"><i class=\"fa fa-trash\"></i></button></div>';\n                    angular.element(\"#advancedSearchKeyValueAreaValue_\" + key).html($compile(valueInput)($scope));\n\n                } else {\n                    var valueInput = '<input type=\"text\"  placeholder=\"Enter value\" class=\"form-control\" ng-model=\"advanced_search.value_data.key_' + key + '\">';\n                    valueInput += '<div class=\"input-group-btn\"><button type=\"button\" class=\"btn btn-success\" ng-click=\"addKeyValue()\"><i class=\"fa fa-plus\"></i></button><button type=\"button\" class=\"btn btn-danger\" ng-click=\"removeKeyValue(\\'advancedSearchKeyValuesArea_' + key + '\\')\"><i class=\"fa fa-trash\"></i></button></div>';\n                    angular.element(\"#advancedSearchKeyValueAreaValue_\" + key).html($compile(valueInput)($scope));\n                }\n            }\n        });\n\n    };\n\n    $scope.removeKeyValue = function(keyValueArea) {\n        angular.element(\"#\" + keyValueArea).remove();\n        var keyArray = keyValueArea.split('_');\n        delete $scope.advanced_search.key_data['key_' + keyArray[1]];\n        delete $scope.advanced_search.value_data['key_' + keyArray[1]];\n        if (angular.element(\".advanced-search-key-values-area\").length == 0) {\n            $scope.advanced_search.totalKeyArea = 1;\n            $scope.advanced_search.key_data = {};\n            $scope.advanced_search.value_data = {};\n            var newKeyAreaHtml = $scope.generateKeyValue($scope.advanced_search.totalKeyArea);\n            angular.element(\"#advancedSearchKeyValuesAreaId\").append($compile(newKeyAreaHtml)($scope));\n        }\n\n    };\n\n    $scope.generateKeyValue = function(key) {\n        var keySelect = '<div class=\"form-group\"><div class=\"row advanced-search-key-values-area\" id=\"advancedSearchKeyValuesArea_' + key + '\">';\n        keySelect += '<div class=\"col-sm-6\"><label for=\"metadataValue\">Key</label><select style=\"width:100%\" ng-change=\"onChangeKeyUpdateValue(\\'' + key + '\\')\" ui-select2 ng-model=\"advanced_search.key_data.key_' + key + '\" data-placeholder=\"Select a Key\">';\n        keySelect += $scope.keyOptions + '</select></div>';\n        keySelect += '<div class=\"col-sm-6\"><label for=\"metadataValue\">Value</label><div class=\"input-group adv-input-group\" id=\"advancedSearchKeyValueAreaValue_' + key + '\"><input type=\"text\" class=\"form-control\" ng-model=\"advanced_search.value_data.key_' + key + '\" placeholder=\"Enter value\"><div class=\"input-group-btn\"><button type=\"button\" class=\"btn btn-success\" ng-click=\"addKeyValue()\"><i class=\"fa fa-plus\"></i></button><button type=\"button\" class=\"btn btn-danger\" ng-click=\"removeKeyValue(\\'advancedSearchKeyValuesArea_' + key + '\\')\"><i class=\"fa fa-trash\"></i></button></div></div></div>';\n        return keySelect;\n    };\n\n    $scope.applyAdvancedSearch = function() {\n        $scope.advanced_search.heading = 'Advanced Search Result:';\n        $scope.advanced_search.enableSearch = true;\n        $scope.advanced_search.active = true;\n        $scope.advanced_search.isCollapsed = false;\n        //Set the pagination\n        if ($scope.pageNumber > 1) { $scope.setCurrentPageNumber(1); } else { $scope.getAssets(1); }\n    };\n\n    $scope.clearSearch = function() {\n        $scope.advanced_search.active = false;\n        $scope.search_text = '';\n        $scope.searchModel = {\n            \"search_text\": ''\n        };\n        $scope.advanced_search.enableSearch = false;\n        $scope.applyAdvancedClear();\n        //angular.element('.label-checkbox').removeAttr('style');\n        //Set the pagination\n        if ($scope.pageNumber > 1) { $scope.setCurrentPageNumber(1); } else { $scope.getAssets(1); }\n    };\n\n    $scope.toggleAdvanceSearch = function() {\n        if ($scope.advanced_search.isCollapsed) {\n            $scope.advanced_search.isCollapsed = false;\n            if ($scope.advanced_search.active) {\n                $scope.advanced_search.enableSearch = true;\n            }\n        } else {\n            $scope.advanced_search.isCollapsed = true;\n            $scope.advanced_search.enableSearch = false;\n        }\n    };\n\n    $scope.applyAdvancedClear = function() {\n        $scope.advanced_search.totalKeyArea = $scope.advanced_search.totalKeyArea + 1;\n        var newKeyAreaHtml = $scope.generateKeyValue($scope.advanced_search.totalKeyArea);\n        angular.element(\"#advancedSearchKeyValuesAreaId\").html($compile(newKeyAreaHtml)($scope));\n        $scope.advanced_search.tagValue = [];\n        $scope.advanced_search.ownerValue = [];\n        $scope.advanced_search.title = '';\n        $scope.advanced_search.key_data = {};\n        $scope.advanced_search.value_data = {};\n        ivhTreeviewMgr.deselectAll($scope.advanced_search.taxonomy);\n    };\n\n    $scope.generateAdvanceSearchTerm = function() {\n        var searchTerm = [];\n        var tagList = $scope.advanced_search.tagValue;\n        if (tagList.length > 0) {\n            angular.forEach(tagList, function(tag) {\n                searchTerm.push(tag.text);\n            });\n        }\n        var ownerList = $scope.advanced_search.ownerValue;\n        if (ownerList.length > 0) {\n            angular.forEach(ownerList, function(owner) {\n                searchTerm.push(owner.text);\n            });\n        }\n        var taxonomyList = $scope.selectedTaxonomy;\n        if (taxonomyList.length > 0) {\n            angular.forEach(taxonomyList, function(taxonomy) {\n                searchTerm.push(taxonomy);\n            });\n        }\n\n        if ($scope.advanced_search.title != '') {\n            searchTerm.push($scope.advanced_search.title);\n        }\n\n    };\n\n    $scope.selectedTaxonomy = [];\n    $scope.selectedTaxonomyIds = [];\n\n    $scope.$watch('advanced_search.taxonomy', function(newValues) {\n        $scope.selectedTaxonomy.length = 0;\n        $scope.selectedTaxonomyIds.length = 0;\n        angular.forEach(newValues, function(item) {\n            if (item.selected == true) {\n                $scope.selectedTaxonomy.push(item.title);\n                $scope.selectedTaxonomyIds.push(item.id);\n            }\n        });\n    }, true);\n\n\n\n\n\n\n\n});\napp.controller('ModalBrightcoveCtrl', function($scope, $modalInstance, modalFormTitle, brightCoveId, brightCoveWidth, brightCoveHeight) {\n    $scope.cancel = function() {\n        $modalInstance.dismiss('cancel');\n    };\n    $scope.modalFormTitle = modalFormTitle;\n    $scope.brightcove_id = brightCoveId;\n    $scope.brightcove_video_width = brightCoveWidth;\n    $scope.brightcove_video_height = brightCoveHeight;\n    $scope.submitResource = function() {\n        var i = 0;\n        angular.forEach(angular.element(\".requires-modal\"), function(value, key) {\n            var a = angular.element(value);\n            if (a.val().length === 0) {\n                a.parent().addClass('has-error');\n                i++;\n            } else {\n                a.parent().removeClass('has-error');\n            }\n        });\n        if (i == 0) {\n            //var brightcove_url = 'https://players.brightcove.net/2402232200001/default_default/index.html?videoId=' + $scope.brightcove_id;\n            var brightcove_url = bright_cove_url + $scope.brightcove_id;\n            var modalCloseParameter = {\n                ext_res_location: brightcove_url,\n                ext_res_title: $scope.brightcove_id,\n                ext_res_type: 'brightcove',\n                ext_res_width: $scope.brightcove_video_width,\n                ext_res_height: $scope.brightcove_video_height\n            };\n            $modalInstance.close(modalCloseParameter);\n        }\n    };\n});\napp.controller('ModalQuestionSelectCtrl', ['$scope', 'assessmentService', 'sessionService', '$modalInstance', 'modalFormTitle', 'project_id', 'project_type_id', 'selected_questions', function($scope, assessmentService, sessionService, $modalInstance, modalFormTitle, project_id, project_type_id, selected_questions) {\n    $scope.modalFormTitle = modalFormTitle;\n    $scope.isNodeAddDisabled = true;\n    $scope.project_id = project_id;\n    $scope.project_type_id = project_type_id;\n    $scope.selected_questions = [];\n    $scope.selected_data = selected_questions;\n    var currentLocation = window.location;\n    (window.location.href).indexOf('global_repo') >= 0 ? $scope.assessment_local_global = { local: false, global: true } : $scope.assessment_local_global = { local: true, global: false };\n    // $scope.assessment_local_global = { local: true, global: false };\n    $scope.listAssessmentsData = function() {\n        $scope.itemsPerPage = -1;\n        assessmentService.getAssessments($scope, $scope.project_id).then(function(data) {\n            $scope.assessmentList = data.data.assessment_list;\n            $scope.assessmentsTotal = data.data.total;\n            angular.forEach($scope.assessmentList, function(value, key) {\n                $scope.assessment_id = value.id;\n                $scope.listQuestionsChecked();\n            });\n        });\n    };\n    $scope.$watch('assessment', function(val) {\n        if (angular.isDefined(val)) {\n            $scope.questionTotal = 0;\n            $scope.assessment_id = val;\n            $scope.listQuestions();\n        }\n    });\n    //Fetch Questions\n    $scope.questionTotal = 0;\n    $scope.pageNumber = 1;\n    $scope.itemsPerPage = 10;\n    $scope.currentPage = 1;\n\n    $scope.listQuestions = function(pageNumber) {\n        $scope.currentPage = pageNumber;\n        $scope.pageNumber = pageNumber;\n        $scope.itemsPerPage = 5;\n        $scope.excludeType = 'MULTI-PART';\n        assessmentService.getQuestions($scope).then(function(data) {\n            $scope.questionList = data.data.question_list;\n            $scope.questionTotal = data.data.total;\n            angular.forEach($scope.questionList, function(value, key) {\n                angular.forEach($scope.selected_data, function(value1, key1) {\n                    if (parseInt(value1) === value.question_id) {\n                        $scope.questionList[key].checked = true;\n                    }\n                });\n            });\n        });\n    };\n    $scope.listQuestionsChecked = function(pageNumber) {\n        $scope.currentPage = pageNumber;\n        $scope.pageNumber = pageNumber;\n        $scope.itemsPerPage = 5;\n        assessmentService.getQuestions($scope).then(function(data) {\n            angular.forEach(data.data.question_list, function(value, key) {\n                angular.forEach(selected_questions, function(value1, key1) {\n                    if (parseInt(value1) === value.question_id) {\n                        //$scope.IfCheck(data.data.question_list[key].data, true, value.question_id);\n                        var dataJson = JSON.parse(data.data.question_list[key].data);\n                        dataJson.question_id = parseInt(value.question_id);\n                        var dataJson = JSON.stringify(dataJson);\n                        $scope.selected_questions.push(dataJson);\n                    }\n                });\n            });\n            $scope.isNodeAddDisabled = true;\n        });\n    };\n    $scope.IfCheck = function(data, check, question_id) {\n        $scope.isNodeAddDisabled = false;\n        var dataJson = JSON.parse(data);\n        dataJson.question_id = parseInt(question_id);\n        var dataJson = JSON.stringify(dataJson);\n        if (check) {\n            $scope.selected_questions.push(dataJson);\n            $scope.selected_data.push(JSON.stringify(question_id));\n        } else {\n            var index = $scope.selected_questions.indexOf(dataJson);\n            $scope.selected_questions.splice(index, 1);\n            var index1 = $scope.selected_data.indexOf(JSON.stringify(question_id));\n            $scope.selected_data.splice(index1, 1);\n        }\n    };\n    $scope.selected_questions_array = [];\n    var j = 0;\n    $scope.reOrder = function() {\n        selected_questions.forEach(function(key) {\n            for (var i = 0; i < $scope.selected_questions.length; i++) {\n                if (JSON.parse($scope.selected_questions[i]).question_id == parseInt(key)) {\n                    $scope.selected_questions_array[j] = $scope.selected_questions[i];\n                    j++;\n                }\n            }\n        });\n        $scope.selected_questions = $scope.selected_questions_array;\n    };\n\n    setTimeout(function() {\n        $scope.reOrder();\n    }, 2000);\n    $scope.submitResource = function() {\n        var modalCloseParameter = {\n            selected_data: $scope.selected_questions\n        };\n        $modalInstance.close(modalCloseParameter);\n    };\n    $scope.arrayObjectIndexOf = function(myArray, searchTerm, property) {\n        for (var i = 0, len = myArray.length; i < len; i++) {\n            if (myArray[i][property] === searchTerm)\n                return i;\n        }\n        return -1;\n    };\n    //For Page Change from paging\n    $scope.pageChangeHandlerQuestion = function(newPage) {\n        //$scope.assessment_id = '';\n        $scope.listQuestions(newPage);\n    };\n    $scope.listAssessmentsData();\n    $scope.cancel = function() {\n        $modalInstance.dismiss('cancel');\n    };\n}]);\nvar common_assessment_utility = {};\ncommon_assessment_utility.getFieldValue = function(field_key, isEditor) {\n    var value = '';\n    if (isEditor) {\n        value = CKEDITOR.instances[field_key].getData();\n        value = value.replace('class=\"math_edit\"', '');\n        value = value.replace(' >', '>');\n        var regex = /<br\\s*[\\/]?>/gi;\n        value = value.replace(regex, \"\");\n        var replace_value = value;\n        value = value.replace(/\\s|&nbsp;/g, '');\n        value = value.replace(/\\s|<p><\\/p>/g, '');\n        if (value.length != 0) {\n            value = replace_value;\n        } else {\n            value = '';\n        }\n    } else {\n        value = jQuery('#' + field_key).val();\n    }\n    return value;\n}\n\ncommon_assessment_utility.setFieldValue = function(field_key, value, isEditor) {\n    if (isEditor) {\n        //var pp =CKEDITOR.instances[field_key].getData();\n        value = CKEDITOR.instances[field_key].setData(value);\n        //var pp = CKEDITOR.instances[field_key].getData();\n    } else {\n        value = jQuery('#' + field_key).val(value);\n    }\n}\n\n// initialize ckeditor\ncommon_assessment_utility.initializeCkeditor = function() {\n    $('.ckeditor').each(function(e) {\n        if (!CKEDITOR.instances[this.id]) {\n            CKEDITOR.replace(this.id);\n        }\n    });\n}\n\ncommon_assessment_utility.ckeditorBindEvent = function() {\n    for (name in CKEDITOR.instances) {\n        var instance = CKEDITOR.instances[name];\n        instance.on('change', function(e) {\n            if (this.getData().trim().length > 0) {\n                $('#' + this.name).parent().removeClass('has-error');\n            } else {\n                $('#' + this.name).parent().addClass('has-error');\n                $('.textWithBlankError').parent().removeClass('has-error');\n            }\n        });\n\n        instance.on('mode', function() {\n            if (this.mode == 'wysiwyg') {\n                angular.element(document.getElementById('questionController')).scope().jsRegisterer(this.document.find('.ckImg').$);\n            }\n        });\n\n        if (typeof instance.document !== \"undefined\") {\n            angular.element(document.getElementById('questionController')).scope().jsRegisterer(instance.document.find('.ckImg').$);\n        }\n    }\n}",
          "comment" : ""
        },
        "redirectURL" : "",
        "headersSize" : 204,
        "bodySize" : 85716,
        "comment" : ""
      },
      "cache" : { },
      "timings" : {
        "comment" : "",
        "ssl" : -1,
        "connect" : 1602,
        "dns" : -1,
        "blocked" : -1,
        "send" : 0,
        "wait" : 0,
        "receive" : 0
      },
      "comment" : "",
      "_katalonRequestInformation" : {
        "name" : "106",
        "testObjectId" : "Temporary RESTful request object",
        "harId" : "afc1405e-4f40-4925-a32c-c0e80a2618ec"
      },
      "time" : 1602
    } ],
    "comment" : ""
  }
}