{
  "log" : {
    "version" : "1.2",
    "pages" : [ ],
    "entries" : [ {
      "startedDateTime" : "2019-07-16T05:34:00.589Z",
      "request" : {
        "method" : "GET",
        "url" : "https://frostedc-stg.learningmate.com/js/key_value/keyValueController.js",
        "httpVersion" : "",
        "cookies" : [ ],
        "headers" : [ ],
        "queryString" : [ ],
        "headersSize" : 0,
        "bodySize" : 0,
        "comment" : ""
      },
      "response" : {
        "status" : 200,
        "statusText" : "",
        "httpVersion" : "",
        "cookies" : [ ],
        "headers" : [ {
          "name" : "Accept-Ranges",
          "value" : "bytes"
        }, {
          "name" : null,
          "value" : "HTTP/1.1 200 OK"
        }, {
          "name" : "Server",
          "value" : "nginx/1.13.5"
        }, {
          "name" : "ETag",
          "value" : "\"5d2ca960-7420\""
        }, {
          "name" : "Connection",
          "value" : "keep-alive"
        }, {
          "name" : "Last-Modified",
          "value" : "Mon, 15 Jul 2019 16:27:12 GMT"
        }, {
          "name" : "Content-Length",
          "value" : "29728"
        }, {
          "name" : "Date",
          "value" : "Tue, 16 Jul 2019 05:34:17 GMT"
        }, {
          "name" : "Content-Type",
          "value" : "application/javascript"
        } ],
        "content" : {
          "size" : 29728,
          "mimeType" : "application/javascript",
          "text" : "/*****\n * Controller for Key value\n * Author - Alamgir Hossain Sk *\n */\n\n'use strict';\napp.controller('key_value', ['$scope', '$http', 'sessionService', '$location', 'keyValueService', '$rootScope', '$modal', '$log', 'SweetAlert', '$routeParams', function($scope, $http, sessionService, $location, keyValueService, $rootScope, $modal, $log, SweetAlert, $routeParams) {\n\n    $scope.access_token = sessionService.get('access_token');\n    $scope.user_permissions = JSON.parse(sessionService.get('user_permissions'));\n    var userinfo = JSON.parse(sessionService.get('userinfo'));\n    $scope.project_id = $routeParams.project_id;\n    //Check if the session is active\t\n    $rootScope.checkActiveSession();\n    if (!$scope.access_token || userinfo == null) {\n        $location.path('logout');\n        return true;\n    }\n    $scope.searchModel = {};\n    $scope.searchModel.showSearchIcon=true;\n    $scope.currentOrderByField = 'key_name';\n    $scope.reverseSort = false;\n    $scope.search_text = '';\n    //Call Key\n    $scope.currentPage = 1;\n    $scope.pageNumber = 1;\n    $scope.itemsPerPage = '';\n    $scope.keys = {};\n    $scope.getKeyValue = function(pageNumber) {\n        $scope.pageNumber = pageNumber;\n        $scope.currentPage = pageNumber;\n        $scope.itemsPerPage = '10';\n        keyValueService.getKeyValue($scope).then(function(data) {\n            if (data.status == 200) {\n                $scope.total = data.total;\n                if (data.data !== null) {\n                    $scope.keys = data.data.list;\n                } else {\n                    $scope.keys = {};\n                }\n            }\n\n        });\n    };\n    $scope.getKeyValue($scope.currentPage);\n    ///\n\n    //For Pagination Of Dashboard\n    $scope.pageChangeHandlerKayValue = function(newPage) {\n        $scope.getKeyValue(newPage);\n    };\n\n    $scope.create_button = false;\n    $scope.openKeyValueAddModal = function(size) {\n        $scope.create_button = true;\n        var modalInstance = $modal.open({\n            templateUrl: 'templates/key_value/keyValueModalContent.html',\n            controller: 'ModalInstanceKeyValueCtrl',\n            size: size,\n            backdrop: 'static',\n            keyboard: false,\n            resolve: {\n                modalFormText: function() {\n                    return \"You are trying to add a Key Value.\";\n                },\n                modalFormTile: function() {\n                    return \"Add Key Value\";\n                },\n                key: function() {\n                    return '';\n                }\n            }\n        });\n        modalInstance.result.then(function() {\n            $scope.currentOrderByField = 'key_name';\n            $scope.reverseSort = false;\n            $scope.create_button = false;\n            $scope.getKeyValue($scope.currentPage);\n        }, function() {\n            $scope.create_button = false;\n            //$log.info('Modal dismissed at: ' + new Date());\n        });\n    };\n\n    $scope.edit_button = false;\n    $scope.openKeyValueEditModal = function(size, key_id) {\n        $scope.edit_button = true;\n        keyValueService.getKeyDetailsByKey($scope, key_id).then(function(data) {\n            var modalInstance = $modal.open({\n                templateUrl: 'templates/key_value/keyValueModalContent.html',\n                controller: 'ModalInstanceKeyValueCtrl',\n                size: size,\n                backdrop: 'static',\n                keyboard: false,\n                resolve: {\n                    modalFormText: function() {\n                        return \"You are trying to Edit a Key Value.\";\n                    },\n                    modalFormTile: function() {\n                        return \"Edit Key Value\";\n                    },\n                    key: function() {\n                        return data.data.key;\n                    }\n                }\n            });\n            modalInstance.result.then(function() {\n                $scope.currentOrderByField = 'key_name';\n                $scope.reverseSort = false;\n                $scope.edit_button = false;\n                $scope.getKeyValue($scope.currentPage);\n            }, function() {\n                $scope.edit_button = false;\n                //$log.info('Modal dismissed at: ' + new Date());\n            });\n        });\n    };\n    //Delete key and there values\n    $scope.deleteKeyValue = function(key_id, current) {\n        SweetAlert.swal({\n            title: \"Are you sure?\",\n            text: \"You will not be able to recover this key value!\",\n            type: \"warning\",\n            showCancelButton: true,\n            confirmButtonColor: \"#DD6B55\",\n            confirmButtonText: \"Yes, delete it!\",\n            cancelButtonText: \"No, cancel!\",\n            closeOnConfirm: false,\n            closeOnCancel: false\n        }, function(isConfirm) {\n            if (isConfirm) {\n                keyValueService.delKeyValue($scope, key_id).then(function(data) {\n                    if (data.status == 200) {\n                        if (current !== 'undefined') {\n                            $scope.getKeyValue(current);\n                        } else {\n                            $scope.getKeyValue($scope.currentPage);\n                        }\n\n                        SweetAlert.swal(\"Success\", \"Key has been deleted\", \"success\");\n                    } else {\n                        if (angular.isDefined(data.projectPermissionGranted) && data.projectPermissionGranted == 401) {\n                            SweetAlert.swal(\"Cancelled\", data.message, \"warning\");\n                        }\n                    }\n                });\n            } else {\n                SweetAlert.swal(\"Cancelled\", \"Key is safe :)\", \"error\");\n            }\n        });\n    };\n    $scope.changeStatus = function(id) {\n        keyValueService.changeStatus(id, $scope).then(function(data) {\n            if (data.status == 200) {\n                $scope.getKeyValue($scope.currentPage);\n            } else {\n                if (angular.isDefined(data.projectPermissionGranted) && data.projectPermissionGranted == 401) {\n                    SweetAlert.swal(\"Cancelled\", data.message, \"warning\");\n                }\n            }\n        });\n    };\n    $scope.applySorting = function(field) {\n        if ($scope.currentOrderByField != field) {\n            $scope.reverseSort = false;\n        } else {\n            if ($scope.reverseSort) {\n                $scope.reverseSort = false;\n            } else {\n                $scope.reverseSort = true;\n            }\n        }\n        $scope.currentOrderByField = field;\n        $scope.getKeyValue($scope.currentPage);\n    };\n    // apply searching\n    $scope.do_search = function() {\n        if(!$scope.search_text){\n            SweetAlert.swal(\"Error\", \"Please enter value in search box\", \"error\");\n            return false;\n        }\n        if ($scope.searchModel.showSearchIcon) { \n            $scope.searchModel.showSearchIcon=false;\n        }\n        else{\n            $scope.search_text = '';\n            $scope.searchModel.showSearchIcon=true; \n        }\n        $scope.getKeyValue(1);\n    };\n    $scope.openKeyUsageModal = function(size, key_id) {\n        var modalInstance = $modal.open({\n            templateUrl: 'templates/key_value/keyUsageModalContent.html',\n            controller: 'ModalInstanceKeyMetadataCtrl',\n            size: size,\n            backdrop: 'static',\n            keyboard: false,\n            resolve: {\n                modalFormText: function() {\n                    return \"\";\n                },\n                modalFormTile: function() {\n                    return \"Metadata Key Usage\";\n                },\n                key_id: function() {\n                    return key_id;\n                },\n                user_permissions: function() {\n                    return $scope.user_permissions;\n                }\n            }\n        });\n        modalInstance.result.then(function() {\n\n        }, function() {\n            //$log.info('Modal dismissed at: ' + new Date());\n        });\n    };\n\n    $scope.key_value = [];\n    /*\n     *  Open value usage of a key\n     */\n    $scope.onChangeValue = function(size, key_id) {\n        var value_id = $scope.key_value[key_id];\n        // check usage is more than zero\n        var usage_count = 0;\n        angular.forEach($scope.keys, function(key_details, index) {\n            if (key_details.id == key_id) {\n                var values = key_details.values;\n                angular.forEach(values, function(value, key) {\n                    if (value.value_id == value_id) {\n                        usage_count = value.usage_count;\n                    }\n                });\n            }\n        });\n        if (usage_count > 0) {\n            var modalInstance = $modal.open({\n                templateUrl: 'templates/key_value/valueUsageModalContent.html',\n                controller: 'ModalInstanceValueMetadataCtrl',\n                size: size,\n                backdrop: 'static',\n                keyboard: false,\n                resolve: {\n                    modalFormText: function() {\n                        return \"\";\n                    },\n                    modalFormTile: function() {\n                        return \"Metadata Value Usage\";\n                    },\n                    key_id: function() {\n                        return key_id;\n                    },\n                    value_id: function() {\n                        return value_id;\n                    }\n                }\n            });\n            modalInstance.result.then(function() {\n\n            }, function() {\n                //$log.info('Modal dismissed at: ' + new Date());\n            });\n        }\n    };\n\n}]);\n/*\n * Create Key value Modal window Controller\n */\napp.controller('ModalInstanceKeyValueCtrl', function($scope, $filter, keyValueService, $modalInstance, modalFormText, modalFormTile, key, $compile) {\n    $scope.showedit = 0;\n    $scope.modalFormText = modalFormText;\n    $scope.modalFormTile = modalFormTile;\n    $scope.keyValueModal = key;\n    //Open key value add form\n    $scope.key_name = '';\n    $scope.key_type = 'text_entry';\n    $scope.showAdd = true;\n    $scope.showEdit = false;\n    $scope.select_values = [];\n    $scope.value = '';\n    $scope.uses = 0;\n    $scope.formError = { 'key_name': '', 'value': '', 'error': '' };\n    $scope.key_type_array = ['text_entry', 'date_entry', 'time_entry', 'number_entry'];\n    if (angular.isDefined(key.id) && key.id != '') {\n        $scope.key_name = key.key_name;\n        $scope.key_type = key.key_type;\n        $scope.showAdd = false;\n        $scope.showEdit = true;\n        // populate values\n        if ($scope.key_type == 'select_list') {\n            angular.forEach(key.values, function(select_value) {\n                $scope.select_values.push({ \"id\": select_value.value_id, 'value': select_value.value, 'uses': select_value.usage_count });\n            });\n        }\n\n    }\n\n    // Add key\n    $scope.add = function() {\n        if (angular.isUndefined($scope.key_name) == false) {\n            if ($scope.key_name == '') {\n                $scope.formError['key_name'] = 'The key name field is required.';\n            } else {\n                $scope.formError['key_name'] = '';\n                if (($scope.key_type == 'select_list' && document.querySelectorAll(\".select-value\").length) || ($scope.key_type_array.indexOf($scope.key_type) >= 0)) {\n                    keyValueService.addKeyValue($scope).then(function(data) {\n                        if (data.status == 200) {\n                            $modalInstance.close();\n                        } else {\n                            if (angular.isDefined(data.projectPermissionGranted) && data.projectPermissionGranted == 401) {\n                                $scope.formError['error'] = data.message;\n                            }\n                            if (angular.isDefined(data.error.key_name)) {\n                                $scope.formError['key_name'] = data.error.key_name['0'];\n                            }\n                        }\n                    });\n                } else {\n                    $scope.formError['value'] = 'Please add select value.';\n                }\n            }\n\n        }\n    };\n    // Edit Key\n    $scope.edit = function() {\n\n        if (angular.isUndefined($scope.key_name) == false) {\n            if ($scope.key_name == '') {\n                $scope.formError['key_name'] = 'The key name field is required.';\n            } else {\n                $scope.formError['key_name'] = '';\n                if (($scope.key_type == 'select_list' && document.querySelectorAll(\".select-value\").length) || ($scope.key_type_array.indexOf($scope.key_type) >= 0)) {\n                    keyValueService.editKeyValue($scope, key).then(function(data) {\n                        if (data.status == 200) {\n                            $modalInstance.close();\n                        } else {\n                            if (angular.isDefined(data.projectPermissionGranted) && data.projectPermissionGranted == 401) {\n                                $scope.formError['error'] = data.message;\n                            }\n                            if (angular.isDefined(data.error.key_name)) {\n                                $scope.formError['key_name'] = data.error.key_name['0'];\n                            }\n                        }\n                    });\n                } else {\n                    $scope.formError['value'] = 'Please add select value.';\n                }\n            }\n        }\n    };\n    $scope.cancel = function() {\n        $modalInstance.dismiss('cancel');\n    };\n    $scope.addValue = function() {\n        // check value is blank and exist in array\n        var valid = true;\n        if ($scope.value == '') {\n            valid = false;\n            $scope.formError['value'] = 'The value name may not be blank.';\n        } else if ($scope.value.length > 255) {\n            valid = false;\n            $scope.formError['value'] = 'The value name may not be greater than 255 characters.';\n        } else {\n            if ($scope.select_values.length) {\n                angular.forEach($scope.select_values, function(select_value) {\n                    if (select_value.value.toLowerCase() == $scope.value.toLowerCase()) // value is already exists\n                    {   $scope.formError['value'] = 'The value is already exists.';\n                        valid = false;\n                    }\n                });\n            }\n        }\n\n        if (valid) {\n            $scope.select_values.push({ \"id\": \"0\", 'value': $scope.value, 'uses': $scope.uses });\n            $scope.value = '';\n            $scope.formError['value'] = '';\n        }\n    };\n    $scope.editSelectValue = function(event, select_value) {\n        var index = $scope.getSelectIndex(select_value);\n        if (index === -1) {\n            //alert( \"Something gone wrong\" );\n        }\n\n        var editEl = angular.element(event.target);\n        var allSelectArray = document.querySelectorAll(\".select-value\");\n        angular.forEach(allSelectArray, function(elem, elem_index) {\n            if (elem_index == index) {\n                if (editEl.hasClass('value-edit')) {\n                    angular.element(elem).html('<input type=\"text\" class=\"form-control\" ng-model=\"select_value_' + index + '\" /><span class=\"highlight text-danger\">{{formError[\"select_value_' + index + '\"]}}</span>');\n                    $compile(elem)($scope);\n                    $scope['select_value_' + index] = select_value;\n                    editEl.html('Save');\n                    editEl.removeClass('value-edit');\n                    editEl.addClass('value-saved');\n                } else {\n                    // validate select value\n                    var valid = true;\n                    $scope.formError['value']='';\n                    if ($scope['select_value_' + index] == '') {\n                        valid = false;\n                    } else if ($scope['select_value_' + index].length > 255) {\n                        valid = false;\n                        $scope.formError['select_value_' + index] = 'Value name may not be greater than 255 characters.';\n                    } else {\n                        if ($scope.select_values.length) {\n                            angular.forEach($scope.select_values, function(select_value, sel_index) {\n                                if ( (select_value.value.toLowerCase() == $scope['select_value_' + index].toLowerCase()) && sel_index != index) // value is already exists\n                                {  \n                                    $scope.formError['select_value_' + index] = 'The value is already exists.';\n                                    valid = false;\n                                }\n                            });\n                        }\n                    }\n\n                    if (valid) {\n                        $scope.select_values[index].value = $scope['select_value_' + index];\n                        angular.element(elem).html($filter('strLimit')($scope['select_value_' + index], 40));\n                        editEl.removeClass('value-saved');\n                        editEl.addClass('value-edit');\n                        editEl.html('Edit');\n                        $scope.formError['value'] = '';\n                    }\n                }\n            }\n        });\n    };\n    $scope.removeSelectValue = function(select_value) {\n        var index = $scope.getSelectIndex(select_value);\n        if (index === -1) {\n            //alert( \"Something gone wrong\" );\n        }\n        $scope.select_values.splice(index, 1);\n    };\n    $scope.getSelectIndex = function(select_value) {\n        var index = -1;\n        var valueArr = eval($scope.select_values);\n        for (var i = 0; i < valueArr.length; i++) {\n            if (valueArr[i].value === select_value) {\n                index = i;\n                break;\n            }\n        }\n        return index;\n    };\n\n});\n/*\n *  Key Metadata Modal window Controller\n */\napp.controller('ModalInstanceKeyMetadataCtrl', function($scope, $log, $window, $location, $rootScope, $modal, keyValueService, objectService, assetService, SweetAlert, $modalInstance, modalFormText, modalFormTile, key_id, user_permissions) {\n    $scope.key_id = key_id;\n    $scope.modalFormText = modalFormText;\n    $scope.modalFormTile = modalFormTile;\n    $scope.user_permissions = user_permissions;\n    $scope.keyModel = {};\n    $scope.keyMetadataObjects = {};\n    $scope.currentPage = 1;\n    $scope.pageNumber = '';\n    $scope.itemsPerPage = '';\n    $scope.s3Url = s3_url;\n    //Open key metadata usage\n    $scope.key_title = '';\n    $scope.key_type = '';\n    $scope.data = {};\n\n    $scope.showPagination = false;\n    $scope.cancel = function() {\n        $modalInstance.dismiss('cancel');\n    };\n\n    // get key\n    $scope.getKeys = function() {\n        keyValueService.getMetadataKeyUsage($scope, key_id).then(function(data) {\n            if (data.data == null || data.data == '') {\n                $scope.total = 0;\n                $scope.keyModel = {};\n                $scope.keyMetadataObjects = {};\n            } else {\n                var key = data.data.key;\n                $scope.keyModel = key;\n                $scope.data.valueModel = data.data.values;\n                if (angular.isDefined(key.key_type) && key.key_type != '') {\n                    $scope.key_type = key.key_type;\n                }\n                if (angular.isDefined(key.id) && key.id != '') {\n                    $scope.key_title = key.key_name;\n                }\n            }\n        });\n    };\n    $scope.getKeys();\n\n    $scope.getObjects = function(pageNumber) {\n        $scope.currentPage = pageNumber;\n        $scope.pageNumber = pageNumber;\n        $scope.itemsPerPage = '10';\n        keyValueService.getMetadataKeyUsage($scope, key_id).then(function(data) {\n            if (data.data == null || data.data == '') {\n                $scope.total = 0;\n                $scope.keyModel = {};\n                $scope.keyMetadataObjects = {};\n            } else {\n                $scope.total = data.data.total;\n                if (data.data.total > data.data.totalContents) {\n                    $scope.showPagination = true;\n                }\n                $scope.keyMetadataObjects = data.data.metadata_objects;\n            }\n\n        });\n    };\n    $scope.getObjects(1);\n\n    $scope.pageChangeHandlerObject = function(pageNumber) {\n        $scope.getObjects(pageNumber);\n    };\n\n    $scope.onChangeValue = function() {\n        $scope.getObjects(1);\n    };\n    $scope.redirctToProject = function(object_id, toc_creation_status, usage_type) {\n        switch (usage_type) {\n            case 'ASSESSMENT':\n                $scope.checkProjectExists(object_id);\n                break;\n            case 'OBJECT':\n                if (parseInt(toc_creation_status) == 3001) {\n                    $scope.checkProjectExists(object_id);\n                } else {\n                    $rootScope.show_toc = 0;\n                    $location.path('project_import/' + object_id);\n                }\n                break;\n            case 'ASSIGNMENT':\n                $scope.checkProjectExists(object_id);\n                break;\n            case 'FORUM':\n                $scope.checkProjectExists(object_id);\n                break; \n            default:\n        }\n    };\n    $scope.checkProjectExists = function(object_id) {\n        $scope.project_id = object_id;\n        objectService.getProjectDetails($scope).then(function(data) {\n            if (data != null) {\n                $rootScope.show_toc = 1;\n                $location.path(\"edit_toc/\" + object_id);\n            } else {\n                $rootScope.show_toc = 0;\n                SweetAlert.swal({ html: 'Either the project does not exist or you are no longer allocated to this project.', width: 540, type: \"warning\" });\n            }\n        });\n    };\n\n    $scope.preview_button_disabled = false;\n    $scope.previewAssessment = function(preview_info) {\n        $scope.preview_button_disabled = true;\n        var size = 'lg';\n        var modal_form_title = 'Assessment Preview';\n        var previewInfo = JSON.parse(preview_info);\n        var modalInstance = $modal.open({\n            templateUrl: 'templates/assessment/previewModal.html',\n            controller: 'ModalPreviewCtrl',\n            size: size,\n            backdrop: 'static',\n            keyboard: false,\n            resolve: {\n                modalFormTitle: function() {\n                    return modal_form_title;\n                },\n                shortcode: function() {\n                    return previewInfo.shortcode;\n                },\n                project_id: function() {\n                    return previewInfo.project_id;\n                },\n                project_type_id: function() {\n                    return previewInfo.project_type_id;\n                },\n                entity_type_id: function() {\n                    return 2;\n                }\n            }\n        });\n        modalInstance.result.then(function(modalCloseParameter) {\n            $scope.preview_button_disabled = false;\n        }, function() {\n            $scope.preview_button_disabled = false;\n            $log.info('Modal dismissed at: ' + new Date());\n        });\n    };\n    $scope.previewLOContent = function(size, content) {\n        var modalInstance = $modal.open({\n            templateUrl: 'templates/toc/LOModalContentView.html',\n            controller: 'LODataController',\n            size: size,\n            backdrop: 'static',\n            keyboard: false,\n            resolve: {\n                content: function() {\n                    return content;\n                },\n                project_id: function() {\n                    return content.project_id;\n                },\n                modalFormText: function() {\n                    return \"You are trying to view a content\";\n                },\n                modalFormTile: function() {\n                    return \"Preview Content\";\n                }\n            }\n        });\n        modalInstance.result.then(function() {\n\n        }, function() {\n            $log.info('Modal dismissed at: ' + new Date());\n        });\n    };\n    $scope.previewExtResource = function(content) {\n        $window.open(content.object_metadata.ext_res_url, '_blank');\n        console.log(s3_url);\n    };\n    $scope.previewAsset = function(size, preview_info) {\n        $scope.applyMetadata = 0;\n        var preview_infos = JSON.parse(preview_info);\n        var modalInstance = $modal.open({\n            templateUrl: 'templates/asset/assetModalContent.html',\n            controller: 'ModalAssetCtrl',\n            size: size,\n            backdrop: 'static',\n            keyboard: false,\n            resolve: {\n                modalFormTitle: function() {\n                    return preview_infos.modal_form_title;\n                },\n                object_id: function() {\n                    return preview_infos.object_id;\n                },\n                project_id: function() {\n                    return preview_infos.project_id;\n                },\n                displayOption: function() {\n                    return false;\n                },\n                user_permissions: function() {\n                    return $scope.user_permissions;\n                },\n                project_permissions: function() {\n                    return true;\n                }\n            }\n        });\n    };\n    $scope.previewContent = function(size, id) {\n        var contentRec = {};\n        $scope.id = id;\n        assetService.getGlobalContentDetails($scope).then(function(data) {\n            contentRec = data.data;\n            var modalInstance = $modal.open({\n                templateUrl: 'templates/toc/globalModalContentView.html',\n                controller: 'ModalInstanceContentCtrl',\n                size: size,\n                backdrop: 'static',\n                keyboard: false,\n                resolve: {\n                    contentRec: function() {\n                        return contentRec;\n                    },\n                    object_id: function() {\n                        return id;\n                    },\n                    modalFormText: function() {\n                        return \"You are trying to view a content\";\n                    },\n                    modalFormTile: function() {\n                        return \"Preview Content\";\n                    }\n                }\n            });\n            modalInstance.result.then(function() {\n\n            }, function() {\n                $log.info('Modal dismissed at: ' + new Date());\n            });\n        });\n    };\n    \n    /*******  Assginment Preview @ Lucky Chowdhury - 04.04.2018 *******/\n    $scope.previewAssignment = function(preview_info) {\n        $scope.preview_button_disabled = true;\n        var size = 'lg';\n        var modal_form_title = 'Assignment Preview';\n        var previewInfo = JSON.parse(preview_info);\n        var modalInstance = $modal.open({\n            templateUrl: 'templates/assignment/previewModal.html',\n            controller: 'ModalAssignmentPreviewCtrl',\n            size: size,\n            backdrop: 'static',\n            keyboard: false,\n            resolve: {\n                modalFormTitle: function() {\n                    return modal_form_title;\n                },\n                assignment_id: function() {\n                    return previewInfo.assignment_id;\n                },\n                project_theme_style: function() {\n                    return previewInfo.theme_location;\n                },\n                project_id: function() {\n                    return previewInfo.project_id;\n                },\n                project_type_id: function() {\n                    return previewInfo.project_type_id;\n                },\n                entity_type_id: function() {\n                    return 2;\n                }\n            }\n        });\n        modalInstance.result.then(function(modalCloseParameter) {\n            $scope.preview_button_disabled = false;\n        }, function() {\n            $scope.preview_button_disabled = false;\n            $log.info('Modal dismissed at: ' + new Date());\n        });\n    };\n    \n    /*******  Forum Preview  @ Lucky Chowdhury - 04.04.2018 *******/\n    $scope.previewForum = function(preview_info) {\n        $scope.preview_button_disabled = true;\n        var size = 'lg';\n        var modal_form_title = 'Forums Preview';\n        var previewInfo = JSON.parse(preview_info);\n        var modalInstance = $modal.open({\n            templateUrl: 'templates/forums/previewModal.html',\n            controller: 'ModalForumsPreviewCtrl',\n            size: size,\n            backdrop: 'static',\n            keyboard: false,\n            resolve: {\n                modalFormTitle: function() {\n                    return modal_form_title;\n                },\n                forums_id: function() {\n                    return previewInfo.forum_id;\n                },\n                project_theme_style: function() {\n                    return previewInfo.theme_location;\n                },\n                project_id: function() {\n                    return previewInfo.project_id;\n                },\n                project_type_id: function() {\n                    return previewInfo.project_type_id;\n                },\n                entity_type_id: function() {\n                    return 2;\n                }\n            }\n        });\n        modalInstance.result.then(function(modalCloseParameter) {\n            $scope.preview_button_disabled = false;\n        }, function() {\n            $scope.preview_button_disabled = false;\n            $log.info('Modal dismissed at: ' + new Date());\n        });\n    };\n});",
          "comment" : ""
        },
        "redirectURL" : "",
        "headersSize" : 203,
        "bodySize" : 29728,
        "comment" : ""
      },
      "cache" : { },
      "timings" : {
        "comment" : "",
        "ssl" : -1,
        "connect" : 1341,
        "dns" : -1,
        "blocked" : -1,
        "send" : 0,
        "wait" : 0,
        "receive" : 0
      },
      "comment" : "",
      "_katalonRequestInformation" : {
        "name" : "132",
        "testObjectId" : "Temporary RESTful request object",
        "harId" : "02094de7-46a0-464d-a4bb-e2798b06947e"
      },
      "time" : 1341
    } ],
    "comment" : ""
  }
}