{
  "log" : {
    "version" : "1.2",
    "pages" : [ ],
    "entries" : [ {
      "startedDateTime" : "2019-07-16T05:34:05.252Z",
      "request" : {
        "method" : "GET",
        "url" : "https://frostedc-stg.learningmate.com/js/search_replace/searchReplaceController.js",
        "httpVersion" : "",
        "cookies" : [ ],
        "headers" : [ ],
        "queryString" : [ ],
        "headersSize" : 0,
        "bodySize" : 0,
        "comment" : ""
      },
      "response" : {
        "status" : 200,
        "statusText" : "",
        "httpVersion" : "",
        "cookies" : [ ],
        "headers" : [ {
          "name" : "Accept-Ranges",
          "value" : "bytes"
        }, {
          "name" : null,
          "value" : "HTTP/1.1 200 OK"
        }, {
          "name" : "Server",
          "value" : "nginx/1.13.5"
        }, {
          "name" : "ETag",
          "value" : "\"5d2ca960-2958\""
        }, {
          "name" : "Connection",
          "value" : "keep-alive"
        }, {
          "name" : "Last-Modified",
          "value" : "Mon, 15 Jul 2019 16:27:12 GMT"
        }, {
          "name" : "Content-Length",
          "value" : "10584"
        }, {
          "name" : "Date",
          "value" : "Tue, 16 Jul 2019 05:34:22 GMT"
        }, {
          "name" : "Content-Type",
          "value" : "application/javascript"
        } ],
        "content" : {
          "size" : 10584,
          "mimeType" : "application/javascript",
          "text" : "/*****\n * Controller for TOC\n * Author - Arikh Akher * \n */\n\n'use strict';\nvar access_token = '';\nvar returnPatterns = '';\nvar toc_type = '';\nvar tooltipDesc = '';\napp.controller('search_replace', ['$scope', 'sessionService', 'tocService', '$location', '$routeParams', '$route', '$rootScope', 'objectService', 'SweetAlert', '$sce', '$filter', '$window', '$modal', function ($scope, sessionService, tocService, $location, $routeParams, $route, $rootScope, objectService, SweetAlert, $sce, $filter, $window, $modal) {\n\n        $scope.access_token = sessionService.get('access_token');\n        $scope.user_permissions = JSON.parse(sessionService.get('user_permissions'));\n        // passing access_token to simple editor\n        access_token = $scope.access_token;\n        $scope.user_id = sessionService.get('uid');\n\n        if (!$scope.access_token && !$scope.user_id) {\n            $location.path('logout');\n        } else {\n\n            $scope.project_id = $routeParams.project_id;\n            $scope.search_text = $routeParams.search_text;\n            $scope.search_replace_text = $routeParams.search_text;\n            // Fetch Object Details\n\n            tocService.searchText($scope).then(function (result) {\n                $scope.data = result.data;\n                $scope.showErrorMessage = 0;\n\n                objectService.getProjectDetails($scope).then(function (data) {\n                    $scope.project_details = data;\n                    angular.forEach(result.search_found, function (v, k) {\n                        if (v) {\n                            $scope.showErrorMessage = 1;\n                        }\n                    });\n                    if ($scope.showErrorMessage == 0) {\n                        $scope.errorMessage = 'No result found with the search text \"' + $scope.search_text + '\"';\n                    }\n                    //console.info($scope.errorMessage);\n                    setTimeout(function () {\n                        if ($(\".link-to-preview\").eq(0)) {\n                            $(\".link-to-preview\").eq(0).trigger(\"click\").addClass(\"active\");\n                        }\n                    }, 1000);\n                });\n            });\n\n            $scope.data = {\n                children: [{\n                        id: guid('-'),\n                        title: \"Loading...\",\n                        type: '2',\n                        root_type: '2',\n                        children: []\n                    }]\n            };\n\n            $scope.toggleMinimized = function (child) {\n                child.minimized = !child.minimized;\n            };\n\n            $scope.errorMessage = '';\n            $scope.content = '';\n            $scope.object_details = {};\n            $scope.contentPreview = function (file_name) {\n                $scope.nextPrevCount = 0;\n                $scope.currentIndex = 0;\n                $('#content_preview_iframe').contents().find('.testContainer').html('');\n                $scope.file_name = file_name;\n                objectService.getObjectDetailsByFilename($scope, $scope.project_id, $scope.file_name).then(function (data) {\n                    $scope.content = '';\n                    if (data.status == '200') {\n                        //console.log(data.data.objects.description);\n                        var content = data.data.objects.description.replace(\"<![CDATA[<![CDATA[\", \"\").replace(\"]]]]>\", \"\").replace(\"<![CDATA[>]]>\", \"\");\n                        //console.info(content);\n                        $scope.object_details = data.data;\n                        $scope.content = $filter('highlight_txt')(content, $scope.search_text);\n                        $scope.theme_location = data.data.theme_location;\n                        $scope.file_path = data.data.file_path;\n                        $scope.file_path = $sce.trustAsResourceUrl($scope.file_path);\n                        $scope.getActualPath = file_name;\n                        $scope.errorMessage = '';\n                        setTimeout(function () {\n                            setContentIntoIframe();\n                        }, 500);\n                    } else {\n                        $scope.errorMessage = data.message;\n                        if (angular.isDefined($scope.errorMessage)) {\n                            angular.element(\"#content_preview_iframe\").contents().find(\"body\").html(\"<div style='color: #AD0505; padding: 22%;'>\" + $scope.errorMessage + \"</div>\");\n                        }\n                    }\n                    //console.log($scope.content);\n                });\n            };\n\n            $scope.previewProject = function () {\n                $scope.errorMessage = '';\n                $scope.content = '';\n                $scope.object_details = {};\n            };\n\n            $scope.search = function () {\n                if (angular.isDefined($scope.project_id) && angular.isDefined($scope.search_replace_text)) {\n                    $window.location.href = \"/#/search_replace/\" + $scope.project_id + \"/\" + $scope.search_replace_text;\n                } else {\n                    SweetAlert.swal({html: 'Please enter a search text'});\n                }\n            };\n\n            $scope.replace = function () {\n                if (angular.isDefined($scope.project_id) && angular.isDefined($scope.search_replace_text)) {\n                    if ($scope.currentIndex) {\n                        var scroll = angular.element(\"#content_preview_iframe\").contents().find(\".highlightTextSearch\").eq($scope.currentIndex).offset().top;\n                        angular.element(\"#content_preview_iframe\").contents().find(\"body\").scrollTop(scroll);\n                        angular.element(\"#content_preview_iframe\").contents().find(\".highlightTextSearch\").eq($scope.currentIndex).replaceWith($scope.search_replace_text);                        \n                    } else {\n                        var scroll = angular.element(\"#content_preview_iframe\").contents().find(\".highlightTextSearch\").eq(0).offset().top;\n                        angular.element(\"#content_preview_iframe\").contents().find(\"body\").scrollTop(scroll);\n                        angular.element(\"#content_preview_iframe\").contents().find(\".highlightTextSearch\").eq(0).replaceWith($scope.search_replace_text);\n                    }\n                } else {\n                    SweetAlert.swal({html: 'Please enter a text to replace'});\n                }\n            };\n\n            $scope.replaceAll = function () {\n                if (angular.isDefined($scope.project_id) && angular.isDefined($scope.search_replace_text)) {\n                    angular.forEach(angular.element(\"#content_preview_iframe\").contents().find(\".highlightTextSearch\"), function (v, k) {\n                        //console.log(k);\n                        var scroll = angular.element(\"#content_preview_iframe\").contents().find(\".highlightTextSearch\").eq(k).offset().top;\n                        angular.element(\"#content_preview_iframe\").contents().find(\"body\").scrollTop(scroll);\n                        angular.element(\"#content_preview_iframe\").contents().find(\".highlightTextSearch\").eq(k).replaceWith($scope.search_replace_text);\n                    });\n                    //angular.element(\"#content_preview_iframe\").contents().find(\".highlightTextSearch\").eq(0).replaceWith($scope.search_replace_text);\n                } else {\n                    SweetAlert.swal({html: 'Please enter a text to replace'});\n                }\n            };\n\n            $scope.next = function () {\n                if (angular.isDefined($scope.project_id) && angular.isDefined($scope.search_replace_text)) {\n                    if ($scope.nextPrevCount < angular.element(\"#content_preview_iframe\").contents().find(\".highlightTextSearch\").length) {\n                        var scroll = angular.element(\"#content_preview_iframe\").contents().find(\".highlightTextSearch\").eq($scope.nextPrevCount).offset().top;\n                        angular.element(\"#content_preview_iframe\").contents().find(\"body\").scrollTop(scroll);\n                        angular.element(\"#content_preview_iframe\").contents().find(\".highlightTextSearch\").eq($scope.nextPrevCount).css(\"background-color\", \"#96FFDC\");                        \n                        $scope.currentIndex = $scope.nextPrevCount;\n                        if ($scope.nextPrevCount > 0) {\n                            var c = $scope.nextPrevCount - 1;\n                            angular.element(\"#content_preview_iframe\").contents().find(\".highlightTextSearch\").eq(c).css(\"background-color\", \"yellow\");\n                        }\n                        //console.log(\"current: \" + $scope.currentIndex);\n                        $scope.nextPrevCount++;\n                        if ($scope.nextPrevCount == angular.element(\"#content_preview_iframe\").contents().find(\".highlightTextSearch\").length) {\n                            $scope.nextPrevCount = angular.element(\"#content_preview_iframe\").contents().find(\".highlightTextSearch\").length - 1;\n                        }\n                    }\n                } else {\n                    SweetAlert.swal({html: 'Please enter a text to replace'});\n                }\n                //console.info(\"next: \" + $scope.nextPrevCount);\n            };\n\n            $scope.previous = function () {\n                if (angular.isDefined($scope.project_id) && angular.isDefined($scope.search_replace_text)) {\n                    $scope.nextPrevCount = $scope.currentIndex;\n                    if ($scope.nextPrevCount > 0) {\n                        angular.element(\"#content_preview_iframe\").contents().find(\".highlightTextSearch\").eq($scope.nextPrevCount).css(\"background-color\", \"yellow\");\n                        $scope.nextPrevCount--;\n                        var scroll = angular.element(\"#content_preview_iframe\").contents().find(\".highlightTextSearch\").eq($scope.nextPrevCount).offset().top;\n                        angular.element(\"#content_preview_iframe\").contents().find(\"body\").scrollTop(scroll);\n                        angular.element(\"#content_preview_iframe\").contents().find(\".highlightTextSearch\").eq($scope.nextPrevCount).css(\"background-color\", \"#96FFDC\");                        \n                        $scope.currentIndex = $scope.nextPrevCount;\n                    }\n                } else {\n                    SweetAlert.swal({html: 'Please enter a text to replace'});\n                }\n                //console.log(\"current: \" + $scope.currentIndex);\n                //console.info(\"previous: \" + $scope.nextPrevCount);\n            };\n        }\n    }]);\n\n\n\n",
          "comment" : ""
        },
        "redirectURL" : "",
        "headersSize" : 203,
        "bodySize" : 10584,
        "comment" : ""
      },
      "cache" : { },
      "timings" : {
        "comment" : "",
        "ssl" : -1,
        "connect" : 1084,
        "dns" : -1,
        "blocked" : -1,
        "send" : 0,
        "wait" : 0,
        "receive" : 0
      },
      "comment" : "",
      "_katalonRequestInformation" : {
        "name" : "136",
        "testObjectId" : "Temporary RESTful request object",
        "harId" : "33c8ded9-3105-43b9-979e-d4b08b7c6001"
      },
      "time" : 1084
    } ],
    "comment" : ""
  }
}