{
  "log" : {
    "version" : "1.2",
    "pages" : [ ],
    "entries" : [ {
      "startedDateTime" : "2019-07-16T05:31:54.540Z",
      "request" : {
        "method" : "GET",
        "url" : "https://frostedc-stg.learningmate.com/js/config.js",
        "httpVersion" : "",
        "cookies" : [ ],
        "headers" : [ ],
        "queryString" : [ ],
        "headersSize" : 0,
        "bodySize" : 0,
        "comment" : ""
      },
      "response" : {
        "status" : 200,
        "statusText" : "",
        "httpVersion" : "",
        "cookies" : [ ],
        "headers" : [ {
          "name" : "Accept-Ranges",
          "value" : "bytes"
        }, {
          "name" : null,
          "value" : "HTTP/1.1 200 OK"
        }, {
          "name" : "Server",
          "value" : "nginx/1.13.5"
        }, {
          "name" : "ETag",
          "value" : "\"5d2ca960-2a70\""
        }, {
          "name" : "Connection",
          "value" : "keep-alive"
        }, {
          "name" : "Last-Modified",
          "value" : "Mon, 15 Jul 2019 16:27:12 GMT"
        }, {
          "name" : "Content-Length",
          "value" : "10864"
        }, {
          "name" : "Date",
          "value" : "Tue, 16 Jul 2019 05:32:11 GMT"
        }, {
          "name" : "Content-Type",
          "value" : "application/javascript"
        } ],
        "content" : {
          "size" : 10864,
          "mimeType" : "application/javascript",
          "text" : "'use strict';\napp.config(['$routeProvider', '$httpProvider', 'flowFactoryProvider', 'ivhTreeviewOptionsProvider', function ($routeProvider, $httpProvider, flowFactoryProvider, ivhTreeviewOptionsProvider) {\n\n        //Used for Session handling for Cross Domain\n        $httpProvider.defaults.withCredentials = true;\n        //$httpProvider.defaults.headers.common[\"X-Requested-With\"] = \"XMLHttpRequest\";\n        //console.log($httpProvider.defaults.headers);\n        //$httpProvider.defaults.headers.common[\"Authorization\"] = 'Bearer 06412c08d81c1966d08f16c11e9d8c81b7574bb3'//+localStorage.getItem('access_token');\n\n        $routeProvider.when('/', {\n            templateUrl: 'templates/login.html',\n            //controller: \"login\"\n        });\n        $routeProvider.when('/dashboard', {\n            templateUrl: 'templates/dashboard.html'\n        });\n        $routeProvider.when('/createproject', {\n            templateUrl: 'templates/project/createproject.html'\n        });\n        $routeProvider.when('/editproject/:project_id', {\n            templateUrl: 'templates/project/createproject.html'\n        });\n        $routeProvider.when('/logout', {\n            templateUrl: 'templates/logout.html'\n        });\n        $routeProvider.when('/allocate_acl/:role_id', {\n            templateUrl: 'templates/acl/allocate_acl.html'\n        });\n        $routeProvider.when('/roles', {\n            templateUrl: 'templates/acl/role_list.html'\n        });\n        $routeProvider.when('/project-user/:project_id', {\n            templateUrl: 'templates/project/project_user.html'\n        });\n        $routeProvider.when('/test_harness', {\n            templateUrl: 'templates/test_harness.html',\n            controller: \"Test_harness\"\n        });\n        $routeProvider.when('/settings', {\n            templateUrl: 'templates/settings.html'\n        });\n        $routeProvider.when('/toc_content', {\n            templateUrl: 'templates/toc/toc_content.html'\n        });\n        $routeProvider.when('/edit_toc/:project_id', {\n            templateUrl: 'templates/toc/edit_toc.html'\n        });\n        $routeProvider.when('/project_import/:project_id', {\n            templateUrl: 'templates/project/project_import.html'\n        });\n        $routeProvider.when('/pdf_import_list/:project_id', {\n            templateUrl: 'templates/project/pdf_import_list.html'\n        });\n        $routeProvider.when('/project_preview/:project_id', {\n            templateUrl: 'templates/project_preview/preview.html'\n        });\n        $routeProvider.when('/project_preview_test/:project_id', {\n            templateUrl: 'templates/project_preview/preview_test.html'\n        });\n        $routeProvider.when('/search_replace/:project_id/:search_text', {\n            templateUrl: 'templates/project/search_replace/search_replace.html'\n        });\n        $routeProvider.when('/object_pattern/list/:object_id', {\n            templateUrl: 'templates/object_pattern/list.html',\n            controller: \"object_pattern\"\n        });\n        $routeProvider.when('/asset', {\n            templateUrl: 'templates/asset/list.html'\n        });\n        $routeProvider.when('/pattern/:project_id', {\n            templateUrl: 'templates/pattern/list.html'\n        });\n        $routeProvider.when('/asset/:project_id', {\n            templateUrl: 'templates/asset/list.html'\n        });\n        $routeProvider.when('/global_repo', {\n            templateUrl: 'templates/asset/global_repo.html'\n        });\n        $routeProvider.when('/global_repo/:global_tab', {\n            templateUrl: 'templates/asset/global_repo.html'\n        });\n        $routeProvider.when('/global-lo-content/:object_id', {\n            templateUrl: 'templates/global_repo/global_content_lo.html'\n        });\n        $routeProvider.when('/forget_passwd', {\n            templateUrl: 'templates/user/forget_password.html'\n        });\n        $routeProvider.when('/resetpassword', {\n            templateUrl: 'templates/user/reset_password.html'\n        });\n        $routeProvider.when('/create_password/:password_token', {\n            templateUrl: 'templates/user/create_password.html'\n        });\n        $routeProvider.when('/profile', {\n            templateUrl: 'templates/user/profile.html'\n        });\n        $routeProvider.when('/glossary', {\n            templateUrl: 'templates/glossary/list.html'\n        });\n        $routeProvider.when('/glossary/:project_id', {\n            templateUrl: 'templates/glossary/list.html'\n        });\n        $routeProvider.when('/glossary_view', {\n            templateUrl: 'simple_editor/glossary_view.html'\n        });\n        $routeProvider.when('/plugin/flow', {\n            templateUrl: 'templates/plugin/flow.html'\n        });\n        $routeProvider.when('/user', {\n            templateUrl: 'templates/user/user_list.html'\n        });\n        $routeProvider.when('/create_user', {\n            templateUrl: 'templates/user/create_user.html'\n        });\n        $routeProvider.when('/allocate_acl_user/:user_id', {\n            templateUrl: 'templates/acl/allocate_acl_user.html'\n        });\n        $routeProvider.when('/user_assigned_project/:user_id', {\n            templateUrl: 'templates/user_project/assigned_project.html'\n        });\n        $routeProvider.when('/exportlist', {\n            templateUrl: 'templates/project/exportlist.html'\n        });\n\n        $routeProvider.when('/exportlist/:project_id', {\n            templateUrl: 'templates/project/exportlist.html'\n        });\n\n        $routeProvider.when('/comment/:project_id', {\n            templateUrl: 'templates/comment/comment.html'\n        });\n\n        $routeProvider.when('/global_comment/:project_id', {\n            templateUrl: 'templates/comment/global_comment.html'\n        });\n\n        $routeProvider.when('/sidecomment', {\n            templateUrl: 'templates/sidecomment/comment.html'\n        });\n\n        $routeProvider.when('/compare-versions/:project_id/:object_id', {\n            templateUrl: 'templates/compare/compare_versions.html'\n        });\n\n        $routeProvider.when('/help', {\n            templateUrl: 'templates/project/help.html'\n        });\n\n        $routeProvider.when('/activity', {\n            templateUrl: 'templates/activity_log/activity_log.html',\n        });\n\n        $routeProvider.when('/taxonomy', {\n            templateUrl: 'templates/taxonomy/list.html',\n        });\n        $routeProvider.when('/tag', {\n            templateUrl: 'templates/tag/list.html',\n        });\n        $routeProvider.when('/template/:project_id', {\n            templateUrl: 'templates/template/list.html'\n        });\n        $routeProvider.when('/metadata', {\n            templateUrl: 'templates/metadata/list.html'\n        });\n        $routeProvider.when('/widget', {\n            templateUrl: 'templates/widget/list.html'\n        });\n        $routeProvider.when('/widget/form', {\n            templateUrl: 'templates/widget/widget_form.html'\n        });\n        $routeProvider.when('/widget/form/:widget_id', {\n            templateUrl: 'templates/widget/widget_form.html'\n        });\n        $routeProvider.when('/project_asset_usage/:project_id', {\n            templateUrl: 'templates/project/project_asset_usage.html'\n        });\n        $routeProvider.when('/project_asset_usage/:project_id/:type', {\n            templateUrl: 'templates/project/project_asset_usage.html'\n        });\n        $routeProvider.when('/project_asset_usage_more/:project_id/:type', {\n            templateUrl: 'templates/project/project_asset_usage_more.html'\n        });\n        $routeProvider.when('/error_log', {\n            templateUrl: 'templates/activity_log/system_error_log.html'\n        });\n        $routeProvider.when('/assessment/:project_id', {\n            templateUrl: 'templates/assessment/list.html'\n        });\n        $routeProvider.when('/assessment_question/:assessment_id/:project_id', {\n            templateUrl: 'templates/assessment/question_list.html'\n        });\n        $routeProvider.when('/assessment_question/:assessment_id/:project_id/global_repo', {\n            templateUrl: 'templates/assessment/question_list.html'\n        });\n        $routeProvider.when('/assessment_question/:assessment_id/:project_id/:question_type_id', {\n            templateUrl: 'templates/assessment/question.html'\n        });\n        $routeProvider.when('/assessment_question/:assessment_id/:project_id/:question_type_id/global_repo', {\n            templateUrl: 'templates/assessment/question.html'\n        });\n        $routeProvider.when('/assessment_question/:assessment_id/:project_id/:question_type_id/:question_id', {\n            templateUrl: 'templates/assessment/question.html'\n        });        \n        $routeProvider.when('/assessment_question/:assessment_id/:project_id/:question_type_id/:question_id/global_repo', {\n            templateUrl: 'templates/assessment/question.html'\n        });  \n        $routeProvider.when('/management/:set_type/:project_id',{\n             templateUrl: 'templates/dataset/dataset_list.html'\n         });        \n        \n        $routeProvider.when('/management/:set_type/:project_id/:collection_id',{\n             templateUrl: 'templates/dataset/dataset_view_form.html'\n         });\n         \n        $routeProvider.when('/imagepopup/:project_id', {\n            templateUrl: 'templates/imagepopup/imagepopup.html'\n        });\n\n        $routeProvider.when('/linkcheck/:project_id', {\n            templateUrl: 'templates/linkcheck/linkcheck.html'\n        });\n        \n        //Merlot search implementation @ 13.2.2018 - lucky chowdhury         \n        $routeProvider.when('/external_repo', {\n            templateUrl: 'templates/external_repo/external_repo.html'\n        });\n            \n        $routeProvider.when('/assignments/:project_id', {\n            templateUrl: 'templates/assignment/list.html'\n        });\n        \n        $routeProvider.when('/forums/:project_id', {\n            templateUrl: 'templates/forums/list.html'\n        });\n        \n        $routeProvider.when('/lms_grade_category/:project_id', {\n            templateUrl: 'templates/lms_grade_category/list.html'\n        });\n        \n        $routeProvider.otherwise({redirectTo: '/'});\n\n        /*\n         * chunk upload by flow.js start\n         */\n        flowFactoryProvider.defaults = {\n            permanentErrors: [404, 500, 501],\n            maxChunkRetries: 1,\n            chunkRetryInterval: 5000,\n            simultaneousUploads: 1\n        };\n        flowFactoryProvider.on('catchAll', function (event) {\n            //console.log('catchAll', arguments);\n        });\n\n        /*\n         * chunk upload by flow.js end\n         */\n\n        /**\n         *  default setup of ivh tree view config\n         */\n        ivhTreeviewOptionsProvider.set({\n            idAttribute: 'id',\n            labelAttribute: 'title',\n            defaultSelectedState: false,\n            validate: true\n        });\n\n\n    }]);\n\n",
          "comment" : ""
        },
        "redirectURL" : "",
        "headersSize" : 203,
        "bodySize" : 10864,
        "comment" : ""
      },
      "cache" : { },
      "timings" : {
        "comment" : "",
        "ssl" : -1,
        "connect" : 1076,
        "dns" : -1,
        "blocked" : -1,
        "send" : 0,
        "wait" : 0,
        "receive" : 0
      },
      "comment" : "",
      "_katalonRequestInformation" : {
        "name" : "33",
        "testObjectId" : "Temporary RESTful request object",
        "harId" : "4e7941c3-ebdb-4d53-a36a-0b0b637bdc96"
      },
      "time" : 1076
    } ],
    "comment" : ""
  }
}