{
  "log" : {
    "version" : "1.2",
    "pages" : [ ],
    "entries" : [ {
      "startedDateTime" : "2019-07-16T05:32:09.162Z",
      "request" : {
        "method" : "GET",
        "url" : "https://frostedc-stg.learningmate.com/js/project/projectService.js",
        "httpVersion" : "",
        "cookies" : [ ],
        "headers" : [ ],
        "queryString" : [ ],
        "headersSize" : 0,
        "bodySize" : 0,
        "comment" : ""
      },
      "response" : {
        "status" : 200,
        "statusText" : "",
        "httpVersion" : "",
        "cookies" : [ ],
        "headers" : [ {
          "name" : "Accept-Ranges",
          "value" : "bytes"
        }, {
          "name" : null,
          "value" : "HTTP/1.1 200 OK"
        }, {
          "name" : "Server",
          "value" : "nginx/1.13.5"
        }, {
          "name" : "ETag",
          "value" : "\"5d2ca960-24db\""
        }, {
          "name" : "Connection",
          "value" : "keep-alive"
        }, {
          "name" : "Last-Modified",
          "value" : "Mon, 15 Jul 2019 16:27:12 GMT"
        }, {
          "name" : "Content-Length",
          "value" : "9435"
        }, {
          "name" : "Date",
          "value" : "Tue, 16 Jul 2019 05:32:26 GMT"
        }, {
          "name" : "Content-Type",
          "value" : "application/javascript"
        } ],
        "content" : {
          "size" : 9435,
          "mimeType" : "application/javascript",
          "text" : "/*****\n * Specific services object type =  project\n * Author - Arikh Akher  \n */\n'use strict';\n\napp.service('projectService', ['$http', '$q', 'sessionService', '$location', '$rootScope', function ($http, $q, sessionService, $location, $rootScope) {\n\n        //Start - Method to get object types\n        this.projecttypes = function () {\n            var params = {};\n            params.access_token = sessionService.get('access_token');\n            var deferred = $q.defer();\n\n            $http({\n                method: 'GET',\n                url: serviceEndPoint + 'api/v1/project-types',\n                params: params\n            }).success(function (data, status, headers, config) {\n                //console.log(data);\n                deferred.resolve(data);//Return the project list\n            }).error(function (data, status, headers, config) {\n                $rootScope.unauthorised_redirection(data.status);\n            });\n            return deferred.promise;\n\n        };\n        //End - Method to get object types\n\n        this.get_export_list = function ($scope, project_id) {\n            var params = {};\n            params.pageNumber = $scope.pageNumber;\n            params.itemsPerPage = $scope.itemsPerPage;\n            params.access_token = sessionService.get('access_token');\n            params.project_id = project_id;\n            var deferred = $q.defer();\n\n            $http({\n                method: 'GET',\n                url: serviceEndPoint + 'api/v1/export/projects',\n                params: params\n            }).success(function (data, status, headers, config) {\n                //console.log(data);\n                deferred.resolve(data);//Return the project list\n            }).error(function (data, status, headers, config) {\n                $rootScope.unauthorised_redirection(data.status);\n            });\n            return deferred.promise;\n        }\n\n        this.delete_export = function (project_id) {\n            var deferred = $q.defer();\n            $http.delete(serviceEndPoint + 'api/v1/export/project/' + project_id + '?access_token=' + sessionService.get('access_token'), {\n            }).success(function (data, status, headers, config) {\n                deferred.resolve(data);\n            }).error(function (data, status, headers, config) {\n                deferred.resolve(data);\n                //$rootScope.unauthorised_redirection(data.status);\n            });\n            return deferred.promise;\n        }\n\n        this.get_all_project_list = function () {\n            var params = {};\n            params.access_token = sessionService.get('access_token');\n            var deferred = $q.defer();\n\n            $http({\n                method: 'GET',\n                url: serviceEndPoint + 'api/v1/project_names',\n                params: params\n            }).success(function (data, status, headers, config) {\n                //console.log(data);\n                deferred.resolve(data);//Return the project list\n            }).error(function (data, status, headers, config) {\n                $rootScope.unauthorised_redirection(data.status);\n            });\n            return deferred.promise;\n        }\n\n        this.map_project_user = function ($scope) {\n            var deferred = $q.defer();\n            $http.post(serviceEndPoint + 'api/v1/project-user?access_token=' + sessionService.get('access_token'), {\n                formdata: $scope.formData\n            }).success(function (data, status, headers, config) {\n                deferred.resolve(data);//Return the project list\n            }).error(function (data, status, headers, config) {\n                $rootScope.unauthorised_redirection(data.status);\n            });\n            return deferred.promise;\n        }\n        this.get_mapapped_users = function ($scope) {\n            var deferred = $q.defer();\n            var queryString = '';\n            if (angular.isDefined($scope.pageNumber) && angular.isDefined($scope.itemsPerPage)) {   // added by Durba, purpose: project usage dashboard, users will be limited to 6\n                queryString += '&pageNumber=' + $scope.pageNumber + '&itemsPerPage=' + $scope.itemsPerPage;\n            }\n            $http.get(serviceEndPoint + 'api/v1/project-users/project_id/' + $scope.project_id + '?access_token=' + sessionService.get('access_token') + queryString, {\n            }).success(function (data, status, headers, config) {\n                deferred.resolve(data);//Return the project list\n            }).error(function (data, status, headers, config) {\n                $rootScope.unauthorised_redirection(data.status);\n            });\n            return deferred.promise;\n        };\n\n        this.get_all_mapapped_users = function ($scope) {\n            var deferred = $q.defer();\n            var queryString = '';\n            $http.get(serviceEndPoint + 'api/v1/project-users/project_id/' + $scope.project_id + '?access_token=' + sessionService.get('access_token') + queryString, {\n            }).success(function (data, status, headers, config) {\n                deferred.resolve(data);//Return the project list\n            }).error(function (data, status, headers, config) {\n                $rootScope.unauthorised_redirection(data.status);\n            });\n            return deferred.promise;\n        };\n\n        this.get_theme_list = function ($scope) {\n            var queryString = '';\n            queryString = (angular.isDefined($scope.project_type_id) ? queryString + '&project_type_id=' + $scope.project_type_id : '');\n            var deferred = $q.defer();\n            $http.get(serviceEndPoint + 'api/v1/themes?access_token=' + sessionService.get('access_token') + queryString, {\n            }).success(function (data, status, headers, config) {\n                deferred.resolve(data);\n            }).error(function (data, status, headers, config) {\n                $rootScope.unauthorised_redirection(data.status);\n            });\n            return deferred.promise;\n        }\n\n        this.change_project_status = function ($scope) {\n            var queryString = '';\n            queryString = (angular.isDefined($scope.project_id) ? queryString + '&project_id=' + $scope.project_id : '');\n            queryString += '&update_status=' + $scope.project_status;\n            queryString += '&project_type_id=' + $scope.project_type_id;\n            var deferred = $q.defer();\n            $http.get(serviceEndPoint + 'api/v1/change-project-status?access_token=' + sessionService.get('access_token') + queryString, {\n            }).success(function (data, status, headers, config) {\n                deferred.resolve(data);\n            }).error(function (data, status, headers, config) {\n                $rootScope.unauthorised_redirection(data.status);\n            });\n            return deferred.promise;\n        }\n\n        /**\n         * Push to CMS\n         * @param {project_id} $scope\n         * @returns {undefined}\n         */\n        this.pushToCMS = function ($scope, package_id) {\n            var deferred = $q.defer();\n            var queryString = '';\n            $http.post(serviceEndPoint + 'api/v1/push-to-cms/package_id/' + package_id + '?access_token=' + sessionService.get('access_token') + queryString, {\n            }).success(function (data, status, headers, config) {\n                deferred.resolve(data);\n            }).error(function (data, status, headers, config) {\n                $rootScope.unauthorised_redirection(data.status);\n            });\n            return deferred.promise;\n        };\n\n        /**\n         * Get all projects\n         * @param {object} $scope\n         * @returns {.$q@call;defer.promise}\n         */\n        this.getAllProjects = function ($scope) {\n            var params = {};\n            params.access_token = sessionService.get('access_token');\n            if (angular.isDefined($scope.pageNumber)) {\n                params.pageNumber = $scope.pageNumber;\n            }\n            if (angular.isDefined($scope.itemsPerPage)) {\n                params.itemsPerPage = $scope.itemsPerPage;\n            }\n            if (angular.isDefined($scope.page_action)) {\n                params.page_action = $scope.page_action;\n            }\n            var deferred = $q.defer();\n\n            $http({\n                method: 'GET',\n                url: serviceEndPoint + 'api/v1/projects',\n                params: params\n            }).success(function (data, status, headers, config) {\n                //console.log(data);\n                deferred.resolve(data);//Return the project list\n            }).error(function (data, status, headers, config) {\n                $rootScope.unauthorised_redirection(data.status);\n            });\n            return deferred.promise;\n        };\n        \n        /**\n         * get all frolder from toc\n         * @param {obj} $scope\n         * @returns {.$q@call;defer.promise}\n         */\n        this.get_all_folder = function ($scope) {\n            var deferred = $q.defer();\n            $http.get(serviceEndPoint + 'api/v1/folder-list/project_id/' + $scope.project_id + '?access_token=' + sessionService.get('access_token'), {\n            }).success(function (data, status, headers, config) {\n                deferred.resolve(data);//Return the project list\n            }).error(function (data, status, headers, config) {\n                $rootScope.unauthorised_redirection(data.status);\n            });\n            return deferred.promise;\n        };\n\n    }]);\n\n",
          "comment" : ""
        },
        "redirectURL" : "",
        "headersSize" : 202,
        "bodySize" : 9435,
        "comment" : ""
      },
      "cache" : { },
      "timings" : {
        "comment" : "",
        "ssl" : -1,
        "connect" : 1083,
        "dns" : -1,
        "blocked" : -1,
        "send" : 0,
        "wait" : 0,
        "receive" : 0
      },
      "comment" : "",
      "_katalonRequestInformation" : {
        "name" : "45",
        "testObjectId" : "Temporary RESTful request object",
        "harId" : "72ca02a9-ab9b-4f55-a022-13a5f84b97d4"
      },
      "time" : 1083
    } ],
    "comment" : ""
  }
}