{
  "log" : {
    "version" : "1.2",
    "pages" : [ ],
    "entries" : [ {
      "startedDateTime" : "2019-07-16T05:32:15.034Z",
      "request" : {
        "method" : "GET",
        "url" : "https://frostedc-stg.learningmate.com/js/toc/pxeController.js",
        "httpVersion" : "",
        "cookies" : [ ],
        "headers" : [ ],
        "queryString" : [ ],
        "headersSize" : 0,
        "bodySize" : 0,
        "comment" : ""
      },
      "response" : {
        "status" : 200,
        "statusText" : "",
        "httpVersion" : "",
        "cookies" : [ ],
        "headers" : [ {
          "name" : "Accept-Ranges",
          "value" : "bytes"
        }, {
          "name" : null,
          "value" : "HTTP/1.1 200 OK"
        }, {
          "name" : "Server",
          "value" : "nginx/1.13.5"
        }, {
          "name" : "ETag",
          "value" : "\"5d2ca960-8adb\""
        }, {
          "name" : "Connection",
          "value" : "keep-alive"
        }, {
          "name" : "Last-Modified",
          "value" : "Mon, 15 Jul 2019 16:27:12 GMT"
        }, {
          "name" : "Content-Length",
          "value" : "35547"
        }, {
          "name" : "Date",
          "value" : "Tue, 16 Jul 2019 05:32:32 GMT"
        }, {
          "name" : "Content-Type",
          "value" : "application/javascript"
        } ],
        "content" : {
          "size" : 35547,
          "mimeType" : "application/javascript",
          "text" : "'use strict';\n\napp.controller('pxe', ['$scope', 'sessionService', 'tocService', '$location', '$routeParams', '$rootScope', '$modal', '$log', 'objectService', 'SweetAlert', '$window', '$filter', '$timeout', '$controller', '$interval', function ($scope, sessionService, tocService, $location, $routeParams, $rootScope, $modal, $log, objectService, SweetAlert, $window, $filter, $timeout, $controller, $interval) {\n\n        $scope.addNodeForm = function (size, child, modalFormText, node_type) {\n\n            //$scope.child = child;\n            var modalInstance = $modal.open({\n                templateUrl: 'templates/toc/pxeModalContent.html',\n                controller: 'ModalPXEAddCtrl',\n                size: size,\n                backdrop: 'static',\n                keyboard: false,\n                resolve: {\n                    child: function () {\n                        return child;\n                    },\n                    modalFormText: function () {\n                        return modalFormText\n                    },\n                    project_id: function () {\n                        return $scope.project_id\n                    },\n                    project_permissions: function () {\n                        return $scope.project.project_permissions;\n                    },\n                    project_details: function () {\n                        return $scope.project_details;\n                    },\n                    node_type: function () {\n                        return node_type;\n                    }\n                }\n            });\n            modalInstance.result.then(function (modalCloseParameter) {\n                jQuery(\".editor_button\").attr(\"disabled\", true);\n                $scope.node_id = modalCloseParameter.node_id;\n                $scope.child_node_title = modalCloseParameter.child_node_title;\n                $scope.child_node_type = modalCloseParameter.child_node_type;\n                $scope.section_page = modalCloseParameter.section_page;\n                $scope.file = modalCloseParameter.file;\n                $scope.applyMetadata = modalCloseParameter.applyMetadata;\n                $scope.parent_node_id = modalCloseParameter.parent_node_id;\n                $scope.parent_node_root_type = modalCloseParameter.parent_node_root_type;\n                if ($scope.applyMetadata) {\n                    $scope.tags = modalCloseParameter.tags;\n                    $scope.key_data = modalCloseParameter.key_data;\n                    $scope.value_data = modalCloseParameter.value_data;\n                    $scope.taxonomy = modalCloseParameter.taxonomy;\n                }\n                //Saving TOC\n                tocService.add_toc_node($scope).then(function (data) {\n                    $scope.child_node_title = '';\n                    $scope.pageAction = '';\n                    $scope.section_page = '';\n                    jQuery(\".editor_button\").attr(\"disabled\", false);\n                    $scope.changeLockStatus();\n                });\n                /*tocService.saveToc($scope).then(function () {\n                 $scope.child_node_title = '';\n                 $scope.pageAction = '';\n                 });*/\n            }, function () {\n                $log.info('Modal dismissed at: ' + new Date());\n            });\n        };\n\n        $scope.editChildForm = function (size, child, modalFormText, parent_node_id) {\n\n            $scope.child = child;\n            var modalInstance = $modal.open({\n                templateUrl: 'templates/toc/pxeModalContent.html',\n                controller: 'ModalPXEEditCtrl',\n                size: size,\n                backdrop: 'static',\n                keyboard: false,\n                resolve: {\n                    child: function () {\n                        return $scope.child;\n                    },\n                    modalFormText: function () {\n                        return modalFormText\n                    },\n                    project_id: function () {\n                        return $scope.project_id\n                    },\n                    project_permissions: function () {\n                        return $scope.project.project_permissions;\n                    },\n                    project_details: function () {\n                        return $scope.project_details;\n                    },\n                    parent_node_id: function () {\n                        return parent_node_id;\n                    },\n                }\n            });\n            modalInstance.result.then(function (modalCloseParameter) {\n                //jQuery(\"#\" + child.id).attr(\"disabled\", true);\n                jQuery(\".editor_button\").attr(\"disabled\", true);\n                $scope.node_id = modalCloseParameter.node_id;\n                $scope.child_node_title = modalCloseParameter.child_node_title;\n                $scope.section_page = modalCloseParameter.section_page;\n                $scope.file = modalCloseParameter.file;\n                $scope.parent_node_id = modalCloseParameter.parent_node_id;\n                $scope.applyMetadata = modalCloseParameter.applyMetadata;\n                if ($scope.applyMetadata) {\n                    $scope.tags = modalCloseParameter.tags;\n                    $scope.key_data = modalCloseParameter.key_data;\n                    $scope.value_data = modalCloseParameter.value_data;\n                    $scope.taxonomy = modalCloseParameter.taxonomy;\n                }\n                //Saving TOC\n                tocService.edit_toc_node($scope).then(function (data) {\n                    $scope.child_node_title = '';\n                    $scope.pageAction = '';\n                    $scope.section_page = '';\n                    jQuery(\".editor_button\").attr(\"disabled\", false);\n                    $scope.changeLockStatus();\n                    if (data.status == 400) {\n                        SweetAlert.swal(\"Cancelled\", \"Content is locked so cannot be modified\", \"error\");\n                        $scope.loadToc();\n                    }\n                });\n            }, function () {\n                $log.info('Modal dismissed at: ' + new Date());\n            });\n        };\n\n    }]);\n\n\napp.controller('ModalPXEAddCtrl', function ($scope, $modalInstance, tocService, objectService, child, modalFormText, project_id, project_permissions, project_details, node_type, tagService, keyValueService, taxonomyService, $compile) {\n    $scope.child = child;\n    $scope.node_title = '';\n    $scope.node_type = '';\n    $scope.node_id = 0;\n    $scope.section_page = 'page';\n    $scope.modalFormText = modalFormText;\n    $scope.modalFormTile = 'Add Node';\n    $scope.project_id = project_id;\n    $scope.isNodeAddDisabled = false;\n    $scope.showTocType = true;\n    $scope.showSectionPage = true;\n    $scope.showPartRadio = true;\n    $scope.project_type_id = project_details.project_type_id;\n    $scope.formError = {'node_title': ''}\n    $scope.key_data = {};\n    $scope.value_data = {};\n    $scope.totalKeyArea = 0;\n    $scope.applyMetadata = '';\n    $scope.taxonomy = [];\n    $scope.tplFolderOpen = '<span class=\"twistie glyphicon glyphicon-folder-open\"></span>&nbsp;&nbsp;';\n    $scope.tplFolderClose = '<span class=\"twistie glyphicon glyphicon-folder-close\"></span>&nbsp;&nbsp;';\n    $scope.tplLeaf = '<span class=\"twistie glyphicon glyphicon-book\"></span>&nbsp;&nbsp;';\n    $scope.metadata = {};\n    if (project_permissions['tag.apply'].grant) {\n        $scope.applyMetadata = 1;\n    } else {\n        $scope.applyMetadata = 0;\n    }\n    $scope.taxonomyStatus = 1001;\n    taxonomyService.getTaxonomy($scope, $scope.node_id).then(function (data) {\n        if (data.status == 200)\n        {\n            if (data.data != null && angular.isDefined(data.data.children))\n            {\n                $scope.taxonomy = data.data.children;\n            }\n        }\n\n    });\n    // get tags \n    var tags = [];\n    $scope.tag = {\n        multiple: true,\n        data: tags\n    };\n    tagService.getTagsByObject($scope, $scope.node_id).then(function (data) {\n        if (data.status == 200)\n        {\n            if (data.data != null && angular.isDefined(data.data.tags))\n            {\n                angular.forEach(data.data.tags, function (value, key) {\n                    tags[key] = {id: value.id, text: value.text};\n                });\n                $scope.tag.data = tags;\n            }\n        }\n\n    });\n\n    $scope.keyOptions = '<option value=\"\"></option>';\n    $scope.keyValueData = '';\n    // get key values\n    keyValueService.getKeyValuesByObject($scope, $scope.node_id).then(function (data) {\n        if (data.status == 200)\n        {\n            $scope.keyValueData = data.data;\n            if (data.data != null && angular.isDefined(data.data.key_values))\n            {\n                angular.forEach(data.data.key_values, function (value) {\n                    $scope.keyOptions = $scope.keyOptions + '<option value=\"' + value.id + '\">' + value.key_name + '</option>';\n                });\n                setTimeout(function () {\n                    $scope.totalKeyArea = $scope.totalKeyArea + 1;\n                    var newKeyAreaHtml = $scope.generateKeyValue($scope.totalKeyArea);\n                    angular.element(\"#keyValuesAreaId\").append($compile(newKeyAreaHtml)($scope));\n                }, 500);\n            }\n        }\n    });\n\n    $scope.addKeyValue = function () {\n        $scope.totalKeyArea = $scope.totalKeyArea + 1;\n        var newKeyAreaHtml = $scope.generateKeyValue($scope.totalKeyArea);\n        angular.element(\"#keyValuesAreaId\").append($compile(newKeyAreaHtml)($scope));\n    };\n\n\n    $scope.onChangeKeyUpdateValue = function (key) {\n        var keyId = $scope.key_data['key_' + key];\n        angular.forEach($scope.keyValueData.key_values, function (value) {\n            if (value.id == keyId)\n            {\n                if (value.key_type == 'select_list')\n                {\n                    var valueSelect = '<select style=\"width:100%\" ui-select2 ng-model=\"value_data.key_' + key + '\" data-placeholder=\"Select a Value\">';\n                    valueSelect += '<option value=\"\"></option>';\n                    angular.forEach(value.values, function (valueObj) {\n                        valueSelect += '<option value=\"' + valueObj.value_id + '\">' + valueObj.value + '</option>';\n                    });\n                    valueSelect += '</select>';\n                    valueSelect += '<div class=\"input-group-btn\"><button type=\"button\" class=\"btn btn-success\" ng-click=\"addKeyValue()\"><i class=\"fa fa-plus\"></i></button><button type=\"button\" class=\"btn btn-danger\" ng-click=\"removeKeyValue(\\'keyValuesArea_' + key + '\\')\"><i class=\"fa fa-minus\"></i></button></div>';\n                    angular.element(\"#keyValueAreaValue_\" + key).html($compile(valueSelect)($scope));\n                } else {\n                    var valueInput = '<input type=\"text\"  placeholder=\"Enter value\" class=\"form-control\" ng-model=\"value_data.key_' + key + '\">';\n                    valueInput += '<div class=\"input-group-btn\"><button type=\"button\" class=\"btn btn-success\" ng-click=\"addKeyValue()\"><i class=\"fa fa-plus\"></i></button><button type=\"button\" class=\"btn btn-danger\" ng-click=\"removeKeyValue(\\'keyValuesArea_' + key + '\\')\"><i class=\"fa fa-minus\"></i></button></div>';\n                    angular.element(\"#keyValueAreaValue_\" + key).html($compile(valueInput)($scope));\n                }\n            }\n        });\n\n    };\n\n    $scope.removeKeyValue = function (keyValueArea) {\n        angular.element(\"#\" + keyValueArea).remove();\n        if (angular.element(\".key-values-area\").length == 0)\n        {\n            $scope.totalKeyArea = 1;\n            $scope.key_data = {};\n            $scope.value_data = {};\n            var newKeyAreaHtml = $scope.generateKeyValue($scope.totalKeyArea);\n            angular.element(\"#keyValuesAreaId\").append($compile(newKeyAreaHtml)($scope));\n        }\n\n    };\n\n    $scope.generateKeyValue = function (key) {\n        var keySelect = '<div class=\"form-group\"><div class=\"row key-values-area\" id=\"keyValuesArea_' + key + '\">';\n        keySelect += '<div class=\"col-sm-6\"><label for=\"metadataValue\">Key</label><select style=\"width:100%\" ng-change=\"onChangeKeyUpdateValue(\\'' + key + '\\')\" ui-select2 ng-model=\"key_data.key_' + key + '\" data-placeholder=\"Select a Key\">';\n        keySelect += $scope.keyOptions + '</select></div>';\n        keySelect += '<div class=\"col-sm-6\"><label for=\"metadataValue\">Value</label><div class=\"input-group\" id=\"keyValueAreaValue_' + key + '\"><input type=\"text\" class=\"form-control\" ng-model=\"value_data.key_' + key + '\" placeholder=\"Enter value\"><div class=\"input-group-btn\"><button type=\"button\" class=\"btn btn-success\" ng-click=\"addKeyValue()\"><i class=\"fa fa-plus\"></i></button><button type=\"button\" class=\"btn btn-danger\" ng-click=\"removeKeyValue(\\'keyValuesArea_' + key + '\\')\"><i class=\"fa fa-minus\"></i></button></div></div></div>';\n        return keySelect;\n    };\n\n\n    //Decide Node type and section page according to project_type_id\n    if ($scope.project_type_id == 1) {\n        // Incase of PXE\n        $scope.node_type = node_type;\n        $scope.showTocType = false;\n        if (node_type == 1) {\n            //If it is frontmatter, donot show section_page radio button\n            $scope.showSectionPage = false;\n            $scope.section_page = 'page';\n        }\n\n        if (child.type == 5) {\n            //You can add only page inside Part\n            $scope.section_page = 'page';\n            $scope.showSectionPage = false;\n        }\n\n\n    } else {\n        $scope.node_type = '';\n        $scope.showTocType = true;\n    }\n\n    $scope.choose_section_page = function (section_page) {\n        $scope.section_page = section_page;\n        if ($scope.section_page == 'section' && $scope.project_type_id != 1) {\n            $scope.showTocType = true;\n        } else {\n            $scope.showTocType = false;\n        }\n    }\n    // Fetch Toc Types  \n    /*tocService.getTocTypes($scope).then(function(data) {\n     //console.log($scope.TocTypes);\n     //console.log($scope.exclude_types);\n     //getSelectedTocTypes($scope.TocTypes, $scope.exclude_types);\n     $scope.selected_option = $scope.TocTypes[$scope.node_type];\n     });*/\n\n    // Fetch Toc Types            \n    tocService.getTocTypes($scope).then(function (data) {\n        selectedKey = $scope.arrayIterate(data);\n        $scope.selected_option = data[selectedKey];\n    });\n    //Array index find for selected type\n    var selectedKey = '';\n    $scope.arrayIterate = function (lists) {\n        angular.forEach(lists, function (value, key) {\n            if (value.id == $scope.node_type) {\n                selectedKey = key;\n            }\n        });\n        return selectedKey;\n    }\n\n\n    $scope.section_page_disabled = false;\n    $scope.add = function (child) {\n        $scope.isNodeAddDisabled = true;\n        $scope.pageAction = 'ADD';\n\n        objectService.getProjectDetails($scope).then(function (data) {\n            $scope.project = {'project_permissions': data.project_permissions};\n            if ($scope.project.project_permissions['toc.node.add'].grant) {\n                //var page_name = $scope.file = tocService.createFileName($scope);\n                tocService.checkFileName($scope).then(function (data) {\n                    if (data.status == 200 && ($scope.section_page == 'page' || $scope.section_page == 'section')) {\n                        //Check node title and node type and section\n                        if ((angular.isUndefined($scope.node_title) == false && $scope.node_title != '') && (($scope.section_page == 'section') || $scope.section_page == 'page')) {\n                            //var checkPattern = /^([a-zA-Z0-9_.-]+\\s?)*$/.test($scope.node_title);\n                            $scope.file = $scope.node_title.allReplace({'\\\\s': '_', ':': '_', '-': '_', '\\\\.': '_'}) + '.xhtml';\n                            $scope.file = $scope.file.toLowerCase();\n                            var node_id = guid('-');\n                            var node_type = '';//(angular.isDefined($scope.selected_option) ? $scope.selected_option.id : '');\n\n                            //Adding part in bodymatter\n                            if ($scope.section_page == 'section') {\n                                node_type = 5; // NodeTypeId For Part\n                            } else if ($scope.section_page == 'page') {\n                                node_type = 6; // NodeTypeId For Chapter\n                                if (angular.lowercase($scope.node_title) == 'glossary') {\n                                    node_type = 101; //NodeTypeId For Glossary\n                                }\n                            }\n\n                            //var page_name = tocService.createFileName($scope); //($scope.section_page == 'page' ? $scope.node_title + '.xhtml' : '');\n                            child.children.push({\n                                id: node_id,\n                                title: $scope.node_title,\n                                file: $scope.file, //$scope.node_title + '.xhtml', //node_id + '.xhtml',\n                                type: node_type,\n                                root_type: child.root_type,\n                                section_page: $scope.section_page,\n                                children: []\n                            });\n\n                            //console.log(child);\n\n                            var modalCloseParameter = {node_id: node_id, child_node_title: $scope.node_title, child_node_type: node_type, section_page: $scope.section_page, 'file': $scope.file, 'parent_node_id': $scope.child.id, 'parent_node_root_type': child.root_type, 'applyMetadata': $scope.applyMetadata};\n                            if ($scope.applyMetadata) {\n                                modalCloseParameter.tags = $scope.metadata.tagValue;\n                                modalCloseParameter.key_data = $scope.key_data;\n                                modalCloseParameter.value_data = $scope.value_data;\n                                modalCloseParameter.taxonomy = $scope.taxonomy;\n                            }\n                            $modalInstance.close(modalCloseParameter);\n\n                        } else {\n                            if (angular.element(\"ul#modalContentTab li.active\").find('a').attr('data-target') == '#METADATA')\n                            {\n                                setTimeout(function () {\n                                    angular.element(\"ul#modalContentTab li\").first().find('a').trigger('click');\n                                }, 100);\n                            }\n                            $scope.formError = {'node_title': '', 'node_type': ''};\n                            if (angular.isUndefined($scope.node_title) == true || $scope.node_title == '') {\n                                $scope.formError['node_title'] = 'Only a-z, A-Z, 0-9, _, :, -, . are supported.';\n                            }\n\n                            /*if (angular.isDefined($scope.selected_option) && $scope.selected_option.id) {\n                             $scope.formError['node_type'] = 'Please choose this field properly';\n                             }*/\n\n                        }\n                    } else {\n                        if (angular.element(\"ul#modalContentTab li.active\").find('a').attr('data-target') == '#METADATA')\n                        {\n                            setTimeout(function () {\n                                angular.element(\"ul#modalContentTab li\").first().find('a').trigger('click');\n                            }, 100);\n                        }\n                        $scope.isNodeAddDisabled = false;\n                        $scope.errMsg = (data.message != null) ? data.message : \"\";\n\n                        if (angular.isUndefined($scope.node_title) == true || $scope.node_title == '') {\n                            $scope.formError['node_title'] = 'Only a-z, A-Z, 0-9, _, :, -, . are supported.';\n                        } else {\n                            $scope.formError['node_title'] = '';\n                            if ($scope.errMsg) {\n                                $scope.formError['node_title'] = $scope.errMsg;\n                            }\n                        }\n                        //console.log(angular.isDefined($scope.selected_option));\n                        //console.log($scope.selected_option.id)\n                        $scope.formError['node_type'] = '';\n                        /*if (!angular.isDefined($scope.selected_option) || !angular.isDefined($scope.selected_option.id)) {\n                         $scope.formError['node_type'] = 'Please choose this field properly';\n                         }*/\n\n                    }\n                });\n            } else {\n                alert('Permission denied');\n            }\n\n        });\n\n    };\n\n    $scope.cancel = function () {\n        $modalInstance.dismiss('cancel');\n    };\n});\n\n\napp.controller('ModalPXEEditCtrl', function ($scope, $modalInstance, tocService, objectService, child, modalFormText, project_id, project_permissions, project_details, parent_node_id, tagService, keyValueService, taxonomyService, $compile, ivhTreeviewMgr) {\n    $scope.child = child;\n    $scope.node_title = child.title;\n    $scope.node_type = child.root_type;\n    $scope.node_id = child.id;\n    $scope.section_page = child.section_page;\n    $scope.modalFormText = modalFormText + ' ' + $scope.node_title + '. ';\n    $scope.modalFormTile = 'Edit Node';\n    $scope.project_id = project_id;\n    $scope.showTocType = false;\n    $scope.showSectionPage = false;\n    $scope.project_type_id = project_details.project_type_id;\n\n    $scope.formError = {'node_title': ''}\n    $scope.metadata = {};\n    $scope.key_data = {};\n    $scope.value_data = {};\n    $scope.totalKeyArea = 0;\n    $scope.applyMetadata = '';\n    $scope.taxonomy = [];\n    $scope.tplFolderOpen = '<span class=\"twistie glyphicon glyphicon-folder-open\"></span>&nbsp;&nbsp;';\n    $scope.tplFolderClose = '<span class=\"twistie glyphicon glyphicon-folder-close\"></span>&nbsp;&nbsp;';\n    $scope.tplLeaf = '<span class=\"twistie glyphicon glyphicon-book\"></span>&nbsp;&nbsp;';\n\n    if (project_permissions['tag.apply'].grant) {\n        $scope.applyMetadata = 1;\n    } else {\n        $scope.applyMetadata = 0;\n    }\n    // get taxonomy\n    $scope.taxonomyStatus = 1001;\n    taxonomyService.getTaxonomy($scope, $scope.node_id).then(function (data) {\n        if (data.status == 200)\n        {\n            if (data.data != null && angular.isDefined(data.data.children))\n            {\n                $scope.taxonomy = data.data.children;\n                // expand nodes\n                ivhTreeviewMgr.expandRecursive($scope.taxonomy, $scope.taxonomy);\n            }\n        }\n\n    });\n    // get tags \n    var tags = [];\n    var object_tags = [];\n\n    $scope.tag = {\n        multiple: true,\n        data: tags\n    };\n    tagService.getTagsByObject($scope, $scope.node_id).then(function (data) {\n        if (data.status == 200)\n        {\n            if (data.data != null && angular.isDefined(data.data.tags))\n            {\n                angular.forEach(data.data.tags, function (value, key) {\n                    tags[key] = {id: value.id, text: value.text};\n                });\n                $scope.tag.data = tags;\n                if (angular.isDefined(data.data.object_tags))\n                {\n                    angular.forEach(data.data.object_tags, function (value, key) {\n                        object_tags[key] = {id: value.id, text: value.text};\n                    });\n                    $scope.metadata.tagValue = object_tags;\n                }\n            }\n        }\n\n    });\n\n    $scope.keyOptions = '<option value=\"\"></option>';\n    $scope.keyValueData = '';\n    // get key values\n    keyValueService.getKeyValuesByObject($scope, $scope.node_id).then(function (data) {\n        if (data.status == 200)\n        {\n            $scope.keyValueData = data.data;\n            if (data.data != null && angular.isDefined(data.data.key_values))\n            {\n                angular.forEach(data.data.key_values, function (value) {\n                    $scope.keyOptions = $scope.keyOptions + '<option value=\"' + value.id + '\">' + value.key_name + '</option>';\n                });\n\n                setTimeout(function () {\n                    // populate old key values\n                    if (Object.keys(data.data.object_key_values).length)\n                    {\n                        angular.forEach(data.data.object_key_values, function (object_key_value) {\n                            $scope.totalKeyArea = $scope.totalKeyArea + 1;\n                            var newKeyAreaHtml = $scope.generateKeyValue($scope.totalKeyArea);\n                            $scope.key_data['key_' + $scope.totalKeyArea] = object_key_value.key_id;\n                            angular.element(\"#keyValuesAreaId\").append($compile(newKeyAreaHtml)($scope));\n                            $scope.onChangeKeyUpdateValue($scope.totalKeyArea);\n                            if (object_key_value.key_type == 'select_list')\n                            {\n                                $scope.value_data['key_' + $scope.totalKeyArea] = object_key_value.value_id;\n                            } else {\n                                $scope.value_data['key_' + $scope.totalKeyArea] = object_key_value.value;\n                            }\n\n                        });\n                    } else {\n                        $scope.totalKeyArea = $scope.totalKeyArea + 1;\n                        var newKeyAreaHtml = $scope.generateKeyValue($scope.totalKeyArea);\n                        angular.element(\"#keyValuesAreaId\").append($compile(newKeyAreaHtml)($scope));\n                    }\n                }, 500);\n            }\n        }\n    });\n\n\n    $scope.addKeyValue = function () {\n        $scope.totalKeyArea = $scope.totalKeyArea + 1;\n        var newKeyAreaHtml = $scope.generateKeyValue($scope.totalKeyArea);\n        angular.element(\"#keyValuesAreaId\").append($compile(newKeyAreaHtml)($scope));\n    };\n\n\n    $scope.onChangeKeyUpdateValue = function (key) {\n        var keyId = $scope.key_data['key_' + key];\n        angular.forEach($scope.keyValueData.key_values, function (value) {\n            if (value.id == keyId)\n            {\n                if (value.key_type == 'select_list')\n                {\n                    var valueSelect = '<select style=\"width:100%\" ui-select2 ng-model=\"value_data.key_' + key + '\" data-placeholder=\"Select a Value\">';\n                    valueSelect += '<option value=\"\"></option>';\n                    angular.forEach(value.values, function (valueObj) {\n                        valueSelect += '<option value=\"' + valueObj.value_id + '\">' + valueObj.value + '</option>';\n                    });\n                    valueSelect += '</select>';\n                    valueSelect += '<div class=\"input-group-btn\"><button type=\"button\" class=\"btn btn-success\" ng-click=\"addKeyValue()\"><i class=\"fa fa-plus\"></i></button><button type=\"button\" class=\"btn btn-danger\" ng-click=\"removeKeyValue(\\'keyValuesArea_' + key + '\\')\"><i class=\"fa fa-minus\"></i></button></div>';\n                    angular.element(\"#keyValueAreaValue_\" + key).html($compile(valueSelect)($scope));\n                } else {\n                    var valueInput = '<input type=\"text\"  placeholder=\"Enter value\" class=\"form-control\" ng-model=\"value_data.key_' + key + '\">';\n                    valueInput += '<div class=\"input-group-btn\"><button type=\"button\" class=\"btn btn-success\" ng-click=\"addKeyValue()\"><i class=\"fa fa-plus\"></i></button><button type=\"button\" class=\"btn btn-danger\" ng-click=\"removeKeyValue(\\'keyValuesArea_' + key + '\\')\"><i class=\"fa fa-minus\"></i></button></div>';\n                    angular.element(\"#keyValueAreaValue_\" + key).html($compile(valueInput)($scope));\n                }\n            }\n        });\n\n    };\n\n    $scope.removeKeyValue = function (keyValueArea) {\n        angular.element(\"#\" + keyValueArea).remove();\n        if (angular.element(\".key-values-area\").length == 0)\n        {\n            $scope.totalKeyArea = 1;\n            $scope.key_data = {};\n            $scope.value_data = {};\n            var newKeyAreaHtml = $scope.generateKeyValue($scope.totalKeyArea);\n            angular.element(\"#keyValuesAreaId\").append($compile(newKeyAreaHtml)($scope));\n        }\n\n    };\n\n    $scope.generateKeyValue = function (key) {\n        var keySelect = '<div class=\"form-group\"><div class=\"row key-values-area\" id=\"keyValuesArea_' + key + '\">';\n        keySelect += '<div class=\"col-sm-6\"><label for=\"metadataValue\">Key</label><select style=\"width:100%\" ng-change=\"onChangeKeyUpdateValue(\\'' + key + '\\')\" ui-select2 ng-model=\"key_data.key_' + key + '\" data-placeholder=\"Select a Key\">';\n        keySelect += $scope.keyOptions + '</select></div>';\n        keySelect += '<div class=\"col-sm-6\"><label for=\"metadataValue\">Value</label><div class=\"input-group\" id=\"keyValueAreaValue_' + key + '\"><input type=\"text\" class=\"form-control\" ng-model=\"value_data.key_' + key + '\" placeholder=\"Enter value\"><div class=\"input-group-btn\"><button type=\"button\" class=\"btn btn-success\" ng-click=\"addKeyValue()\"><i class=\"fa fa-plus\"></i></button><button type=\"button\" class=\"btn btn-danger\" ng-click=\"removeKeyValue(\\'keyValuesArea_' + key + '\\')\"><i class=\"fa fa-minus\"></i></button></div></div></div>';\n        return keySelect;\n    };\n\n\n    // Fetch Toc Types            \n    tocService.getTocTypes($scope).then(function (data) {\n        //$scope.selected_option = $scope.node_type;//$scope.TocTypes[$scope.node_type];  \n\n        selectedKey = $scope.arrayIterate(data);\n        $scope.selected_option = data[selectedKey];\n    });\n\n    //Array index find for selected type\n    var selectedKey = '';\n    $scope.arrayIterate = function (lists) {\n        angular.forEach(lists, function (value, key) {\n            if (value.id == $scope.node_type) {\n                selectedKey = key;\n            }\n        });\n        return selectedKey;\n    }\n    //selectedKey = $scope.arrayIterate($scope.list);\n    //\n\n    //section_page_disabled    \n    $scope.section_page = $scope.child.section_page;\n    $scope.section_page_disabled = true;\n    if (angular.isUndefined($scope.child.section_page)) {\n        $scope.section_page = 'section';\n    }\n    //==\n\n    /*$scope.$watch('node_title', function (val) {\n        if (angular.isUndefined(val) == true || val == '') {\n            $scope.formError = {'node_title': 'Only a-z, A-Z, 0-9, _, :, -, . are supported.'}\n        } else {\n            $scope.formError = {'node_title': ''}\n        }\n    });*/\n    $scope.add = function (child) {\n        $scope.pageAction = 'EDIT';\n\n        objectService.getProjectDetails($scope).then(function (data) {\n            $scope.project = {'project_permissions': data.project_permissions};\n            if ($scope.project.project_permissions['toc.node.add'].grant) {\n                if (angular.isUndefined($scope.node_title) == false && $scope.node_title != '') {\n\n                    $scope.file = tocService.createFileName($scope);\n                    tocService.checkFileName($scope).then(function (data) {\n                        //if ((data.status == 200 && $scope.section_page == 'page') || $scope.section_page == 'section') {\n                        if (data.status == 200) {\n                            //console.log(angular.isUndefined($scope.node_title)+'=='+$scope.node_title+'=='+angular.isUndefined($scope.selected_option));\n                            //if (angular.isUndefined($scope.node_title) == false && $scope.node_title != '' && angular.isUndefined($scope.selected_option) == false) {\n                            if (angular.isUndefined($scope.node_title) == false && $scope.node_title != '') {\n                                child.title = $scope.node_title;\n                                var page_name = tocService.createFileName($scope);\n                                child.file = page_name;//$scope.node_title + '.xhtml';\n                                //child.type = $scope.selected_option.id;\n                                //child.section_page = $scope.section_page;\n                                //console.log(child);\n                                var modalCloseParameter = {node_id: child.id, child_node_title: $scope.node_title, section_page: $scope.section_page, 'file': page_name, 'parent_node_id': parent_node_id, 'applyMetadata': $scope.applyMetadata};\n                                if ($scope.applyMetadata) {\n                                    modalCloseParameter.tags = $scope.metadata.tagValue;\n                                    modalCloseParameter.key_data = $scope.key_data;\n                                    modalCloseParameter.value_data = $scope.value_data;\n                                    modalCloseParameter.taxonomy = $scope.taxonomy;\n                                }\n                                $modalInstance.close(modalCloseParameter);\n                            } else {\n                                if (angular.element(\"ul#modalContentTab li.active\").find('a').attr('data-target') == '#METADATA')\n                                {\n                                    setTimeout(function () {\n                                        angular.element(\"ul#modalContentTab li\").first().find('a').trigger('click');\n                                    }, 100);\n                                }\n                                $scope.formError = {'node_title': 'Only a-z, A-Z, 0-9, _, :, -, . are supported.'}\n                            }\n                        } else {\n                            if (angular.element(\"ul#modalContentTab li.active\").find('a').attr('data-target') == '#METADATA')\n                            {\n                                setTimeout(function () {\n                                    angular.element(\"ul#modalContentTab li\").first().find('a').trigger('click');\n                                }, 100);\n                            }\n                            $scope.errMsg = (data.message != null) ? data.message : \"\";\n                            $scope.formError = {'node_title': $scope.errMsg}\n                        }\n                    });\n                } else {\n                    if (angular.element(\"ul#modalContentTab li.active\").find('a').attr('data-target') == '#METADATA')\n                    {\n                        setTimeout(function () {\n                            angular.element(\"ul#modalContentTab li\").first().find('a').trigger('click');\n                        }, 100);\n                    }\n                    $scope.formError = {'node_title': 'Only a-z, A-Z, 0-9, _, :, -, . are supported.'}\n                }\n            } else {\n                alert('Permission denied');\n            }\n\n        });\n\n        /*tocService.checkFileName($scope).then(function (data) {\n         if (data.status == 200) {\n         if (angular.isUndefined($scope.node_title) == false && $scope.node_title != '' && angular.isUndefined($scope.selected_option) == false) {\n         child.title = $scope.node_title;\n         child.file = $scope.node_title + '.xhtml';\n         child.type = $scope.selected_option.id;\n         \n         var modalCloseParameter = {node_id: child.id, child_node_title: $scope.node_title};\n         $modalInstance.close(modalCloseParameter);\n         }\n         } else {\n         alert(data.message);\n         }\n         });*/\n\n    };\n\n    $scope.cancel = function () {\n        $modalInstance.dismiss('cancel');\n    };\n\n\n});",
          "comment" : ""
        },
        "redirectURL" : "",
        "headersSize" : 203,
        "bodySize" : 35547,
        "comment" : ""
      },
      "cache" : { },
      "timings" : {
        "comment" : "",
        "ssl" : -1,
        "connect" : 1352,
        "dns" : -1,
        "blocked" : -1,
        "send" : 0,
        "wait" : 0,
        "receive" : 0
      },
      "comment" : "",
      "_katalonRequestInformation" : {
        "name" : "50",
        "testObjectId" : "Temporary RESTful request object",
        "harId" : "57d6ee3a-8639-45d4-bd06-b6f99607b9e5"
      },
      "time" : 1352
    } ],
    "comment" : ""
  }
}