{
  "log" : {
    "version" : "1.2",
    "pages" : [ ],
    "entries" : [ {
      "startedDateTime" : "2019-07-16T05:32:39.856Z",
      "request" : {
        "method" : "GET",
        "url" : "https://frostedc-stg.learningmate.com/js/toc/tocService.js",
        "httpVersion" : "",
        "cookies" : [ ],
        "headers" : [ ],
        "queryString" : [ ],
        "headersSize" : 0,
        "bodySize" : 0,
        "comment" : ""
      },
      "response" : {
        "status" : 200,
        "statusText" : "",
        "httpVersion" : "",
        "cookies" : [ ],
        "headers" : [ {
          "name" : "Accept-Ranges",
          "value" : "bytes"
        }, {
          "name" : null,
          "value" : "HTTP/1.1 200 OK"
        }, {
          "name" : "Server",
          "value" : "nginx/1.13.5"
        }, {
          "name" : "ETag",
          "value" : "\"5d2ca960-9a7b\""
        }, {
          "name" : "Connection",
          "value" : "keep-alive"
        }, {
          "name" : "Last-Modified",
          "value" : "Mon, 15 Jul 2019 16:27:12 GMT"
        }, {
          "name" : "Content-Length",
          "value" : "39547"
        }, {
          "name" : "Date",
          "value" : "Tue, 16 Jul 2019 05:32:56 GMT"
        }, {
          "name" : "Content-Type",
          "value" : "application/javascript"
        } ],
        "content" : {
          "size" : 39547,
          "mimeType" : "application/javascript",
          "text" : "/*****\n * Services for TOC\n * Author - Koushik Samanta\n *  \n */\n'use strict';\n//Start of aclService\nvar returnVal = '';\nvar returnTree = '';\nvar node_id = '';\nvar project_id = '';\napp.service('tocService', ['$http', '$q', 'sessionService', '$location', '$rootScope', function ($http, $q, sessionService, $location, $rootScope) {\n        this.saveContent = function ($scope, redirectPage) {\n            var params = {};\n            params.access_token = sessionService.get('access_token');\n            params.content = $scope.text;\n            var deferred = $q.defer();\n            var node_title = jQuery('#node_title').html();\n            node_title = node_title.replace(/&nbsp;/gi, '').trim();\n            if (node_title != '') {\n                $http.post(serviceEndPoint + 'api/v1/toc-content/' + $scope.node_id + '?access_token=' + params.access_token, {\n                    content: $scope.text,\n                    node_id: $scope.node_id,\n                    project_id: $scope.project_id,\n                    node_title: node_title\n                }).success(function (data, status, headers, config) {\n                    // this callback will be called asynchronously\n                    // when the response is available\n                    deferred.resolve(data);\n                    //return deferred.promise;\n                    if (redirectPage) {\n                        //$location.url('/edit_toc/' + $scope.object_id);\n                        $location.url(redirectPage);\n                    }\n\n                }).error(function (data, status, headers, config) {\n                    $rootScope.unauthorised_redirection(data.status);\n                });\n            } else {\n                alert('Node title can not be empty');\n            }\n            return deferred.promise;\n        };\n        this.saveToc = function ($scope) {\n            var deferred = $q.defer();\n            /*var params = {};\n             params.toc = $scope.data;\n             params.object_id = $scope.object_id;\n             params.access_token = sessionService.get('access_token');*/\n            /*$http({\n             method: 'POST',\n             url: serviceEndPoint + 'api/v1/toc',\n             headers: {'Content-Type': 'application/json'},\n             params: params\n             }).success(function(data, status, headers, config) {\n             deferred.resolve(data);\n             }).error(function(data, status, headers, config) {\n             deferred.resolve(data);\n             });*/\n            //console.info($scope.data);\n            $http.post(serviceEndPoint + 'api/v1/toc?access_token=' + sessionService.get('access_token'), {\n                object_id: (angular.isUndefined($scope.node_id) ? '' : $scope.node_id),\n                project_id: $scope.project_id,\n                child_node_title: (angular.isUndefined($scope.child_node_title) ? '' : $scope.child_node_title),\n                child_node_type: (angular.isUndefined($scope.child_node_type) ? '' : $scope.child_node_type),\n                toc: JSON.stringify($scope.data)\n            }).success(function (data, status, headers, config) {\n                //console.log($scope.data);\n                deferred.resolve(data);\n            }).error(function (data, status, headers, config) {\n                deferred.resolve(data);\n                $rootScope.unauthorised_redirection(data.status);\n            });\n            return deferred.promise;\n        }\n\n        this.checkFileName = function ($scope) {\n            /*console.log({\n             project_id: $scope.project_id,\n             child_node_title: $scope.node_title,\n             object_id: (angular.isUndefined($scope.node_id) ? '' : $scope.node_id),\n             pageAction: $scope.pageAction,\n             section_page: $scope.section_page,\n             file: $scope.file\n             });*/\n            var deferred = $q.defer();\n            //console.log($scope.assessment_id);\n            $http.post(serviceEndPoint + 'api/v1/validate-toc-node?access_token=' + sessionService.get('access_token'), {\n                project_id: $scope.project_id,\n                child_node_title: $scope.node_title,\n                object_id: (angular.isUndefined($scope.node_id) ? '' : $scope.node_id),\n                pageAction: $scope.pageAction,\n                section_page: $scope.section_page,\n                assessment_source: angular.isDefined($scope.assessment_source) ? $scope.assessment_source : '',\n                file: $scope.file,\n                assessment_id: $scope.assessment_id,\n                assignment_id: $scope.assignment_id,\n                assignment_source: angular.isDefined($scope.assignment_source) ? $scope.assignment_source : '',\n                forums_id: $scope.forums_id,\n                asset_id: (angular.isUndefined($scope.asset_id) ? '' : $scope.asset_id),\n                child_node_type: $scope.ext_child_node_type,\n                ext_res_url: (angular.isUndefined($scope.ext_res_url) ? '' : $scope.ext_res_url),\n                ext_res_type: (angular.isUndefined($scope.ext_res_type) ? '' : $scope.ext_res_type),\n                assessment_ids: (angular.isUndefined($scope.assessment_group_details) ? '' : angular.toJson($scope.assessment_group_details)),\n                assessment_ids_randomization: (angular.isUndefined($scope.assessment_ids_randomization) ? '' : $scope.assessment_ids_randomization),\n            }).success(function (data, status, headers, config) {\n                //console.log(data);\n                $scope.checkChildNode = data;\n                deferred.resolve($scope.checkChildNode);\n            }).error(function (data, status, headers, config) {\n                $rootScope.unauthorised_redirection(data.status);\n            });\n            return deferred.promise;\n        }\n\n        this.updateNodeTitle = function ($scope) {\n            var deferred = $q.defer();\n            $http.post(serviceEndPoint + 'api/v1/update-node-title?access_token=' + sessionService.get('access_token'), {\n                project_id: $scope.project_id,\n                node_title: $scope.child_node_title,\n                object_id: (angular.isUndefined($scope.node_id) ? '' : $scope.node_id)\n            }).success(function (data, status, headers, config) {\n\n                deferred.resolve($scope.checkChildNode);\n            }).error(function (data, status, headers, config) {\n                $rootScope.unauthorised_redirection(data.status);\n            });\n            return deferred.promise;\n        }\n\n\n        var currentObject = this;\n        this.getToc = function ($scope) {\n            var deferred = $q.defer();\n            var params = {};\n            params.project_id = $scope.project_id;\n            params.object_id = $scope.object_id;\n            params.access_token = sessionService.get('access_token');\n            $http({\n                method: 'GET',\n                url: serviceEndPoint + 'api/v1/toc',\n                headers: {'Content-Type': 'application/json'},\n                params: params\n            }).success(function (data, status, headers, config) {\n                if (data) {\n                    $scope.orgToc = data;\n                } else {\n                    $scope.orgToc = currentObject.orgToc();\n                }\n                deferred.resolve($scope.orgToc);\n            }).error(function (data, status, headers, config) {\n                $rootScope.unauthorised_redirection(data.status);\n            });\n            return deferred.promise;\n        }\n        /**\n         * Get Toc Types\n         * @param {type} $scope\n         * @returns {undefined}\n         */\n        this.getTocTypes = function ($scope) {\n            var deferred = $q.defer();\n            var queryString = '&project_type_id=' + $scope.project_type_id + '&type_id=' + $scope.parent_node_type;\n            $http.get(serviceEndPoint + 'api/v1/toc-type?access_token=' + sessionService.get('access_token') + queryString, {\n            }).success(function (data, status, headers, config) {\n                $scope.TocTypes = data.data;\n                deferred.resolve($scope.TocTypes);\n            }).error(function (data, status, headers, config) {\n                $rootScope.unauthorised_redirection(data.status);\n            });\n            return deferred.promise;\n        }\n        /**\n         * Get Toc Content\n         * @param {type} $scope\n         * @returns {undefined}\n         */\n        this.getTocContent = function ($scope) {\n            //console.info($scope.project_details);\n            var node_id = $scope.node_id;\n            project_id = $scope.project_details.id;\n            $http({\n                method: 'GET',\n                url: serviceEndPoint + 'api/v1/toc-content/' + $scope.node_id + '?access_token=' + sessionService.get('access_token') + '&project_id=' + project_id + '&s3=0'\n            }).success(function (data, status, headers, config) {\n\n                $scope.text = data;\n                //console.log(data.status);                \n                //if ( (data.status == '400' && $scope.toc_type == 'Chapter') || ($scope.toc_type == 'Chapter' && data.data.content=='') || ($scope.toc_type == 'Chapter' && angular.isUndefined(data.data.content)) ) {\n                if ($scope.toc_type == 'Chapter' && (data.status == '400' || data.data.description == '' || angular.isUndefined(data.data.description))) {\n                    // toc_type is Chapter and content is blank than call default content\n                    $http({\n                        method: 'GET',\n                        url: clientUrl + 'simple_editor/json/content.json'\n                    }).success(function (data, status, headers, config) {\n                        $scope.node_title = $scope.nodeTitle;\n                        $scope.object_name = $scope.object_details.name;\n                        returnVal = data;\n                    }).error(function (data, status, headers, config) {\n\n                    });\n                } else {\n                    if (data.data) {\n                        $scope.object_name = data.data.object_name;\n                        $scope.node_title = data.data.node_title;\n                        returnVal = {\n                            \"content\": data.data.description,\n                            \"leftPanelTree\": data.data.leftPanelTree\n                        };\n                    } else {\n                        returnVal = {\n                            \"content\": \"\"\n                        };\n                    }\n\n                }\n                htmlEditor.init();\n                //console.info(data.data.description);\n\n            }).error(function (data, status, headers, config) {\n\n            });\n        }\n\n        this.deleteTreeApi = function ($scope, toc, node_id) {\n            $http.post(serviceEndPoint + 'api/v1/toc-content?access_token=' + sessionService.get('access_token'), {\n                project_id: $scope.project_id,\n                object_id: node_id,\n                toc: JSON.stringify(toc),\n                _method: 'DELETE'\n            }).success(function (data, status, headers, config) {\n                //console.log(data);\n            }).error(function (data, status, headers, config) {\n                $rootScope.unauthorised_redirection(data.status);\n            });\n        }\n\n        this.initiateExport = function ($scope) {\n            var deferred = $q.defer();\n\n            var params = {};\n            params.project_id = $scope.project.id;\n            params.project_type_id = $scope.project.project_type_id;\n            params.cfi_domain_name = encodeURIComponent($scope.cfi_domain_name);\n            params.cfi_book_id = encodeURIComponent($scope.cfi_book_id);\n            params.exportType = $scope.exportType;\n            params.courseExportOption = $scope.course_export_option ? $scope.course_export_option : 'html';\n            params.publish_all = $scope.publish_all;\n            if (angular.isDefined($scope.course_export_shell_options)) {\n                params.courseExportShellOption = $scope.course_export_shell_options;\n            }\n            $http.post(serviceEndPoint + 'api/v1/toc/project-export-request/project_id/' + $scope.project.id + '?access_token=' + sessionService.get('access_token'), params).success(function (data, status, headers, config) {\n                if (data.projectPermissionGranted == 401) {\n                    $rootScope.move_unauthorised_user_to_toc_with_message(data.projectPermissionGranted);\n                }\n                deferred.resolve(data);\n            }).error(function (data, status, headers, config) {\n                $rootScope.unauthorised_redirection(data.status);\n            });\n            return deferred.promise;\n        }\n\n        this.rearrangeTocTree = function ($scope) {\n            var deferred = $q.defer();\n            $http.post(serviceEndPoint + 'api/v1/toc-tree-rearrange?access_token=' + sessionService.get('access_token'), {\n                object_id: (angular.isUndefined($scope.node_id) ? '' : $scope.node_id),\n                project_id: $scope.project_id,\n                toc: JSON.stringify($scope.data),\n                _method: 'PUT'\n            }).success(function (data, status, headers, config) {\n                deferred.resolve(data);\n            }).error(function (data, status, headers, config) {\n                deferred.resolve(data);\n                $rootScope.unauthorised_redirection(data.status);\n            });\n            return deferred.promise;\n        }\n\n        this.edit_toc_node = function ($scope) {\n            var deferred = $q.defer();\n            $http.post(serviceEndPoint + 'api/v1/toc-node-edit?access_token=' + sessionService.get('access_token'), {\n                object_id: (angular.isUndefined($scope.node_id) ? '' : $scope.node_id),\n                project_id: $scope.project_id,\n                child_node_title: (angular.isUndefined($scope.child_node_title) ? '' : $scope.child_node_title),\n                file: (angular.isUndefined($scope.file) ? '' : $scope.file),\n                child_node_type: (angular.isUndefined($scope.child_node_type) ? '' : $scope.child_node_type),\n                section_page: $scope.section_page,\n                parent_node_id: $scope.parent_node_id,\n                toc: JSON.stringify($scope.data),\n                tags: (angular.isUndefined($scope.tags) ? '' : JSON.stringify($scope.tags)),\n                key_data: (angular.isUndefined($scope.key_data) ? '' : JSON.stringify($scope.key_data)),\n                value_data: (angular.isUndefined($scope.value_data) ? '' : JSON.stringify($scope.value_data)),\n                taxonomy: (angular.isUndefined($scope.taxonomy) ? '' : JSON.stringify($scope.taxonomy)),\n                assessment_source: angular.isDefined($scope.assessment_source) ? $scope.assessment_source : '',\n                assessment_id: (angular.isUndefined($scope.assessment_id) ? '' : $scope.assessment_id),\n                asset_id: (angular.isUndefined($scope.asset_id) ? '' : $scope.asset_id),\n                assignment_source: angular.isDefined($scope.assignment_source) ? $scope.assignment_source : '',\n                assignment_id: (angular.isUndefined($scope.assignment_id) ? '' : $scope.assignment_id),\n                forum_id: (angular.isUndefined($scope.forum_id) ? '' : $scope.forum_id),\n                teacher_only: (angular.isUndefined($scope.teacher_only) ? '' : $scope.teacher_only),\n                ext_res_link: (angular.isUndefined($scope.ext_res_link) ? '' : $scope.ext_res_link),\n                ext_res_url: (angular.isUndefined($scope.ext_res_url) ? '' : $scope.ext_res_url),\n                ext_res_type: (angular.isUndefined($scope.ext_res_type) ? '' : $scope.ext_res_type),\n                lms_settings: (angular.isUndefined($scope.lms_settings) ? '' : JSON.stringify($scope.lms_settings)),\n                assessment_lms_config: (angular.isUndefined($scope.assessment_lms_config) ? '' : JSON.stringify($scope.assessment_lms_config)),\n                assessment_ids: (angular.isUndefined($scope.assessment_ids) ? '' : JSON.stringify($scope.assessment_ids)),\n                assessment_ids_randomization: (angular.isUndefined($scope.assessment_ids_randomization) ? '' : $scope.assessment_ids_randomization),\n                _method: 'PUT'\n            }).success(function (data, status, headers, config) {\n                deferred.resolve(data);\n            }).error(function (data, status, headers, config) {\n                deferred.resolve(data);\n                $rootScope.unauthorised_redirection(data.status);\n            });\n            return deferred.promise;\n        }\n\n        this.add_toc_node = function ($scope) {\n            var deferred = $q.defer();\n            $http.post(serviceEndPoint + 'api/v1/toc-node-add?access_token=' + sessionService.get('access_token'), {\n                object_id: (angular.isUndefined($scope.node_id) ? '' : $scope.node_id),\n                project_id: $scope.project_id,\n                child_node_title: (angular.isUndefined($scope.child_node_title) ? '' : $scope.child_node_title),\n                file: (angular.isUndefined($scope.file) ? '' : $scope.file),\n                child_node_type: (angular.isUndefined($scope.child_node_type) ? '' : $scope.child_node_type),\n                section_page: $scope.section_page,\n                parent_node_id: $scope.parent_node_id,\n                parent_node_root_type: $scope.parent_node_root_type,\n                template_id: (angular.isUndefined($scope.template_id) ? '' : $scope.template_id),\n                content_object_id: (angular.isUndefined($scope.content_object_id) ? '' : $scope.content_object_id),\n                content_project_id: (angular.isUndefined($scope.content_project_id) ? '' : $scope.content_project_id),\n                toc: JSON.stringify($scope.data),\n                tags: (angular.isUndefined($scope.tags) ? '' : JSON.stringify($scope.tags)),\n                key_data: (angular.isUndefined($scope.key_data) ? '' : JSON.stringify($scope.key_data)),\n                value_data: (angular.isUndefined($scope.value_data) ? '' : JSON.stringify($scope.value_data)),\n                taxonomy: (angular.isUndefined($scope.taxonomy) ? '' : JSON.stringify($scope.taxonomy)),\n                assessment_source: angular.isDefined($scope.assessment_source) ? $scope.assessment_source : '',\n                assessment_id: (angular.isUndefined($scope.assessment_id) ? '' : $scope.assessment_id),\n                assignment_source: angular.isDefined($scope.assignment_source) ? $scope.assignment_source : '',\n                assignment_id: (angular.isUndefined($scope.assignment_id) ? '' : $scope.assignment_id),\n                forum_id: (angular.isUndefined($scope.forum_id) ? '' : $scope.forum_id),\n                asset_id: (angular.isUndefined($scope.asset_id) ? '' : $scope.asset_id),\n                ext_res_link: (angular.isUndefined($scope.ext_res_link) ? '' : $scope.ext_res_link),\n                ext_res_url: (angular.isUndefined($scope.ext_res_url) ? '' : $scope.ext_res_url),\n                ext_res_type: (angular.isUndefined($scope.ext_res_type) ? '' : $scope.ext_res_type),\n                parent_lo_id: (angular.isUndefined($scope.parent_lo_id) ? '' : $scope.parent_lo_id),\n                lms_settings: (angular.isUndefined($scope.lms_settings) ? '' : JSON.stringify($scope.lms_settings)),\n                assessment_lms_config: (angular.isUndefined($scope.assessment_lms_config) ? '' : JSON.stringify($scope.assessment_lms_config)),\n                assessment_ids: (angular.isUndefined($scope.assessment_ids) ? '' : angular.toJson($scope.assessment_ids)),\n                assessment_ids_randomization: (angular.isUndefined($scope.assessment_ids_randomization) ? '' : $scope.assessment_ids_randomization),\n                on_reuse: (angular.isUndefined($scope.on_reuse) ? '' : $scope.on_reuse),\n                _method: 'PUT'\n            }).success(function (data, status, headers, config) {\n                deferred.resolve(data);\n            }).error(function (data, status, headers, config) {\n                deferred.resolve(data);\n                $rootScope.unauthorised_redirection(data.status);\n            });\n            return deferred.promise;\n        }\n\n        this.delete_toc_node = function ($scope, children_toc, child, parent_node_id) {\n            var deferred = $q.defer();\n            $http.post(serviceEndPoint + 'api/v1/toc-node-delete?access_token=' + sessionService.get('access_token'), {\n                object_id: child.id,\n                title: child.title,\n                file: child.file,\n                project_id: $scope.project_id,\n                toc: JSON.stringify($scope.data), //modified TOC\n                children_toc: JSON.stringify(children_toc), //Children TOC, need to delete all\n                section_page: child.section_page,\n                parent_node_id: parent_node_id,\n                _method: 'DELETE'\n            }).success(function (data, status, headers, config) {\n                if (data.projectPermissionGranted == 401) {\n                    $rootScope.move_unauthorised_user_to_toc_with_message(data.projectPermissionGranted);\n                }\n                deferred.resolve(data);\n            }).error(function (data, status, headers, config) {\n                deferred.resolve(data);\n                $rootScope.unauthorised_redirection(data.status);\n            });\n            return deferred.promise;\n        }\n\n        this.getLeftPane = function ($scope, redirectPage) {\n            var deferred = $q.defer();\n            $http.post(serviceEndPoint + 'api/v1/content-left-panel?access_token=' + sessionService.get('access_token'), {\n                content: $scope.text\n            }).success(function (data, status, headers, config) {\n                returnTree = {\n                    \"leftPanelTree\": data.data\n                };\n//console.info(data);\n\n                htmlEditor.generateLeftTree(data.data);\n                deferred.resolve(data);\n            }).error(function (data, status, headers, config) {\n                $rootScope.unauthorised_redirection(data.status);\n            });\n            return deferred.promise;\n        };\n        //Create a file name while adding a node \n        this.createFileName = function ($scope) {\n            var page_name = '';\n            if ($scope.project_type_id == 1) {\n                //For PXE Project\n                if ($scope.node_type == 2) {\n                    //Bodymatter\n                    //Create FileName For section and page both\n                    page_name = $scope.node_title + '.xhtml';\n                } else if ($scope.node_type == 1 || $scope.node_type == 3) {\n                    //Frontmatter/Rearmatter\n                    //Create FileName For page only\n                    page_name = ($scope.section_page == 'page' ? $scope.node_title + '.xhtml' : '');\n                }\n            } else if ($scope.project_type_id == 2) {\n                //For LearningMaterial\n                //Create FileName For page only\n                page_name = ($scope.section_page == 'page' ? $scope.node_title + '.xhtml' : '');\n            } else if ($scope.project_type_id == 3) {\n                //For Visual \n                //Create FileName For page only\n                page_name = ($scope.section_page == 'page' ? $scope.node_title + '.html' : '');\n            } else if ($scope.project_type_id == 5) {\n                //For Course \n                //Create FileName For page only\n                page_name = ($scope.section_page == 'page' ? $scope.node_title + '.html' : '');\n            }\n\n            return page_name;\n        };\n        /**\n         * Get Ticket type count\n         * @param {type} $scope\n         * @returns {undefined}\n         */\n        this.getTicketStatusCount = function ($scope) {\n            var deferred = $q.defer();\n            var query_string = '&check_license_validity=' + $scope.check_license_validity + '&check_update_availability=' + $scope.check_update_availability;\n            $http.get(serviceEndPoint + 'api/v1/ticket-status-count/project_id/' + $scope.project_id + '?access_token=' + sessionService.get('access_token') + query_string, {\n            }).success(function (data, status, headers, config) {\n                if (angular.isObject(data.data)) {\n                    $scope.TocStatusCount = data.data;\n                    //console.log($scope.TocStatusCount);\n                    deferred.resolve({TocStatusCount: $scope.TocStatusCount, TicketTotalCountsByStatus: data.TicketTotalCountsByStatus.TicketTotalCountsByStatus, total_ticket: data.TicketTotalCountsByStatus.total_ticket});\n                }\n            }).error(function (data, status, headers, config) {\n                $rootScope.unauthorised_redirection(data.status);\n            });\n            return deferred.promise;\n        }\n\n        /**\n         * Get ProjectObject Status\n         * @param {type} $scope\n         * @returns {undefined}\n         */\n        this.getProjectObjectStatus = function ($scope, object_id) {\n            var deferred = $q.defer();\n            var api = 'api/v1/project-objects-progress-status/project_id/' + $scope.project_id + '?access_token=' + sessionService.get('access_token');\n            if (object_id != '') {\n                api = 'api/v1/project-objects-progress-status/project_id/' + $scope.project_id + '/object_id/' + object_id + '?access_token=' + sessionService.get('access_token');\n            }\n            $http.get(serviceEndPoint + api, {\n            }).success(function (data, status, headers, config) {\n                $scope.projObjStatus = data.data;\n                deferred.resolve({projObjStatus: $scope.projObjStatus});\n            }).error(function (data, status, headers, config) {\n                $rootScope.unauthorised_redirection(data.status);\n            });\n            return deferred.promise;\n        }\n\n        this.getFileCompare = function ($scope) {\n            var deferred = $q.defer();\n            $http.post(serviceEndPoint + 'api/v1/compare-files?access_token=' + sessionService.get('access_token'), {\n                file1_versionid: $scope.file1 ? $scope.file1.version_id : '',\n                file2_versionid: $scope.file2 ? $scope.file2.version_id : '',\n                project_id: $scope.project_id ? $scope.project_id : 0,\n                object_id: $scope.object_id ? $scope.object_id : ''\n            }).success(function (data, status, headers, config) {\n                deferred.resolve(data);\n            }).error(function (data, status, headers, config) {\n                $rootScope.unauthorised_redirection(data.status);\n            });\n            return deferred.promise;\n        };\n        /**\n         * Copy project API request\n         * @param {project_id} $scope\n         * @returns {undefined}\n         */\n        this.copyProject = function ($scope) {\n            var deferred = $q.defer();\n            var queryString = '&project_id=' + $scope.project_id;\n            queryString += '&user_id=' + $scope.user_id;\n            $http.get(serviceEndPoint + 'api/v1/copy-project?access_token=' + sessionService.get('access_token') + queryString, {\n            }).success(function (data, status, headers, config) {\n                //$scope.data = data;\n                //deferred.resolve($scope.data);\n                deferred.resolve(data);\n            }).error(function (data, status, headers, config) {\n                $rootScope.unauthorised_redirection(data.status);\n            });\n            return deferred.promise;\n        }\n\n        this.lockEntry = function ($scope) {\n            var deferred = $q.defer();\n            var queryString = '&project_id=' + $scope.project_id;\n            queryString += '&user_id=' + $scope.user_id;\n            queryString += '&trigger=' + $scope.trigger;\n            queryString += '&get_lock_status=' + $scope.getLockStatus;\n            $http.get(serviceEndPoint + 'api/v1/store-data-lock?access_token=' + sessionService.get('access_token') + queryString, {\n            }).success(function (data, status, headers, config) {\n                deferred.resolve(data);\n            }).error(function (data, status, headers, config) {\n                $rootScope.unauthorised_redirection(data.status);\n            });\n            return deferred.promise;\n        }\n\n        this.getLockEntry = function ($scope) {\n            var deferred = $q.defer();\n            var queryString = '&project_id=' + $scope.project_id;\n            queryString += '&user_id=' + $scope.user_id;\n            $http.get(serviceEndPoint + 'api/v1/get-data-lock?access_token=' + sessionService.get('access_token') + queryString, {\n            }).success(function (data, status, headers, config) {\n                deferred.resolve(data);\n            }).error(function (data, status, headers, config) {\n                $rootScope.unauthorised_redirection(data.status);\n            });\n            return deferred.promise;\n        }\n\n        this.checkObjectLock = function ($scope) {\n            var deferred = $q.defer();\n            var queryString = '&object_id=' + $scope.object_id;\n            queryString += '&user_id=' + $scope.user_id;\n            queryString += '&project_id=' + $scope.project_id;\n            $http.get(serviceEndPoint + 'api/v1/get-object-lock?access_token=' + sessionService.get('access_token') + queryString, {\n            }).success(function (data, status, headers, config) {\n                deferred.resolve(data);\n            }).error(function (data, status, headers, config) {\n                $rootScope.unauthorised_redirection(data.status);\n            });\n            return deferred.promise;\n        }\n\n\n        this.partialExportService = function ($scope) {\n            var deferred = $q.defer();\n            var queryString = '&project_id=' + $scope.project_id;\n            queryString += '&cfi_domain_name=' + encodeURIComponent($scope.cfi_domain_name);\n            queryString += '&cfi_book_id=' + encodeURIComponent($scope.cfi_book_id);\n            queryString += '&partial_toc_nodes=' + angular.toJson($scope.resultTocNode);\n            $http.post(serviceEndPoint + 'api/v1/partial-export?access_token=' + sessionService.get('access_token') + queryString, {\n            }).success(function (data, status, headers, config) {\n                deferred.resolve(data);\n            }).error(function (data, status, headers, config) {\n                $rootScope.unauthorised_redirection(data.status);\n            });\n            return deferred.promise;\n        }\n\n        this.updateImportStatus = function ($scope) {\n            var deferred = $q.defer();\n            var queryString = '&project_id=' + $scope.project_id;\n            $http.post(serviceEndPoint + 'api/v1/update-import-status?access_token=' + sessionService.get('access_token') + queryString, {\n            }).success(function (data, status, headers, config) {\n                deferred.resolve(data);\n            }).error(function (data, status, headers, config) {\n                $rootScope.unauthorised_redirection(data.status);\n            });\n            return deferred.promise;\n        }\n\n        this.searchText = function ($scope) {\n            var deferred = $q.defer();\n            var queryString = '&project_id=' + $scope.project_id;\n            queryString += '&search_text=' + $scope.search_text;\n            $http.get(serviceEndPoint + 'api/v1/search-text?access_token=' + sessionService.get('access_token') + queryString, {\n            }).success(function (data, status, headers, config) {\n                deferred.resolve(data);\n            }).error(function (data, status, headers, config) {\n                $rootScope.unauthorised_redirection(data.status);\n            });\n            return deferred.promise;\n        }\n\n        this.getLOToc = function ($scope) {\n            var deferred = $q.defer();\n            var queryString = '&project_id=' + $scope.project_id;\n            queryString += '&object_id=' + $scope.object_id;\n            $http.get(serviceEndPoint + 'api/v1/get-lo-toc?access_token=' + sessionService.get('access_token') + queryString, {\n            }).success(function (data, status, headers, config) {\n                deferred.resolve(data);\n            }).error(function (data, status, headers, config) {\n                $rootScope.unauthorised_redirection(data.status);\n            });\n            return deferred.promise;\n        }\n        this.getGlobalLOTocByLocalyUsedLo = function ($scope, local_lo_id) {\n            var deferred = $q.defer();\n            var queryString = '';\n            $http.get(serviceEndPoint + 'api/v1/get-global-lo-toc/' + local_lo_id + '?access_token=' + sessionService.get('access_token') + queryString, {\n            }).success(function (data, status, headers, config) {\n                deferred.resolve(data);\n            }).error(function (data, status, headers, config) {\n                $rootScope.unauthorised_redirection(data.status);\n            });\n            return deferred.promise;\n        }\n\n        this.makeGlobal = function (ids, $scope) {\n            var deferred = $q.defer();\n            var isLocal = 1;\n            if ($scope.local_global) {\n                isLocal = 0;\n            }\n            $http.post(serviceEndPoint + 'api/v1/change-node-access?access_token=' + sessionService.get('access_token') + '&object_id=' + ids + '&project_id=' + $scope.project_id + '&is_global=' + isLocal, {\n                assessment_source: angular.isDefined($scope.assessment_source) ? $scope.assessment_source : '',\n                assessment_id: (angular.isUndefined($scope.assessment_id) ? '' : $scope.assessment_id),\n            }).success(function (data, status, headers, config) {\n                if (data.projectPermissionGranted == 401) {\n                    $rootScope.move_unauthorised_user_to_toc_with_message(data.projectPermissionGranted);\n                }\n                deferred.resolve(data);\n            }).error(function (data, status, headers, config) {\n                deferred.resolve(data);\n                $rootScope.unauthorised_redirection(data.status);\n            });\n            return deferred.promise;\n        };\n\n        this.isUpdateAvailable = function ($scope) {\n            var deferred = $q.defer();\n            if (angular.isDefined($scope.object_id)) {\n                $http.get(serviceEndPoint + 'api/v1/is-toc-update-available?access_token=' + sessionService.get('access_token') + '&object_id=' + $scope.object_id, {\n                }).success(function (data, status, headers, config) {\n                    if (data.projectPermissionGranted == 401) {\n                        $rootScope.move_unauthorised_user_to_toc_with_message(data.projectPermissionGranted);\n                    }\n                    deferred.resolve(data);\n                }).error(function (data, status, headers, config) {\n                    deferred.resolve(data);\n                    $rootScope.unauthorised_redirection(data.status);\n                });\n                return deferred.promise;\n            }\n        };\n\n        this.updateContent = function ($scope, children_toc) {\n            var deferred = $q.defer();\n            if (angular.isDefined($scope.object_id)) {\n                $http.post(serviceEndPoint + 'api/v1/update-content?access_token=' + sessionService.get('access_token') + '&object_id=' + $scope.object_id, {\n                    toc: JSON.stringify($scope.toc), //modified TOC\n                    children_toc: JSON.stringify(children_toc) //Children TOC, need to delete all\n                }).success(function (data, status, headers, config) {\n                    if (data.projectPermissionGranted == 401) {\n                        $rootScope.move_unauthorised_user_to_toc_with_message(data.projectPermissionGranted);\n                    }\n                    deferred.resolve(data);\n                }).error(function (data, status, headers, config) {\n                    deferred.resolve(data);\n                    $rootScope.unauthorised_redirection(data.status);\n                });\n                return deferred.promise;\n            }\n        };\n\n        this.getSourceContentObjectId = function ($scope) {\n            var deferred = $q.defer();\n            if (angular.isDefined($scope.object_id)) {\n                $http.get(serviceEndPoint + 'api/v1/get-source-content-object?access_token=' + sessionService.get('access_token') + '&object_id=' + $scope.object_id, {\n                }).success(function (data, status, headers, config) {\n                    if (data.projectPermissionGranted == 401) {\n                        $rootScope.move_unauthorised_user_to_toc_with_message(data.projectPermissionGranted);\n                    }\n                    deferred.resolve(data);\n                }).error(function (data, status, headers, config) {\n                    deferred.resolve(data);\n                    $rootScope.unauthorised_redirection(data.status);\n                });\n                return deferred.promise;\n            }\n        };\n\n        this.cancelContentUpdate = function ($scope) {\n            var deferred = $q.defer();\n            if (angular.isDefined($scope.object_id)) {\n                $http.post(serviceEndPoint + 'api/v1/cancel-content-update?access_token=' + sessionService.get('access_token') + '&object_id=' + $scope.object_id, {\n                }).success(function (data, status, headers, config) {\n                    if (data.projectPermissionGranted == 401) {\n                        $rootScope.move_unauthorised_user_to_toc_with_message(data.projectPermissionGranted);\n                    }\n                    deferred.resolve(data);\n                }).error(function (data, status, headers, config) {\n                    deferred.resolve(data);\n                    $rootScope.unauthorised_redirection(data.status);\n                });\n                return deferred.promise;\n            }\n        };\n\n        this.tocLicenseAndUpdateAvailabilityCheck = function ($scope) {\n            var deferred = $q.defer();\n            if (angular.isDefined($scope.object_id)) {\n                $http.post(serviceEndPoint + 'api/v1/toc-licensevalidity-update-check/project_id/' + $scope.project_id + '?access_token=' + sessionService.get('access_token'), {\n                }).success(function (data, status, headers, config) {\n                    deferred.resolve(data);\n                }).error(function (data, status, headers, config) {\n                    deferred.resolve(data);\n                    $rootScope.unauthorised_redirection(data.status);\n                });\n                return deferred.promise;\n            }\n        };\n\n        /**\n         * add unit service\n         * @param {object} $scope\n         * @returns {.$q@call;defer.promise}\n         */\n        this.add_unit_node = function ($scope) {\n            var deferred = $q.defer();\n            $http.post(serviceEndPoint + 'api/v1/toc-add-unit?access_token=' + sessionService.get('access_token'), {\n                object_id: (angular.isUndefined($scope.node_id) ? '' : $scope.node_id),\n                project_id: $scope.project_id,\n                node_title: (angular.isUndefined($scope.node_title) ? '' : $scope.node_title)\n            }).success(function (data, status, headers, config) {\n                deferred.resolve(data);\n            }).error(function (data, status, headers, config) {\n                deferred.resolve(data);\n                $rootScope.unauthorised_redirection(data.status);\n            });\n            return deferred.promise;\n        };\n\n    }]);",
          "comment" : ""
        },
        "redirectURL" : "",
        "headersSize" : 203,
        "bodySize" : 39547,
        "comment" : ""
      },
      "cache" : { },
      "timings" : {
        "comment" : "",
        "ssl" : -1,
        "connect" : 1344,
        "dns" : -1,
        "blocked" : -1,
        "send" : 0,
        "wait" : 0,
        "receive" : 0
      },
      "comment" : "",
      "_katalonRequestInformation" : {
        "name" : "67",
        "testObjectId" : "Temporary RESTful request object",
        "harId" : "507f922a-eb33-4a2c-b386-da759f11c229"
      },
      "time" : 1344
    } ],
    "comment" : ""
  }
}