{
  "log" : {
    "version" : "1.2",
    "pages" : [ ],
    "entries" : [ {
      "startedDateTime" : "2019-07-16T05:32:47.916Z",
      "request" : {
        "method" : "GET",
        "url" : "https://frostedc-stg.learningmate.com/js/user/userController.js",
        "httpVersion" : "",
        "cookies" : [ ],
        "headers" : [ ],
        "queryString" : [ ],
        "headersSize" : 0,
        "bodySize" : 0,
        "comment" : ""
      },
      "response" : {
        "status" : 200,
        "statusText" : "",
        "httpVersion" : "",
        "cookies" : [ ],
        "headers" : [ {
          "name" : "Accept-Ranges",
          "value" : "bytes"
        }, {
          "name" : null,
          "value" : "HTTP/1.1 200 OK"
        }, {
          "name" : "Server",
          "value" : "nginx/1.13.5"
        }, {
          "name" : "ETag",
          "value" : "\"5d2ca960-263c\""
        }, {
          "name" : "Connection",
          "value" : "keep-alive"
        }, {
          "name" : "Last-Modified",
          "value" : "Mon, 15 Jul 2019 16:27:12 GMT"
        }, {
          "name" : "Content-Length",
          "value" : "9788"
        }, {
          "name" : "Date",
          "value" : "Tue, 16 Jul 2019 05:33:04 GMT"
        }, {
          "name" : "Content-Type",
          "value" : "application/javascript"
        } ],
        "content" : {
          "size" : 9788,
          "mimeType" : "application/javascript",
          "text" : "/*****\n * Controller for HEADER\n * Author - Indranil Ghosh * \n */\n\n'use strict';\n\napp.controller('user', ['$scope', 'sessionService', '$location', '$routeParams', '$rootScope', '$log', 'SweetAlert', '$modal', 'userService', 'aclService', 'loginService', function ($scope, sessionService, $location, $routeParams, $rootScope, $log, SweetAlert, $modal, userService, aclService, loginService) {\n\n        $scope.access_token = sessionService.get('access_token');\n        var userinfo = JSON.parse(sessionService.get('userinfo'));\n        $scope.loggedinuser_role = userinfo.user_roles[0].id;\n        $scope.loggedinUserid = userinfo.id;\n        $scope.user_permissions = JSON.parse(sessionService.get('user_permissions'));\n        $scope.formData = {};\n\n        if (!$scope.access_token && !$scope.user_id) {\n            $location.path('logout');\n            return true;\n        }\n\n        var page = $location.path();\n        page = page.slice(1, page.length);\n\n        if (page == 'settings') {\n            $scope.userList = [];\n            userService.getUsers($scope).then(function (data) {\n                $scope.userList = data.data;\n            });\n        }\n\n        /*aclService.roles().then(function(data) {\n         $scope.roles = data.data;\n         \n         // Select Default Raole as user\n         $scope.role_id = $scope.roles[1];\n         \n         });*/\n\n        $scope.is_admin = false;\n        $scope.submitted = false;\n        $scope.createNewUser = function (size) {\n            $scope.message = '';\n            var modalInstance = $modal.open({\n                templateUrl: 'templates/user/create_user_modal.html',\n                controller: 'ModalUserAddCtrl',\n                size: size,\n                scope: $scope,\n                backdrop: 'static',\n                keyboard: false,\n                resolve: {\n                    modalFormText: function () {\n                        return \"You are trying to add a new User\";\n                    },\n                    modalFormTile: function () {\n                        return \"Create New User\";\n                    }\n                }\n            });\n            modalInstance.result.then(function () {\n                $scope.userList = [];\n                userService.getUsers($scope).then(function (data) {\n                    $scope.userList = data.data;\n                });\n            }, function () {\n                $log.info('Modal dismissed at: ' + new Date());\n            });\n        };\n\n        $scope.editUser = function (user_id, size) {\n            $scope.message = '';\n            var modalInstance = $modal.open({\n                templateUrl: 'templates/user/edit_user_modal.html',\n                controller: 'ModalUserEditCtrl',\n                size: size,\n                scope: $scope,\n                backdrop: 'static',\n                keyboard: false,\n                resolve: {\n                    formData: function () {\n                        return {first_name: '', last_name: '', username: '', email: '', is_admin: false};\n                    },\n                    user_id: function () {\n                        return user_id;\n                    },\n                    modalFormText: function () {\n                        return \"You are trying to Edit the user profile\";\n                    },\n                    modalFormTile: function () {\n                        return \"Edit Profile\";\n                    }\n                }\n            });\n            modalInstance.result.then(function () {\n                $scope.userList = [];\n                userService.getUsers($scope).then(function (data) {\n                    $scope.userList = data.data;\n                });\n            }, function () {\n                $log.info('Modal dismissed at: ' + new Date());\n            });\n        };\n\n        $scope.gotToUserAclPage = function (user_id) {\n            $location.path('/allocate_acl_user/' + user_id);\n\n        };\n\n        $scope.gotToUserAssignedPage = function (user_id) {\n            //$location.path('/user_assigned_project/' + user_id);\n            window.location = clientUrl + '#/user_assigned_project/' + user_id + '?from_admin=true';\n        };\n\n        $scope.showMsg = 0;\n        $scope.deleteUser = function (user_id) {\n            $scope.message = '';\n            $scope.user_id = user_id;\n            SweetAlert.swal({\n                title: \"Are you sure?\",\n                text: \"This user will be deactivated from the system!\",\n                type: \"warning\",\n                showCancelButton: true,\n                confirmButtonColor: \"#DD6B55\",\n                confirmButtonText: \"Yes, deactivate it!\",\n                cancelButtonText: \"No, cancel!\",\n                closeOnConfirm: true,\n                closeOnCancel: false\n            }, function (isConfirm) {\n                if (isConfirm) {\n                    userService.delUsers($scope).then(function (data) {\n                        console.log(data);\n                        //System Permission Disallow\n                        //Do logout from the system\n                        if (angular.isDefined(data.systemPermissionGranted) && data.systemPermissionGranted == '401') {\n                            loginService.logout();\n                        } else {\n                            $scope.userList = [];\n                            $scope.message = data.message;\n                            $scope.status = data.status;\n                            userService.getUsers($scope).then(function (data) {\n                                $scope.userList = data.data;\n                            });\n                        }\n\n                    });\n                    //SweetAlert.swal(\"Success\", \"User has been deleted\", \"success\");\n                } else {\n                    SweetAlert.swal(\"Cancelled\", \"User is safe :)\", \"error\");\n                }\n            });\n        };\n\n        $scope.activateUser = function (user_id) {\n            $scope.message = '';\n            $scope.user_id = user_id;\n            SweetAlert.swal({\n                title: \"Are you sure?\",\n                text: \"Do you want to activate this user!\",\n                type: \"warning\",\n                showCancelButton: true,\n                confirmButtonColor: \"#DD6B55\",\n                confirmButtonText: \"Yes, activate it!\",\n                cancelButtonText: \"No, cancel!\",\n                closeOnConfirm: true,\n                closeOnCancel: false\n            }, function (isConfirm) {\n                if (isConfirm) {\n                    userService.activateUser($scope).then(function (data) {\n                        console.info(data);\n                        if (angular.isDefined(data.systemPermissionGranted) && data.systemPermissionGranted == '401') {\n                            loginService.logout();\n                        } else {\n                            $scope.userList = [];\n                            $scope.message = data.message;\n                            $scope.status = data.status;\n                            userService.getUsers($scope).then(function (data) {\n                                $scope.userList = data.data;\n                            });\n                        }\n\n                    });\n                    //SweetAlert.swal(\"Success\", \"User has been acivate\", \"success\");\n                } else {\n                    SweetAlert.swal(\"Cancelled\", \"User remains inactive :)\", \"error\");\n                }\n            });\n        };\n\n    }]);\n\n\napp.controller('ModalUserAddCtrl', function ($scope, $modalInstance, modalFormText, modalFormTile, userService, loginService) {\n    $scope.modalFormText = modalFormText;\n    $scope.modalFormTile = modalFormTile;\n\n    $scope.createUser = function (formData) {\n        $scope.submitted = true;\n        userService.createUser($scope, formData).then(function (data) {\n            if (data.status == '200') {\n                $modalInstance.close();\n            } else if (data.status == '400') {\n                $scope.formData.error = data.error;\n            }\n\n            //System Permission Disallow\n            //Do logout from the system\n            if (angular.isDefined(data.systemPermissionGranted) && data.systemPermissionGranted == '401') {\n                $modalInstance.close();\n                loginService.logout();\n            }\n        });\n    };\n\n    $scope.cancel = function () {\n        $modalInstance.dismiss('cancel');\n    };\n});\n\napp.controller('ModalUserEditCtrl', function ($scope, $modalInstance, modalFormText, modalFormTile, userService, user_id, formData, loginService) {\n    $scope.modalFormText = modalFormText;\n    $scope.modalFormTile = modalFormTile;\n    $scope.user_id = user_id;\n    $scope.formData = formData;\n\n    $scope.loading = true;\n    userService.getUserDetail($scope).then(function (userDetail) {\n        $scope.formData = userDetail.data;\n        $scope.loading = false;\n        $scope.formData.is_admin = false;\n        if ($scope.formData.user_roles[0].id == '2') {\n            $scope.formData.is_admin = true;\n        }\n    });\n\n    $scope.updateUser = function (formData) {\n        $scope.submitted = true;\n        userService.updateUser($scope, formData).then(function (data) {\n            if (data.status == '200') {\n                $modalInstance.close();\n            } else if (data.status == '400') {\n                $scope.formData.error = data.error;\n            }\n\n            //System Permission Disallow\n            //Do logout from the system\n            if (angular.isDefined(data.systemPermissionGranted) && data.systemPermissionGranted == '401') {\n                $modalInstance.close();\n                loginService.logout();\n            }\n        });\n    };\n\n    $scope.cancel = function () {\n        $modalInstance.dismiss('cancel');\n    };\n});",
          "comment" : ""
        },
        "redirectURL" : "",
        "headersSize" : 202,
        "bodySize" : 9788,
        "comment" : ""
      },
      "cache" : { },
      "timings" : {
        "comment" : "",
        "ssl" : -1,
        "connect" : 1083,
        "dns" : -1,
        "blocked" : -1,
        "send" : 0,
        "wait" : 0,
        "receive" : 0
      },
      "comment" : "",
      "_katalonRequestInformation" : {
        "name" : "74",
        "testObjectId" : "Temporary RESTful request object",
        "harId" : "34e64041-83ea-4ccb-9f2e-496a0c0687b5"
      },
      "time" : 1083
    } ],
    "comment" : ""
  }
}