{
  "log" : {
    "version" : "1.2",
    "pages" : [ ],
    "entries" : [ {
      "startedDateTime" : "2019-07-12T04:40:09.031Z",
      "request" : {
        "method" : "GET",
        "url" : "https://frostedc-stg.learningmate.com/js/lang/en/_lang.js",
        "httpVersion" : "",
        "cookies" : [ ],
        "headers" : [ ],
        "queryString" : [ ],
        "headersSize" : 0,
        "bodySize" : 0,
        "comment" : ""
      },
      "response" : {
        "status" : 200,
        "statusText" : "",
        "httpVersion" : "",
        "cookies" : [ ],
        "headers" : [ {
          "name" : "Accept-Ranges",
          "value" : "bytes"
        }, {
          "name" : null,
          "value" : "HTTP/1.1 200 OK"
        }, {
          "name" : "Server",
          "value" : "nginx/1.13.5"
        }, {
          "name" : "ETag",
          "value" : "\"5d25bc3a-513\""
        }, {
          "name" : "Connection",
          "value" : "keep-alive"
        }, {
          "name" : "Last-Modified",
          "value" : "Wed, 10 Jul 2019 10:21:46 GMT"
        }, {
          "name" : "Content-Length",
          "value" : "1299"
        }, {
          "name" : "Date",
          "value" : "Fri, 12 Jul 2019 04:41:38 GMT"
        }, {
          "name" : "Content-Type",
          "value" : "application/javascript"
        } ],
        "content" : {
          "size" : 1299,
          "mimeType" : "application/javascript",
          "text" : "var _lang = {\n    \"1\": {\n        \"uplaod_project_1\": \"Now that you have created a Project you can continue by either creating your TOC or by uploading a PXE Master. Haven't decided yet? Use links on right to configure your project.\",\n        \"uplaod_project_2\": \"Upload a PXE package\"\n    },\n    \"5\": {\n        \"uplaod_project_1\": \"Your COURSE is created and you will be redirect to the TOC page shortly..\",\n        \"uplaod_project_2\": \"Upload a COURSE package\"\n    },\n    \"4\": {\n        \"uplaod_project_1\": \"Now that you have created a Project you can continue by either creating your TOC or by uploading an EDUPUB package. Haven't decided yet? Use links on right to configure your project.\",\n        \"uplaod_project_2\": \"Upload an EDUPUB package\"\n    },\n    \"content_global_confirm_message\": \"Please confirm. Are you sure you want to make this global. By doing so you are allowing other user to reuse it on different projects. Please make sure as this action cannot be reverted.\",\n    \"content_teacher_only_confirm_message\": \"Please confirm. Are you sure you want to make this teacher only. Please make sure as this action cannot be reverted.\",\n    \"NO_RECORD\": \"No Records.\",\n    \"project_access_error\":\"Error! Either the project does not exist or you are no longer allocated to this project.\"\n};",
          "comment" : ""
        },
        "redirectURL" : "",
        "headersSize" : 201,
        "bodySize" : 1299,
        "comment" : ""
      },
      "cache" : { },
      "timings" : {
        "comment" : "",
        "ssl" : -1,
        "blocked" : -1,
        "receive" : 0,
        "connect" : 1201,
        "dns" : -1,
        "wait" : 0,
        "send" : 0
      },
      "comment" : "",
      "_katalonRequestInformation" : {
        "name" : "0",
        "testObjectId" : "Temporary RESTful request object",
        "harId" : "502a236b-d0e0-4fed-acee-870f3c7756fd"
      },
      "time" : 1201
    } ],
    "comment" : ""
  }
}