{
  "log" : {
    "version" : "1.2",
    "pages" : [ ],
    "entries" : [ {
      "startedDateTime" : "2019-07-16T05:25:04.800Z",
      "request" : {
        "method" : "GET",
        "url" : "https://frostedc-stg.learningmate.com/css/sidecomment/basics.css",
        "httpVersion" : "",
        "cookies" : [ ],
        "headers" : [ ],
        "queryString" : [ ],
        "headersSize" : 0,
        "bodySize" : 0,
        "comment" : ""
      },
      "response" : {
        "status" : 200,
        "statusText" : "",
        "httpVersion" : "",
        "cookies" : [ ],
        "headers" : [ {
          "name" : "Accept-Ranges",
          "value" : "bytes"
        }, {
          "name" : null,
          "value" : "HTTP/1.1 200 OK"
        }, {
          "name" : "Server",
          "value" : "nginx/1.13.5"
        }, {
          "name" : "ETag",
          "value" : "\"5d2ca960-13a\""
        }, {
          "name" : "Connection",
          "value" : "keep-alive"
        }, {
          "name" : "Last-Modified",
          "value" : "Mon, 15 Jul 2019 16:27:12 GMT"
        }, {
          "name" : "Content-Length",
          "value" : "314"
        }, {
          "name" : "Date",
          "value" : "Tue, 16 Jul 2019 05:25:21 GMT"
        }, {
          "name" : "Content-Type",
          "value" : "text/css"
        } ],
        "content" : {
          "size" : 314,
          "mimeType" : "text/css",
          "text" : "/*.container {\n\tmargin: 0 auto;\n}\n\nh1,h2,h3,h4,div,p,li {\n\tfont-family: 'Helvetica', sans-serif;\n}\n\n#fixtures {\n\tmargin-bottom: 100px;\n}\n\nh1.title {\n  text-align: center;\n  margin-bottom: 40px;\n}\n\np {\n  line-height: 26px;\n  margin-bottom: 20px;\n}\n\n#commentable-container {\n  margin-top: 60px;\n  max-width: 90%;\n}*/",
          "comment" : ""
        },
        "redirectURL" : "",
        "headersSize" : 186,
        "bodySize" : 314,
        "comment" : ""
      },
      "cache" : { },
      "timings" : {
        "comment" : "",
        "connect" : 1049,
        "ssl" : -1,
        "dns" : -1,
        "send" : 0,
        "wait" : 0,
        "receive" : 0,
        "blocked" : -1
      },
      "comment" : "",
      "_katalonRequestInformation" : {
        "name" : "12",
        "testObjectId" : "Temporary RESTful request object",
        "harId" : "4e4dd4d9-ab83-4f50-b5b7-bd0b18b40b61"
      },
      "time" : 1049
    } ],
    "comment" : ""
  }
}