{
  "log" : {
    "version" : "1.2",
    "pages" : [ ],
    "entries" : [ {
      "startedDateTime" : "2019-07-16T05:25:12.865Z",
      "request" : {
        "method" : "GET",
        "url" : "https://frostedc-stg.learningmate.com/js/service-end-point.js",
        "httpVersion" : "",
        "cookies" : [ ],
        "headers" : [ ],
        "queryString" : [ ],
        "headersSize" : 0,
        "bodySize" : 0,
        "comment" : ""
      },
      "response" : {
        "status" : 200,
        "statusText" : "",
        "httpVersion" : "",
        "cookies" : [ ],
        "headers" : [ {
          "name" : "Accept-Ranges",
          "value" : "bytes"
        }, {
          "name" : null,
          "value" : "HTTP/1.1 200 OK"
        }, {
          "name" : "Server",
          "value" : "nginx/1.13.5"
        }, {
          "name" : "ETag",
          "value" : "\"5d2ca9a3-420\""
        }, {
          "name" : "Connection",
          "value" : "keep-alive"
        }, {
          "name" : "Last-Modified",
          "value" : "Mon, 15 Jul 2019 16:28:19 GMT"
        }, {
          "name" : "Content-Length",
          "value" : "1056"
        }, {
          "name" : "Date",
          "value" : "Tue, 16 Jul 2019 05:25:29 GMT"
        }, {
          "name" : "Content-Type",
          "value" : "application/javascript"
        } ],
        "content" : {
          "size" : 1056,
          "mimeType" : "application/javascript",
          "text" : "/* \r\n * To change this license header, choose License Headers in Project Properties.\r\n * To change this template file, choose Tools | Templates\r\n * and open the template in the editor.\r\n */\r\nvar clientUrl = 'https://frostedc-stg.learningmate.com';\r\nvar oauthUrl = 'https://frostedcapi-stg.learningmate.com/frostedcstaging/OAuth';\r\nvar serviceEndPoint = 'https://frostedcapi-stg.learningmate.com/frostedcstaging/api/laravel/public/';\r\n\r\nvar s3Bucketname = 'frostedcstaging';\r\nvar widgetDir = 'frost_widgets';\r\nvar sourceBucketName = 'https://frostedc.s3.amazonaws.com/' + s3Bucketname;\r\n\r\nvar s3_domain_url = 'https://frostedc.s3.amazonaws.com';\r\nvar s3_url = s3_domain_url + '/' + s3Bucketname;\r\nvar s3_domain = 'frostedc.s3.amazonaws.com';\r\nvar site_protocol = 'https:';\r\n\r\nvar oauth_client_id='CLIENT';\r\nvar oauth_client_secret='CLIENT_SECRET';\r\n\r\nvar bright_cove_url= '';\r\n\r\n//SSO Configurations\r\nvar sso = {\r\n    enable:true,\r\n    delivery_link:'https://edcstage.learningmate.com/EDC',\r\n    analytics_link:'https://frost-analytics.learningmate.com'\r\n};",
          "comment" : ""
        },
        "redirectURL" : "",
        "headersSize" : 201,
        "bodySize" : 1056,
        "comment" : ""
      },
      "cache" : { },
      "timings" : {
        "comment" : "",
        "connect" : 1043,
        "ssl" : -1,
        "dns" : -1,
        "send" : 0,
        "wait" : 0,
        "receive" : 0,
        "blocked" : -1
      },
      "comment" : "",
      "_katalonRequestInformation" : {
        "name" : "17",
        "testObjectId" : "Temporary RESTful request object",
        "harId" : "97c951dc-6c5a-46b1-a849-74f4a1f0dfdc"
      },
      "time" : 1043
    } ],
    "comment" : ""
  }
}