{
  "log" : {
    "version" : "1.2",
    "pages" : [ ],
    "entries" : [ {
      "startedDateTime" : "2019-07-16T05:25:25.150Z",
      "request" : {
        "method" : "GET",
        "url" : "https://frostedc-stg.learningmate.com/lib/angular-dragdrop.min.js",
        "httpVersion" : "",
        "cookies" : [ ],
        "headers" : [ ],
        "queryString" : [ ],
        "headersSize" : 0,
        "bodySize" : 0,
        "comment" : ""
      },
      "response" : {
        "status" : 200,
        "statusText" : "",
        "httpVersion" : "",
        "cookies" : [ ],
        "headers" : [ {
          "name" : "Accept-Ranges",
          "value" : "bytes"
        }, {
          "name" : null,
          "value" : "HTTP/1.1 200 OK"
        }, {
          "name" : "Server",
          "value" : "nginx/1.13.5"
        }, {
          "name" : "ETag",
          "value" : "\"5d2ca960-1225\""
        }, {
          "name" : "Connection",
          "value" : "keep-alive"
        }, {
          "name" : "Last-Modified",
          "value" : "Mon, 15 Jul 2019 16:27:12 GMT"
        }, {
          "name" : "Content-Length",
          "value" : "4645"
        }, {
          "name" : "Date",
          "value" : "Tue, 16 Jul 2019 05:25:42 GMT"
        }, {
          "name" : "Content-Type",
          "value" : "application/javascript"
        } ],
        "content" : {
          "size" : 4645,
          "mimeType" : "application/javascript",
          "text" : "!function(e,t,n){\"use strict\";var a=t.module(\"ngDragDrop\",[]).service(\"ngDragDropService\",[\"$timeout\",\"$parse\",function(i,l){this.callEventCallback=function(e,t,n,a){function i(t){var n=-1!==t.indexOf(\"(\")?t.indexOf(\"(\"):t.length,a=-1!==t.lastIndexOf(\")\")?t.lastIndexOf(\")\"):t.length,i=t.substring(n+1,a),r=t.match(/^[^.]+.\\s*/)[0].slice(0,-1);return r=e[r]&&\"function\"==typeof e[r].constructor?r:null,{callback:t.substring(r&&r.length+1||0,n),args:(i&&i.split(\",\")||[]).map(function(t){return l(t)(e)}),constructor:r}}if(t){var r=i(t),o=r.callback,s=r.constructor,d=[n,a].concat(r.args);e.$apply((e[o]||e[s][o]).apply(e,d))}},this.invokeDrop=function(e,l,r,o){var s,d,c=\"\",u=\"\",p={},g={},f=null,b={},v={},h=null,m=l.scope(),y=e.scope();c=e.ngattr(\"ng-model\"),u=l.ngattr(\"ng-model\"),s=y.$eval(c),d=m.$eval(u),h=l.find(\"[jqyoui-draggable]:last\"),g=m.$eval(l.attr(\"jqyoui-droppable\"))||[],p=y.$eval(e.attr(\"jqyoui-draggable\"))||[],p.index=this.fixIndex(y,p,s),g.index=this.fixIndex(m,g,d),f=t.isArray(s)?p.index:null,b=t.isArray(s)?s[f]:s,v=t.isArray(d)&&g&&g.index!==n?d[g.index]:t.isArray(d)?{}:d,p.animate===!0?(this.move(e,h.length>0?h:l,null,\"fast\",g,null),this.move(h.length>0&&!g.multiple?h:[],e.parent(\"[jqyoui-droppable]\"),a.startXY,\"fast\",g,function(){i(function(){e.css({position:\"relative\",left:\"\",top:\"\"}),h.css({position:\"relative\",left:\"\",top:\"\",display:\"\"}),this.mutateDraggable(y,g,p,c,u,v,e),this.mutateDroppable(m,g,p,u,b,f),this.callEventCallback(m,g.onDrop,r,o)}.bind(this))}.bind(this))):i(function(){this.mutateDraggable(y,g,p,c,u,v,e),this.mutateDroppable(m,g,p,u,b,f),this.callEventCallback(m,g.onDrop,r,o)}.bind(this))},this.move=function(t,a,i,l,r,o){if(0===t.length)return o&&e.setTimeout(function(){o()},300),!1;var s=9999,d=t.offset(),c=a&&a.is(\":visible\"),u=a.hasClass(\"ng-hide\");null===i&&a.length>0&&(a.attr(\"jqyoui-draggable\")!==n&&a.ngattr(\"ng-model\")!==n&&a.is(\":visible\")&&r&&r.multiple?(i=a.offset(),r.stack===!1?i.left+=a.outerWidth(!0):i.top+=a.outerHeight(!0)):(u&&a.removeClass(\"ng-hide\"),i=a.css({visibility:\"hidden\",display:\"block\"}).offset(),a.css({visibility:\"\",display:c?\"block\":\"none\"}))),t.css({position:\"absolute\",\"z-index\":s}).css(d).animate(i,l,function(){u&&a.addClass(\"ng-hide\"),o&&o()})},this.mutateDroppable=function(e,n,a,i,r,o){var s=e.$eval(i);e.dndDragItem=r,t.isArray(s)?(n&&n.index>=0?s[n.index]=r:s.push(r),a&&a.placeholder===!0&&(s[s.length-1].jqyoui_pos=o)):(l(i+\" = dndDragItem\")(e),a&&a.placeholder===!0&&(s.jqyoui_pos=o))},this.mutateDraggable=function(e,a,i,r,o,s,d){var c=t.equals(t.copy(s),{}),u=e.$eval(r);e.dndDropItem=s,i&&i.placeholder?\"keep\"!=i.placeholder&&(t.isArray(u)&&i.index!==n?u[i.index]=s:l(r+\" = dndDropItem\")(e)):t.isArray(u)?c?i&&i.placeholder!==!0&&\"keep\"!==i.placeholder&&u.splice(i.index,1):u[i.index]=s:(l(r+\" = dndDropItem\")(e),e.$parent&&l(r+\" = dndDropItem\")(e.$parent)),d.css({\"z-index\":\"\",left:\"\",top:\"\"})},this.fixIndex=function(e,a,i){if(a.applyFilter&&t.isArray(i)&&i.length>0){var l=e[a.applyFilter](),r=l[a.index],o=n;return i.forEach(function(e,n){t.equals(e,r)&&(o=n)}),o}return a.index}}]).directive(\"jqyouiDraggable\",[\"ngDragDropService\",function(e){return{require:\"?jqyouiDroppable\",restrict:\"A\",link:function(n,i,l){var r,o,s=function(s,d){s?(r=n.$eval(i.attr(\"jqyoui-draggable\"))||[],i.draggable({disabled:!1}).draggable(n.$eval(l.jqyouiOptions)||{}).draggable({start:function(i,l){o=t.element(this).css(\"z-index\"),t.element(this).css(\"z-index\",99999),a.startXY=t.element(this).offset(),e.callEventCallback(n,r.onStart,i,l)},stop:function(a,i){t.element(this).css(\"z-index\",o),e.callEventCallback(n,r.onStop,a,i)},drag:function(t,a){e.callEventCallback(n,r.onDrag,t,a)}})):i.draggable({disabled:!0})};n.$watch(function(){return n.$eval(l.drag)},s),s()}}}]).directive(\"jqyouiDroppable\",[\"ngDragDropService\",function(e){return{restrict:\"A\",priority:1,link:function(n,a,i){var l=function(l,r){l?a.droppable({disabled:!1}).droppable(n.$eval(i.jqyouiOptions)||{}).droppable({over:function(a,i){var l=n.$eval(t.element(this).attr(\"jqyoui-droppable\"))||[];e.callEventCallback(n,l.onOver,a,i)},out:function(a,i){var l=n.$eval(t.element(this).attr(\"jqyoui-droppable\"))||[];e.callEventCallback(n,l.onOut,a,i)},drop:function(a,l){t.element(l.draggable).ngattr(\"ng-model\")&&i.ngModel?e.invokeDrop(t.element(l.draggable),t.element(this),a,l):e.callEventCallback(n,(n.$eval(t.element(this).attr(\"jqyoui-droppable\"))||[]).onDrop,a,l)}}):a.droppable({disabled:!0})};n.$watch(function(){return n.$eval(i.drop)},l),l()}}}]);$.fn.ngattr=function(e,n){var a=t.element(this).get(0);return a.getAttribute(e)||a.getAttribute(\"data-\"+e)}}(window,window.angular);",
          "comment" : ""
        },
        "redirectURL" : "",
        "headersSize" : 202,
        "bodySize" : 4645,
        "comment" : ""
      },
      "cache" : { },
      "timings" : {
        "comment" : "",
        "connect" : 1048,
        "ssl" : -1,
        "dns" : -1,
        "send" : 0,
        "wait" : 0,
        "receive" : 0,
        "blocked" : -1
      },
      "comment" : "",
      "_katalonRequestInformation" : {
        "name" : "27",
        "testObjectId" : "Temporary RESTful request object",
        "harId" : "e14c557b-ddcd-4e49-87b8-742141a4f4ff"
      },
      "time" : 1048
    } ],
    "comment" : ""
  }
}