{
  "log" : {
    "version" : "1.2",
    "pages" : [ ],
    "entries" : [ {
      "startedDateTime" : "2019-07-16T05:25:27.308Z",
      "request" : {
        "method" : "GET",
        "url" : "https://frostedc-stg.learningmate.com/lib/xml2json.js",
        "httpVersion" : "",
        "cookies" : [ ],
        "headers" : [ ],
        "queryString" : [ ],
        "headersSize" : 0,
        "bodySize" : 0,
        "comment" : ""
      },
      "response" : {
        "status" : 200,
        "statusText" : "",
        "httpVersion" : "",
        "cookies" : [ ],
        "headers" : [ {
          "name" : "Accept-Ranges",
          "value" : "bytes"
        }, {
          "name" : null,
          "value" : "HTTP/1.1 200 OK"
        }, {
          "name" : "Server",
          "value" : "nginx/1.13.5"
        }, {
          "name" : "ETag",
          "value" : "\"5d2ca960-4c69\""
        }, {
          "name" : "Connection",
          "value" : "keep-alive"
        }, {
          "name" : "Last-Modified",
          "value" : "Mon, 15 Jul 2019 16:27:12 GMT"
        }, {
          "name" : "Content-Length",
          "value" : "19561"
        }, {
          "name" : "Date",
          "value" : "Tue, 16 Jul 2019 05:25:44 GMT"
        }, {
          "name" : "Content-Type",
          "value" : "application/javascript"
        } ],
        "content" : {
          "size" : 19561,
          "mimeType" : "application/javascript",
          "text" : "function X2JS(config) {\n    'use strict';\n\n    var VERSION = \"1.1.6\";\n\n    config = config || {};\n    initConfigDefaults();\n    initRequiredPolyfills();\n\n    function initConfigDefaults() {\n        if (config.escapeMode === undefined) {\n            config.escapeMode = true;\n        }\n        config.attributePrefix = config.attributePrefix || \"_\";\n        config.arrayAccessForm = config.arrayAccessForm || \"none\";\n        config.emptyNodeForm = config.emptyNodeForm || \"text\";\n        if (config.enableToStringFunc === undefined) {\n            config.enableToStringFunc = true;\n        }\n        config.arrayAccessFormPaths = config.arrayAccessFormPaths || [];\n        if (config.skipEmptyTextNodesForObj === undefined) {\n            config.skipEmptyTextNodesForObj = true;\n        }\n        if (config.stripWhitespaces === undefined) {\n            config.stripWhitespaces = true;\n        }\n        config.datetimeAccessFormPaths = config.datetimeAccessFormPaths || [];\n    }\n\n    var DOMNodeTypes = {\n        ELEMENT_NODE: 1,\n        TEXT_NODE: 3,\n        CDATA_SECTION_NODE: 4,\n        COMMENT_NODE: 8,\n        DOCUMENT_NODE: 9\n    };\n\n    function initRequiredPolyfills() {\n        function pad(number) {\n            var r = String(number);\n            if (r.length === 1) {\n                r = '0' + r;\n            }\n            return r;\n        }\n        // Hello IE8-\n        if (typeof String.prototype.trim !== 'function') {\n            String.prototype.trim = function() {\n                return this.replace(/^\\s+|^\\n+|(\\s|\\n)+$/g, '');\n            }\n        }\n        if (typeof Date.prototype.toISOString !== 'function') {\n            // Implementation from http://stackoverflow.com/questions/2573521/how-do-i-output-an-iso-8601-formatted-string-in-javascript\n            Date.prototype.toISOString = function() {\n                return this.getUTCFullYear()\n                        + '-' + pad(this.getUTCMonth() + 1)\n                        + '-' + pad(this.getUTCDate())\n                        + 'T' + pad(this.getUTCHours())\n                        + ':' + pad(this.getUTCMinutes())\n                        + ':' + pad(this.getUTCSeconds())\n                        + '.' + String((this.getUTCMilliseconds() / 1000).toFixed(3)).slice(2, 5)\n                        + 'Z';\n            };\n        }\n    }\n\n    function getNodeLocalName(node) {\n        var nodeLocalName = node.localName;\n        if (nodeLocalName == null) // Yeah, this is IE!! \n            nodeLocalName = node.baseName;\n        if (nodeLocalName == null || nodeLocalName == \"\") // ==\"\" is IE too\n            nodeLocalName = node.nodeName;\n        return nodeLocalName;\n    }\n\n    function getNodePrefix(node) {\n        return node.prefix;\n    }\n\n    function escapeXmlChars(str) {\n        if (typeof (str) == \"string\")\n            return str.replace(/&/g, '&amp;').replace(/</g, '&lt;').replace(/>/g, '&gt;').replace(/\"/g, '&quot;').replace(/'/g, '&#x27;');\n        else\n            return str;\n    }\n\n    function unescapeXmlChars(str) {\n        return str.replace(/&amp;/g, '&').replace(/&lt;/g, '<').replace(/&gt;/g, '>').replace(/&quot;/g, '\"').replace(/&#x27;/g, \"'\");\n    }\n\n    function toArrayAccessForm(obj, childName, path) {\n        switch (config.arrayAccessForm) {\n            case \"property\":\n                if (!(obj[childName] instanceof Array))\n                    obj[childName + \"_asArray\"] = [obj[childName]];\n                else\n                    obj[childName + \"_asArray\"] = obj[childName];\n                break;\n                /*case \"none\":\n                 break;*/\n        }\n\n        if (!(obj[childName] instanceof Array) && config.arrayAccessFormPaths.length > 0) {\n            var idx = 0;\n            for (; idx < config.arrayAccessFormPaths.length; idx++) {\n                var arrayPath = config.arrayAccessFormPaths[idx];\n                if (typeof arrayPath === \"string\") {\n                    if (arrayPath == path)\n                        break;\n                }\n                else\n                if (arrayPath instanceof RegExp) {\n                    if (arrayPath.test(path))\n                        break;\n                }\n                else\n                if (typeof arrayPath === \"function\") {\n                    if (arrayPath(obj, childName, path))\n                        break;\n                }\n            }\n            if (idx != config.arrayAccessFormPaths.length) {\n                obj[childName] = [obj[childName]];\n            }\n        }\n    }\n\n    function fromXmlDateTime(prop) {\n        // Implementation based up on http://stackoverflow.com/questions/8178598/xml-datetime-to-javascript-date-object\n        // Improved to support full spec and optional parts\n        var bits = prop.split(/[-T:+Z]/g);\n\n        var d = new Date(bits[0], bits[1] - 1, bits[2]);\n        var secondBits = bits[5].split(\"\\.\");\n        d.setHours(bits[3], bits[4], secondBits[0]);\n        if (secondBits.length > 1)\n            d.setMilliseconds(secondBits[1]);\n\n        // Get supplied time zone offset in minutes\n        if (bits[6] && bits[7]) {\n            var offsetMinutes = bits[6] * 60 + Number(bits[7]);\n            var sign = /\\d\\d-\\d\\d:\\d\\d$/.test(prop) ? '-' : '+';\n\n            // Apply the sign\n            offsetMinutes = 0 + (sign == '-' ? -1 * offsetMinutes : offsetMinutes);\n\n            // Apply offset and local timezone\n            d.setMinutes(d.getMinutes() - offsetMinutes - d.getTimezoneOffset())\n        }\n        else\n        if (prop.indexOf(\"Z\", prop.length - 1) !== -1) {\n            d = new Date(Date.UTC(d.getFullYear(), d.getMonth(), d.getDate(), d.getHours(), d.getMinutes(), d.getSeconds(), d.getMilliseconds()));\n        }\n\n        // d is now a local time equivalent to the supplied time\n        return d;\n    }\n\n    function checkFromXmlDateTimePaths(value, childName, fullPath) {\n        if (config.datetimeAccessFormPaths.length > 0) {\n            var path = fullPath.split(\"\\.#\")[0];\n            var idx = 0;\n            for (; idx < config.datetimeAccessFormPaths.length; idx++) {\n                var dtPath = config.datetimeAccessFormPaths[idx];\n                if (typeof dtPath === \"string\") {\n                    if (dtPath == path)\n                        break;\n                }\n                else\n                if (dtPath instanceof RegExp) {\n                    if (dtPath.test(path))\n                        break;\n                }\n                else\n                if (typeof dtPath === \"function\") {\n                    if (dtPath(obj, childName, path))\n                        break;\n                }\n            }\n            if (idx != config.datetimeAccessFormPaths.length) {\n                return fromXmlDateTime(value);\n            }\n            else\n                return value;\n        }\n        else\n            return value;\n    }\n\n    function parseDOMChildren(node, path) {\n        if (node.nodeType == DOMNodeTypes.DOCUMENT_NODE) {\n            var result = new Object;\n            var nodeChildren = node.childNodes;\n            // Alternative for firstElementChild which is not supported in some environments\n            for (var cidx = 0; cidx < nodeChildren.length; cidx++) {\n                var child = nodeChildren.item(cidx);\n                if (child.nodeType == DOMNodeTypes.ELEMENT_NODE) {\n                    var childName = getNodeLocalName(child);\n                    result[childName] = parseDOMChildren(child, childName);\n                }\n            }\n            return result;\n        }\n        else\n        if (node.nodeType == DOMNodeTypes.ELEMENT_NODE) {\n            var result = new Object;\n            result.__cnt = 0;\n\n            var nodeChildren = node.childNodes;\n\n            // Children nodes\n            for (var cidx = 0; cidx < nodeChildren.length; cidx++) {\n                var child = nodeChildren.item(cidx); // nodeChildren[cidx];\n                var childName = getNodeLocalName(child);\n\n                if (child.nodeType != DOMNodeTypes.COMMENT_NODE) {\n                    result.__cnt++;\n                    if (result[childName] == null) {\n                        result[childName] = parseDOMChildren(child, path + \".\" + childName);\n                        toArrayAccessForm(result, childName, path + \".\" + childName);\n                    }\n                    else {\n                        if (result[childName] != null) {\n                            if (!(result[childName] instanceof Array)) {\n                                result[childName] = [result[childName]];\n                                toArrayAccessForm(result, childName, path + \".\" + childName);\n                            }\n                        }\n                        (result[childName])[result[childName].length] = parseDOMChildren(child, path + \".\" + childName);\n                    }\n                }\n            }\n\n            // Attributes\n            for (var aidx = 0; aidx < node.attributes.length; aidx++) {\n                var attr = node.attributes.item(aidx); // [aidx];\n                result.__cnt++;\n                result[config.attributePrefix + attr.name] = attr.value;\n            }\n\n            // Node namespace prefix\n            var nodePrefix = getNodePrefix(node);\n            if (nodePrefix != null && nodePrefix != \"\") {\n                result.__cnt++;\n                result.__prefix = nodePrefix;\n            }\n\n            if (result[\"#text\"] != null) {\n                result.__text = result[\"#text\"];\n                if (result.__text instanceof Array) {\n                    result.__text = result.__text.join(\"\\n\");\n                }\n                if (config.escapeMode)\n                    result.__text = unescapeXmlChars(result.__text);\n                if (config.stripWhitespaces)\n                    result.__text = result.__text.trim();\n                delete result[\"#text\"];\n                if (config.arrayAccessForm == \"property\")\n                    delete result[\"#text_asArray\"];\n                result.__text = checkFromXmlDateTimePaths(result.__text, childName, path + \".\" + childName);\n            }\n            if (result[\"#cdata-section\"] != null) {\n                result.__cdata = result[\"#cdata-section\"];\n                delete result[\"#cdata-section\"];\n                if (config.arrayAccessForm == \"property\")\n                    delete result[\"#cdata-section_asArray\"];\n            }\n\n            if (result.__cnt == 1 && result.__text != null) {\n                result = result.__text;\n            }\n            else\n            if (result.__cnt == 0 && config.emptyNodeForm == \"text\") {\n                result = '';\n            }\n            else\n            if (result.__cnt > 1 && result.__text != null && config.skipEmptyTextNodesForObj) {\n                if ((config.stripWhitespaces && result.__text == \"\") || (result.__text.trim() == \"\")) {\n                    delete result.__text;\n                }\n            }\n            delete result.__cnt;\n\n            if (config.enableToStringFunc && (result.__text != null || result.__cdata != null)) {\n                result.toString = function() {\n                    return (this.__text != null ? this.__text : '') + (this.__cdata != null ? this.__cdata : '');\n                };\n            }\n\n            return result;\n        }\n        else\n        if (node.nodeType == DOMNodeTypes.TEXT_NODE || node.nodeType == DOMNodeTypes.CDATA_SECTION_NODE) {\n            return node.nodeValue;\n        }\n    }\n\n    function startTag(jsonObj, element, attrList, closed) {\n        var resultStr = \"<\" + ((jsonObj != null && jsonObj.__prefix != null) ? (jsonObj.__prefix + \":\") : \"\") + element;\n        if (attrList != null) {\n            for (var aidx = 0; aidx < attrList.length; aidx++) {\n                var attrName = attrList[aidx];\n                var attrVal = jsonObj[attrName];\n                if (config.escapeMode)\n                    attrVal = escapeXmlChars(attrVal);\n                resultStr += \" \" + attrName.substr(config.attributePrefix.length) + \"='\" + attrVal + \"'\";\n            }\n        }\n        if (!closed)\n            resultStr += \">\";\n        else\n            resultStr += \"/>\";\n        return resultStr;\n    }\n\n    function endTag(jsonObj, elementName) {\n        return \"</\" + (jsonObj.__prefix != null ? (jsonObj.__prefix + \":\") : \"\") + elementName + \">\";\n    }\n\n    function endsWith(str, suffix) {\n        return str.indexOf(suffix, str.length - suffix.length) !== -1;\n    }\n\n    function jsonXmlSpecialElem(jsonObj, jsonObjField) {\n        if ((config.arrayAccessForm == \"property\" && endsWith(jsonObjField.toString(), (\"_asArray\")))\n                || jsonObjField.toString().indexOf(config.attributePrefix) == 0\n                || jsonObjField.toString().indexOf(\"__\") == 0\n                || (jsonObj[jsonObjField] instanceof Function))\n            return true;\n        else\n            return false;\n    }\n\n    function jsonXmlElemCount(jsonObj) {\n        var elementsCnt = 0;\n        if (jsonObj instanceof Object) {\n            for (var it in jsonObj) {\n                if (jsonXmlSpecialElem(jsonObj, it))\n                    continue;\n                elementsCnt++;\n            }\n        }\n        return elementsCnt;\n    }\n\n    function parseJSONAttributes(jsonObj) {\n        var attrList = [];\n        if (jsonObj instanceof Object) {\n            for (var ait in jsonObj) {\n                if (ait.toString().indexOf(\"__\") == -1 && ait.toString().indexOf(config.attributePrefix) == 0) {\n                    attrList.push(ait);\n                }\n            }\n        }\n        return attrList;\n    }\n\n    function parseJSONTextAttrs(jsonTxtObj) {\n        var result = \"\";\n\n        if (jsonTxtObj.__cdata != null) {\n            result += \"<![CDATA[\" + jsonTxtObj.__cdata + \"]]>\";\n        }\n\n        if (jsonTxtObj.__text != null) {\n            if (config.escapeMode)\n                result += escapeXmlChars(jsonTxtObj.__text);\n            else\n                result += jsonTxtObj.__text;\n        }\n        return result;\n    }\n\n    function parseJSONTextObject(jsonTxtObj) {\n        var result = \"\";\n\n        if (jsonTxtObj instanceof Object) {\n            result += parseJSONTextAttrs(jsonTxtObj);\n        }\n        else\n        if (jsonTxtObj != null) {\n            if (config.escapeMode)\n                result += escapeXmlChars(jsonTxtObj);\n            else\n                result += jsonTxtObj;\n        }\n\n        return result;\n    }\n\n    function parseJSONArray(jsonArrRoot, jsonArrObj, attrList) {\n        var result = \"\";\n        if (jsonArrRoot.length == 0) {\n            result += startTag(jsonArrRoot, jsonArrObj, attrList, true);\n        }\n        else {\n            for (var arIdx = 0; arIdx < jsonArrRoot.length; arIdx++) {\n                result += startTag(jsonArrRoot[arIdx], jsonArrObj, parseJSONAttributes(jsonArrRoot[arIdx]), false);\n                result += parseJSONObject(jsonArrRoot[arIdx]);\n                result += endTag(jsonArrRoot[arIdx], jsonArrObj);\n            }\n        }\n        return result;\n    }\n\n    function parseJSONObject(jsonObj) {\n        var result = \"\";\n\n        var elementsCnt = jsonXmlElemCount(jsonObj);\n\n        if (elementsCnt > 0) {\n            for (var it in jsonObj) {\n\n                if (jsonXmlSpecialElem(jsonObj, it))\n                    continue;\n\n                var subObj = jsonObj[it];\n\n                var attrList = parseJSONAttributes(subObj)\n\n                if (subObj == null || subObj == undefined) {\n                    result += startTag(subObj, it, attrList, true);\n                }\n                else\n                if (subObj instanceof Object) {\n\n                    if (subObj instanceof Array) {\n                        result += parseJSONArray(subObj, it, attrList);\n                    }\n                    else if (subObj instanceof Date) {\n                        result += startTag(subObj, it, attrList, false);\n                        result += subObj.toISOString();\n                        result += endTag(subObj, it);\n                    }\n                    else {\n                        var subObjElementsCnt = jsonXmlElemCount(subObj);\n                        if (subObjElementsCnt > 0 || subObj.__text != null || subObj.__cdata != null) {\n                            result += startTag(subObj, it, attrList, false);\n                            result += parseJSONObject(subObj);\n                            result += endTag(subObj, it);\n                        }\n                        else {\n                            result += startTag(subObj, it, attrList, true);\n                        }\n                    }\n                }\n                else {\n                    result += startTag(subObj, it, attrList, false);\n                    result += parseJSONTextObject(subObj);\n                    result += endTag(subObj, it);\n                }\n            }\n        }\n        result += parseJSONTextObject(jsonObj);\n\n        return result;\n    }\n\n    this.parseXmlString = function(xmlDocStr) {\n        var isIEParser = window.ActiveXObject || \"ActiveXObject\" in window;\n        if (xmlDocStr === undefined) {\n            return null;\n        }\n        var xmlDoc;\n        if (window.DOMParser) {\n            var parser = new window.DOMParser();\n            var parsererrorNS = null;\n            // IE9+ now is here\n            if (!isIEParser) {\n                try {\n                    parsererrorNS = parser.parseFromString(\"INVALID\", \"text/xml\").childNodes[0].namespaceURI;\n                }\n                catch (err) {\n                    parsererrorNS = null;\n                }\n            }\n            try {\n                xmlDoc = parser.parseFromString(xmlDocStr, \"text/xml\");\n                if (parsererrorNS != null && xmlDoc.getElementsByTagNameNS(parsererrorNS, \"parsererror\").length > 0) {\n                    //throw new Error('Error parsing XML: '+xmlDocStr);\n                    xmlDoc = null;\n                }\n            }\n            catch (err) {\n                xmlDoc = null;\n            }\n        }\n        else {\n            // IE :(\n            if (xmlDocStr.indexOf(\"<?\") == 0) {\n                xmlDocStr = xmlDocStr.substr(xmlDocStr.indexOf(\"?>\") + 2);\n            }\n            xmlDoc = new ActiveXObject(\"Microsoft.XMLDOM\");\n            xmlDoc.async = \"false\";\n            xmlDoc.loadXML(xmlDocStr);\n        }\n        return xmlDoc;\n    };\n\n    this.asArray = function(prop) {\n        if (prop instanceof Array)\n            return prop;\n        else\n            return [prop];\n    };\n\n    this.toXmlDateTime = function(dt) {\n        if (dt instanceof Date)\n            return dt.toISOString();\n        else\n        if (typeof (dt) === 'number')\n            return new Date(dt).toISOString();\n        else\n            return null;\n    };\n\n    this.asDateTime = function(prop) {\n        if (typeof (prop) == \"string\") {\n            return fromXmlDateTime(prop);\n        }\n        else\n            return prop;\n    };\n\n    this.xml2json = function(xmlDoc) {\n        return parseDOMChildren(xmlDoc);\n    };\n\n    this.xml_str2json = function(xmlDocStr) {\n        var xmlDoc = this.parseXmlString(xmlDocStr);\n        if (xmlDoc != null)\n            return this.xml2json(xmlDoc);\n        else\n            return null;\n    };\n\n    this.json2xml_str = function(jsonObj) {\n        return parseJSONObject(jsonObj);\n    };\n\n    this.json2xml = function(jsonObj) {\n        var xmlDocStr = this.json2xml_str(jsonObj);\n        return this.parseXmlString(xmlDocStr);\n    };\n\n    this.getVersion = function() {\n        return VERSION;\n    };\n\n}\n",
          "comment" : ""
        },
        "redirectURL" : "",
        "headersSize" : 203,
        "bodySize" : 19561,
        "comment" : ""
      },
      "cache" : { },
      "timings" : {
        "comment" : "",
        "connect" : 1308,
        "ssl" : -1,
        "dns" : -1,
        "send" : 0,
        "wait" : 0,
        "receive" : 0,
        "blocked" : -1
      },
      "comment" : "",
      "_katalonRequestInformation" : {
        "name" : "29",
        "testObjectId" : "Temporary RESTful request object",
        "harId" : "6016ff8c-a8a3-4683-8839-542ef6c6bc10"
      },
      "time" : 1308
    } ],
    "comment" : ""
  }
}