{
  "log" : {
    "version" : "1.2",
    "pages" : [ ],
    "entries" : [ {
      "startedDateTime" : "2019-07-16T05:25:29.733Z",
      "request" : {
        "method" : "GET",
        "url" : "https://frostedc-stg.learningmate.com/lib/angular-sanitize.js",
        "httpVersion" : "",
        "cookies" : [ ],
        "headers" : [ ],
        "queryString" : [ ],
        "headersSize" : 0,
        "bodySize" : 0,
        "comment" : ""
      },
      "response" : {
        "status" : 200,
        "statusText" : "",
        "httpVersion" : "",
        "cookies" : [ ],
        "headers" : [ {
          "name" : "Accept-Ranges",
          "value" : "bytes"
        }, {
          "name" : null,
          "value" : "HTTP/1.1 200 OK"
        }, {
          "name" : "Server",
          "value" : "nginx/1.13.5"
        }, {
          "name" : "ETag",
          "value" : "\"5d2ca960-5fd6\""
        }, {
          "name" : "Connection",
          "value" : "keep-alive"
        }, {
          "name" : "Last-Modified",
          "value" : "Mon, 15 Jul 2019 16:27:12 GMT"
        }, {
          "name" : "Content-Length",
          "value" : "24534"
        }, {
          "name" : "Date",
          "value" : "Tue, 16 Jul 2019 05:25:46 GMT"
        }, {
          "name" : "Content-Type",
          "value" : "application/javascript"
        } ],
        "content" : {
          "size" : 24534,
          "mimeType" : "application/javascript",
          "text" : "/**\n * @license AngularJS v1.4.0-rc.0\n * (c) 2010-2015 Google, Inc. http://angularjs.org\n * License: MIT\n */\n(function(window, angular, undefined) {'use strict';\n\n/* * * * * * * * * * * * * * * * * * * * * * * * * * * * * * * * * * * * * *\n *     Any commits to this file should be reviewed with security in mind.  *\n *   Changes to this file can potentially create security vulnerabilities. *\n *          An approval from 2 Core members with history of modifying      *\n *                         this file is required.                          *\n *                                                                         *\n *  Does the change somehow allow for arbitrary javascript to be executed? *\n *    Or allows for someone to change the prototype of built-in objects?   *\n *     Or gives undesired access to variables likes document or window?    *\n * * * * * * * * * * * * * * * * * * * * * * * * * * * * * * * * * * * * * */\n\nvar $sanitizeMinErr = angular.$$minErr('$sanitize');\n\n/**\n * @ngdoc module\n * @name ngSanitize\n * @description\n *\n * # ngSanitize\n *\n * The `ngSanitize` module provides functionality to sanitize HTML.\n *\n *\n * <div doc-module-components=\"ngSanitize\"></div>\n *\n * See {@link ngSanitize.$sanitize `$sanitize`} for usage.\n */\n\n/*\n * HTML Parser By Misko Hevery (misko@hevery.com)\n * based on:  HTML Parser By John Resig (ejohn.org)\n * Original code by Erik Arvidsson, Mozilla Public License\n * http://erik.eae.net/simplehtmlparser/simplehtmlparser.js\n *\n * // Use like so:\n * htmlParser(htmlString, {\n *     start: function(tag, attrs, unary) {},\n *     end: function(tag) {},\n *     chars: function(text) {},\n *     comment: function(text) {}\n * });\n *\n */\n\n\n/**\n * @ngdoc service\n * @name $sanitize\n * @kind function\n *\n * @description\n *   The input is sanitized by parsing the HTML into tokens. All safe tokens (from a whitelist) are\n *   then serialized back to properly escaped html string. This means that no unsafe input can make\n *   it into the returned string, however, since our parser is more strict than a typical browser\n *   parser, it's possible that some obscure input, which would be recognized as valid HTML by a\n *   browser, won't make it through the sanitizer. The input may also contain SVG markup.\n *   The whitelist is configured using the functions `aHrefSanitizationWhitelist` and\n *   `imgSrcSanitizationWhitelist` of {@link ng.$compileProvider `$compileProvider`}.\n *\n * @param {string} html HTML input.\n * @returns {string} Sanitized HTML.\n *\n * @example\n   <example module=\"sanitizeExample\" deps=\"angular-sanitize.js\">\n   <file name=\"index.html\">\n     <script>\n         angular.module('sanitizeExample', ['ngSanitize'])\n           .controller('ExampleController', ['$scope', '$sce', function($scope, $sce) {\n             $scope.snippet =\n               '<p style=\"color:blue\">an html\\n' +\n               '<em onmouseover=\"this.textContent=\\'PWN3D!\\'\">click here</em>\\n' +\n               'snippet</p>';\n             $scope.deliberatelyTrustDangerousSnippet = function() {\n               return $sce.trustAsHtml($scope.snippet);\n             };\n           }]);\n     </script>\n     <div ng-controller=\"ExampleController\">\n        Snippet: <textarea ng-model=\"snippet\" cols=\"60\" rows=\"3\"></textarea>\n       <table>\n         <tr>\n           <td>Directive</td>\n           <td>How</td>\n           <td>Source</td>\n           <td>Rendered</td>\n         </tr>\n         <tr id=\"bind-html-with-sanitize\">\n           <td>ng-bind-html</td>\n           <td>Automatically uses $sanitize</td>\n           <td><pre>&lt;div ng-bind-html=\"snippet\"&gt;<br/>&lt;/div&gt;</pre></td>\n           <td><div ng-bind-html=\"snippet\"></div></td>\n         </tr>\n         <tr id=\"bind-html-with-trust\">\n           <td>ng-bind-html</td>\n           <td>Bypass $sanitize by explicitly trusting the dangerous value</td>\n           <td>\n           <pre>&lt;div ng-bind-html=\"deliberatelyTrustDangerousSnippet()\"&gt;\n&lt;/div&gt;</pre>\n           </td>\n           <td><div ng-bind-html=\"deliberatelyTrustDangerousSnippet()\"></div></td>\n         </tr>\n         <tr id=\"bind-default\">\n           <td>ng-bind</td>\n           <td>Automatically escapes</td>\n           <td><pre>&lt;div ng-bind=\"snippet\"&gt;<br/>&lt;/div&gt;</pre></td>\n           <td><div ng-bind=\"snippet\"></div></td>\n         </tr>\n       </table>\n       </div>\n   </file>\n   <file name=\"protractor.js\" type=\"protractor\">\n     it('should sanitize the html snippet by default', function() {\n       expect(element(by.css('#bind-html-with-sanitize div')).getInnerHtml()).\n         toBe('<p>an html\\n<em>click here</em>\\nsnippet</p>');\n     });\n\n     it('should inline raw snippet if bound to a trusted value', function() {\n       expect(element(by.css('#bind-html-with-trust div')).getInnerHtml()).\n         toBe(\"<p style=\\\"color:blue\\\">an html\\n\" +\n              \"<em onmouseover=\\\"this.textContent='PWN3D!'\\\">click here</em>\\n\" +\n              \"snippet</p>\");\n     });\n\n     it('should escape snippet without any filter', function() {\n       expect(element(by.css('#bind-default div')).getInnerHtml()).\n         toBe(\"&lt;p style=\\\"color:blue\\\"&gt;an html\\n\" +\n              \"&lt;em onmouseover=\\\"this.textContent='PWN3D!'\\\"&gt;click here&lt;/em&gt;\\n\" +\n              \"snippet&lt;/p&gt;\");\n     });\n\n     it('should update', function() {\n       element(by.model('snippet')).clear();\n       element(by.model('snippet')).sendKeys('new <b onclick=\"alert(1)\">text</b>');\n       expect(element(by.css('#bind-html-with-sanitize div')).getInnerHtml()).\n         toBe('new <b>text</b>');\n       expect(element(by.css('#bind-html-with-trust div')).getInnerHtml()).toBe(\n         'new <b onclick=\"alert(1)\">text</b>');\n       expect(element(by.css('#bind-default div')).getInnerHtml()).toBe(\n         \"new &lt;b onclick=\\\"alert(1)\\\"&gt;text&lt;/b&gt;\");\n     });\n   </file>\n   </example>\n */\nfunction $SanitizeProvider() {\n  this.$get = ['$$sanitizeUri', function($$sanitizeUri) {\n    return function(html) {\n      var buf = [];\n      htmlParser(html, htmlSanitizeWriter(buf, function(uri, isImage) {\n        return !/^unsafe/.test($$sanitizeUri(uri, isImage));\n      }));\n      return buf.join('');\n    };\n  }];\n}\n\nfunction sanitizeText(chars) {\n  var buf = [];\n  var writer = htmlSanitizeWriter(buf, angular.noop);\n  writer.chars(chars);\n  return buf.join('');\n}\n\n\n// Regular Expressions for parsing tags and attributes\nvar START_TAG_REGEXP =\n       /^<((?:[a-zA-Z])[\\w:-]*)((?:\\s+[\\w:-]+(?:\\s*=\\s*(?:(?:\"[^\"]*\")|(?:'[^']*')|[^>\\s]+))?)*)\\s*(\\/?)\\s*(>?)/,\n  END_TAG_REGEXP = /^<\\/\\s*([\\w:-]+)[^>]*>/,\n  ATTR_REGEXP = /([\\w:-]+)(?:\\s*=\\s*(?:(?:\"((?:[^\"])*)\")|(?:'((?:[^'])*)')|([^>\\s]+)))?/g,\n  BEGIN_TAG_REGEXP = /^</,\n  BEGING_END_TAGE_REGEXP = /^<\\//,\n  COMMENT_REGEXP = /<!--(.*?)-->/g,\n  DOCTYPE_REGEXP = /<!DOCTYPE([^>]*?)>/i,\n  CDATA_REGEXP = /<!\\[CDATA\\[(.*?)]]>/g,\n  SURROGATE_PAIR_REGEXP = /[\\uD800-\\uDBFF][\\uDC00-\\uDFFF]/g,\n  // Match everything outside of normal chars and \" (quote character)\n  NON_ALPHANUMERIC_REGEXP = /([^\\#-~| |!])/g;\n\n\n// Good source of info about elements and attributes\n// http://dev.w3.org/html5/spec/Overview.html#semantics\n// http://simon.html5.org/html-elements\n\n// Safe Void Elements - HTML5\n// http://dev.w3.org/html5/spec/Overview.html#void-elements\nvar voidElements = makeMap(\"area,br,col,hr,img,wbr\");\n\n// Elements that you can, intentionally, leave open (and which close themselves)\n// http://dev.w3.org/html5/spec/Overview.html#optional-tags\nvar optionalEndTagBlockElements = makeMap(\"colgroup,dd,dt,li,p,tbody,td,tfoot,th,thead,tr\"),\n    optionalEndTagInlineElements = makeMap(\"rp,rt\"),\n    optionalEndTagElements = angular.extend({},\n                                            optionalEndTagInlineElements,\n                                            optionalEndTagBlockElements);\n\n// Safe Block Elements - HTML5\nvar blockElements = angular.extend({}, optionalEndTagBlockElements, makeMap(\"address,article,\" +\n        \"aside,blockquote,caption,center,del,dir,div,dl,figure,figcaption,footer,h1,h2,h3,h4,h5,\" +\n        \"h6,header,hgroup,hr,ins,map,menu,nav,ol,pre,script,section,table,ul\"));\n\n// Inline Elements - HTML5\nvar inlineElements = angular.extend({}, optionalEndTagInlineElements, makeMap(\"a,abbr,acronym,b,\" +\n        \"bdi,bdo,big,br,cite,code,del,dfn,em,font,i,img,ins,kbd,label,map,mark,q,ruby,rp,rt,s,\" +\n        \"samp,small,span,strike,strong,sub,sup,time,tt,u,var\"));\n\n// SVG Elements\n// https://wiki.whatwg.org/wiki/Sanitization_rules#svg_Elements\n// Note: the elements animate,animateColor,animateMotion,animateTransform,set are intentionally omitted.\n// They can potentially allow for arbitrary javascript to be executed. See #11290\nvar svgElements = makeMap(\"circle,defs,desc,ellipse,font-face,font-face-name,font-face-src,g,glyph,\" +\n        \"hkern,image,linearGradient,line,marker,metadata,missing-glyph,mpath,path,polygon,polyline,\" +\n        \"radialGradient,rect,stop,svg,switch,text,title,tspan,use\");\n\n// Special Elements (can contain anything)\nvar specialElements = makeMap(\"script,style\");\n\nvar validElements = angular.extend({},\n                                   voidElements,\n                                   blockElements,\n                                   inlineElements,\n                                   optionalEndTagElements,\n                                   svgElements);\n\n//Attributes that have href and hence need to be sanitized\nvar uriAttrs = makeMap(\"background,cite,href,longdesc,src,usemap,xlink:href\");\n\nvar htmlAttrs = makeMap('abbr,align,alt,axis,bgcolor,border,cellpadding,cellspacing,class,clear,' +\n    'color,cols,colspan,compact,coords,dir,face,headers,height,hreflang,hspace,' +\n    'ismap,lang,language,nohref,nowrap,rel,rev,rows,rowspan,rules,' +\n    'scope,scrolling,shape,size,span,start,summary,target,title,type,' +\n    'valign,value,vspace,width');\n\n// SVG attributes (without \"id\" and \"name\" attributes)\n// https://wiki.whatwg.org/wiki/Sanitization_rules#svg_Attributes\nvar svgAttrs = makeMap('accent-height,accumulate,additive,alphabetic,arabic-form,ascent,' +\n    'baseProfile,bbox,begin,by,calcMode,cap-height,class,color,color-rendering,content,' +\n    'cx,cy,d,dx,dy,descent,display,dur,end,fill,fill-rule,font-family,font-size,font-stretch,' +\n    'font-style,font-variant,font-weight,from,fx,fy,g1,g2,glyph-name,gradientUnits,hanging,' +\n    'height,horiz-adv-x,horiz-origin-x,ideographic,k,keyPoints,keySplines,keyTimes,lang,' +\n    'marker-end,marker-mid,marker-start,markerHeight,markerUnits,markerWidth,mathematical,' +\n    'max,min,offset,opacity,orient,origin,overline-position,overline-thickness,panose-1,' +\n    'path,pathLength,points,preserveAspectRatio,r,refX,refY,repeatCount,repeatDur,' +\n    'requiredExtensions,requiredFeatures,restart,rotate,rx,ry,slope,stemh,stemv,stop-color,' +\n    'stop-opacity,strikethrough-position,strikethrough-thickness,stroke,stroke-dasharray,' +\n    'stroke-dashoffset,stroke-linecap,stroke-linejoin,stroke-miterlimit,stroke-opacity,' +\n    'stroke-width,systemLanguage,target,text-anchor,to,transform,type,u1,u2,underline-position,' +\n    'underline-thickness,unicode,unicode-range,units-per-em,values,version,viewBox,visibility,' +\n    'width,widths,x,x-height,x1,x2,xlink:actuate,xlink:arcrole,xlink:role,xlink:show,xlink:title,' +\n    'xlink:type,xml:base,xml:lang,xml:space,xmlns,xmlns:xlink,y,y1,y2,zoomAndPan', true);\n\nvar validAttrs = angular.extend({},\n                                uriAttrs,\n                                svgAttrs,\n                                htmlAttrs);\n\nfunction makeMap(str, lowercaseKeys) {\n  var obj = {}, items = str.split(','), i;\n  for (i = 0; i < items.length; i++) {\n    obj[lowercaseKeys ? angular.lowercase(items[i]) : items[i]] = true;\n  }\n  return obj;\n}\n\n\n/**\n * @example\n * htmlParser(htmlString, {\n *     start: function(tag, attrs, unary) {},\n *     end: function(tag) {},\n *     chars: function(text) {},\n *     comment: function(text) {}\n * });\n *\n * @param {string} html string\n * @param {object} handler\n */\nfunction htmlParser(html, handler) {\n  if (typeof html !== 'string') {\n    if (html === null || typeof html === 'undefined') {\n      html = '';\n    } else {\n      html = '' + html;\n    }\n  }\n  var index, chars, match, stack = [], last = html, text;\n  stack.last = function() { return stack[stack.length - 1]; };\n\n  while (html) {\n    text = '';\n    chars = true;\n\n    // Make sure we're not in a script or style element\n    if (!stack.last() || !specialElements[stack.last()]) {\n\n      // Comment\n      if (html.indexOf(\"<!--\") === 0) {\n        // comments containing -- are not allowed unless they terminate the comment\n        index = html.indexOf(\"--\", 4);\n\n        if (index >= 0 && html.lastIndexOf(\"-->\", index) === index) {\n          if (handler.comment) handler.comment(html.substring(4, index));\n          html = html.substring(index + 3);\n          chars = false;\n        }\n      // DOCTYPE\n      } else if (DOCTYPE_REGEXP.test(html)) {\n        match = html.match(DOCTYPE_REGEXP);\n\n        if (match) {\n          html = html.replace(match[0], '');\n          chars = false;\n        }\n      // end tag\n      } else if (BEGING_END_TAGE_REGEXP.test(html)) {\n        match = html.match(END_TAG_REGEXP);\n\n        if (match) {\n          html = html.substring(match[0].length);\n          match[0].replace(END_TAG_REGEXP, parseEndTag);\n          chars = false;\n        }\n\n      // start tag\n      } else if (BEGIN_TAG_REGEXP.test(html)) {\n        match = html.match(START_TAG_REGEXP);\n\n        if (match) {\n          // We only have a valid start-tag if there is a '>'.\n          if (match[4]) {\n            html = html.substring(match[0].length);\n            match[0].replace(START_TAG_REGEXP, parseStartTag);\n          }\n          chars = false;\n        } else {\n          // no ending tag found --- this piece should be encoded as an entity.\n          text += '<';\n          html = html.substring(1);\n        }\n      }\n\n      if (chars) {\n        index = html.indexOf(\"<\");\n\n        text += index < 0 ? html : html.substring(0, index);\n        html = index < 0 ? \"\" : html.substring(index);\n\n        if (handler.chars) handler.chars(decodeEntities(text));\n      }\n\n    } else {\n      // IE versions 9 and 10 do not understand the regex '[^]', so using a workaround with [\\W\\w].\n      html = html.replace(new RegExp(\"([\\\\W\\\\w]*)<\\\\s*\\\\/\\\\s*\" + stack.last() + \"[^>]*>\", 'i'),\n        function(all, text) {\n          text = text.replace(COMMENT_REGEXP, \"$1\").replace(CDATA_REGEXP, \"$1\");\n\n          if (handler.chars) handler.chars(decodeEntities(text));\n\n          return \"\";\n      });\n\n      parseEndTag(\"\", stack.last());\n    }\n\n    if (html == last) {\n      throw $sanitizeMinErr('badparse', \"The sanitizer was unable to parse the following block \" +\n                                        \"of html: {0}\", html);\n    }\n    last = html;\n  }\n\n  // Clean up any remaining tags\n  parseEndTag();\n\n  function parseStartTag(tag, tagName, rest, unary) {\n    tagName = angular.lowercase(tagName);\n    if (blockElements[tagName]) {\n      while (stack.last() && inlineElements[stack.last()]) {\n        parseEndTag(\"\", stack.last());\n      }\n    }\n\n    if (optionalEndTagElements[tagName] && stack.last() == tagName) {\n      parseEndTag(\"\", tagName);\n    }\n\n    unary = voidElements[tagName] || !!unary;\n\n    if (!unary) {\n      stack.push(tagName);\n    }\n\n    var attrs = {};\n\n    rest.replace(ATTR_REGEXP,\n      function(match, name, doubleQuotedValue, singleQuotedValue, unquotedValue) {\n        var value = doubleQuotedValue\n          || singleQuotedValue\n          || unquotedValue\n          || '';\n\n        attrs[name] = decodeEntities(value);\n    });\n    if (handler.start) handler.start(tagName, attrs, unary);\n  }\n\n  function parseEndTag(tag, tagName) {\n    var pos = 0, i;\n    tagName = angular.lowercase(tagName);\n    if (tagName) {\n      // Find the closest opened tag of the same type\n      for (pos = stack.length - 1; pos >= 0; pos--) {\n        if (stack[pos] == tagName) break;\n      }\n    }\n\n    if (pos >= 0) {\n      // Close all the open elements, up the stack\n      for (i = stack.length - 1; i >= pos; i--)\n        if (handler.end) handler.end(stack[i]);\n\n      // Remove the open elements from the stack\n      stack.length = pos;\n    }\n  }\n}\n\nvar hiddenPre=document.createElement(\"pre\");\n/**\n * decodes all entities into regular string\n * @param value\n * @returns {string} A string with decoded entities.\n */\nfunction decodeEntities(value) {\n  if (!value) { return ''; }\n\n  hiddenPre.innerHTML = value.replace(/</g,\"&lt;\");\n  // innerText depends on styling as it doesn't display hidden elements.\n  // Therefore, it's better to use textContent not to cause unnecessary reflows.\n  return hiddenPre.textContent;\n}\n\n/**\n * Escapes all potentially dangerous characters, so that the\n * resulting string can be safely inserted into attribute or\n * element text.\n * @param value\n * @returns {string} escaped text\n */\nfunction encodeEntities(value) {\n  return value.\n    replace(/&/g, '&amp;').\n    replace(SURROGATE_PAIR_REGEXP, function(value) {\n      var hi = value.charCodeAt(0);\n      var low = value.charCodeAt(1);\n      return '&#' + (((hi - 0xD800) * 0x400) + (low - 0xDC00) + 0x10000) + ';';\n    }).\n    replace(NON_ALPHANUMERIC_REGEXP, function(value) {\n      return '&#' + value.charCodeAt(0) + ';';\n    }).\n    replace(/</g, '&lt;').\n    replace(/>/g, '&gt;');\n}\n\n/**\n * create an HTML/XML writer which writes to buffer\n * @param {Array} buf use buf.jain('') to get out sanitized html string\n * @returns {object} in the form of {\n *     start: function(tag, attrs, unary) {},\n *     end: function(tag) {},\n *     chars: function(text) {},\n *     comment: function(text) {}\n * }\n */\nfunction htmlSanitizeWriter(buf, uriValidator) {\n  var ignore = false;\n  var out = angular.bind(buf, buf.push);\n  return {\n    start: function(tag, attrs, unary) {\n      tag = angular.lowercase(tag);\n      if (!ignore && specialElements[tag]) {\n        ignore = tag;\n      }\n      if (!ignore && validElements[tag] === true) {\n        out('<');\n        out(tag);\n        angular.forEach(attrs, function(value, key) {\n          var lkey=angular.lowercase(key);\n          var isImage = (tag === 'img' && lkey === 'src') || (lkey === 'background');\n          if (validAttrs[lkey] === true &&\n            (uriAttrs[lkey] !== true || uriValidator(value, isImage))) {\n            out(' ');\n            out(key);\n            out('=\"');\n            out(encodeEntities(value));\n            out('\"');\n          }\n        });\n        out(unary ? '/>' : '>');\n      }\n    },\n    end: function(tag) {\n        tag = angular.lowercase(tag);\n        if (!ignore && validElements[tag] === true) {\n          out('</');\n          out(tag);\n          out('>');\n        }\n        if (tag == ignore) {\n          ignore = false;\n        }\n      },\n    chars: function(chars) {\n        if (!ignore) {\n          out(encodeEntities(chars));\n        }\n      }\n  };\n}\n\n\n// define ngSanitize module and register $sanitize service\nangular.module('ngSanitize', []).provider('$sanitize', $SanitizeProvider);\n\n/* global sanitizeText: false */\n\n/**\n * @ngdoc filter\n * @name linky\n * @kind function\n *\n * @description\n * Finds links in text input and turns them into html links. Supports http/https/ftp/mailto and\n * plain email address links.\n *\n * Requires the {@link ngSanitize `ngSanitize`} module to be installed.\n *\n * @param {string} text Input text.\n * @param {string} target Window (_blank|_self|_parent|_top) or named frame to open links in.\n * @returns {string} Html-linkified text.\n *\n * @usage\n   <span ng-bind-html=\"linky_expression | linky\"></span>\n *\n * @example\n   <example module=\"linkyExample\" deps=\"angular-sanitize.js\">\n     <file name=\"index.html\">\n       <script>\n         angular.module('linkyExample', ['ngSanitize'])\n           .controller('ExampleController', ['$scope', function($scope) {\n             $scope.snippet =\n               'Pretty text with some links:\\n'+\n               'http://angularjs.org/,\\n'+\n               'mailto:us@somewhere.org,\\n'+\n               'another@somewhere.org,\\n'+\n               'and one more: ftp://127.0.0.1/.';\n             $scope.snippetWithTarget = 'http://angularjs.org/';\n           }]);\n       </script>\n       <div ng-controller=\"ExampleController\">\n       Snippet: <textarea ng-model=\"snippet\" cols=\"60\" rows=\"3\"></textarea>\n       <table>\n         <tr>\n           <td>Filter</td>\n           <td>Source</td>\n           <td>Rendered</td>\n         </tr>\n         <tr id=\"linky-filter\">\n           <td>linky filter</td>\n           <td>\n             <pre>&lt;div ng-bind-html=\"snippet | linky\"&gt;<br>&lt;/div&gt;</pre>\n           </td>\n           <td>\n             <div ng-bind-html=\"snippet | linky\"></div>\n           </td>\n         </tr>\n         <tr id=\"linky-target\">\n          <td>linky target</td>\n          <td>\n            <pre>&lt;div ng-bind-html=\"snippetWithTarget | linky:'_blank'\"&gt;<br>&lt;/div&gt;</pre>\n          </td>\n          <td>\n            <div ng-bind-html=\"snippetWithTarget | linky:'_blank'\"></div>\n          </td>\n         </tr>\n         <tr id=\"escaped-html\">\n           <td>no filter</td>\n           <td><pre>&lt;div ng-bind=\"snippet\"&gt;<br>&lt;/div&gt;</pre></td>\n           <td><div ng-bind=\"snippet\"></div></td>\n         </tr>\n       </table>\n     </file>\n     <file name=\"protractor.js\" type=\"protractor\">\n       it('should linkify the snippet with urls', function() {\n         expect(element(by.id('linky-filter')).element(by.binding('snippet | linky')).getText()).\n             toBe('Pretty text with some links: http://angularjs.org/, us@somewhere.org, ' +\n                  'another@somewhere.org, and one more: ftp://127.0.0.1/.');\n         expect(element.all(by.css('#linky-filter a')).count()).toEqual(4);\n       });\n\n       it('should not linkify snippet without the linky filter', function() {\n         expect(element(by.id('escaped-html')).element(by.binding('snippet')).getText()).\n             toBe('Pretty text with some links: http://angularjs.org/, mailto:us@somewhere.org, ' +\n                  'another@somewhere.org, and one more: ftp://127.0.0.1/.');\n         expect(element.all(by.css('#escaped-html a')).count()).toEqual(0);\n       });\n\n       it('should update', function() {\n         element(by.model('snippet')).clear();\n         element(by.model('snippet')).sendKeys('new http://link.');\n         expect(element(by.id('linky-filter')).element(by.binding('snippet | linky')).getText()).\n             toBe('new http://link.');\n         expect(element.all(by.css('#linky-filter a')).count()).toEqual(1);\n         expect(element(by.id('escaped-html')).element(by.binding('snippet')).getText())\n             .toBe('new http://link.');\n       });\n\n       it('should work with the target property', function() {\n        expect(element(by.id('linky-target')).\n            element(by.binding(\"snippetWithTarget | linky:'_blank'\")).getText()).\n            toBe('http://angularjs.org/');\n        expect(element(by.css('#linky-target a')).getAttribute('target')).toEqual('_blank');\n       });\n     </file>\n   </example>\n */\nangular.module('ngSanitize').filter('linky', ['$sanitize', function($sanitize) {\n  var LINKY_URL_REGEXP =\n        /((ftp|https?):\\/\\/|(www\\.)|(mailto:)?[A-Za-z0-9._%+-]+@)\\S*[^\\s.;,(){}<>\"”’]/,\n      MAILTO_REGEXP = /^mailto:/;\n\n  return function(text, target) {\n    if (!text) return text;\n    var match;\n    var raw = text;\n    var html = [];\n    var url;\n    var i;\n    while ((match = raw.match(LINKY_URL_REGEXP))) {\n      // We can not end in these as they are sometimes found at the end of the sentence\n      url = match[0];\n      // if we did not match ftp/http/www/mailto then assume mailto\n      if (!match[2] && !match[4]) {\n        url = (match[3] ? 'http://' : 'mailto:') + url;\n      }\n      i = match.index;\n      addText(raw.substr(0, i));\n      addLink(url, match[0].replace(MAILTO_REGEXP, ''));\n      raw = raw.substring(i + match[0].length);\n    }\n    addText(raw);\n    return $sanitize(html.join(''));\n\n    function addText(text) {\n      if (!text) {\n        return;\n      }\n      html.push(sanitizeText(text));\n    }\n\n    function addLink(url, text) {\n      html.push('<a ');\n      if (angular.isDefined(target)) {\n        html.push('target=\"',\n                  target,\n                  '\" ');\n      }\n      html.push('href=\"',\n                url.replace(/\"/g, '&quot;'),\n                '\">');\n      addText(text);\n      html.push('</a>');\n    }\n  };\n}]);\n\n\n})(window, window.angular);\n",
          "comment" : ""
        },
        "redirectURL" : "",
        "headersSize" : 203,
        "bodySize" : 24530,
        "comment" : ""
      },
      "cache" : { },
      "timings" : {
        "comment" : "",
        "connect" : 1301,
        "ssl" : -1,
        "dns" : -1,
        "send" : 0,
        "wait" : 0,
        "receive" : 0,
        "blocked" : -1
      },
      "comment" : "",
      "_katalonRequestInformation" : {
        "name" : "31",
        "testObjectId" : "Temporary RESTful request object",
        "harId" : "b0ce277c-d76e-4780-922c-d72b6ec83674"
      },
      "time" : 1301
    } ],
    "comment" : ""
  }
}