{
  "log" : {
    "version" : "1.2",
    "pages" : [ ],
    "entries" : [ {
      "startedDateTime" : "2019-07-15T04:43:04.073Z",
      "request" : {
        "method" : "GET",
        "url" : "https://frostedc-stg.learningmate.com/js/rule.js",
        "httpVersion" : "",
        "cookies" : [ ],
        "headers" : [ ],
        "queryString" : [ ],
        "headersSize" : 0,
        "bodySize" : 0,
        "comment" : ""
      },
      "response" : {
        "status" : 200,
        "statusText" : "",
        "httpVersion" : "",
        "cookies" : [ ],
        "headers" : [ {
          "name" : "Accept-Ranges",
          "value" : "bytes"
        }, {
          "name" : null,
          "value" : "HTTP/1.1 200 OK"
        }, {
          "name" : "Server",
          "value" : "nginx/1.13.5"
        }, {
          "name" : "ETag",
          "value" : "\"5d2873c2-42\""
        }, {
          "name" : "Connection",
          "value" : "keep-alive"
        }, {
          "name" : "Last-Modified",
          "value" : "Fri, 12 Jul 2019 11:49:22 GMT"
        }, {
          "name" : "Content-Length",
          "value" : "66"
        }, {
          "name" : "Date",
          "value" : "Mon, 15 Jul 2019 04:43:21 GMT"
        }, {
          "name" : "Content-Type",
          "value" : "application/javascript"
        } ],
        "content" : {
          "size" : 66,
          "mimeType" : "application/javascript",
          "text" : "var _rule = {\n    \"discipline\": {\n        \"visible\": true\n    }\n};",
          "comment" : ""
        },
        "redirectURL" : "",
        "headersSize" : 198,
        "bodySize" : 66,
        "comment" : ""
      },
      "cache" : { },
      "timings" : {
        "comment" : "",
        "connect" : 1053,
        "ssl" : -1,
        "dns" : -1,
        "receive" : 0,
        "send" : 0,
        "wait" : 0,
        "blocked" : -1
      },
      "comment" : "",
      "_katalonRequestInformation" : {
        "name" : "1",
        "testObjectId" : "Temporary RESTful request object",
        "harId" : "68657357-e65b-4e92-b873-f8173774d19a"
      },
      "time" : 1053
    } ],
    "comment" : ""
  }
}