{
  "log" : {
    "version" : "1.2",
    "pages" : [ ],
    "entries" : [ {
      "startedDateTime" : "2019-07-15T04:43:16.091Z",
      "request" : {
        "method" : "GET",
        "url" : "https://frostedc-stg.learningmate.com/css/sidecomment/side-comments.min.css",
        "httpVersion" : "",
        "cookies" : [ ],
        "headers" : [ ],
        "queryString" : [ ],
        "headersSize" : 0,
        "bodySize" : 0,
        "comment" : ""
      },
      "response" : {
        "status" : 200,
        "statusText" : "",
        "httpVersion" : "",
        "cookies" : [ ],
        "headers" : [ {
          "name" : "Accept-Ranges",
          "value" : "bytes"
        }, {
          "name" : null,
          "value" : "HTTP/1.1 200 OK"
        }, {
          "name" : "Server",
          "value" : "nginx/1.13.5"
        }, {
          "name" : "ETag",
          "value" : "\"5d2873c2-694\""
        }, {
          "name" : "Connection",
          "value" : "keep-alive"
        }, {
          "name" : "Last-Modified",
          "value" : "Fri, 12 Jul 2019 11:49:22 GMT"
        }, {
          "name" : "Content-Length",
          "value" : "1684"
        }, {
          "name" : "Date",
          "value" : "Mon, 15 Jul 2019 04:43:33 GMT"
        }, {
          "name" : "Content-Type",
          "value" : "text/css"
        } ],
        "content" : {
          "size" : 1684,
          "mimeType" : "text/css",
          "text" : "/*@-webkit-keyframes fadein{from{opacity:0}to{opacity:1}}@keyframes fadein{from{opacity:0}to{opacity:1}}.commentable-section{position:relative}.commentable-section:hover .side-comment .marker{display:block}.side-comment{position:absolute;top:0;right:0;width:20px;min-height:100%;height:100%}.side-comment *{-webkit-box-sizing:border-box;-moz-box-sizing:border-box;box-sizing:border-box}.side-comment .hide{display:none}.side-comment .marker{display:none;position:absolute;top:0;right:0;cursor:pointer}.side-comment .marker span{display:none}.side-comment.active .marker,.side-comment.has-comments .marker,.side-comment.has-comments ul.comments{display:block}.side-comment .add-comment{display:none}.side-comment.has-comments .add-comment,.side-comment.no-current-user .add-comment{display:block}.side-comment.no-current-user .add-comment{margin-top:20px}.side-comment.has-comments .marker:before{content:\"\"}.side-comment.has-comments .marker span{display:block}.side-comment.has-comments .add-comment.hide,.side-comment.has-comments .comment-form{display:none}.side-comment .comments-wrapper{display:none;position:absolute;top:0;left:40px}.side-comment .comments{list-style:none;padding:0;margin:0;display:none;width:100%}.side-comment .comments li{width:100%;overflow:hidden}.side-comment .actions,.side-comment .comment,.side-comment .comment-box{margin:0}.side-comment .actions,.side-comment .delete{margin-left:42px}.side-comment .add-comment.active{display:block}.side-comment .comment-form{overflow:hidden}.side-comment .comment-form.active,.side-comment.active .comments-wrapper{display:block}@media (max-width:768px){body{-webkit-overflow-scrolling:touch;overflow-x:hidden}}*/",
          "comment" : ""
        },
        "redirectURL" : "",
        "headersSize" : 187,
        "bodySize" : 1684,
        "comment" : ""
      },
      "cache" : { },
      "timings" : {
        "comment" : "",
        "connect" : 1062,
        "ssl" : -1,
        "dns" : -1,
        "receive" : 0,
        "send" : 0,
        "wait" : 0,
        "blocked" : -1
      },
      "comment" : "",
      "_katalonRequestInformation" : {
        "name" : "10",
        "testObjectId" : "Temporary RESTful request object",
        "harId" : "d517a953-c88e-4ac8-8a4a-9728bde20a6a"
      },
      "time" : 1062
    } ],
    "comment" : ""
  }
}