{
  "log" : {
    "version" : "1.2",
    "pages" : [ ],
    "entries" : [ {
      "startedDateTime" : "2019-07-17T06:16:15.646Z",
      "request" : {
        "method" : "GET",
        "url" : "https://frostedc-stg.learningmate.com/bower_components/angular-strap/dist/angular-strap.tpl.min.js",
        "httpVersion" : "",
        "cookies" : [ ],
        "headers" : [ ],
        "queryString" : [ ],
        "headersSize" : 0,
        "bodySize" : 0,
        "comment" : ""
      },
      "response" : {
        "status" : 200,
        "statusText" : "",
        "httpVersion" : "",
        "cookies" : [ ],
        "headers" : [ {
          "name" : "Accept-Ranges",
          "value" : "bytes"
        }, {
          "name" : null,
          "value" : "HTTP/1.1 200 OK"
        }, {
          "name" : "Server",
          "value" : "nginx/1.13.5"
        }, {
          "name" : "ETag",
          "value" : "\"5d2ddd74-2682\""
        }, {
          "name" : "Connection",
          "value" : "keep-alive"
        }, {
          "name" : "Last-Modified",
          "value" : "Tue, 16 Jul 2019 14:21:40 GMT"
        }, {
          "name" : "Content-Length",
          "value" : "9858"
        }, {
          "name" : "Date",
          "value" : "Wed, 17 Jul 2019 06:16:32 GMT"
        }, {
          "name" : "Content-Type",
          "value" : "application/javascript"
        } ],
        "content" : {
          "size" : 9858,
          "mimeType" : "application/javascript",
          "text" : "/**\n * angular-strap\n * @version v2.3.12 - 2017-01-26\n * @link http://mgcrea.github.io/angular-strap\n * @author Olivier Louvignes <olivier@mg-crea.com> (https://github.com/mgcrea)\n * @license MIT License, http://www.opensource.org/licenses/MIT\n */\n!function(t,e,n){'use strict';angular.module('mgcrea.ngStrap.alert').run(['$templateCache',function(t){t.put('alert/alert.tpl.html','<div class=\"alert\" ng-class=\"[type ? \\'alert-\\' + type : null]\"><button type=\"button\" class=\"close\" ng-if=\"dismissable\" ng-click=\"$hide()\">&times;</button> <span ng-if=\"title\"><strong ng-bind=\"title\"></strong>&nbsp;<span ng-bind-html=\"content\"></span> </span><span ng-if=\"!title\" ng-bind-html=\"content\"></span></div>')}]),angular.module('mgcrea.ngStrap.aside').run(['$templateCache',function(t){t.put('aside/aside.tpl.html','<div class=\"aside\" tabindex=\"-1\" role=\"dialog\"><div class=\"aside-dialog\"><div class=\"aside-content\"><div class=\"aside-header\" ng-show=\"title\"><button type=\"button\" class=\"close\" ng-click=\"$hide()\">&times;</button><h4 class=\"aside-title\" ng-bind=\"title\"></h4></div><div class=\"aside-body\" ng-bind=\"content\"></div><div class=\"aside-footer\"><button type=\"button\" class=\"btn btn-default\" ng-click=\"$hide()\">Close</button></div></div></div></div>')}]),angular.module('mgcrea.ngStrap.datepicker').run(['$templateCache',function(t){t.put('datepicker/datepicker.tpl.html','<div class=\"dropdown-menu datepicker\" ng-class=\"\\'datepicker-mode-\\' + $mode\" style=\"max-width: 320px\"><table style=\"table-layout: fixed; height: 100%; width: 100%\"><thead><tr class=\"text-center\"><th><button tabindex=\"-1\" type=\"button\" class=\"btn btn-default pull-left\" ng-click=\"$selectPane(-1)\"><i class=\"{{$iconLeft}}\"></i></button></th><th colspan=\"{{ rows[0].length - 2 }}\"><button tabindex=\"-1\" type=\"button\" class=\"btn btn-default btn-block text-strong\" ng-click=\"$toggleMode()\"><strong style=\"text-transform: capitalize\" ng-bind=\"title\"></strong></button></th><th><button tabindex=\"-1\" type=\"button\" class=\"btn btn-default pull-right\" ng-click=\"$selectPane(+1)\"><i class=\"{{$iconRight}}\"></i></button></th></tr><tr ng-if=\"showLabels\" ng-bind-html=\"labels\"></tr></thead><tbody><tr ng-repeat=\"(i, row) in rows\" height=\"{{ 100 / rows.length }}%\"><td class=\"text-center\" ng-repeat=\"(j, el) in row\"><button tabindex=\"-1\" type=\"button\" class=\"btn btn-default\" style=\"width: 100%\" ng-class=\"{\\'btn-primary\\': el.selected, \\'btn-info btn-today\\': el.isToday && !el.selected}\" ng-click=\"$select(el.date, el.disabled)\" ng-disabled=\"el.disabled\"><span ng-class=\"{\\'text-muted\\': el.muted}\" ng-bind=\"el.label\"></span></button></td></tr></tbody><tfoot><tr><td colspan=\"{{ rows[0].length }}\"><div class=\"btn-group btn-group-justified\" role=\"group\"><div class=\"btn-group\" role=\"group\" ng-if=\"$hasToday\"><button type=\"button\" class=\"btn btn-default today\" ng-click=\"$setToday()\" ng-disabled=\"isTodayDisabled\"><strong style=\"text-transform: capitalize\">Today</strong></button></div><div class=\"btn-group\" role=\"group\" ng-if=\"$hasClear\"><button type=\"button\" class=\"btn btn-default clear\" ng-click=\"$clear()\"><strong style=\"text-transform: capitalize\">Clear</strong></button></div></div></td></tr></tfoot></table></div>')}]),angular.module('mgcrea.ngStrap.dropdown').run(['$templateCache',function(t){t.put('dropdown/dropdown.tpl.html','<ul tabindex=\"-1\" class=\"dropdown-menu\" role=\"menu\" ng-show=\"content && content.length\"><li role=\"presentation\" ng-class=\"{divider: item.divider, active: item.active}\" ng-repeat=\"item in content\"><a role=\"menuitem\" tabindex=\"-1\" ng-href=\"{{item.href}}\" ng-if=\"!item.divider && item.href\" target=\"{{item.target || \\'\\'}}\" ng-bind=\"item.text\"></a> <a role=\"menuitem\" tabindex=\"-1\" href=\"javascript:void(0)\" ng-if=\"!item.divider && item.click\" ng-click=\"$eval(item.click);$hide()\" ng-bind=\"item.text\"></a></li></ul>')}]),angular.module('mgcrea.ngStrap.modal').run(['$templateCache',function(t){t.put('modal/modal.tpl.html','<div class=\"modal\" tabindex=\"-1\" role=\"dialog\" aria-hidden=\"true\"><div class=\"modal-dialog\"><div class=\"modal-content\"><div class=\"modal-header\" ng-show=\"title\"><button type=\"button\" class=\"close\" aria-label=\"Close\" ng-click=\"$hide()\"><span aria-hidden=\"true\">&times;</span></button><h4 class=\"modal-title\" ng-bind=\"title\"></h4></div><div class=\"modal-body\" ng-bind=\"content\"></div><div class=\"modal-footer\"><button type=\"button\" class=\"btn btn-default\" ng-click=\"$hide()\">Close</button></div></div></div></div>')}]),angular.module('mgcrea.ngStrap.popover').run(['$templateCache',function(t){t.put('popover/popover.tpl.html','<div class=\"popover\" tabindex=\"-1\"><div class=\"arrow\"></div><h3 class=\"popover-title\" ng-bind=\"title\" ng-show=\"title\"></h3><div class=\"popover-content\" ng-bind=\"content\"></div></div>')}]),angular.module('mgcrea.ngStrap.select').run(['$templateCache',function(t){t.put('select/select.tpl.html','<ul tabindex=\"-1\" class=\"select dropdown-menu\" ng-show=\"$isVisible()\" role=\"select\"><li ng-if=\"$showAllNoneButtons\"><div class=\"btn-group\" style=\"margin-bottom: 5px; margin-left: 5px\"><button type=\"button\" class=\"btn btn-default btn-xs\" ng-click=\"$selectAll()\">{{$allText}}</button> <button type=\"button\" class=\"btn btn-default btn-xs\" ng-click=\"$selectNone()\">{{$noneText}}</button></div></li><li role=\"presentation\" ng-repeat=\"match in $matches\" ng-class=\"{active: $isActive($index)}\"><a style=\"cursor: default\" role=\"menuitem\" tabindex=\"-1\" ng-click=\"$select($index, $event)\"><i class=\"{{$iconCheckmark}} pull-right\" ng-if=\"$isMultiple && $isActive($index)\"></i> <span ng-bind=\"match.label\"></span></a></li></ul>')}]),angular.module('mgcrea.ngStrap.tab').run(['$templateCache',function(t){t.put('tab/tab.tpl.html','<ul class=\"nav\" ng-class=\"$navClass\" role=\"tablist\"><li role=\"presentation\" ng-repeat=\"$pane in $panes track by $index\" ng-class=\"[ $isActive($pane, $index) ? $activeClass : \\'\\', $pane.disabled ? \\'disabled\\' : \\'\\' ]\"><a role=\"tab\" data-toggle=\"tab\" ng-click=\"!$pane.disabled && $setActive($pane.name || $index)\" data-index=\"{{ $index }}\" ng-bind-html=\"$pane.title\" aria-controls=\"$pane.title\" href=\"\"></a></li></ul><div ng-transclude class=\"tab-content\"></div>')}]),angular.module('mgcrea.ngStrap.timepicker').run(['$templateCache',function(t){t.put('timepicker/timepicker.tpl.html','<div class=\"dropdown-menu timepicker\" style=\"min-width: 0px;width: auto\"><table height=\"100%\"><thead><tr class=\"text-center\"><th><button tabindex=\"-1\" type=\"button\" class=\"btn btn-default pull-left\" ng-click=\"$arrowAction(-1, 0)\"><i class=\"{{ $iconUp }}\"></i></button></th><th>&nbsp;</th><th><button tabindex=\"-1\" type=\"button\" class=\"btn btn-default pull-left\" ng-click=\"$arrowAction(-1, 1)\"><i class=\"{{ $iconUp }}\"></i></button></th><th ng-if=\"showSeconds\">&nbsp;</th><th ng-if=\"showSeconds\"><button tabindex=\"-1\" type=\"button\" class=\"btn btn-default pull-left\" ng-click=\"$arrowAction(-1, 2)\"><i class=\"{{ $iconUp }}\"></i></button></th></tr></thead><tbody><tr ng-repeat=\"(i, row) in rows\"><td class=\"text-center\"><button tabindex=\"-1\" style=\"width: 100%\" type=\"button\" class=\"btn btn-default\" ng-class=\"{\\'btn-primary\\': row[0].selected}\" ng-click=\"$select(row[0].date, 0)\" ng-disabled=\"row[0].disabled\"><span ng-class=\"{\\'text-muted\\': row[0].muted}\" ng-bind=\"row[0].label\"></span></button></td><td><span ng-bind=\"i == midIndex ? timeSeparator : \\' \\'\"></span></td><td class=\"text-center\"><button tabindex=\"-1\" ng-if=\"row[1].date\" style=\"width: 100%\" type=\"button\" class=\"btn btn-default\" ng-class=\"{\\'btn-primary\\': row[1].selected}\" ng-click=\"$select(row[1].date, 1)\" ng-disabled=\"row[1].disabled\"><span ng-class=\"{\\'text-muted\\': row[1].muted}\" ng-bind=\"row[1].label\"></span></button></td><td ng-if=\"showSeconds\"><span ng-bind=\"i == midIndex ? timeSeparator : \\' \\'\"></span></td><td ng-if=\"showSeconds\" class=\"text-center\"><button tabindex=\"-1\" ng-if=\"row[2].date\" style=\"width: 100%\" type=\"button\" class=\"btn btn-default\" ng-class=\"{\\'btn-primary\\': row[2].selected}\" ng-click=\"$select(row[2].date, 2)\" ng-disabled=\"row[2].disabled\"><span ng-class=\"{\\'text-muted\\': row[2].muted}\" ng-bind=\"row[2].label\"></span></button></td><td ng-if=\"showAM\">&nbsp;</td><td ng-if=\"showAM\"><button tabindex=\"-1\" ng-show=\"i == midIndex - !isAM * 1\" style=\"width: 100%\" type=\"button\" ng-class=\"{\\'btn-primary\\': !!isAM}\" class=\"btn btn-default\" ng-click=\"$switchMeridian()\" ng-disabled=\"el.disabled\">AM</button> <button tabindex=\"-1\" ng-show=\"i == midIndex + 1 - !isAM * 1\" style=\"width: 100%\" type=\"button\" ng-class=\"{\\'btn-primary\\': !isAM}\" class=\"btn btn-default\" ng-click=\"$switchMeridian()\" ng-disabled=\"el.disabled\">PM</button></td></tr></tbody><tfoot><tr class=\"text-center\"><th><button tabindex=\"-1\" type=\"button\" class=\"btn btn-default pull-left\" ng-click=\"$arrowAction(1, 0)\"><i class=\"{{ $iconDown }}\"></i></button></th><th>&nbsp;</th><th><button tabindex=\"-1\" type=\"button\" class=\"btn btn-default pull-left\" ng-click=\"$arrowAction(1, 1)\"><i class=\"{{ $iconDown }}\"></i></button></th><th ng-if=\"showSeconds\">&nbsp;</th><th ng-if=\"showSeconds\"><button ng-if=\"showSeconds\" tabindex=\"-1\" type=\"button\" class=\"btn btn-default pull-left\" ng-click=\"$arrowAction(1, 2)\"><i class=\"{{ $iconDown }}\"></i></button></th></tr></tfoot></table></div>')}]),angular.module('mgcrea.ngStrap.tooltip').run(['$templateCache',function(t){t.put('tooltip/tooltip.tpl.html','<div class=\"tooltip in\" ng-show=\"title\"><div class=\"tooltip-arrow\"></div><div class=\"tooltip-inner\" ng-bind=\"title\"></div></div>')}]),angular.module('mgcrea.ngStrap.typeahead').run(['$templateCache',function(t){t.put('typeahead/typeahead.tpl.html','<ul tabindex=\"-1\" class=\"typeahead dropdown-menu\" ng-show=\"$isVisible()\" role=\"select\"><li role=\"presentation\" ng-repeat=\"match in $matches\" ng-class=\"{active: $index == $activeIndex}\"><a role=\"menuitem\" tabindex=\"-1\" ng-click=\"$select($index, $event)\" ng-bind=\"match.label\"></a></li></ul>')}])}(window,document);",
          "comment" : ""
        },
        "redirectURL" : "",
        "headersSize" : 202,
        "bodySize" : 9858,
        "comment" : ""
      },
      "cache" : { },
      "timings" : {
        "comment" : "",
        "ssl" : -1,
        "wait" : 0,
        "dns" : -1,
        "blocked" : -1,
        "receive" : 0,
        "send" : 0,
        "connect" : 1108
      },
      "comment" : "",
      "_katalonRequestInformation" : {
        "name" : "22",
        "testObjectId" : "Temporary RESTful request object",
        "harId" : "11a02fff-bad1-4b01-963c-c12aaf885e32"
      },
      "time" : 1108
    } ],
    "comment" : ""
  }
}