{
  "log" : {
    "version" : "1.2",
    "pages" : [ ],
    "entries" : [ {
      "startedDateTime" : "2019-07-17T06:16:20.334Z",
      "request" : {
        "method" : "GET",
        "url" : "https://frostedc-stg.learningmate.com/lib/sortable.js",
        "httpVersion" : "",
        "cookies" : [ ],
        "headers" : [ ],
        "queryString" : [ ],
        "headersSize" : 0,
        "bodySize" : 0,
        "comment" : ""
      },
      "response" : {
        "status" : 200,
        "statusText" : "",
        "httpVersion" : "",
        "cookies" : [ ],
        "headers" : [ {
          "name" : "Accept-Ranges",
          "value" : "bytes"
        }, {
          "name" : null,
          "value" : "HTTP/1.1 200 OK"
        }, {
          "name" : "Server",
          "value" : "nginx/1.13.5"
        }, {
          "name" : "ETag",
          "value" : "\"5d2ddd74-1df9\""
        }, {
          "name" : "Connection",
          "value" : "keep-alive"
        }, {
          "name" : "Last-Modified",
          "value" : "Tue, 16 Jul 2019 14:21:40 GMT"
        }, {
          "name" : "Content-Length",
          "value" : "7673"
        }, {
          "name" : "Date",
          "value" : "Wed, 17 Jul 2019 06:16:37 GMT"
        }, {
          "name" : "Content-Type",
          "value" : "application/javascript"
        } ],
        "content" : {
          "size" : 7673,
          "mimeType" : "application/javascript",
          "text" : "/*\njQuery UI Sortable plugin wrapper\n@param [ui-sortable] {object} Options to pass to $.fn.sortable() merged onto ui.config\n*/\nangular.module('ui.sortable', [])\n.value('uiSortableConfig',{})\n.directive('uiSortable', [\n'uiSortableConfig', '$timeout', '$log',\nfunction(uiSortableConfig, $timeout, $log) {\nreturn {\nrequire: '?ngModel',\nlink: function(scope, element, attrs, ngModel) {\nvar savedNodes;\nfunction combineCallbacks(first,second){\nif(second && (typeof second === 'function')) {\nreturn function(e, ui) {\nfirst(e, ui);\nsecond(e, ui);\n};\n}\nreturn first;\n}\nfunction hasSortingHelper (element, ui) {\nvar helperOption = element.sortable('option','helper');\nreturn helperOption === 'clone' || (typeof helperOption === 'function' && ui.item.sortable.isCustomHelperUsed());\n}\nvar opts = {};\nvar callbacks = {\nreceive: null,\nremove:null,\nstart:null,\nstop:null,\nupdate:null\n};\nvar wrappers = {\nhelper: null\n};\nangular.extend(opts, uiSortableConfig, scope.$eval(attrs.uiSortable));\nif (!angular.element.fn || !angular.element.fn.jquery) {\n$log.error('ui.sortable: jQuery should be included before AngularJS!');\nreturn;\n}\nif (ngModel) {\n// When we add or remove elements, we need the sortable to 'refresh'\n// so it can find the new/removed elements.\nscope.$watch(attrs.ngModel+'.length', function() {\n// Timeout to let ng-repeat modify the DOM\n$timeout(function() {\n// ensure that the jquery-ui-sortable widget instance\n// is still bound to the directive's element\nif (!!element.data('ui-sortable')) {\nelement.sortable('refresh');\n}\n});\n});\ncallbacks.start = function(e, ui) {\n// Save the starting position of dragged item\nui.item.sortable = {\nindex: ui.item.index(),\ncancel: function () {\nui.item.sortable._isCanceled = true;\n},\nisCanceled: function () {\nreturn ui.item.sortable._isCanceled;\n},\nisCustomHelperUsed: function () {\nreturn !!ui.item.sortable._isCustomHelperUsed;\n},\n_isCanceled: false,\n_isCustomHelperUsed: ui.item.sortable._isCustomHelperUsed\n};\n};\ncallbacks.activate = function(/*e, ui*/) {\n// We need to make a copy of the current element's contents so\n// we can restore it after sortable has messed it up.\n// This is inside activate (instead of start) in order to save\n// both lists when dragging between connected lists.\nsavedNodes = element.contents();\n// If this list has a placeholder (the connected lists won't),\n// don't inlcude it in saved nodes.\nvar placeholder = element.sortable('option','placeholder');\n// placeholder.element will be a function if the placeholder, has\n// been created (placeholder will be an object). If it hasn't\n// been created, either placeholder will be false if no\n// placeholder class was given or placeholder.element will be\n// undefined if a class was given (placeholder will be a string)\nif (placeholder && placeholder.element && typeof placeholder.element === 'function') {\nvar phElement = placeholder.element();\n// workaround for jquery ui 1.9.x,\n// not returning jquery collection\nphElement = angular.element(phElement);\n// exact match with the placeholder's class attribute to handle\n// the case that multiple connected sortables exist and\n// the placehoilder option equals the class of sortable items\nvar excludes = element.find('[class=\"' + phElement.attr('class') + '\"]');\nsavedNodes = savedNodes.not(excludes);\n}\n};\ncallbacks.update = function(e, ui) {\n// Save current drop position but only if this is not a second\n// update that happens when moving between lists because then\n// the value will be overwritten with the old value\nif(!ui.item.sortable.received) {\nui.item.sortable.dropindex = ui.item.index();\nui.item.sortable.droptarget = ui.item.parent();\n// Cancel the sort (let ng-repeat do the sort for us)\n// Don't cancel if this is the received list because it has\n// already been canceled in the other list, and trying to cancel\n// here will mess up the DOM.\nelement.sortable('cancel');\n}\n// Put the nodes back exactly the way they started (this is very\n// important because ng-repeat uses comment elements to delineate\n// the start and stop of repeat sections and sortable doesn't\n// respect their order (even if we cancel, the order of the\n// comments are still messed up).\nif (hasSortingHelper(element, ui) && !ui.item.sortable.received &&\nelement.sortable( 'option', 'appendTo' ) === 'parent') {\n// restore all the savedNodes except .ui-sortable-helper element\n// (which is placed last). That way it will be garbage collected.\nsavedNodes = savedNodes.not(savedNodes.last());\n}\nsavedNodes.appendTo(element);\n// If this is the target connected list then\n// it's safe to clear the restored nodes since:\n// update is currently running and\n// stop is not called for the target list.\nif(ui.item.sortable.received) {\nsavedNodes = null;\n}\n// If received is true (an item was dropped in from another list)\n// then we add the new item to this list otherwise wait until the\n// stop event where we will know if it was a sort or item was\n// moved here from another list\nif(ui.item.sortable.received && !ui.item.sortable.isCanceled()) {\nscope.$apply(function () {\nngModel.$modelValue.splice(ui.item.sortable.dropindex, 0,\nui.item.sortable.moved);\n});\n}\n};\ncallbacks.stop = function(e, ui) {\n// If the received flag hasn't be set on the item, this is a\n// normal sort, if dropindex is set, the item was moved, so move\n// the items in the list.\nif(!ui.item.sortable.received &&\n('dropindex' in ui.item.sortable) &&\n!ui.item.sortable.isCanceled()) {\nscope.$apply(function () {\nngModel.$modelValue.splice(\nui.item.sortable.dropindex, 0,\nngModel.$modelValue.splice(ui.item.sortable.index, 1)[0]);\n});\n} else {\n// if the item was not moved, then restore the elements\n// so that the ngRepeat's comment are correct.\nif ((!('dropindex' in ui.item.sortable) || ui.item.sortable.isCanceled()) &&\n!hasSortingHelper(element, ui)) {\nsavedNodes.appendTo(element);\n}\n}\n// It's now safe to clear the savedNodes\n// since stop is the last callback.\nsavedNodes = null;\n};\ncallbacks.receive = function(e, ui) {\n// An item was dropped here from another list, set a flag on the\n// item.\nui.item.sortable.received = true;\n};\ncallbacks.remove = function(e, ui) {\n// Workaround for a problem observed in nested connected lists.\n// There should be an 'update' event before 'remove' when moving\n// elements. If the event did not fire, cancel sorting.\nif (!('dropindex' in ui.item.sortable)) {\nelement.sortable('cancel');\nui.item.sortable.cancel();\n}\n// Remove the item from this list's model and copy data into item,\n// so the next list can retrive it\nif (!ui.item.sortable.isCanceled()) {\nscope.$apply(function () {\nui.item.sortable.moved = ngModel.$modelValue.splice(\nui.item.sortable.index, 1)[0];\n});\n}\n};\nwrappers.helper = function (inner) {\nif (inner && typeof inner === 'function') {\nreturn function (e, item) {\nvar innerResult = inner(e, item);\nitem.sortable._isCustomHelperUsed = item !== innerResult;\nreturn innerResult;\n};\n}\nreturn inner;\n};\nscope.$watch(attrs.uiSortable, function(newVal /*, oldVal*/) {\n// ensure that the jquery-ui-sortable widget instance\n// is still bound to the directive's element\nif (!!element.data('ui-sortable')) {\nangular.forEach(newVal, function(value, key) {\nif(callbacks[key]) {\nif( key === 'stop' ){\n// call apply after stop\nvalue = combineCallbacks(\nvalue, function() { scope.$apply(); });\n}\n// wrap the callback\nvalue = combineCallbacks(callbacks[key], value);\n} else if (wrappers[key]) {\nvalue = wrappers[key](value);\n}\nelement.sortable('option', key, value);\n});\n}\n}, true);\nangular.forEach(callbacks, function(value, key) {\nopts[key] = combineCallbacks(value, opts[key]);\n});\n} else {\n$log.info('ui.sortable: ngModel not provided!', element);\n}\n// Create sortable\nelement.sortable(opts);\n}\n};\n}\n]);\n",
          "comment" : ""
        },
        "redirectURL" : "",
        "headersSize" : 202,
        "bodySize" : 7673,
        "comment" : ""
      },
      "cache" : { },
      "timings" : {
        "comment" : "",
        "ssl" : -1,
        "wait" : 0,
        "dns" : -1,
        "blocked" : -1,
        "receive" : 0,
        "send" : 0,
        "connect" : 1084
      },
      "comment" : "",
      "_katalonRequestInformation" : {
        "name" : "26",
        "testObjectId" : "Temporary RESTful request object",
        "harId" : "70afd957-8e4c-448f-9a16-c37ec322ee2c"
      },
      "time" : 1084
    } ],
    "comment" : ""
  }
}