{
  "log" : {
    "version" : "1.2",
    "pages" : [ ],
    "entries" : [ {
      "startedDateTime" : "2019-07-17T06:15:51.681Z",
      "request" : {
        "method" : "GET",
        "url" : "https://frostedc-stg.learningmate.com/angular-ivh-treeview-master/dist/ivh-treeview-theme-basic.css",
        "httpVersion" : "",
        "cookies" : [ ],
        "headers" : [ ],
        "queryString" : [ ],
        "headersSize" : 0,
        "bodySize" : 0,
        "comment" : ""
      },
      "response" : {
        "status" : 200,
        "statusText" : "",
        "httpVersion" : "",
        "cookies" : [ ],
        "headers" : [ {
          "name" : "Accept-Ranges",
          "value" : "bytes"
        }, {
          "name" : null,
          "value" : "HTTP/1.1 200 OK"
        }, {
          "name" : "Server",
          "value" : "nginx/1.13.5"
        }, {
          "name" : "ETag",
          "value" : "\"5d2ddd74-107\""
        }, {
          "name" : "Connection",
          "value" : "keep-alive"
        }, {
          "name" : "Last-Modified",
          "value" : "Tue, 16 Jul 2019 14:21:40 GMT"
        }, {
          "name" : "Content-Length",
          "value" : "263"
        }, {
          "name" : "Date",
          "value" : "Wed, 17 Jul 2019 06:16:08 GMT"
        }, {
          "name" : "Content-Type",
          "value" : "text/css"
        } ],
        "content" : {
          "size" : 263,
          "mimeType" : "text/css",
          "text" : "ul.ivh-treeview {\n  list-style-type: none;\n  padding-left: 0;\n}\nul.ivh-treeview ul.ivh-treeview {\n  padding-left: 15px;\n}\nul.ivh-treeview .ivh-treeview-toggle {\n  cursor: pointer;\n}\nul.ivh-treeview .ivh-treeview-node-leaf .ivh-treeview-toggle {\n  cursor: auto;\n}\n",
          "comment" : ""
        },
        "redirectURL" : "",
        "headersSize" : 186,
        "bodySize" : 263,
        "comment" : ""
      },
      "cache" : { },
      "timings" : {
        "comment" : "",
        "ssl" : -1,
        "wait" : 0,
        "dns" : -1,
        "blocked" : -1,
        "receive" : 0,
        "send" : 0,
        "connect" : 1068
      },
      "comment" : "",
      "_katalonRequestInformation" : {
        "name" : "5",
        "testObjectId" : "Temporary RESTful request object",
        "harId" : "a2726d3b-c3cd-474c-8403-c67edb914c4c"
      },
      "time" : 1068
    } ],
    "comment" : ""
  }
}