{
  "log" : {
    "version" : "1.2",
    "pages" : [ ],
    "entries" : [ {
      "startedDateTime" : "2019-07-17T06:16:56.298Z",
      "request" : {
        "method" : "GET",
        "url" : "https://frostedc-stg.learningmate.com/js/toc/vcController.js",
        "httpVersion" : "",
        "cookies" : [ ],
        "headers" : [ ],
        "queryString" : [ ],
        "headersSize" : 0,
        "bodySize" : 0,
        "comment" : ""
      },
      "response" : {
        "status" : 200,
        "statusText" : "",
        "httpVersion" : "",
        "cookies" : [ ],
        "headers" : [ {
          "name" : "Accept-Ranges",
          "value" : "bytes"
        }, {
          "name" : null,
          "value" : "HTTP/1.1 200 OK"
        }, {
          "name" : "Server",
          "value" : "nginx/1.13.5"
        }, {
          "name" : "ETag",
          "value" : "\"5d2ddd74-43a0\""
        }, {
          "name" : "Connection",
          "value" : "keep-alive"
        }, {
          "name" : "Last-Modified",
          "value" : "Tue, 16 Jul 2019 14:21:40 GMT"
        }, {
          "name" : "Content-Length",
          "value" : "17312"
        }, {
          "name" : "Date",
          "value" : "Wed, 17 Jul 2019 06:17:13 GMT"
        }, {
          "name" : "Content-Type",
          "value" : "application/javascript"
        } ],
        "content" : {
          "size" : 17312,
          "mimeType" : "application/javascript",
          "text" : "'use strict';\n\napp.controller('vc', ['$scope', 'sessionService', 'tocService', '$location', '$routeParams', '$rootScope', '$modal', '$log', 'objectService', 'SweetAlert', '$window', '$filter', '$timeout', '$controller', '$interval', function ($scope, sessionService, tocService, $location, $routeParams, $rootScope, $modal, $log, objectService, SweetAlert, $window, $filter, $timeout, $controller, $interval) {\n\n\n        $scope.addNodeForm = function (size, child, modalFormText, node_type) {\n\n            //$scope.child = child;\n            var modalInstance = $modal.open({\n                templateUrl: 'templates/toc/vcModalContent.html',\n                controller: 'ModalTocAddCtrl',\n                size: size,\n                backdrop: 'static',\n                keyboard: false,\n                resolve: {\n                    child: function () {\n                        return child;\n                    },\n                    modalFormText: function () {\n                        return modalFormText\n                    },\n                    project_id: function () {\n                        return $scope.project_id\n                    },\n                    project_permissions: function () {\n                        return $scope.project.project_permissions;\n                    },\n                    project_details: function () {\n                        return $scope.project_details;\n                    },\n                    node_type: function () {\n                        return node_type;\n                    }\n                }\n            });\n            modalInstance.result.then(function (modalCloseParameter) {\n                jQuery(\".editor_button\").attr(\"disabled\", true);\n                $scope.node_id = modalCloseParameter.node_id;\n                $scope.child_node_title = modalCloseParameter.child_node_title;\n                $scope.child_node_type = modalCloseParameter.child_node_type;\n                $scope.section_page = modalCloseParameter.section_page;\n                $scope.file = modalCloseParameter.file;\n                $scope.parent_node_id = modalCloseParameter.parent_node_id;\n                $scope.parent_node_root_type = modalCloseParameter.parent_node_root_type;\n                //Saving TOC\n                tocService.add_toc_node($scope).then(function (data) {\n                    $scope.child_node_title = '';\n                    $scope.pageAction = '';\n                    $scope.section_page = '';\n                    jQuery(\".editor_button\").attr(\"disabled\", false);\n                    $scope.changeLockStatus();\n                });\n                /*tocService.saveToc($scope).then(function () {\n                 $scope.child_node_title = '';\n                 $scope.pageAction = '';\n                 });*/\n            }, function () {\n                $log.info('Modal dismissed at: ' + new Date());\n            });\n        };\n\n        $scope.editChildForm = function (size, child, modalFormText, parent_node_id) {\n\n            $scope.child = child;\n            var modalInstance = $modal.open({\n                templateUrl: 'templates/toc/vcModalContent.html',\n                controller: 'ModalTocEditCtrl',\n                size: size,\n                backdrop: 'static',\n                keyboard: false,\n                resolve: {\n                    child: function () {\n                        return $scope.child;\n                    },\n                    modalFormText: function () {\n                        return modalFormText\n                    },\n                    project_id: function () {\n                        return $scope.project_id\n                    },\n                    project_permissions: function () {\n                        return $scope.project.project_permissions;\n                    },\n                    project_details: function () {\n                        return $scope.project_details;\n                    },\n                    parent_node_id: function () {\n                        return parent_node_id;\n                    },\n                }\n            });\n            modalInstance.result.then(function (modalCloseParameter) {\n                //jQuery(\"#\" + child.id).attr(\"disabled\", true);\n                jQuery(\".editor_button\").attr(\"disabled\", true);\n                $scope.node_id = modalCloseParameter.node_id;\n                $scope.child_node_title = modalCloseParameter.child_node_title;\n                $scope.section_page = modalCloseParameter.section_page;\n                $scope.file = modalCloseParameter.file;\n                $scope.parent_node_id = modalCloseParameter.parent_node_id;\n                //Saving TOC\n                tocService.edit_toc_node($scope).then(function (data) {\n                    $scope.child_node_title = '';\n                    $scope.pageAction = '';\n                    $scope.section_page = '';\n                    jQuery(\".editor_button\").attr(\"disabled\", false);\n                    $scope.changeLockStatus();\n                    if (data.status == 400) {\n                        SweetAlert.swal(\"Cancelled\", \"Content is locked so cannot be modified\", \"error\");\n                        $scope.loadToc();\n                    }\n                });\n            }, function () {\n                $log.info('Modal dismissed at: ' + new Date());\n            });\n        };\n\n    }]);\n\n\napp.controller('ModalTocAddCtrl', function ($scope, $modalInstance, tocService, objectService, child, modalFormText, project_id, project_permissions, project_details, node_type) {\n    $scope.child = child;\n    $scope.node_title = '';\n    $scope.node_type = '';\n    $scope.section_page = 'page';\n    $scope.modalFormText = modalFormText;\n    $scope.modalFormTile = 'Add Node';\n    $scope.project_id = project_id;\n    $scope.isNodeAddDisabled = false;\n    $scope.showTocType = true;\n    $scope.showSectionPage = true;\n    $scope.showPartRadio = true;\n    $scope.project_type_id = project_details.project_type_id;\n    $scope.formError = {'node_title': ''}\n\n    //Decide Node type and section page according to project_type_id\n    if ($scope.project_type_id == 1) {\n        // Incase of PXE\n        $scope.node_type = node_type;\n        $scope.showTocType = false;\n        if (node_type == 1) {\n            //If it is frontmatter, donot show section_page radio button\n            $scope.showSectionPage = false;\n            $scope.section_page = 'page';\n        }\n\n        if (child.type == 5) {\n            //You can add only page inside Part\n            $scope.section_page = 'page';\n            $scope.showSectionPage = false;\n        }\n\n\n    } else {\n        $scope.node_type = '';\n        $scope.showTocType = true;\n    }\n\n    $scope.choose_section_page = function (section_page) {\n        $scope.section_page = section_page;\n        if ($scope.section_page == 'section' && $scope.project_type_id != 1) {\n            $scope.showTocType = true;\n        } else {\n            $scope.showTocType = false;\n        }\n    }\n    // Fetch Toc Types  \n    /*tocService.getTocTypes($scope).then(function(data) {\n     //console.log($scope.TocTypes);\n     //console.log($scope.exclude_types);\n     //getSelectedTocTypes($scope.TocTypes, $scope.exclude_types);\n     $scope.selected_option = $scope.TocTypes[$scope.node_type];\n     });*/\n\n    // Fetch Toc Types            \n    tocService.getTocTypes($scope).then(function (data) {\n        selectedKey = $scope.arrayIterate(data);\n        $scope.selected_option = data[selectedKey];\n    });\n    //Array index find for selected type\n    var selectedKey = '';\n    $scope.arrayIterate = function (lists) {\n        angular.forEach(lists, function (value, key) {\n            if (value.id == $scope.node_type) {\n                selectedKey = key;\n            }\n        });\n        return selectedKey;\n    }\n\n\n    $scope.section_page_disabled = false;\n    $scope.add = function (child) {\n        $scope.isNodeAddDisabled = true;\n        $scope.pageAction = 'ADD';\n        objectService.getProjectDetails($scope).then(function (data) {\n            $scope.project = {'project_permissions': data.project_permissions};\n            if ($scope.project.project_permissions['toc.node.add'].grant) {\n                var page_name = $scope.file = tocService.createFileName($scope);\n                tocService.checkFileName($scope).then(function (data) {\n                    if (data.status == 200 && ($scope.section_page == 'page' || $scope.section_page == 'section')) {\n                        //Check node title and node type and section\n                        if ((angular.isUndefined($scope.node_title) == false && $scope.node_title != '') && ((angular.isUndefined($scope.selected_option) == false && $scope.section_page == 'section') || $scope.section_page == 'page')) {\n\n                            var node_id = guid('-');\n                            var node_type = (angular.isDefined($scope.selected_option) ? $scope.selected_option.id : '');\n\n                            //Adding part in bodymatter\n                            if ($scope.section_page == 'section') {\n                                node_type = 5; // NodeTypeId For Part\n                            } else if ($scope.section_page == 'page') {\n                                node_type = 6; // NodeTypeId For Chapter\n                                if (angular.lowercase($scope.node_title) == 'glossary') {\n                                    node_type = 101; //NodeTypeId For Glossary\n                                }\n                            }\n\n                            //var page_name = tocService.createFileName($scope); //($scope.section_page == 'page' ? $scope.node_title + '.xhtml' : '');\n                            child.children.push({\n                                id: node_id,\n                                title: $scope.node_title,\n                                file: page_name, //$scope.node_title + '.xhtml', //node_id + '.xhtml',\n                                type: node_type,\n                                root_type: child.root_type,\n                                section_page: $scope.section_page,\n                                children: []\n                            });\n\n                            //console.log(child);\n\n                            var modalCloseParameter = {node_id: node_id, child_node_title: $scope.node_title, child_node_type: node_type, section_page: $scope.section_page, 'file': page_name, 'parent_node_id': $scope.child.id, 'parent_node_root_type': child.root_type};\n                            $modalInstance.close(modalCloseParameter);\n\n                        } else {\n                            $scope.formError = {'node_title': '', 'node_type': ''};\n                            if (angular.isUndefined($scope.node_title) == true || $scope.node_title == '') {\n                                $scope.formError['node_title'] = 'Please fill out this field properly';\n                            }\n\n                            if (angular.isDefined($scope.selected_option) && $scope.selected_option.id) {\n                                $scope.formError['node_type'] = 'Please choose this field properly';\n                            }\n\n                        }\n                    } else {\n                        $scope.isNodeAddDisabled = false;\n                        $scope.errMsg = (data.message != null) ? data.message : \"\";\n\n                        if (angular.isUndefined($scope.node_title) == true || $scope.node_title == '') {\n                            $scope.formError['node_title'] = 'Please fill out this field properly';\n                        } else {\n                            $scope.formError['node_title'] = '';\n                            if ($scope.errMsg) {\n                                $scope.formError['node_title'] = $scope.errMsg;\n                            }\n                        }\n                        //console.log(angular.isDefined($scope.selected_option));\n                        //console.log($scope.selected_option.id)\n                        $scope.formError['node_type'] = '';\n                        if (!angular.isDefined($scope.selected_option) || !angular.isDefined($scope.selected_option.id)) {\n                            $scope.formError['node_type'] = 'Please choose this field properly';\n                        }\n\n                    }\n                });\n            } else {\n                alert('Permission denied');\n            }\n\n        });\n\n    };\n\n    $scope.cancel = function () {\n        $modalInstance.dismiss('cancel');\n    };\n});\n\n\napp.controller('ModalTocEditCtrl', function ($scope, $modalInstance, tocService, objectService, child, modalFormText, project_id, project_permissions, project_details, parent_node_id) {\n    $scope.child = child;\n    $scope.node_title = child.title;\n    $scope.node_type = child.root_type;\n    $scope.node_id = child.id;\n    $scope.section_page = child.section_page;\n\n    $scope.modalFormText = modalFormText + ' ' + $scope.node_title + '. ';\n    $scope.modalFormTile = 'Edit Node';\n    $scope.project_id = project_id;\n    $scope.showTocType = false;\n    $scope.showSectionPage = false;\n    $scope.project_type_id = project_details.project_type_id;\n\n    $scope.formError = {'node_title': ''}\n\n    // Fetch Toc Types            \n    tocService.getTocTypes($scope).then(function (data) {\n        //$scope.selected_option = $scope.node_type;//$scope.TocTypes[$scope.node_type];  \n\n        selectedKey = $scope.arrayIterate(data);\n        $scope.selected_option = data[selectedKey];\n    });\n\n    //Array index find for selected type\n    var selectedKey = '';\n    $scope.arrayIterate = function (lists) {\n        angular.forEach(lists, function (value, key) {\n            if (value.id == $scope.node_type) {\n                selectedKey = key;\n            }\n        });\n        return selectedKey;\n    }\n    //selectedKey = $scope.arrayIterate($scope.list);\n    //\n\n    //section_page_disabled    \n    $scope.section_page = $scope.child.section_page;\n    $scope.section_page_disabled = true;\n    if (angular.isUndefined($scope.child.section_page)) {\n        $scope.section_page = 'section';\n    }\n    //==\n\n    $scope.$watch('node_title', function (val) {\n        if (angular.isUndefined(val) == true || val == '') {\n            $scope.formError = {'node_title': 'Please fill out this field properly'}\n        } else {\n            $scope.formError = {'node_title': ''}\n        }\n    });\n    $scope.add = function (child) {\n        $scope.pageAction = 'EDIT';\n\n        objectService.getProjectDetails($scope).then(function (data) {\n            $scope.project = {'project_permissions': data.project_permissions};\n            if ($scope.project.project_permissions['toc.node.add'].grant) {\n\n                $scope.file = tocService.createFileName($scope);\n                tocService.checkFileName($scope).then(function (data) {\n                    //if ((data.status == 200 && $scope.section_page == 'page') || $scope.section_page == 'section') {\n                    if (data.status == 200) {\n                        //console.log(angular.isUndefined($scope.node_title)+'=='+$scope.node_title+'=='+angular.isUndefined($scope.selected_option));\n                        //if (angular.isUndefined($scope.node_title) == false && $scope.node_title != '' && angular.isUndefined($scope.selected_option) == false) {\n                        if (angular.isUndefined($scope.node_title) == false && $scope.node_title != '') {\n                            child.title = $scope.node_title;\n                            var page_name = tocService.createFileName($scope);\n                            child.file = page_name;//$scope.node_title + '.xhtml';\n                            //child.type = $scope.selected_option.id;\n                            //child.section_page = $scope.section_page;\n                            //console.log(child);\n                            var modalCloseParameter = {node_id: child.id, child_node_title: $scope.node_title, section_page: $scope.section_page, 'file': page_name, 'parent_node_id': parent_node_id};\n                            $modalInstance.close(modalCloseParameter);\n                        } else {\n                            $scope.formError = {'node_title': 'Please fill out this field properly'}\n                        }\n                    } else {\n                        $scope.errMsg = (data.message != null) ? data.message : \"\";\n                        $scope.formError = {'node_title': $scope.errMsg}\n                    }\n                });\n            } else {\n                alert('Permission denied');\n            }\n\n        });\n\n        /*tocService.checkFileName($scope).then(function (data) {\n         if (data.status == 200) {\n         if (angular.isUndefined($scope.node_title) == false && $scope.node_title != '' && angular.isUndefined($scope.selected_option) == false) {\n         child.title = $scope.node_title;\n         child.file = $scope.node_title + '.xhtml';\n         child.type = $scope.selected_option.id;\n         \n         var modalCloseParameter = {node_id: child.id, child_node_title: $scope.node_title};\n         $modalInstance.close(modalCloseParameter);\n         }\n         } else {\n         alert(data.message);\n         }\n         });*/\n\n    };\n\n    $scope.cancel = function () {\n        $modalInstance.dismiss('cancel');\n    };\n\n\n});",
          "comment" : ""
        },
        "redirectURL" : "",
        "headersSize" : 203,
        "bodySize" : 17312,
        "comment" : ""
      },
      "cache" : { },
      "timings" : {
        "comment" : "",
        "ssl" : -1,
        "wait" : 0,
        "dns" : -1,
        "blocked" : -1,
        "receive" : 0,
        "send" : 0,
        "connect" : 1322
      },
      "comment" : "",
      "_katalonRequestInformation" : {
        "name" : "54",
        "testObjectId" : "Temporary RESTful request object",
        "harId" : "09f3d738-eab2-4827-ab8f-8d5631931eae"
      },
      "time" : 1322
    } ],
    "comment" : ""
  }
}