{
  "log" : {
    "version" : "1.2",
    "pages" : [ ],
    "entries" : [ {
      "startedDateTime" : "2019-07-17T06:16:59.003Z",
      "request" : {
        "method" : "GET",
        "url" : "https://frostedc-stg.learningmate.com/js/toc/globalContentLOController.js",
        "httpVersion" : "",
        "cookies" : [ ],
        "headers" : [ ],
        "queryString" : [ ],
        "headersSize" : 0,
        "bodySize" : 0,
        "comment" : ""
      },
      "response" : {
        "status" : 200,
        "statusText" : "",
        "httpVersion" : "",
        "cookies" : [ ],
        "headers" : [ {
          "name" : "Accept-Ranges",
          "value" : "bytes"
        }, {
          "name" : null,
          "value" : "HTTP/1.1 200 OK"
        }, {
          "name" : "Server",
          "value" : "nginx/1.13.5"
        }, {
          "name" : "ETag",
          "value" : "\"5d2ddd74-4f94\""
        }, {
          "name" : "Connection",
          "value" : "keep-alive"
        }, {
          "name" : "Last-Modified",
          "value" : "Tue, 16 Jul 2019 14:21:40 GMT"
        }, {
          "name" : "Content-Length",
          "value" : "20372"
        }, {
          "name" : "Date",
          "value" : "Wed, 17 Jul 2019 06:17:16 GMT"
        }, {
          "name" : "Content-Type",
          "value" : "application/javascript"
        } ],
        "content" : {
          "size" : 20372,
          "mimeType" : "application/javascript",
          "text" : "/*\n * controller for handling listing of LO page\n * authored by: Meghamala Mukherjee\n */\n\n'use strict';\n\napp.controller('globalContentLO', ['$scope', 'sessionService', '$location', '$routeParams', '$rootScope', '$log', 'SweetAlert', 'assetService', '$modal', 'objectService', '$filter', '$controller', 'taxonomyService', 'keyValueService', 'tagService', 'userService', 'ivhTreeviewMgr', '$compile', 'tocService', '$window', function ($scope, sessionService, $location, $routeParams, $rootScope, $log, SweetAlert, assetService, $modal, objectService, $filter, $controller, taxonomyService, keyValueService, tagService, userService, ivhTreeviewMgr, $compile, tocService, $window) {\n        $scope.access_token = sessionService.get('access_token');\n        $scope.user_id = sessionService.get('uid');\n        $scope.user_permissions = JSON.parse(sessionService.get('user_permissions'));\n        $scope.currentOrderByField = 'name';\n        $scope.reverseSort = false;\n        $scope.disablePreviewClick=false;\n        if (!$scope.access_token && !$scope.user_id) {\n            $location.path('logout');\n            return true;\n        }\n        $scope.object_id=$routeParams.object_id; //It is basically a object under a LO\n        //$rootScope.showSearchBox = false;\n        $scope.total = 0;\n        \n        \n        $scope.showSearchBox = true;\n        $scope.searchModel = {};\n        $scope.searchModel.search_text = '';\n\n        $scope.advanced_search = {};\n        $scope.advanced_search.enableSearch = false;\n        $scope.advanced_search.title = '';\n        $scope.advanced_search.active = false;\n        $scope.advanced_search.isCollapsed = false;\n        $scope.advanced_search.heading = 'Advanced Search Result:';\n\n        $scope.advanced_search.key_data = {};\n        $scope.advanced_search.value_data = {};\n        $scope.advanced_search.totalKeyArea = 0;\n        $scope.advanced_search.taxonomy = [];\n        \n\n        $scope.contents = {};\n        //Call Assets\n        $scope.currentPage = 1;\n        $scope.pageNumber = '';\n        $scope.itemsPerPage = '';\n        $scope.project_type=5;\n        $scope.is_global=1;\n        $scope.parent_learning_object_name='';\n        $scope.removeErrors=1;\n        $scope.getLOContents = function (pageNumber) {\n            $scope.pageNumber = pageNumber;\n            $scope.itemsPerPage = 10;\n            assetService.getLOContents($scope).then(function (data) {\n                $scope.parent_learning_object_name=data.data.learning_object.parent_learning_object.detail.name;\n                $scope.contents = data.data.learning_object.childs;\n                $scope.total = data.data.total;\n                $scope.removeErrors = data.data.total;\n            });\n        };\n        $scope.getLOContents(1);\n        $scope.newPageNumber = 1;\n        //For Pagination Of Dashboard\n        $scope.pageChangeHandlerContent = function (newPage) {\n            $scope.newPageNumber = newPage;            \n            $scope.getLOContents(newPage);\n        };\n        \n        \n        $scope.openGlobalLOChildAddModal = function (size) {\n            var modalInstance = $modal.open({\n                templateUrl: 'templates/toc/add_global_child_learning_object.html',\n                controller: 'ModalGlobalChildCtrl',\n                size: 'lg',\n                backdrop: 'static',\n                keyboard: false,    \n                resolve: {\n                    parent_learning_object_id: function () {\n                        return $scope.object_id\n                    },\n                    item: function () {\n                        return ''\n                    }\n                }\n            });\n            modalInstance.result.then(function () {\n               $scope.getLOContents(1);\n            }, function () {\n                $log.info('Modal dismissed at: ' + new Date());\n            });\n        };\n        \n        /*\n         * @description add Global content\n         * @author Koushik Samanta  \n         * @param {type} size\n         * @returns {undefined}\n         */\n        $scope.editGlobalContentObjectForm = function (list, size) {\n            var modalInstance = $modal.open({\n                templateUrl: 'templates/toc/edit_global_content_object.html',\n                controller: 'ModalGlobalContentObjectAddCtrl',\n                size: size,\n                backdrop: 'static',\n                keyboard: false,\n                resolve: {\n                    list: function () {\n                        return list\n                    },\n                    newPageNumber: function () {\n                        return $scope.newPageNumber\n                    },\n                    modal_header1_lebel: function () {\n                        return 'Update Content'\n                    },\n                    modal_header2_lebel: function () {\n                        return 'You are trying to update content'\n                    }\n                }\n            });\n            modalInstance.result.then(function (modalCloseParameter) {                \n                $scope.getLOContents(1)\n            }, function () {\n                $log.info('Modal dismissed at: ' + new Date());\n            });\n        };\n        \n       $scope.deleteContent = function (id) {\n            SweetAlert.swal({\n                title: \"Are you sure?\",\n                text: \"You will not be able to recover this content!\",\n                type: \"warning\",\n                showCancelButton: true,\n                confirmButtonColor: \"#DD6B55\",\n                confirmButtonText: \"Yes, delete it!\",\n                cancelButtonText: \"No, cancel!\",\n                closeOnConfirm: false,\n                closeOnCancel: false\n            }, function (isConfirm) {\n                if (isConfirm) {\n                    var param={};\n                    param.id=id;\n                    param.parent_learning_object_id=$scope.object_id;\n                    assetService.delContent(param).then(function (data) {\n                        var response = data.status;\n                        if(response == 200) {\n                            $scope.getLOContents(1);\n                            SweetAlert.swal(\"Success\", \"Content has been deleted\", \"success\");\n                        } else {\n                            SweetAlert.swal(\"Error\", \"Something went wrong\", \"error\");\n                        }\n                    });\n                } else {\n                    SweetAlert.swal(\"Cancelled\", \"Content is safe :)\", \"error\");\n                }\n            });\n        };\n\n        $scope.cancel = function () {\n            $('.right-panel-navpanel').hide();\n            $('.listing-view-content').removeClass('listing-view-content col-md-9').addClass('listing-view-content col-md-12');\n        };  \n        \n        $scope.backGlobalContentObject=function(){\n             $window.location.href ='#/global_repo/ContentObject';\n        };\n        \n        $scope.previewContent = function (size, id) {\n            if($scope.disablePreviewClick==false){\n                var contentRec = {};\n                $scope.disablePreviewClick = true;\n                var modalInstance = $modal.open({\n                    templateUrl: 'templates/toc/globalModalContentView.html',\n                    controller: 'ModalInstanceContentCtrl',\n                    size: size,\n                    backdrop: 'static',\n                    keyboard: false,\n                    resolve: {\n                        object_id: function () {\n                            return id;\n                        },\n                        modalFormText: function () {\n                            return \"You are trying to view a content\";\n                        },\n                        modalFormTile: function () {\n                            return \"Preview Content\";\n                        }\n                    }\n                });\n                modalInstance.result.then(function () {\n\n                }, function () {\n                    $scope.disablePreviewClick = false;\n                    $log.info('Modal dismissed at: ' + new Date());\n                });\n            }            \n        };\n        $scope.previewExtResource = function(content){\n            $window.open(content.metadata.ext_res_url, '_blank');\n        };\n         //Go to Desired editor\n        $scope.goToEditor = function (list) {\n            //console.log(list);\n            $scope.project_id = list.project_id;            \n            tocService.checkObjectLock($scope).then(function (data) {\n                if (Number(data.current_lock)) {\n                    SweetAlert.swal(\"Cancelled\", \"You cannot access this content right now, as it is locked. Please try again later!\", \"error\");\n                    return false;\n                } else {\n                    if (list.project_type_id == 4) {\n                        //Edupub\n                        $window.location.href = \"edupub_editor/index.html?access_token=\" + sessionService.get('access_token') + \"&project_id=\" + list.project_id + '&node_id=' + list.id + '&node_title=' + encodeURIComponent(list.name) + '&node_type_name=&node_type_id=&project_type_id=' + list.project_type_id + '&section_id=&user_id=' + $scope.user_id+'&content_from=global_repo_lo_content&lo_parent_object_id=' + $scope.object_id;\n                    } else if (list.project_type_id == 5) {\n                        //Course\n                        if(list.object_type_id=='101'){\n                            $window.location.href = \"course_editor/index.html?access_token=\" + sessionService.get('access_token') + \"&project_id=\" + list.project_id + '&node_id=' + list.id + '&node_title=' + encodeURIComponent(list.name) + '&node_type_name=&node_type_id=&project_type_id=' + list.project_type_id + '&section_id=&user_id=' + $scope.user_id+'&content_from=global_repo_lo_content&lo_parent_object_id=' + $scope.object_id;\n                        }else if(list.object_type_id=='118'){\n                            $window.location.href = \"/#/global-lo-content/\"+list.id+\"?access_token=\" + sessionService.get('access_token') + '&section_id=&user_id=' + $scope.user_id;\n                        }\n                    }\n                }\n            });\n        }\n}]);\n\n//ModalGlobalChildAddCtrl\napp.controller('ModalGlobalChildCtrl', function ($scope, sessionService, $modalInstance, assetService, patternService, templateService, $filter, tagService, keyValueService, taxonomyService, $compile, SweetAlert, ivhTreeviewMgr, parent_learning_object_id, item, objectService, $modal) {\n    \n    $scope.parent_learning_object_id = parent_learning_object_id;\n    $scope.project_type = 5; //For Online Course type Project\n    $scope.template_id = ''; \n    $scope.selected_template={};\n    $scope.item = item;\n    $scope.object_name='';\n    $scope.section_page='content_screen';\n    $scope.isConfirmClick=false;\n    $scope.is_assessment=false;\n    \n    $scope.object_name_placeholder = 'Name of  Content Screen';\n    $scope.updateObjectNameLabel = function(label, section_page){\n        $scope.object_name_placeholder = 'Name of '+label;\n        \n        $scope.is_assessment=false;\n        $scope.section_page = section_page;\n        if($scope.section_page=='assessment'){\n            $scope.is_assessment=true;\n        }\n    }\n        \n    //Get All templates\n    $scope.template_status = 1001;\n    $scope.template_local_global = {};\n    $scope.template_local_global.local = false;\n    $scope.template_local_global.global = true;\n    templateService.getTemplate($scope).then(function (data) {\n        $scope.templates = data.data;\n    });\n    \n    $scope.showedit=false;\n    if(angular.isDefined($scope.item.id) && $scope.item.id!=''){\n        $scope.showedit=true;\n        $scope.object_id=$scope.item.id;\n        $scope.object_name=$scope.item.name;  \n        $scope.section_page=$scope.item.section_page;\n    }\n    \n    $scope.deleteAsset = function () {\n        $scope.frost_resource_asset_name = '';\n        $scope.ext_res_url = '';\n        $scope.assessment_id = '';\n        $scope.assessment_details = '';\n       \n        //$scope.ext_res_type = \"\";\n        $scope.ext_res_url = \"\";\n        $scope.ext_res_title = '';\n        $scope.asset_id = \"\";\n    };\n\n    $scope.onChangeResourceType = function () {\n        $scope.ext_res_url = \"\";\n        $scope.ext_res_title = null;\n        $scope.formError['external_resources_message'] = '';\n        $scope.formError['resource_asset_message'] = '';\n    };\n\n    $scope.deleteAssessment = function () {\n        $scope.ext_res_url = '';\n        $scope.assessment_id = '';\n        $scope.assessment_details = '';\n       \n        //$scope.ext_res_type = \"\";\n        $scope.ext_res_url = \"\";\n        $scope.ext_res_title = '';\n        $scope.asset_id = \"\";\n    };\n\n    $scope.onChangeAssessmentType = function () {\n        $scope.assessment_id = '';\n        $scope.assessment_details = {};\n        $scope.formError['assessment_id'] = '';\n    };\n    \n    //Set Global Project Id\n    $scope.project_type_id = $scope.project_type;\n    objectService.getGlobalProjectId($scope).then(function (data) {\n        $scope.global_project_id = data.global_project_id;\n    });\n    \n    \n    \n    //Add Global Toc content\n    $scope.add = function () {\n        $scope.formError = {object_name: '', project_type: '', templete_id: ''};\n        var param = {};\n        param.object_name = $scope.object_name;\n        param.project_type = $scope.project_type;\n        param.templete_id = '';\n        param.section_page=$scope.section_page;\n        param.parent_learning_object_id=$scope.parent_learning_object_id;\n        $scope.isConfirmClick=true;\n        if ($scope.project_type == 5) {\n            //For Online course \n            param.templete_id = (angular.isUndefined($scope.selected_template) ? '' : $scope.selected_template.id);\n        }\n\n        assetService.addGlobalContentObject($scope, param).then(function (savedResponse) {\n            if (savedResponse.status == '200') {\n                SweetAlert.swal(\"Success\", savedResponse.message, \"success\");\n                $modalInstance.close();\n            } else {\n                if (angular.isDefined(savedResponse.error.object_name)) {\n                    $scope.formError['object_name'] = savedResponse.error.object_name['0'];\n                }\n                if (angular.isDefined(savedResponse.error.project_type)) {\n                    $scope.formError['project_type'] = savedResponse.error.project_type['0'];\n                }\n                if (angular.isDefined(savedResponse.error.templete_id)) {\n                    $scope.formError['templete_id'] = savedResponse.error.templete_id['0'];\n                }\n                if (angular.isDefined(savedResponse.error.assessment_source)) {\n                    $scope.formError['assessment_source'] = savedResponse.error.assessment_source['0'];\n                }\n                if (angular.isDefined(savedResponse.error.assessment_id)) {\n                    $scope.formError['assessment_id'] = savedResponse.error.assessment_id['0'];\n                }\n                if (angular.isDefined(savedResponse.error.ext_res_type)) {\n                    $scope.formError['ext_res_type'] = savedResponse.error.ext_res_type['0'];\n                }\n                if (angular.isDefined(savedResponse.error.asset_id)) {\n                    $scope.formError['asset_id'] = savedResponse.error.asset_id['0'];\n                }\n                if (angular.isDefined(savedResponse.error.resource_asset_message)) {\n                    $scope.formError['resource_asset_message'] = savedResponse.error.resource_asset_message['0'];\n                }\n                if (angular.isDefined(savedResponse.error.external_resources_message)) {\n                    $scope.formError['external_resources_message'] = savedResponse.error.external_resources_message['0'];\n                }\n                $scope.isConfirmClick=false;\n            }            \n        });\n    };\n    \n    //Edit Global Toc content\n    $scope.edit = function () {\n        $scope.formError = {object_name: '', project_type: '', templete_id: ''};\n        var param = {};\n        param.object_name = $scope.object_name;\n        param.object_id = $scope.object_id;\n        param.project_id = list.project_id;  \n        $scope.tags = $scope.metadata.tagValue;\n        assetService.editGlobalContentObject($scope, param).then(function (savedResponse) {\n            if (savedResponse.status == '200') {\n                SweetAlert.swal(\"Success\", savedResponse.message, \"success\");\n                $modalInstance.close({newPageNumber: $scope.newPageNumber});\n            } else {\n                if (angular.isDefined(savedResponse.error.object_name)) {\n                    $scope.formError['object_name'] = savedResponse.error.object_name['0'];\n                }\n            }\n        });\n    };\n\n    $scope.cancel = function () {\n        $modalInstance.dismiss('cancel');\n    };\n    $scope.set_section_page=function(project_type){\n        if(project_type=='5'){\n           $scope.section_page='content_screen';\n        }else if(project_type=='4'){\n            $scope.section_page='';\n        }\n    };\n    \n    $scope.addAssessmentModal = function () {\n        var size = 'lg';\n        var modalInstance = $modal.open({\n            templateUrl: 'templates/toc/assessmentModalContent.html',\n            controller: 'ModalTocAssessmentCtrl',\n            size: size,\n            backdrop: 'static',\n            keyboard: false,\n            resolve: {\n                project_id: function () {\n                    return $scope.global_project_id;\n                },\n                assessment_id: function () {\n                    return $scope.assessment_id;\n                },\n                assessment_details: function () {\n                    return $scope.assessment_details;\n                },\n                is_global_project: function () {\n                    return true;\n                }\n            }\n        });\n        modalInstance.result.then(function (modalCloseParameter) {\n            $scope.assessment_details = modalCloseParameter.assessment_details;\n            $scope.assessment_id = modalCloseParameter.assessment_details.id;\n            $scope.ext_res_url = '';\n            $scope.ext_res_title = '';\n            $scope.asset_id = '';\n        });\n    };\n    \n    //Assets Modal \n    $scope.ext_res_title = null;\n    $scope.addAssestModal = function () {\n        var size = 'lg';\n        var modal_form_title = 'Asset Library';\n        var modalInstance = $modal.open({\n            templateUrl: 'templates/toc/externalResourceModalContent.html',\n            controller: 'ModalCourseAssetsCtrl',\n            size: size,\n            backdrop: 'static',\n            keyboard: false,\n            resolve: {\n                modalFormTitle: function () {\n                    return modal_form_title;\n                },\n                project_id: function () {\n                    return $scope.global_project_id;\n                },\n                ext_res_url: function () {\n                    return $scope.ext_res_url;\n                },\n                from_global_repo: function(){\n                    return true;\n                }\n            }\n        });\n\n        modalInstance.result.then(function (modalCloseParameter) {\n            $scope.ext_res_url = modalCloseParameter.ext_res_location;\n            $scope.ext_res_title = modalCloseParameter.ext_res_title;\n            $scope.assessment_id = '';\n            $scope.assessment_source = '';\n            $scope.asset_id = modalCloseParameter.asset_id;\n            $scope.set_asset_thumbnail();\n            //$scope.ext_res_type = modalCloseParameter.ext_res_type;\n        });\n    };\n    $scope.set_asset_thumbnail = function () {\n        $scope.frost_resource_asset_type = '';\n        $scope.frost_resource_asset_name = '';\n        if (angular.isDefined($scope.ext_res_url) && $scope.ext_res_url != '') {\n            var pp = $scope.ext_res_url.split('/');\n            if (angular.isDefined(pp[6]) && pp[6] != '') {\n                assetService.getAssetById(pp[6]).then(function (data) {\n                    //console.log(data.data);\n                    $scope.frost_resource_asset_type = data.data.object_type_name;\n                    $scope.frost_resource_asset_name = data.data.name;\n                });\n            }\n        }\n    }\n    \n});\n\n\n",
          "comment" : ""
        },
        "redirectURL" : "",
        "headersSize" : 203,
        "bodySize" : 20372,
        "comment" : ""
      },
      "cache" : { },
      "timings" : {
        "comment" : "",
        "ssl" : -1,
        "wait" : 0,
        "dns" : -1,
        "blocked" : -1,
        "receive" : 0,
        "send" : 0,
        "connect" : 1364
      },
      "comment" : "",
      "_katalonRequestInformation" : {
        "name" : "56",
        "testObjectId" : "Temporary RESTful request object",
        "harId" : "b6641dac-85af-446a-b255-5e6e0836aa9b"
      },
      "time" : 1364
    } ],
    "comment" : ""
  }
}