{
  "log" : {
    "version" : "1.2",
    "pages" : [ ],
    "entries" : [ {
      "startedDateTime" : "2019-07-17T06:17:09.717Z",
      "request" : {
        "method" : "GET",
        "url" : "https://frostedc-stg.learningmate.com/js/asset/assetPreviewController.js",
        "httpVersion" : "",
        "cookies" : [ ],
        "headers" : [ ],
        "queryString" : [ ],
        "headersSize" : 0,
        "bodySize" : 0,
        "comment" : ""
      },
      "response" : {
        "status" : 200,
        "statusText" : "",
        "httpVersion" : "",
        "cookies" : [ ],
        "headers" : [ {
          "name" : "Accept-Ranges",
          "value" : "bytes"
        }, {
          "name" : null,
          "value" : "HTTP/1.1 200 OK"
        }, {
          "name" : "Server",
          "value" : "nginx/1.13.5"
        }, {
          "name" : "ETag",
          "value" : "\"5d2ddd74-4bd5\""
        }, {
          "name" : "Connection",
          "value" : "keep-alive"
        }, {
          "name" : "Last-Modified",
          "value" : "Tue, 16 Jul 2019 14:21:40 GMT"
        }, {
          "name" : "Content-Length",
          "value" : "19413"
        }, {
          "name" : "Date",
          "value" : "Wed, 17 Jul 2019 06:17:26 GMT"
        }, {
          "name" : "Content-Type",
          "value" : "application/javascript"
        } ],
        "content" : {
          "size" : 19413,
          "mimeType" : "application/javascript",
          "text" : "'use strict';\n\napp.controller('asset_preview', ['$scope', 'sessionService', '$routeParams', '$rootScope', '$modal', '$log', 'assetService', 'SweetAlert', function ($scope, sessionService, $routeParams, $rootScope, $modal, $log, assetService, SweetAlert) {\n        $scope.project_permissions = {};\n        setTimeout(function () {\n            if (angular.isDefined($scope.project_id) && $scope.project_id != '') {\n                $scope.project_permissions = $scope.project.project_permissions;\n                $scope.actual_permission = $scope.project_permissions['asset.upload'].grant;\n            }\n        }, 2000);\n        $scope.previewAsset = function (size, object_id, modal_form_title, display_option) {\n            var modalInstance = $modal.open({\n                templateUrl: 'templates/asset/assetModalContent.html',\n                controller: 'ModalAssetCtrl',\n                size: size,\n                backdrop: 'static',\n                keyboard: false,\n                resolve: {\n                    modalFormTitle: function () {\n                        return modal_form_title;\n                    },\n                    object_id: function () {\n                        return object_id;\n                    },\n                    project_id: function () {\n                        return $scope.project_id;\n                    },\n                    displayOption: function () {\n                        return display_option;\n                    },\n                    user_permissions: function () {\n                        return $scope.user_permissions;\n                    },\n                    project_permissions: function () {\n                        return $scope.project_permissions;\n                    }\n                }\n            });\n            modalInstance.result.then(function (modalCloseParameter) {\n                jQuery(\".metadata_save_button\").attr(\"disabled\", true);\n                $scope.object_id = modalCloseParameter.object_id;\n                $scope.applyMetadata = modalCloseParameter.applyMetadata;\n                if ($scope.applyMetadata) {\n                    $scope.tags = modalCloseParameter.tags;\n                    $scope.key_data = modalCloseParameter.key_data;\n                    $scope.value_data = modalCloseParameter.value_data;\n                    $scope.taxonomy = modalCloseParameter.taxonomy;\n                }\n                $scope.title = modalCloseParameter.title;\n                $scope.asset_file = modalCloseParameter.asset_file;\n                $scope.project_id = modalCloseParameter.project_id;\n                //Saving metadata\n                assetService.updateMetaData($scope).then(function (data) {\n                    if (data.status == 400) {\n                        SweetAlert.swal(\"Failed\", data.message, \"error\");\n                    }\n                    $scope.updateAssetId = data.data;\n                    $scope.getAssets($scope.pageNumber);\n                    jQuery(\".metadata_save_button\").attr(\"disabled\", false);\n                });\n            }, function () {\n                $log.info('Modal dismissed at: ' + new Date());\n            });\n        };\n    }]);\n\napp.filter('trusted', ['$sce', function ($sce) {\n    return function(url) {\n        return $sce.trustAsResourceUrl(url);\n    };\n}]);\napp.controller('ModalAssetCtrl', function ($scope, $filter, $modalInstance, $http, sessionService, object_id, project_id, tagService, keyValueService, taxonomyService, $compile, ivhTreeviewMgr, assetService, modalFormTitle, displayOption, project_permissions, user_permissions) {\n\n    $scope.displayOption = displayOption;\n    $scope.applyMetadata = 0;\n    $scope.user_permissions = user_permissions;\n    $scope.project_permissions = project_permissions;\n    $scope.modalFormTitle = modalFormTitle;\n    $scope.object_id = object_id;\n    $scope.project_id = project_id;\n    $scope.showDetails = 0;\n    $scope.node_id = object_id;\n    $scope.key_data = {};\n    $scope.value_data = {};\n    $scope.totalKeyArea = 0;\n    $scope.taxonomy = [];\n    $scope.tplFolderOpen = '<span class=\"twistie glyphicon glyphicon-folder-open\"></span>&nbsp;&nbsp;';\n    $scope.tplFolderClose = '<span class=\"twistie glyphicon glyphicon-folder-close\"></span>&nbsp;&nbsp;';\n    $scope.tplLeaf = '<span class=\"twistie glyphicon glyphicon-book\"></span>&nbsp;&nbsp;';\n    $scope.update_form = {};\n    // get asset details\n    assetService.getAssetById(object_id).then(function (data) {\n        $scope.formdata = {};\n        $scope.showDetails = 1;\n        var metadata = (data.data.metadata == \"\") ? '' : JSON.parse(data.data.metadata);\n        $scope.asset_org_name = data.data.original_name ? data.data.original_name : '';\n        $scope.asset_type = data.data.type ? data.data.type : '';\n        $scope.update_form.title = data.data.title ? data.data.title : '';\n        $scope.formdata.asset_file = data.data.file_name ? data.data.file_name : '';\n        $scope.object_type_name = data.data.object_type_name ? data.data.object_type_name : '';\n        $scope.mimetype = data.data.mimetype ? data.data.mimetype : '';\n        if (metadata) {\n            $scope.asset_height = metadata.height ? metadata.height : '';\n            $scope.asset_width = metadata.width ? metadata.width : '';\n            $scope.asset_size = metadata.size ? metadata.size : '';\n        }\n        $scope.ts_hash = '?_ts=' + new Date().getTime();\n        $scope.asset_location = data.data.asset_location ? data.data.asset_location : '';\n        $scope.created_date = new Date(data.data.created_at) ? new Date(data.data.created_at) : '';\n        $scope.modified_date = new Date(data.data.updated_at).getTime() ? new Date(data.data.updated_at).getTime() : '';\n        $scope.name = data.data.name ? data.data.name : '';\n        $scope.id = data.data.id ? data.data.id : '';\n        $scope.is_global = data.data.is_global;\n        // check apply metadata permission\n        if ($scope.is_global) {\n            if (angular.isDefined($scope.user_permissions['tag.apply']) && $scope.user_permissions['tag.apply']) {\n                $scope.applyMetadata = $scope.user_permissions['tag.apply'].grant;\n            }\n        } else {\n            if (angular.isDefined($scope.project_permissions['tag.apply']) && $scope.project_permissions['tag.apply']) {\n                $scope.applyMetadata = $scope.project_permissions['tag.apply'].grant;\n            }\n\n        }\n\n    });\n\n    // get taxonomy \n    $scope.taxonomyStatus = 1001;\n    taxonomyService.getTaxonomy($scope, $scope.node_id).then(function (data) {\n        if (data.status == 200)\n        {\n            if (data.data != null && angular.isDefined(data.data.children))\n            {\n                $scope.taxonomy = data.data.children;\n                $scope.findSelectedTaxonomy({children:$scope.taxonomy});\n                // expand nodes\n                ivhTreeviewMgr.expandRecursive($scope.taxonomy, $scope.taxonomy);\n            }\n            if (data.count === 0) {\n                setTimeout(function () {\n                    angular.element('#taxonomyStatus').html('No active taxonomy available in the management');\n                }, 500);\n            }\n        }\n\n    });\n    //This method is used to select parent indeterminately\n    $scope.findSelectedTaxonomy = function(taxonomy_arr){\n        if (taxonomy_arr.children.length>0) {\n            for (var i = 0; i < taxonomy_arr.children.length; i += 1) {\n                var currentChild = taxonomy_arr.children[i];\n                $scope.findSelectedTaxonomy(currentChild);\n                if(currentChild.selected==true){\n                    ivhTreeviewMgr.select($scope.taxonomy, currentChild);\n                }\n            }\n        }        \n    };\n\n    // get tags \n    var tags = [];\n    var object_tags = [];\n\n    $scope.tag = {\n        multiple: true,\n        data: tags\n    };\n    tagService.getTagsByObject($scope, $scope.node_id).then(function (data) {\n        if (data.status == 200)\n        {\n            if (data.data != null && angular.isDefined(data.data.tags))\n            {\n                angular.forEach(data.data.tags, function (value, key) {\n                    tags[key] = {id: value.id, text: value.text};\n                });\n                $scope.tag.data = tags;\n                if (angular.isDefined(data.data.object_tags))\n                {\n                    angular.forEach(data.data.object_tags, function (value, key) {\n                        object_tags[key] = {id: value.id, text: value.text};\n                    });\n                    $scope.update_form.tagValue = object_tags;\n                }\n            }\n        }\n\n    });\n\n    $scope.keyOptions = '<option value=\"\"></option>';\n    $scope.keyValueData = '';\n    // get key values\n    keyValueService.getKeyValuesByObject($scope, $scope.node_id).then(function (data) {\n        if (data.status == 200)\n        {\n            $scope.keyValueData = data.data;\n            if (data.data != null && angular.isDefined(data.data.key_values))\n            {\n                angular.forEach(data.data.key_values, function (value) {\n                    $scope.keyOptions = $scope.keyOptions + '<option value=\"' + value.id + '\">' + value.key_name + '</option>';\n                });\n\n                setTimeout(function () {\n                    // populate old key values\n                    if (Object.keys(data.data.object_key_values).length)\n                    {\n                        angular.forEach(data.data.object_key_values, function (object_key_value) {\n                            $scope.totalKeyArea = $scope.totalKeyArea + 1;\n                            var newKeyAreaHtml = $scope.generateKeyValue($scope.totalKeyArea);\n                            $scope.key_data['key_' + $scope.totalKeyArea] = object_key_value.key_id;\n                            angular.element(\"#keyValuesAreaId\").append($compile(newKeyAreaHtml)($scope));\n                            $scope.onChangeKeyUpdateValue($scope.totalKeyArea);\n                            if (object_key_value.key_type == 'select_list')\n                            {\n                                $scope.value_data['key_' + $scope.totalKeyArea] = object_key_value.value_id;\n                            } else {\n                                if(object_key_value.key_type == 'number_entry'){\n                                    $scope.value_data['key_' + $scope.totalKeyArea] = parseFloat(object_key_value.value);\n                                }else{\n                                   $scope.value_data['key_' + $scope.totalKeyArea] = object_key_value.value;\n                                }\n                                \n                            }\n\n                        });\n                    } else {\n                        $scope.totalKeyArea = $scope.totalKeyArea + 1;\n                        var newKeyAreaHtml = $scope.generateKeyValue($scope.totalKeyArea);\n                        angular.element(\"#keyValuesAreaId\").append($compile(newKeyAreaHtml)($scope));\n                    }\n                }, 500);\n            }\n\n            if (data.count == 0) {\n                setTimeout(function () {\n                    $scope.totalKeyArea = $scope.totalKeyArea + 1;\n                    var newKeyAreaHtml = $scope.generateKeyValue($scope.totalKeyArea);\n                    angular.element(\"#keyValuesAreaId\").append($compile(newKeyAreaHtml)($scope));\n                }, 500);\n            }\n        }\n    });\n\n\n    $scope.addKeyValue = function () {\n        $scope.totalKeyArea = $scope.totalKeyArea + 1;\n        var newKeyAreaHtml = $scope.generateKeyValue($scope.totalKeyArea);\n        angular.element(\"#keyValuesAreaId\").append($compile(newKeyAreaHtml)($scope));\n    };\n\n\n    $scope.onChangeKeyUpdateValue = function (key) {\n        var keyId = $scope.key_data['key_' + key];\n        angular.forEach($scope.keyValueData.key_values, function (value) {\n            if (value.id == keyId)\n            {\n                if (value.key_type == 'select_list')\n                {\n                    var valueSelect = '<select style=\"width:100%\" ui-select2 ng-model=\"value_data.key_' + key + '\" data-placeholder=\"Select a Value\">';\n                    valueSelect += '<option value=\"\"></option>';\n                    angular.forEach(value.values, function (valueObj) {\n                        valueSelect += '<option value=\"' + valueObj.value_id + '\">' + $filter('strLimit')(valueObj.value, 20) + '</option>';\n                    });\n                    valueSelect += '</select>';\n                    valueSelect += '<div class=\"input-group-btn\"><button type=\"button\" class=\"btn btn-success\" ng-click=\"addKeyValue()\"><i class=\"fa fa-plus\"></i></button><button type=\"button\" class=\"btn btn-danger\" ng-click=\"removeKeyValue(\\'keyValuesArea_' + key + '\\')\"><i class=\"fa fa-trash\"></i></button></div>';\n                    angular.element(\"#keyValueAreaValue_\" + key).html($compile(valueSelect)($scope));\n                } else if (value.key_type == 'date_entry') {\n                    $scope.value_data['key_' + key] = null;\n                    var valueInput = '<input type=\"text\" class=\"form-control\" ng-keypress=\"keyPressedEvent($event)\" ng-model=\"value_data.key_' + key + '\" data-date-format=\"MM-dd-yyyy\" data-date-type=\"string\" data-min-date=\"02/10/86\" data-autoclose=\"1\" name=\"date2\" bs-datepicker>';\n                    valueInput += '<div class=\"input-group-btn\"><button type=\"button\" class=\"btn btn-success\" ng-click=\"addKeyValue()\"><i class=\"fa fa-plus\"></i></button><button type=\"button\" class=\"btn btn-danger\" ng-click=\"removeKeyValue(\\'keyValuesArea_' + key + '\\')\"><i class=\"fa fa-trash\"></i></button></div>';\n                    angular.element(\"#keyValueAreaValue_\" + key).html($compile(valueInput)($scope));\n\n                } else if (value.key_type == 'time_entry') {\n                    $scope.value_data['key_' + key] = null;\n                    var valueInput = '<input type=\"text\" data-time-type=\"string\" ng-keypress=\"keyPressedEvent($event)\" data-time-format=\"HH:mm\" data-length=\"1\" data-minute-step=\"1\" class=\"form-control\" ng-model=\"value_data.key_' + key + '\"  name=\"value_data.key_' + key + '\" bs-timepicker data-arrow-behavior=\"picker\" data-autoclose=\"1\">';\n                    valueInput += '<div class=\"input-group-btn\"><button type=\"button\" class=\"btn btn-success\" ng-click=\"addKeyValue()\"><i class=\"fa fa-plus\"></i></button><button type=\"button\" class=\"btn btn-danger\" ng-click=\"removeKeyValue(\\'keyValuesArea_' + key + '\\')\"><i class=\"fa fa-trash\"></i></button></div>';\n                    angular.element(\"#keyValueAreaValue_\" + key).html($compile(valueInput)($scope));\n\n                } else if (value.key_type == 'number_entry') {\n                    $scope.value_data['key_' + key] = null;\n                    var valueInput = '<input type=\"number\" class=\"form-control\" ng-model=\"value_data.key_' + key + '\">';\n                    valueInput += '<div class=\"input-group-btn\"><button type=\"button\" class=\"btn btn-success\" ng-click=\"addKeyValue()\"><i class=\"fa fa-plus\"></i></button><button type=\"button\" class=\"btn btn-danger\" ng-click=\"removeKeyValue(\\'keyValuesArea_' + key + '\\')\"><i class=\"fa fa-trash\"></i></button></div>';\n                    angular.element(\"#keyValueAreaValue_\" + key).html($compile(valueInput)($scope));\n\n                } else {\n                    $scope.value_data['key_' + key] = null;\n                    var valueInput = '<input type=\"text\"  placeholder=\"Enter value\" class=\"form-control\" ng-model=\"value_data.key_' + key + '\">';\n                    valueInput += '<div class=\"input-group-btn\"><button type=\"button\" class=\"btn btn-success\" ng-click=\"addKeyValue()\"><i class=\"fa fa-plus\"></i></button><button type=\"button\" class=\"btn btn-danger\" ng-click=\"removeKeyValue(\\'keyValuesArea_' + key + '\\')\"><i class=\"fa fa-trash\"></i></button></div>';\n                    angular.element(\"#keyValueAreaValue_\" + key).html($compile(valueInput)($scope));\n                }\n            }\n        });\n\n    };\n    \n    $scope.keyPressedEvent = function (keyEvent) {\n        keyEvent.preventDefault();\n    };\n\n    $scope.removeKeyValue = function (keyValueArea) {\n        angular.element(\"#\" + keyValueArea).remove();\n        var keyArray = keyValueArea.split('_');\n        delete $scope.key_data['key_' + keyArray[1]];\n        delete $scope.value_data['key_' + keyArray[1]];\n        if (angular.element(\".key-values-area\").length == 0)\n        {\n            $scope.totalKeyArea = 1;\n            $scope.key_data = {};\n            $scope.value_data = {};\n            var newKeyAreaHtml = $scope.generateKeyValue($scope.totalKeyArea);\n            angular.element(\"#keyValuesAreaId\").append($compile(newKeyAreaHtml)($scope));\n        }\n\n    };\n\n    $scope.generateKeyValue = function (key) {\n        var keySelect = '<div class=\"form-group\"><div class=\"row key-values-area\" id=\"keyValuesArea_' + key + '\">';\n        keySelect += '<div class=\"col-sm-6\"><label for=\"metadataValue\">Key</label><select style=\"width:100%\" ng-change=\"onChangeKeyUpdateValue(\\'' + key + '\\')\" ui-select2 ng-model=\"key_data.key_' + key + '\" data-placeholder=\"Select a Key\">';\n        keySelect += $scope.keyOptions + '</select></div>';\n        keySelect += '<div class=\"col-sm-6\"><label for=\"metadataValue\">Value</label><div class=\"input-group\" id=\"keyValueAreaValue_' + key + '\"><input type=\"text\" class=\"form-control\" ng-model=\"value_data.key_' + key + '\" placeholder=\"Enter value\"><div class=\"input-group-btn\"><button type=\"button\" class=\"btn btn-success\" ng-click=\"addKeyValue()\"><i class=\"fa fa-plus\"></i></button><button type=\"button\" class=\"btn btn-danger\" ng-click=\"removeKeyValue(\\'keyValuesArea_' + key + '\\')\"><i class=\"fa fa-trash\"></i></button></div></div></div>';\n        return keySelect;\n    };\n    \n\n    /**\n     * \n     * @returns {save matadata by object id}\n     */\n    $scope.saveMetadata = function () {\n        var new_array = [];\n        angular.forEach($scope.key_data, function (value, key) {\n            new_array.push(value);\n        });\n        var counts = {}, i, value;\n        for (i = 0; i < new_array.length; i++) {\n            value = new_array[i];\n            if (typeof counts[value] === \"undefined\") {\n                counts[value] = 1;\n            } else {\n                counts[value]++;\n            }\n        }\n        $scope.flag = 0;\n        angular.forEach(counts, function (value, key) {\n            if (value > 1) {\n                $scope.flag = 1;\n            }\n        });\n        if ($scope.flag === 0) {\n            var modalCloseParameter = {'project_id': $scope.project_id, 'object_id': $scope.object_id, 'title': $scope.update_form.title, 'asset_file': $scope.formdata.asset_file, 'applyMetadata': $scope.applyMetadata};\n            if ($scope.applyMetadata) {\n                modalCloseParameter = {'project_id': $scope.project_id, 'object_id': $scope.object_id, 'tags': $scope.update_form.tagValue, 'key_data': $scope.key_data, 'value_data': $scope.value_data, 'taxonomy': $scope.taxonomy, 'title': $scope.update_form.title, 'asset_file': $scope.formdata.asset_file, 'applyMetadata': $scope.applyMetadata};\n            }\n            $modalInstance.close(modalCloseParameter);\n        } else {\n            $scope.formError = {\n                duplicate_value: 'Duplicate value not allowed'\n            };\n        }\n    };\n\n    $scope.cancel = function () {\n        $modalInstance.dismiss('cancel');\n    };\n});\n\n",
          "comment" : ""
        },
        "redirectURL" : "",
        "headersSize" : 203,
        "bodySize" : 19413,
        "comment" : ""
      },
      "cache" : { },
      "timings" : {
        "comment" : "",
        "ssl" : -1,
        "wait" : 0,
        "dns" : -1,
        "blocked" : -1,
        "receive" : 0,
        "send" : 0,
        "connect" : 1349
      },
      "comment" : "",
      "_katalonRequestInformation" : {
        "name" : "64",
        "testObjectId" : "Temporary RESTful request object",
        "harId" : "9fe2e7e9-f1c7-4c85-a93d-b17980a2a2a3"
      },
      "time" : 1349
    } ],
    "comment" : ""
  }
}