{
  "log" : {
    "version" : "1.2",
    "pages" : [ ],
    "entries" : [ {
      "startedDateTime" : "2019-07-17T06:17:37.573Z",
      "request" : {
        "method" : "GET",
        "url" : "https://frostedc-stg.learningmate.com/js/profile/profileService.js",
        "httpVersion" : "",
        "cookies" : [ ],
        "headers" : [ ],
        "queryString" : [ ],
        "headersSize" : 0,
        "bodySize" : 0,
        "comment" : ""
      },
      "response" : {
        "status" : 200,
        "statusText" : "",
        "httpVersion" : "",
        "cookies" : [ ],
        "headers" : [ {
          "name" : "Accept-Ranges",
          "value" : "bytes"
        }, {
          "name" : null,
          "value" : "HTTP/1.1 200 OK"
        }, {
          "name" : "Server",
          "value" : "nginx/1.13.5"
        }, {
          "name" : "ETag",
          "value" : "\"5d2ddd74-12fa\""
        }, {
          "name" : "Connection",
          "value" : "keep-alive"
        }, {
          "name" : "Last-Modified",
          "value" : "Tue, 16 Jul 2019 14:21:40 GMT"
        }, {
          "name" : "Content-Length",
          "value" : "4858"
        }, {
          "name" : "Date",
          "value" : "Wed, 17 Jul 2019 06:17:54 GMT"
        }, {
          "name" : "Content-Type",
          "value" : "application/javascript"
        } ],
        "content" : {
          "size" : 4858,
          "mimeType" : "application/javascript",
          "text" : "/*****\n * Services for Login\n * Author - Arikh Akher\n */\n\n'use strict';\n\n//Start of loginService\napp.service('profileService', ['$http', '$q', '$location', 'tokenService', 'sessionService', '$rootScope', function ($http, $q, $location, tokenService, sessionService, $rootScope) {\n\n        this.getUser = function ($scope) {\n            var deferred = $q.defer();\n            var params = {};\n            $http.post(serviceEndPoint + 'api/v1/getuser?access_token=' + sessionService.get('access_token'), {\n                email: $scope.useremail\n            }).success(function (data, status, headers, config) {\n                $scope.status = data.status;\n                $scope.message = data.message;\n                deferred.resolve(data);//Return the roles list                \n            }).error(function (data, status, headers, config) {\n                $rootScope.unauthorised_redirection(data.status);\n            });\n\n            return deferred.promise;\n        };\n\n        this.resetPassword = function ($scope) {\n            var deferred = $q.defer();\n            var params = {};\n            params.access_token = $scope.access_token;\n            params.old_password = $scope.old_password;\n            params.new_password = $scope.new_password1;\n            params.user_id = $scope.userId;\n            $http({\n                method: 'POST',\n                url: serviceEndPoint + 'api/v1/resetpassword',\n                params: params\n            }).success(function (data, status, headers, config) {\n                //console.log(data);\n                deferred.resolve(data);//Return the roles list\n            }).error(function (data, status, headers, config) {\n\n            });\n\n            return deferred.promise;\n        };\n\n        //Update User Profile\n        this.updateUser = function ($scope) {\n            var deferred = $q.defer();\n            var params = {};\n            $http.post(serviceEndPoint + 'api/v1/users-profile?access_token=' + sessionService.get('access_token'), {\n                first_name: $scope.formData.first_name,\n                last_name: $scope.formData.last_name,\n                _method: 'put'\n            }).success(function (data, status, headers, config) {\n                deferred.resolve(data);//Return the roles list                \n            }).error(function (data, status, headers, config) {\n                $rootScope.unauthorised_redirection(data.status);\n            });\n            return deferred.promise;\n        };\n\n        //Change Password\n        this.changePassword = function ($scope) {\n            var deferred = $q.defer();\n            var params = {};\n            $http.post(serviceEndPoint + 'api/v1/change-password?access_token=' + sessionService.get('access_token'), {\n                oldpassword: $scope.oldpassword,\n                password: $scope.password,\n                password_confirmation: $scope.password_confirmation,\n                _method: 'put'\n            }).success(function (data, status, headers, config) {\n                deferred.resolve(data);//Return the roles list                \n            }).error(function (data, status, headers, config) {\n                $rootScope.unauthorised_redirection(data.status);\n            });\n            return deferred.promise;\n        };\n\n        //Save Email Frequency \n        this.saveEmailFrequency = function ($scope) {\n            var deferred = $q.defer();\n            var params = {};\n            //api/v1/email-notification/user_id/{user_id}/frequency/{frequency}\n            $http.post(serviceEndPoint + 'api/v1/email-notification/user_id/' + $scope.userId + '/frequency/' + $scope.email_frequency + '?access_token=' + sessionService.get('access_token'), {\n                _method: 'put'\n            }).success(function (data, status, headers, config) {\n                deferred.resolve(data);//Return the roles list                \n            }).error(function (data, status, headers, config) {\n                $rootScope.unauthorised_redirection(data.status);\n            });\n            return deferred.promise;\n        }\n        \n        //Save Email Frequency \n        this.getEmailFrequency = function ($scope) {\n            var deferred = $q.defer();\n            var params = {};\n            //api/v1/email-notification/user_id/{user_id}/frequency/{frequency}\n            $http.get(serviceEndPoint + 'api/v1/email-notification/user_id/' + $scope.userId + '?access_token=' + sessionService.get('access_token'), {\n                \n            }).success(function (data, status, headers, config) {                \n                deferred.resolve(data);//Return the roles list                \n            }).error(function (data, status, headers, config) {\n                $rootScope.unauthorised_redirection(data.status);\n            });\n            return deferred.promise;\n        }\n\n    }]);\n",
          "comment" : ""
        },
        "redirectURL" : "",
        "headersSize" : 202,
        "bodySize" : 4858,
        "comment" : ""
      },
      "cache" : { },
      "timings" : {
        "comment" : "",
        "ssl" : -1,
        "wait" : 0,
        "dns" : -1,
        "blocked" : -1,
        "receive" : 0,
        "send" : 0,
        "connect" : 1081
      },
      "comment" : "",
      "_katalonRequestInformation" : {
        "name" : "86",
        "testObjectId" : "Temporary RESTful request object",
        "harId" : "a7b2dd6b-5b2a-46a9-90f4-99741ff4dab6"
      },
      "time" : 1081
    } ],
    "comment" : ""
  }
}