{
  "log" : {
    "version" : "1.2",
    "pages" : [ ],
    "entries" : [ {
      "startedDateTime" : "2019-07-17T07:27:44.987Z",
      "request" : {
        "method" : "GET",
        "url" : "https://frostedc-stg.learningmate.com/js/element/elementService.js",
        "httpVersion" : "",
        "cookies" : [ ],
        "headers" : [ ],
        "queryString" : [ ],
        "headersSize" : 0,
        "bodySize" : 0,
        "comment" : ""
      },
      "response" : {
        "status" : 200,
        "statusText" : "",
        "httpVersion" : "",
        "cookies" : [ ],
        "headers" : [ {
          "name" : "Accept-Ranges",
          "value" : "bytes"
        }, {
          "name" : null,
          "value" : "HTTP/1.1 200 OK"
        }, {
          "name" : "Server",
          "value" : "nginx/1.13.5"
        }, {
          "name" : "ETag",
          "value" : "\"5d2ddd74-2199\""
        }, {
          "name" : "Connection",
          "value" : "keep-alive"
        }, {
          "name" : "Last-Modified",
          "value" : "Tue, 16 Jul 2019 14:21:40 GMT"
        }, {
          "name" : "Content-Length",
          "value" : "8601"
        }, {
          "name" : "Date",
          "value" : "Wed, 17 Jul 2019 07:28:01 GMT"
        }, {
          "name" : "Content-Type",
          "value" : "application/javascript"
        } ],
        "content" : {
          "size" : 8601,
          "mimeType" : "application/javascript",
          "text" : "/*****\n * Services for ElementServices\n * Author - Parveen Khan\n *  \n */\n'use strict';\n\n//Start of aclService\napp.service('elementService', ['$http', '$q', 'sessionService', '$rootScope', function ($http, $q, sessionService, $rootScope) {\n\n        /*\n         * Service to add Element\n         */\n        this.addElement = function ($scope) {\n            var deferred = $q.defer();\n            $http.post(serviceEndPoint + 'api/v1/content-elements?access_token=' + sessionService.get('access_token'), {\n                element_name: $scope.element_name,\n                element_value: $scope.element_value,\n            }).success(function (data, status, headers, config) {\n                deferred.resolve(data);\n            }).error(function (data, status, headers, config) {\n                $rootScope.unauthorised_redirection(data.status);\n            });\n            return deferred.promise;\n        }\n        /*\n         * Service to add Element\n         */\n        this.editElement = function ($scope, element) {\n            var deferred = $q.defer();\n            $http.post(serviceEndPoint + 'api/v1/content-elements/element_id/' + element.id + '?access_token=' + sessionService.get('access_token'), {\n                element_name: $scope.element_name,\n                element_value: $scope.element_value,\n                _method: 'PUT'\n            }).success(function (data, status, headers, config) {\n                deferred.resolve(data);\n            }).error(function (data, status, headers, config) {\n                $rootScope.unauthorised_redirection(data.status);\n            });\n            return deferred.promise;\n        }\n        /*\n         * Service to add Element\n         */\n        this.delElement = function ($scope, element_id) {\n            var deferred = $q.defer();\n            $http.delete(serviceEndPoint + 'api/v1/content-elements/element_id/' + element_id + '?access_token=' + sessionService.get('access_token'), {\n            }).success(function (data, status, headers, config) {\n                deferred.resolve(data);\n            }).error(function (data, status, headers, config) {\n                $rootScope.unauthorised_redirection(data.status);\n            });\n            return deferred.promise;\n        }\n        /*\n         * Service to asset element mapping\n         */\n        /*this.elementObjectMapping = function ($scope) {\n            var deferred = $q.defer();\n            $http.post(serviceEndPoint + 'api/v1/element-object?access_token=' + sessionService.get('access_token'), {\n                element_id: $scope.element_id,\n                asset_ids: $scope.asset_ids\n            }).success(function (data, status, headers, config) {\n                deferred.resolve(data);\n            }).error(function (data, status, headers, config) {\n                $rootScope.unauthorised_redirection(data.status);\n            });\n            return deferred.promise;\n        }*/\n\n        \n         /**\n         * Get Elements\n         */\n        this.getElement = function ($scope) {\n            var params = {};\n            params.access_token = sessionService.get('access_token');\n            var deferred = $q.defer();\n\n            var queryString = '';\n            if (angular.isDefined($scope.pageNumber) && angular.isDefined($scope.itemsPerPage)) {\n                queryString += '&pageNumber=' + $scope.pageNumber + '&itemsPerPage=' + $scope.itemsPerPage;\n            }\n            if (angular.isDefined($scope.currentOrderByField)) {\n                queryString += '&orderField=' + $scope.currentOrderByField;\n            }\n\n            if (angular.isDefined($scope.search_text)) {\n                queryString += '&search_text=' + window.btoa($scope.search_text);\n            }\n\n            if (angular.isDefined($scope.reverseSort)) {\n                var dir = 'ASC';\n                if ($scope.reverseSort)\n                {\n                    dir = 'DESC';\n                }\n                queryString += '&orderDirection=' + dir;\n            }\n\n            $http.get(serviceEndPoint + 'api/v1/content-elements?access_token=' + sessionService.get('access_token') + queryString, {\n            }).success(function (data, status, headers, config) {\n                deferred.resolve(data);\n            }).error(function (data, status, headers, config) {\n                $rootScope.unauthorised_redirection(data.status);\n            });\n            return deferred.promise;\n        };\n        \n        /**\n         * Get Element Detail By Id\n         */\n        this.getElementDetailsById = function ($scope, element_id) {\n            var params = {};\n            params.access_token = sessionService.get('access_token');\n            var deferred = $q.defer();\n\n            var queryString = '';\n            $http.get(serviceEndPoint + 'api/v1/content-elements/element_id/' + element_id + '?access_token=' + sessionService.get('access_token') + queryString, {\n            }).success(function (data, status, headers, config) {\n                deferred.resolve(data);\n            }).error(function (data, status, headers, config) {\n                $rootScope.unauthorised_redirection(data.status);\n            });\n            return deferred.promise;\n        };\n\n        /**\n         * Get Element By Object Id\n         */\n        this.getElementByObject = function ($scope, object_id) {\n            var params = {};\n            params.access_token = sessionService.get('access_token');\n            var deferred = $q.defer();\n\n            var queryString = '';\n            $http.get(serviceEndPoint + 'api/v1/content-elements/element_id/' + element_id + '?access_token=' + sessionService.get('access_token') + queryString, {\n            }).success(function (data, status, headers, config) {\n                deferred.resolve(data);\n            }).error(function (data, status, headers, config) {\n                $rootScope.unauthorised_redirection(data.status);\n            });\n            return deferred.promise;\n        };\n\n        /**\n         * Get Element By Object Id\n         */\n        this.rearrangeElementTree = function ($scope, element_id, parent_id) {\n            var params = {};\n            params.access_token = sessionService.get('access_token');\n            var deferred = $q.defer();\n            var requestUrl = serviceEndPoint + 'api/v1/element-rearrange/element_id/' + element_id + '/parent_id/' + parent_id + '?access_token=' + sessionService.get('access_token');\n            var requestData = {'children': JSON.stringify($scope.element.children)};\n            var requestConfig = {headers: {'Content-Type': 'application/x-www-form-urlencoded; charset=UTF-8'}};\n            $http.put(requestUrl, requestData, requestConfig).success(function (data, status, headers, config) {\n                deferred.resolve(data);\n            }).error(function (data, status, headers, config) {\n                $rootScope.unauthorised_redirection(data.status);\n            });\n            return deferred.promise;\n        };\n\n        this.getMetadataUsage = function ($scope, element_id) {\n            var params = {};\n            params.access_token = sessionService.get('access_token');\n            var deferred = $q.defer();\n            var queryString = '';\n            if (angular.isDefined($scope.pageNumber) && angular.isDefined($scope.itemsPerPage)) {\n                queryString += '&pageNumber=' + $scope.pageNumber + '&itemsPerPage=' + $scope.itemsPerPage;\n            }\n            $http.get(serviceEndPoint + 'api/v1/objects-element-usage/element_id/' + element_id + '?access_token=' + sessionService.get('access_token') + queryString, {\n            }).success(function (data, status, headers, config) {\n                deferred.resolve(data);\n            }).error(function (data, status, headers, config) {\n                $rootScope.unauthorised_redirection(data.status);\n            });\n            return deferred.promise;\n        };\n\n        /*\n         * Change status to active or inactive\n         */\n        this.changeStatus = function (id, $scope) {\n            var deferred = $q.defer();\n            $http.post(serviceEndPoint + 'api/v1/content-elements-status/element_id/' + id + '?access_token=' + sessionService.get('access_token'), {\n                _method: 'PUT'\n            }).success(function (data, status, headers, config) {\n                deferred.resolve(data);\n            }).error(function (data, status, headers, config) {\n                deferred.resolve(data);\n                $rootScope.unauthorised_redirection(data.status);\n            });\n            return deferred.promise;\n        };\n\n    }]);",
          "comment" : ""
        },
        "redirectURL" : "",
        "headersSize" : 202,
        "bodySize" : 8601,
        "comment" : ""
      },
      "cache" : { },
      "timings" : {
        "comment" : "",
        "ssl" : -1,
        "receive" : 0,
        "blocked" : -1,
        "wait" : 0,
        "send" : 0,
        "dns" : -1,
        "connect" : 1075
      },
      "comment" : "",
      "_katalonRequestInformation" : {
        "name" : "100",
        "testObjectId" : "Temporary RESTful request object",
        "harId" : "07e73bd7-8a6c-42b1-8485-c9af1e34063b"
      },
      "time" : 1075
    } ],
    "comment" : ""
  }
}