{
  "log" : {
    "version" : "1.2",
    "pages" : [ ],
    "entries" : [ {
      "startedDateTime" : "2019-07-17T07:28:09.475Z",
      "request" : {
        "method" : "GET",
        "url" : "https://frostedc-stg.learningmate.com/js/lms_grade_category/lmsGradeCategoryService.js",
        "httpVersion" : "",
        "cookies" : [ ],
        "headers" : [ ],
        "queryString" : [ ],
        "headersSize" : 0,
        "bodySize" : 0,
        "comment" : ""
      },
      "response" : {
        "status" : 200,
        "statusText" : "",
        "httpVersion" : "",
        "cookies" : [ ],
        "headers" : [ {
          "name" : "Accept-Ranges",
          "value" : "bytes"
        }, {
          "name" : null,
          "value" : "HTTP/1.1 200 OK"
        }, {
          "name" : "Server",
          "value" : "nginx/1.13.5"
        }, {
          "name" : "ETag",
          "value" : "\"5d2ddd74-1ae8\""
        }, {
          "name" : "Connection",
          "value" : "keep-alive"
        }, {
          "name" : "Last-Modified",
          "value" : "Tue, 16 Jul 2019 14:21:40 GMT"
        }, {
          "name" : "Content-Length",
          "value" : "6888"
        }, {
          "name" : "Date",
          "value" : "Wed, 17 Jul 2019 07:28:26 GMT"
        }, {
          "name" : "Content-Type",
          "value" : "application/javascript"
        } ],
        "content" : {
          "size" : 6888,
          "mimeType" : "application/javascript",
          "text" : "/*****\n * Specific services Lms Grade Category  \n */\n'use strict';\napp.service('lmsGradeCategoryService', ['$http', '$q', 'sessionService', '$location', '$rootScope', function ($http, $q, sessionService, $location, $rootScope) {\n\n        /*\n         * Service to get LMS grade Category \n         */\n        this.getLmsGradeCategory = function ($scope, project_id) {\n            var deferred = $q.defer();\n            var params = {};\n            params.access_token = sessionService.get('access_token');\n            params.lmsGradeCategory_local_global = JSON.stringify($scope.lmsGradeCategory_local_global);\n            params.pageNumber= $scope.pageNumber;\n            params.itemsPerPage=$scope.itemsPerPage;\n            params.orderDirection='DESC';\n            params.orderField='created_at';            \n            if ($scope.project_id) {\n                params.project_id = $scope.project_id;\n            }\n            if (angular.isDefined($scope.meta_deta_search)) {\n                params.meta_deta_search = $scope.meta_deta_search;\n            }\n\n            if (angular.isDefined($scope.search_text)) {\n                params.search_text = window.btoa($scope.search_text);\n            }\n\n            if (angular.isDefined($scope.pageNumber) && angular.isDefined($scope.itemsPerPage)) {\n                params.pageNumber = $scope.pageNumber;\n                params.itemsPerPage = $scope.itemsPerPage;\n            }\n            \n            if (angular.isDefined($scope.lms_gc_id) && $scope.lms_gc_id != '') {\n                params.lms_gc_id = $scope.lms_gc_id;\n            } \n            \n            if (angular.isDefined($scope.currentOrderByField)) {\n                params.orderField = $scope.currentOrderByField;\n            }                        \n            if (angular.isDefined($scope.reverseSort)) {\n                var dir = 'ASC';\n                if ($scope.reverseSort)\n                {\n                    dir = 'DESC';\n                }\n                params.orderDirection=dir;\n            }\n\n            // for advance search\n            if (angular.isDefined($scope.advanced_search) && angular.isDefined($scope.advanced_search.active) && $scope.advanced_search.active) {\n                params.advanced_search_enable = $scope.advanced_search.active;\n                params.tags = JSON.stringify($scope.advanced_search.tagValue);\n                params.owners = JSON.stringify($scope.advanced_search.ownerValue);\n                params.key_data = JSON.stringify($scope.advanced_search.key_data);\n                params.value_data = JSON.stringify($scope.advanced_search.value_data);\n                params.taxonomy = JSON.stringify($scope.advanced_search.taxonomy);\n                params.advanced_search_title = window.btoa($scope.advanced_search.title);\n                var deferred = $q.defer();\n                $http.post(serviceEndPoint + 'api/v1/lmsGradeCategory-search/project_id/' + project_id, params)\n                        .success(function (data, status, headers, config) {\n                            //console.log(data);\n                            deferred.resolve(data);\n                        }).error(function (data, status, headers, config) {\n                    $rootScope.unauthorised_redirection(data.status);\n                });\n            } else {\n                var deferred = $q.defer();\n                $http({\n                        method: 'GET',\n                        url: serviceEndPoint + 'api/v1/lms-grade-category',\n                        params: params\n                    }).success(function (data, status, headers, config) {\n                        //console.log(data);\n                        deferred.resolve(data);\n                    }).error(function (data, status, headers, config) {\n                        $rootScope.unauthorised_redirection(data.status);\n                });\n            }\n\n            return deferred.promise;\n        };\n        \n        /**\n         * Get LMS grade Category Details By Id\n         */\n        this.getLmsGradeCategoryById = function ($scope, lms_gc_id) {\n            var params = {};\n            params.access_token = sessionService.get('access_token');\n            var deferred = $q.defer();\n            var queryString = '';\n            $http.get(serviceEndPoint + 'api/v1/lms-grade-category/lms_gc_id/' + lms_gc_id + '?access_token=' + sessionService.get('access_token') + queryString, {\n            }).success(function (data, status, headers, config) {\n                deferred.resolve(data);\n            }).error(function (data, status, headers, config) {\n                $rootScope.unauthorised_redirection(data.status);\n            });\n            return deferred.promise;\n        };\n        //End - Method to get LMS grade Category\n\n        /*\n         * Service to edit LMS grade Category\n         */\n        this.editLmsGradeCategory = function ($scope) {\n            var deferred = $q.defer();\n            $http.post(serviceEndPoint + 'api/v1/lms-grade-category/lms_gc_id/' + $scope.lms_gc_id + '?access_token=' + sessionService.get('access_token'), {\n                lms_gc_title        : $scope.lms_gc_title,\n            }).success(function (data, status, headers, config) {\n                deferred.resolve(data);\n            }).error(function (data, status, headers, config) {\n                $rootScope.unauthorised_redirection(data.status);\n            });\n            return deferred.promise;\n        }\n        \n        /*\n         * Service to create LMS grade Category         \n         */\n        this.saveLmsGradeCategory = function ($scope) {\n            var deferred = $q.defer(); \n            $http.post(serviceEndPoint + 'api/v1/lms-grade-category/project_id/' + $scope.project_id + '?access_token=' + sessionService.get('access_token'), {\n                lms_gc_title        : $scope.lms_gc_title,\n            }).success(function (data, status, headers, config) {                \n                deferred.resolve(data);\n            }).error(function (data, status, headers, config) {\n                deferred.resolve(data);              \n            });\n\n            return deferred.promise;\n        }\n\n        /*\n         * Delete LMS grade Category         \n         */\n        this.delLmsGradeCategory = function (lms_gc_id, project_id) {\n            var deferred = $q.defer();\n            $http.delete(serviceEndPoint + 'api/v1/lms-grade-category/lms_gc_id/' + lms_gc_id + '/project_id/'+ project_id + '?access_token=' + sessionService.get('access_token'), {\n            }).success(function (data, status, headers, config) {                \n                deferred.resolve(data);\n            }).error(function (data, status, headers, config) {\n                deferred.resolve(data);\n                $rootScope.unauthorised_redirection(data.status);\n            });\n            return deferred.promise;\n        }        \n\n    }]);\n\n",
          "comment" : ""
        },
        "redirectURL" : "",
        "headersSize" : 202,
        "bodySize" : 6888,
        "comment" : ""
      },
      "cache" : { },
      "timings" : {
        "comment" : "",
        "ssl" : -1,
        "receive" : 0,
        "blocked" : -1,
        "wait" : 0,
        "send" : 0,
        "dns" : -1,
        "connect" : 1079
      },
      "comment" : "",
      "_katalonRequestInformation" : {
        "name" : "119",
        "testObjectId" : "Temporary RESTful request object",
        "harId" : "a96ebe1a-c29a-4257-bac4-714a150aba6b"
      },
      "time" : 1079
    } ],
    "comment" : ""
  }
}