{
  "log" : {
    "version" : "1.2",
    "pages" : [ ],
    "entries" : [ {
      "startedDateTime" : "2019-07-17T07:25:40.436Z",
      "request" : {
        "method" : "GET",
        "url" : "https://frostedc-stg.learningmate.com/bower_components/select2/select2.css",
        "httpVersion" : "",
        "cookies" : [ ],
        "headers" : [ ],
        "queryString" : [ ],
        "headersSize" : 0,
        "bodySize" : 0,
        "comment" : ""
      },
      "response" : {
        "status" : 200,
        "statusText" : "",
        "httpVersion" : "",
        "cookies" : [ ],
        "headers" : [ {
          "name" : "Accept-Ranges",
          "value" : "bytes"
        }, {
          "name" : null,
          "value" : "HTTP/1.1 200 OK"
        }, {
          "name" : "Server",
          "value" : "nginx/1.13.5"
        }, {
          "name" : "ETag",
          "value" : "\"5d2ddd74-4516\""
        }, {
          "name" : "Connection",
          "value" : "keep-alive"
        }, {
          "name" : "Last-Modified",
          "value" : "Tue, 16 Jul 2019 14:21:40 GMT"
        }, {
          "name" : "Content-Length",
          "value" : "17686"
        }, {
          "name" : "Date",
          "value" : "Wed, 17 Jul 2019 07:25:57 GMT"
        }, {
          "name" : "Content-Type",
          "value" : "text/css"
        } ],
        "content" : {
          "size" : 17686,
          "mimeType" : "text/css",
          "text" : "/*\nVersion: 3.4.8 Timestamp: Thu May  1 09:50:32 EDT 2014\n*/\n.select2-container {\n    margin: 0;\n    position: relative;\n    display: inline-block;\n    /* inline-block for ie7 */\n    zoom: 1;\n    *display: inline;\n    vertical-align: middle;\n}\n\n.select2-container,\n.select2-drop,\n.select2-search,\n.select2-search input {\n  /*\n    Force border-box so that % widths fit the parent\n    container without overlap because of margin/padding.\n    More Info : http://www.quirksmode.org/css/box.html\n  */\n  -webkit-box-sizing: border-box; /* webkit */\n     -moz-box-sizing: border-box; /* firefox */\n          box-sizing: border-box; /* css3 */\n}\n\n.select2-container .select2-choice {\n    display: block;\n    height: 26px;\n    padding: 0 0 0 8px;\n    overflow: hidden;\n    position: relative;\n\n    border: 1px solid #aaa;\n    white-space: nowrap;\n    line-height: 26px;\n    color: #444;\n    text-decoration: none;\n\n    border-radius: 4px;\n\n    background-clip: padding-box;\n\n    -webkit-touch-callout: none;\n      -webkit-user-select: none;\n         -moz-user-select: none;\n          -ms-user-select: none;\n              user-select: none;\n\n    background-color: #fff;\n    background-image: -webkit-gradient(linear, left bottom, left top, color-stop(0, #eee), color-stop(0.5, #fff));\n    background-image: -webkit-linear-gradient(center bottom, #eee 0%, #fff 50%);\n    background-image: -moz-linear-gradient(center bottom, #eee 0%, #fff 50%);\n    filter: progid:DXImageTransform.Microsoft.gradient(startColorstr = '#ffffff', endColorstr = '#eeeeee', GradientType = 0);\n    background-image: linear-gradient(to top, #eee 0%, #fff 50%);\n}\n\n.select2-container.select2-drop-above .select2-choice {\n    border-bottom-color: #aaa;\n\n    border-radius: 0 0 4px 4px;\n\n    background-image: -webkit-gradient(linear, left bottom, left top, color-stop(0, #eee), color-stop(0.9, #fff));\n    background-image: -webkit-linear-gradient(center bottom, #eee 0%, #fff 90%);\n    background-image: -moz-linear-gradient(center bottom, #eee 0%, #fff 90%);\n    filter: progid:DXImageTransform.Microsoft.gradient(startColorstr='#ffffff', endColorstr='#eeeeee', GradientType=0);\n    background-image: linear-gradient(to bottom, #eee 0%, #fff 90%);\n}\n\n.select2-container.select2-allowclear .select2-choice .select2-chosen {\n    margin-right: 42px;\n}\n\n.select2-container .select2-choice > .select2-chosen {\n    margin-right: 26px;\n    display: block;\n    overflow: hidden;\n\n    white-space: nowrap;\n\n    text-overflow: ellipsis;\n    float: none;\n    width: auto;\n}\n\n.select2-container .select2-choice abbr {\n    display: none;\n    width: 12px;\n    height: 12px;\n    position: absolute;\n    right: 24px;\n    top: 8px;\n\n    font-size: 1px;\n    text-decoration: none;\n\n    border: 0;\n    background: url('select2.png') right top no-repeat;\n    cursor: pointer;\n    outline: 0;\n}\n\n.select2-container.select2-allowclear .select2-choice abbr {\n    display: inline-block;\n}\n\n.select2-container .select2-choice abbr:hover {\n    background-position: right -11px;\n    cursor: pointer;\n}\n\n.select2-drop-mask {\n    border: 0;\n    margin: 0;\n    padding: 0;\n    position: fixed;\n    left: 0;\n    top: 0;\n    min-height: 100%;\n    min-width: 100%;\n    height: auto;\n    width: auto;\n    opacity: 0;\n    z-index: 9998;\n    /* styles required for IE to work */\n    background-color: #fff;\n    filter: alpha(opacity=0);\n}\n\n.select2-drop {\n    width: 100%;\n    margin-top: -1px;\n    position: absolute;\n    z-index: 9999;\n    top: 100%;\n\n    background: #fff;\n    color: #000;\n    border: 1px solid #aaa;\n    border-top: 0;\n\n    border-radius: 0 0 4px 4px;\n\n    -webkit-box-shadow: 0 4px 5px rgba(0, 0, 0, .15);\n            box-shadow: 0 4px 5px rgba(0, 0, 0, .15);\n}\n\n.select2-drop.select2-drop-above {\n    margin-top: 1px;\n    border-top: 1px solid #aaa;\n    border-bottom: 0;\n\n    border-radius: 4px 4px 0 0;\n\n    -webkit-box-shadow: 0 -4px 5px rgba(0, 0, 0, .15);\n            box-shadow: 0 -4px 5px rgba(0, 0, 0, .15);\n}\n\n.select2-drop-active {\n    border: 1px solid #5897fb;\n    border-top: none;\n}\n\n.select2-drop.select2-drop-above.select2-drop-active {\n    border-top: 1px solid #5897fb;\n}\n\n.select2-drop-auto-width {\n    border-top: 1px solid #aaa;\n    width: auto;\n}\n\n.select2-drop-auto-width .select2-search {\n    padding-top: 4px;\n}\n\n.select2-container .select2-choice .select2-arrow {\n    display: inline-block;\n    width: 18px;\n    height: 100%;\n    position: absolute;\n    right: 0;\n    top: 0;\n\n    border-left: 1px solid #aaa;\n    border-radius: 0 4px 4px 0;\n\n    background-clip: padding-box;\n\n    background: #ccc;\n    background-image: -webkit-gradient(linear, left bottom, left top, color-stop(0, #ccc), color-stop(0.6, #eee));\n    background-image: -webkit-linear-gradient(center bottom, #ccc 0%, #eee 60%);\n    background-image: -moz-linear-gradient(center bottom, #ccc 0%, #eee 60%);\n    filter: progid:DXImageTransform.Microsoft.gradient(startColorstr = '#eeeeee', endColorstr = '#cccccc', GradientType = 0);\n    background-image: linear-gradient(to top, #ccc 0%, #eee 60%);\n}\n\n.select2-container .select2-choice .select2-arrow b {\n    display: block;\n    width: 100%;\n    height: 100%;\n    background: url('select2.png') no-repeat 0 1px;\n}\n\n.select2-search {\n    display: inline-block;\n    width: 100%;\n    min-height: 26px;\n    margin: 0;\n    padding-left: 4px;\n    padding-right: 4px;\n\n    position: relative;\n    z-index: 10000;\n\n    white-space: nowrap;\n}\n\n.select2-search input {\n    width: 100%;\n    height: auto !important;\n    min-height: 26px;\n    padding: 4px 20px 4px 5px;\n    margin: 0;\n\n    outline: 0;\n    font-family: sans-serif;\n    font-size: 1em;\n\n    border: 1px solid #aaa;\n    border-radius: 0;\n\n    -webkit-box-shadow: none;\n            box-shadow: none;\n\n    background: #fff url('select2.png') no-repeat 100% -22px;\n    background: url('select2.png') no-repeat 100% -22px, -webkit-gradient(linear, left bottom, left top, color-stop(0.85, #fff), color-stop(0.99, #eee));\n    background: url('select2.png') no-repeat 100% -22px, -webkit-linear-gradient(center bottom, #fff 85%, #eee 99%);\n    background: url('select2.png') no-repeat 100% -22px, -moz-linear-gradient(center bottom, #fff 85%, #eee 99%);\n    background: url('select2.png') no-repeat 100% -22px, linear-gradient(to bottom, #fff 85%, #eee 99%) 0 0;\n}\n\n.select2-drop.select2-drop-above .select2-search input {\n    margin-top: 4px;\n}\n\n.select2-search input.select2-active {\n    background: #fff url('select2-spinner.gif') no-repeat 100%;\n    background: url('select2-spinner.gif') no-repeat 100%, -webkit-gradient(linear, left bottom, left top, color-stop(0.85, #fff), color-stop(0.99, #eee));\n    background: url('select2-spinner.gif') no-repeat 100%, -webkit-linear-gradient(center bottom, #fff 85%, #eee 99%);\n    background: url('select2-spinner.gif') no-repeat 100%, -moz-linear-gradient(center bottom, #fff 85%, #eee 99%);\n    background: url('select2-spinner.gif') no-repeat 100%, linear-gradient(to bottom, #fff 85%, #eee 99%) 0 0;\n}\n\n.select2-container-active .select2-choice,\n.select2-container-active .select2-choices {\n    border: 1px solid #5897fb;\n    outline: none;\n\n    -webkit-box-shadow: 0 0 5px rgba(0, 0, 0, .3);\n            box-shadow: 0 0 5px rgba(0, 0, 0, .3);\n}\n\n.select2-dropdown-open .select2-choice {\n    border-bottom-color: transparent;\n    -webkit-box-shadow: 0 1px 0 #fff inset;\n            box-shadow: 0 1px 0 #fff inset;\n\n    border-bottom-left-radius: 0;\n    border-bottom-right-radius: 0;\n\n    background-color: #eee;\n    background-image: -webkit-gradient(linear, left bottom, left top, color-stop(0, #fff), color-stop(0.5, #eee));\n    background-image: -webkit-linear-gradient(center bottom, #fff 0%, #eee 50%);\n    background-image: -moz-linear-gradient(center bottom, #fff 0%, #eee 50%);\n    filter: progid:DXImageTransform.Microsoft.gradient(startColorstr='#eeeeee', endColorstr='#ffffff', GradientType=0);\n    background-image: linear-gradient(to top, #fff 0%, #eee 50%);\n}\n\n.select2-dropdown-open.select2-drop-above .select2-choice,\n.select2-dropdown-open.select2-drop-above .select2-choices {\n    border: 1px solid #5897fb;\n    border-top-color: transparent;\n\n    background-image: -webkit-gradient(linear, left top, left bottom, color-stop(0, #fff), color-stop(0.5, #eee));\n    background-image: -webkit-linear-gradient(center top, #fff 0%, #eee 50%);\n    background-image: -moz-linear-gradient(center top, #fff 0%, #eee 50%);\n    filter: progid:DXImageTransform.Microsoft.gradient(startColorstr='#eeeeee', endColorstr='#ffffff', GradientType=0);\n    background-image: linear-gradient(to bottom, #fff 0%, #eee 50%);\n}\n\n.select2-dropdown-open .select2-choice .select2-arrow {\n    background: transparent;\n    border-left: none;\n    filter: none;\n}\n.select2-dropdown-open .select2-choice .select2-arrow b {\n    background-position: -18px 1px;\n}\n\n.select2-hidden-accessible {\n    border: 0;\n    clip: rect(0 0 0 0);\n    height: 1px;\n    margin: -1px;\n    overflow: hidden;\n    padding: 0;\n    position: absolute;\n    width: 1px;\n}\n\n/* results */\n.select2-results {\n    max-height: 200px;\n    padding: 0 0 0 4px;\n    margin: 4px 4px 4px 0;\n    position: relative;\n    overflow-x: hidden;\n    overflow-y: auto;\n    -webkit-tap-highlight-color: rgba(0, 0, 0, 0);\n}\n\n.select2-results ul.select2-result-sub {\n    margin: 0;\n    padding-left: 0;\n}\n\n.select2-results li {\n    list-style: none;\n    display: list-item;\n    background-image: none;\n}\n\n.select2-results li.select2-result-with-children > .select2-result-label {\n    font-weight: bold;\n}\n\n.select2-results .select2-result-label {\n    padding: 3px 7px 4px;\n    margin: 0;\n    cursor: pointer;\n\n    min-height: 1em;\n\n    -webkit-touch-callout: none;\n      -webkit-user-select: none;\n         -moz-user-select: none;\n          -ms-user-select: none;\n              user-select: none;\n}\n\n.select2-results-dept-1 .select2-result-label { padding-left: 20px }\n.select2-results-dept-2 .select2-result-label { padding-left: 40px }\n.select2-results-dept-3 .select2-result-label { padding-left: 60px }\n.select2-results-dept-4 .select2-result-label { padding-left: 80px }\n.select2-results-dept-5 .select2-result-label { padding-left: 100px }\n.select2-results-dept-6 .select2-result-label { padding-left: 110px }\n.select2-results-dept-7 .select2-result-label { padding-left: 120px }\n\n.select2-results .select2-highlighted {\n    background: #3875d7;\n    color: #fff;\n}\n\n.select2-results li em {\n    background: #feffde;\n    font-style: normal;\n}\n\n.select2-results .select2-highlighted em {\n    background: transparent;\n}\n\n.select2-results .select2-highlighted ul {\n    background: #fff;\n    color: #000;\n}\n\n\n.select2-results .select2-no-results,\n.select2-results .select2-searching,\n.select2-results .select2-selection-limit {\n    background: #f4f4f4;\n    display: list-item;\n    padding-left: 5px;\n}\n\n/*\ndisabled look for disabled choices in the results dropdown\n*/\n.select2-results .select2-disabled.select2-highlighted {\n    color: #666;\n    background: #f4f4f4;\n    display: list-item;\n    cursor: default;\n}\n.select2-results .select2-disabled {\n  background: #f4f4f4;\n  display: list-item;\n  cursor: default;\n}\n\n.select2-results .select2-selected {\n    display: none;\n}\n\n.select2-more-results.select2-active {\n    background: #f4f4f4 url('select2-spinner.gif') no-repeat 100%;\n}\n\n.select2-more-results {\n    background: #f4f4f4;\n    display: list-item;\n}\n\n/* disabled styles */\n\n.select2-container.select2-container-disabled .select2-choice {\n    background-color: #f4f4f4;\n    background-image: none;\n    border: 1px solid #ddd;\n    cursor: default;\n}\n\n.select2-container.select2-container-disabled .select2-choice .select2-arrow {\n    background-color: #f4f4f4;\n    background-image: none;\n    border-left: 0;\n}\n\n.select2-container.select2-container-disabled .select2-choice abbr {\n    display: none;\n}\n\n\n/* multiselect */\n\n.select2-container-multi .select2-choices {\n    height: auto !important;\n    height: 1%;\n    margin: 0;\n    padding: 0;\n    position: relative;\n\n    border: 1px solid #aaa;\n    cursor: text;\n    overflow: hidden;\n\n    background-color: #fff;\n    background-image: -webkit-gradient(linear, 0% 0%, 0% 100%, color-stop(1%, #eee), color-stop(15%, #fff));\n    background-image: -webkit-linear-gradient(top, #eee 1%, #fff 15%);\n    background-image: -moz-linear-gradient(top, #eee 1%, #fff 15%);\n    background-image: linear-gradient(to bottom, #eee 1%, #fff 15%);\n}\n\n.select2-locked {\n  padding: 3px 5px 3px 5px !important;\n}\n\n.select2-container-multi .select2-choices {\n    min-height: 26px;\n}\n\n.select2-container-multi.select2-container-active .select2-choices {\n    border: 1px solid #5897fb;\n    outline: none;\n\n    -webkit-box-shadow: 0 0 5px rgba(0, 0, 0, .3);\n            box-shadow: 0 0 5px rgba(0, 0, 0, .3);\n}\n.select2-container-multi .select2-choices li {\n    float: left;\n    list-style: none;\n}\nhtml[dir=\"rtl\"] .select2-container-multi .select2-choices li\n{\n    float: right;\n}\n.select2-container-multi .select2-choices .select2-search-field {\n    margin: 0;\n    padding: 0;\n    white-space: nowrap;\n}\n\n.select2-container-multi .select2-choices .select2-search-field input {\n    padding: 5px;\n    margin: 1px 0;\n\n    font-family: sans-serif;\n    font-size: 100%;\n    color: #666;\n    outline: 0;\n    border: 0;\n    -webkit-box-shadow: none;\n            box-shadow: none;\n    background: transparent !important;\n}\n\n.select2-container-multi .select2-choices .select2-search-field input.select2-active {\n    background: #fff url('select2-spinner.gif') no-repeat 100% !important;\n}\n\n.select2-default {\n    color: #999 !important;\n}\n\n.select2-container-multi .select2-choices .select2-search-choice {\n    padding: 3px 5px 3px 18px;\n    margin: 3px 0 3px 5px;\n    position: relative;\n\n    line-height: 13px;\n    color: #333;\n    cursor: default;\n    border: 1px solid #aaaaaa;\n\n    border-radius: 3px;\n\n    -webkit-box-shadow: 0 0 2px #fff inset, 0 1px 0 rgba(0, 0, 0, 0.05);\n            box-shadow: 0 0 2px #fff inset, 0 1px 0 rgba(0, 0, 0, 0.05);\n\n    background-clip: padding-box;\n\n    -webkit-touch-callout: none;\n      -webkit-user-select: none;\n         -moz-user-select: none;\n          -ms-user-select: none;\n              user-select: none;\n\n    background-color: #e4e4e4;\n    filter: progid:DXImageTransform.Microsoft.gradient(startColorstr='#eeeeee', endColorstr='#f4f4f4', GradientType=0);\n    background-image: -webkit-gradient(linear, 0% 0%, 0% 100%, color-stop(20%, #f4f4f4), color-stop(50%, #f0f0f0), color-stop(52%, #e8e8e8), color-stop(100%, #eee));\n    background-image: -webkit-linear-gradient(top, #f4f4f4 20%, #f0f0f0 50%, #e8e8e8 52%, #eee 100%);\n    background-image: -moz-linear-gradient(top, #f4f4f4 20%, #f0f0f0 50%, #e8e8e8 52%, #eee 100%);\n    background-image: linear-gradient(to top, #f4f4f4 20%, #f0f0f0 50%, #e8e8e8 52%, #eee 100%);\n}\nhtml[dir=\"rtl\"] .select2-container-multi .select2-choices .select2-search-choice\n{\n    margin-left: 0;\n    margin-right: 5px;\n}\n.select2-container-multi .select2-choices .select2-search-choice .select2-chosen {\n    cursor: default;\n}\n.select2-container-multi .select2-choices .select2-search-choice-focus {\n    background: #d4d4d4;\n}\n\n.select2-search-choice-close {\n    display: block;\n    width: 12px;\n    height: 13px;\n    position: absolute;\n    right: 3px;\n    top: 4px;\n\n    font-size: 1px;\n    outline: none;\n    background: url('select2.png') right top no-repeat;\n}\nhtml[dir=\"rtl\"] .select2-search-choice-close {\n    right: auto;\n    left: 3px;\n}\n\n.select2-container-multi .select2-search-choice-close {\n    left: 3px;\n}\n\n.select2-container-multi .select2-choices .select2-search-choice .select2-search-choice-close:hover {\n  background-position: right -11px;\n}\n.select2-container-multi .select2-choices .select2-search-choice-focus .select2-search-choice-close {\n    background-position: right -11px;\n}\n\n/* disabled styles */\n.select2-container-multi.select2-container-disabled .select2-choices {\n    background-color: #f4f4f4;\n    background-image: none;\n    border: 1px solid #ddd;\n    cursor: default;\n}\n\n.select2-container-multi.select2-container-disabled .select2-choices .select2-search-choice {\n    padding: 3px 5px 3px 5px;\n    border: 1px solid #ddd;\n    background-image: none;\n    background-color: #f4f4f4;\n}\n\n.select2-container-multi.select2-container-disabled .select2-choices .select2-search-choice .select2-search-choice-close {    display: none;\n    background: none;\n}\n/* end multiselect */\n\n\n.select2-result-selectable .select2-match,\n.select2-result-unselectable .select2-match {\n    text-decoration: underline;\n}\n\n.select2-offscreen, .select2-offscreen:focus {\n    clip: rect(0 0 0 0) !important;\n    width: 1px !important;\n    height: 1px !important;\n    border: 0 !important;\n    margin: 0 !important;\n    padding: 0 !important;\n    overflow: hidden !important;\n    position: absolute !important;\n    outline: 0 !important;\n    left: 0px !important;\n    top: 0px !important;\n}\n\n.select2-display-none {\n    display: none;\n}\n\n.select2-measure-scrollbar {\n    position: absolute;\n    top: -10000px;\n    left: -10000px;\n    width: 100px;\n    height: 100px;\n    overflow: scroll;\n}\n\n/* Retina-ize icons */\n\n@media only screen and (-webkit-min-device-pixel-ratio: 1.5), only screen and (min-resolution: 2dppx)  {\n    .select2-search input,\n    .select2-search-choice-close,\n    .select2-container .select2-choice abbr,\n    .select2-container .select2-choice .select2-arrow b {\n        background-image: url('select2x2.png') !important;\n        background-repeat: no-repeat !important;\n        background-size: 60px 40px !important;\n    }\n\n    .select2-search input {\n        background-position: 100% -21px !important;\n    }\n}\n",
          "comment" : ""
        },
        "redirectURL" : "",
        "headersSize" : 189,
        "bodySize" : 17686,
        "comment" : ""
      },
      "cache" : { },
      "timings" : {
        "comment" : "",
        "ssl" : -1,
        "receive" : 0,
        "blocked" : -1,
        "wait" : 0,
        "send" : 0,
        "dns" : -1,
        "connect" : 1380
      },
      "comment" : "",
      "_katalonRequestInformation" : {
        "name" : "3",
        "testObjectId" : "Temporary RESTful request object",
        "harId" : "fe5883f7-62a1-4c18-8330-e64004772b3e"
      },
      "time" : 1380
    } ],
    "comment" : ""
  }
}