{
  "log" : {
    "version" : "1.2",
    "pages" : [ ],
    "entries" : [ {
      "startedDateTime" : "2019-07-17T07:26:31.198Z",
      "request" : {
        "method" : "GET",
        "url" : "https://frostedc-stg.learningmate.com/js/dashboard/dashboardController.js",
        "httpVersion" : "",
        "cookies" : [ ],
        "headers" : [ ],
        "queryString" : [ ],
        "headersSize" : 0,
        "bodySize" : 0,
        "comment" : ""
      },
      "response" : {
        "status" : 200,
        "statusText" : "",
        "httpVersion" : "",
        "cookies" : [ ],
        "headers" : [ {
          "name" : "Accept-Ranges",
          "value" : "bytes"
        }, {
          "name" : null,
          "value" : "HTTP/1.1 200 OK"
        }, {
          "name" : "Server",
          "value" : "nginx/1.13.5"
        }, {
          "name" : "ETag",
          "value" : "\"5d2ddd74-2850\""
        }, {
          "name" : "Connection",
          "value" : "keep-alive"
        }, {
          "name" : "Last-Modified",
          "value" : "Tue, 16 Jul 2019 14:21:40 GMT"
        }, {
          "name" : "Content-Length",
          "value" : "10320"
        }, {
          "name" : "Date",
          "value" : "Wed, 17 Jul 2019 07:26:48 GMT"
        }, {
          "name" : "Content-Type",
          "value" : "application/javascript"
        } ],
        "content" : {
          "size" : 10320,
          "mimeType" : "application/javascript",
          "text" : "'use strict';\n\napp.controller('dashboard', ['$scope', '$location', 'sessionService', 'objectService', 'cfpLoadingBar', '$rootScope', '$interval', '$http', '$window', 'SweetAlert', 'dashboardService', 'tocService', function($scope, $location, sessionService, objectService, cfpLoadingBar, $rootScope, $interval, $http, $window, SweetAlert, dashboardService, tocService) {\n    $rootScope.chkAccessTokenInt = 1000;\n    $scope.access_token = sessionService.get('access_token');\n    var userinfo = JSON.parse(sessionService.get('userinfo'));\n    $scope.loggedid_user = userinfo.id;\n    $scope.user_permissions = JSON.parse(sessionService.get('user_permissions'));\n    $scope.searchModel = {};\n    $scope.searchModel.search_text = '';\n    $scope.searchModel.showSearchIcon = true;\n    //Check if the session is active\n    $rootScope.checkActiveSession();\n\n    /*\n     * Change View\n     */\n    $scope.viewMode = sessionService.get('viewMode') == null ? 1 : sessionService.get('viewMode');\n    $scope.changeView = function(mode) {\n        $scope.viewMode = mode;\n        //sessionService.set('viewMode', mode);\n    };\n\n\n    $scope.object_types = {};\n\n    if (!$scope.access_token || userinfo == null) {\n        //If login session is expired or null\n        $location.path('logout');\n        return true;\n    } else {\n\n        //Get Object Types\n        $scope.projectlist = {};\n\n        //Call object types for passing object-type = PROJECT for project listing\n        /*$scope.pagination = {\n         current: 1\n         };*/\n        $scope.pageNumber = 1;\n        $scope.currentPage = 1;\n        $scope.itemsPerPage = 25;\n        $scope.listProjects = function(pageNumber, search_text, items_per_page_param) {\n            $scope.ts_hash = '?_ts=' + new Date().getTime(); // for cover image refresh\n            $scope.search_text = search_text;\n            $scope.pageNumber = pageNumber;\n            $scope.currentPage = pageNumber;\n\n            // $scope.itemsPerPage = 5;\n            var max;\n            $scope.paginationText;\n            if (items_per_page_param) {\n                $scope.itemsPerPage = items_per_page_param;\n            }\n            objectService.list($scope).then(function(data) {\n                $scope.projectlist = data;\n                $scope.totalProjects = data.totalProjects;\n                if (pageNumber == 1) {\n                    max = $scope.itemsPerPage > $scope.totalProjects ? $scope.totalProjects : $scope.itemsPerPage;\n                    $scope.paginationText = \"1 to \" + max;\n                } else {\n                    max = ((($scope.itemsPerPage * (pageNumber - 1)) + 1) + $scope.itemsPerPage) > $scope.totalProjects ? $scope.totalProjects : (($scope.itemsPerPage * (pageNumber - 1)) + 1) + $scope.itemsPerPage;\n                    $scope.paginationText = (($scope.itemsPerPage * (pageNumber - 1)) + 1) + \" to \" + max;\n                }\n                // update project tickets and ticket comments count\n                $scope.project_ids = [];\n                angular.forEach($scope.projectlist.data, function(value, key) {\n                    value.total_tickets = '';\n                    value.total_ticket_comments = '';\n                    $scope.project_ids.push(value.id);\n                });\n                if ($scope.project_ids.length > 0) {\n                    objectService.getProjectTicketCount($scope).then(function(project_ticket) {\n                        angular.forEach($scope.projectlist.data, function(value) {\n                            value.total_tickets = project_ticket.data[value.id].total_tickets;\n                            value.total_ticket_comments = project_ticket.data[value.id].total_ticket_comments;\n                        });\n                    });\n                }\n            });\n        };\n\n        //Call when page load\n        $scope.listProjects(1);\n\n        //For Pagination Of Dashboard\n        $scope.pageChangeHandlerDashboard = function(newPage) {\n            $scope.listProjects(newPage, $scope.searchModel.search_text);\n        };\n\n\n        $scope.createProject = function() {\n            $location.path('createproject');\n        };\n\n        $scope.createToc = function(object_id, toc_creation_status, is_locked) {\n            $rootScope.show_dashboard_success_msg = 0;\n            if (toc_creation_status == 3001) {\n                $rootScope.show_toc = 1;\n                $location.path('edit_toc/' + object_id);\n            } else {\n                $rootScope.show_toc = 0;\n                $location.path('project_import/' + object_id);\n            }\n\n        };\n\n\n        $rootScope.intervalPromise = $interval(function() {\n            //alert(sessionService.get('access_token'));\n            if (sessionService.get('access_token') == null) {\n                $http({\n                    method: 'GET',\n                    url: serviceEndPoint + 'api/v1/expire-token/' + $rootScope.session_access_token\n                }).success(function(data, status, headers, config) {\n                    $rootScope.token_expiry = data;\n                    if ($rootScope.token_expiry.status == 200) {\n                        $rootScope.chkAccessTokenInt = 6000000;\n                    }\n                    $location.path('login');\n                    $interval.cancel($rootScope.intervalPromise);\n                }).error(function(data, status, headers, config) {\n                    $scope.responsedata = data;\n                    $location.path('login');\n                    $interval.cancel($rootScope.intervalPromise);\n                });\n            } else {\n                $interval.cancel($rootScope.intervalPromise);\n            }\n        }, $rootScope.chkAccessTokenInt, 0, function() {\n            interval = $rootScope.chkAccessTokenInt;\n        });\n\n\n\n        $scope.deleteProject = function(project_id, curr) {\n            SweetAlert.swal({\n                title: \"Are you sure?\",\n                text: \"You will not be able to recover this project!\",\n                type: \"warning\",\n                showCancelButton: true,\n                confirmButtonColor: \"#DD6B55\",\n                confirmButtonText: \"Yes, delete it!\",\n                cancelButtonText: \"No, cancel!\",\n                closeOnConfirm: false,\n                closeOnCancel: false\n            }, function(isConfirm) {\n                if (isConfirm) {\n                    $http({\n                        method: 'DELETE',\n                        url: serviceEndPoint + 'api/v1/project/project_id/' + project_id + '?access_token=' + $scope.access_token,\n                    }).success(function(data, status, headers, config) {\n                        $rootScope.token_expiry = data;\n                        if (data.status == 200) {\n                            $scope.searchModel.search_text = '';\n                            $scope.searchModel.showSearchIcon = true;\n                            if (curr != 'undefined') {\n                                $scope.listProjects(curr);\n                            } else {\n                                $scope.listProjects(1);\n                            }\n\n                            SweetAlert.swal(\"Deleted!\", \"Project has been deleted.\", \"success\");\n                        } else {\n                            SweetAlert.swal(\"Cancelled\", \"Some error occurred)\", \"error\");\n                        }\n                    }).error(function(data, status, headers, config) {\n                        SweetAlert.swal(\"Cancelled\", \"Some error occurred, request not submitted\", \"error\");\n                    });\n                } else {\n                    SweetAlert.swal(\"Cancelled\", \"Project is safe :)\", \"error\");\n                }\n            });\n        }\n\n        // Used to search objects\n        $scope.searchedObjectlist = '';\n        $scope.objectSearch = function(search_text) {\n            $scope.search_text = search_text;\n            if ($scope.search_text) {\n                objectService.getSearchedObjects($scope).then(function(data) {\n                    //$scope.searchedObjectlist = data;\n                });\n            } else {\n                // If search field is empty\n                $scope.listProjects(1);\n            }\n        }\n\n        $scope.make_favorite = function(project) {\n            $scope.pid = project.id;\n            $scope.uid = userinfo.id;\n            if (!angular.isDefined(project.is_favorite) || project.is_favorite == 0) {\n                project.is_favorite = 1;\n            } else {\n                project.is_favorite = 0;\n            }\n            //console.info(project.is_favorite);\n            $scope.favoriteAction = project.is_favorite;\n            dashboardService.makeFavorite($scope).then(function(response) {\n                //console.info(response);\n            });\n        }\n        $scope.copy_project = function(pid) {\n            $scope.project_id = pid;\n            $scope.user_id = $scope.loggedid_user;\n            SweetAlert.swal({\n                title: \"Are you sure?\",\n                text: \"You are going to copy current project, after success it will appear in the project listing dashboard!\",\n                type: \"warning\",\n                showCancelButton: true,\n                confirmButtonColor: \"#DD6B55\",\n                confirmButtonText: \"Yes, copy it!\",\n                cancelButtonText: \"No, cancel!\",\n                closeOnConfirm: true,\n                closeOnCancel: false\n            }, function(isConfirm) {\n                if (isConfirm) {\n                    if (angular.isDefined($scope.project_id)) {\n                        tocService.copyProject($scope).then(function(result) {\n                            if (result.status == 400 && angular.isDefined(result.projectPermissionGranted) && result.projectPermissionGranted == 401) {\n                                SweetAlert.swal(\"Cancelled\", result.message, \"warning\");\n                            }\n                        });\n                    }\n                } else {\n                    SweetAlert.swal(\"Cancelled\", \"Copy is cancelled :)\", \"error\");\n                }\n            });\n\n            //alert($scope.project_id);\n\n        }\n    }\n\n    //        if ($rootScope.show_success_msg == 1) {\n    //            setTimeout(function () {\n    //                $rootScope.show_success_msg = 0;\n    //            }, 5000);\n    //        }\n}]);",
          "comment" : ""
        },
        "redirectURL" : "",
        "headersSize" : 203,
        "bodySize" : 10320,
        "comment" : ""
      },
      "cache" : { },
      "timings" : {
        "comment" : "",
        "ssl" : -1,
        "receive" : 0,
        "blocked" : -1,
        "wait" : 0,
        "send" : 0,
        "dns" : -1,
        "connect" : 1068
      },
      "comment" : "",
      "_katalonRequestInformation" : {
        "name" : "42",
        "testObjectId" : "Temporary RESTful request object",
        "harId" : "6efb11bb-2159-4b7f-9a50-9da10a7ebbbe"
      },
      "time" : 1068
    } ],
    "comment" : ""
  }
}