{
  "log" : {
    "version" : "1.2",
    "pages" : [ ],
    "entries" : [ {
      "startedDateTime" : "2019-07-17T07:27:03.709Z",
      "request" : {
        "method" : "GET",
        "url" : "https://frostedc-stg.learningmate.com/js/acl/aclService.js",
        "httpVersion" : "",
        "cookies" : [ ],
        "headers" : [ ],
        "queryString" : [ ],
        "headersSize" : 0,
        "bodySize" : 0,
        "comment" : ""
      },
      "response" : {
        "status" : 200,
        "statusText" : "",
        "httpVersion" : "",
        "cookies" : [ ],
        "headers" : [ {
          "name" : "Accept-Ranges",
          "value" : "bytes"
        }, {
          "name" : null,
          "value" : "HTTP/1.1 200 OK"
        }, {
          "name" : "Server",
          "value" : "nginx/1.13.5"
        }, {
          "name" : "ETag",
          "value" : "\"5d2ddd74-62d9\""
        }, {
          "name" : "Connection",
          "value" : "keep-alive"
        }, {
          "name" : "Last-Modified",
          "value" : "Tue, 16 Jul 2019 14:21:40 GMT"
        }, {
          "name" : "Content-Length",
          "value" : "25305"
        }, {
          "name" : "Date",
          "value" : "Wed, 17 Jul 2019 07:27:20 GMT"
        }, {
          "name" : "Content-Type",
          "value" : "application/javascript"
        } ],
        "content" : {
          "size" : 25305,
          "mimeType" : "application/javascript",
          "text" : "/*****\n * Services for ACL\n * Author - Koushik Samanta\n *\n */\n'use strict';\n\n//Start of aclService\napp.service('aclService', ['$http', '$q', 'sessionService', '$rootScope', '$filter', function($http, $q, sessionService, $rootScope, $filter) {\n\n    this.roles = function($scope) {\n        var params = {};\n        params.access_token = sessionService.get('access_token');\n        params.exclude_role_ids = angular.isDefined($scope.exclude_role_ids) ? JSON.stringify($scope.exclude_role_ids) : '[]';\n        var deferred = $q.defer();\n\n        $http({\n            method: 'GET',\n            url: serviceEndPoint + 'api/v1/roles',\n            params: params\n        }).success(function(data, status, headers, config) {\n            //console.log(data);\n            deferred.resolve(data); //Return the roles list\n        }).error(function(data, status, headers, config) {\n            $rootScope.unauthorised_redirection(data.status);\n        });\n        return deferred.promise;\n    };\n    this.projectRoles = function() {\n        var params = {};\n        params.access_token = sessionService.get('access_token');\n        var deferred = $q.defer();\n\n        $http({\n            method: 'GET',\n            url: serviceEndPoint + 'api/v1/project-roles',\n            params: params\n        }).success(function(data, status, headers, config) {\n            //console.log(data);\n            deferred.resolve(data); //Return the roles list\n        }).error(function(data, status, headers, config) {\n            $rootScope.unauthorised_redirection(data.status);\n        });\n        return deferred.promise;\n    };\n\n    //Save Permissions for Specific Role\n    this.managePermission = function($scope) {\n        var deferred = $q.defer();\n        $http.post(serviceEndPoint + 'api/v1/acl-permission-role?access_token=' + sessionService.get('access_token'), {\n            role_id: $scope.selectedRole,\n            permissions: JSON.stringify($scope.user_role_permission)\n        }).success(function(data, status, headers, config) {\n            $scope.status = data.status;\n            $scope.message = data.message;\n            deferred.resolve(data); //Return the roles list\n        }).error(function(data, status, headers, config) {\n            $rootScope.unauthorised_redirection(data.status);\n        });\n\n        return deferred.promise;\n    };\n\n    //Save Permissions for Specific Role\n    this.manageRolePermission = function($scope) {\n        var deferred = $q.defer();\n\n        var role_permissions = [];\n        angular.forEach($scope.user_role_permission, function(item) {\n            //console.info(item);\n            angular.forEach(item, function(value) {\n                var exclude_metadata_array = [6000, 6001, 6002, 6003, 6004, 6005];\n                if (jQuery.inArray(value.value, exclude_metadata_array) === -1) {\n                    role_permissions.push({\n                        description: value.description,\n                        grant: value.grant,\n                        value: value.value\n                    });\n                } else {\n                    role_permissions = this.prepareMatadataPermissionBeforeSave($scope, value, role_permissions);\n                }\n            }, this);\n        }, this);\n\n        //this.prepareMatadataPermissio\n        //nBeforeSave($scope);\n\n\n        //console.log(role_permissions);\n\n        $http.post(serviceEndPoint + 'api/v1/acl-permission-role?access_token=' + sessionService.get('access_token'), {\n            role_id: $scope.selectedRole,\n            permissions: JSON.stringify(role_permissions) //JSON.stringify($scope.user_role_permission)\n        }).success(function(data, status, headers, config) {\n            $scope.status = data.status;\n            $scope.message = data.message;\n            deferred.resolve(data); //Return the roles list\n        }).error(function(data, status, headers, config) {\n            $rootScope.unauthorised_redirection(data.status);\n        });\n\n        return deferred.promise;\n    };\n\n    this.prepareMatadataPermissionBeforeSave = function($scope, permissions, role_permissions) {\n        //var deferred = $q.defer();\n        var metaDataPermission = { \"6000\": [600, 620, 630], \"6001\": [601, 621, 631], \"6002\": [602, 622, 632], \"6003\": [603, 623, 633], \"6004\": [604, 624, 634], \"6005\": [605, 625, 635] };\n        angular.forEach(metaDataPermission[permissions.value], function(v, k) {\n            //console.log(' v=>'+v+' k=> '+k);\n            role_permissions.push({\n                description: '',\n                grant: permissions.grant,\n                value: v\n            });\n        });\n        //deferred.resolve(role_permissions);\n        //return deferred.promise;\n        return role_permissions;\n    };\n\n    //Save Permissions for Specific Role\n    this.manageProjectRolePermission = function($scope) {\n        var deferred = $q.defer();\n\n        var role_permissions = [];\n        angular.forEach($scope.user_role_permission, function(item) {\n            angular.forEach(item, function(value) {\n                role_permissions.push({\n                    description: value.description,\n                    grant: value.grant,\n                    value: value.value\n                });\n            });\n        });\n\n        $http.post(serviceEndPoint + 'api/v1/project-permission-role?access_token=' + sessionService.get('access_token'), {\n            role_id: $scope.selectedRole,\n            permissions: JSON.stringify(role_permissions) //JSON.stringify($scope.user_role_permission)\n        }).success(function(data, status, headers, config) {\n            $scope.status = data.status;\n            $scope.message = data.message;\n            deferred.resolve(data); //Return the roles list\n        }).error(function(data, status, headers, config) {\n            $rootScope.unauthorised_redirection(data.status);\n        });\n\n        return deferred.promise;\n    };\n    //Save Permissions for Specific User\n    this.managePermissionUser = function($scope) {\n        var deferred = $q.defer();\n        $http.post(serviceEndPoint + 'api/v1/acl-permission-user?access_token=' + sessionService.get('access_token'), {\n            user_id: $scope.selectedUser,\n            permissions: JSON.stringify($scope.user_role_permission)\n        }).success(function(data, status, headers, config) {\n            $scope.status = data.status;\n            $scope.message = data.message;\n            deferred.resolve(data); //Return the roles list\n        }).error(function(data, status, headers, config) {\n            $rootScope.unauthorised_redirection(data.status);\n        });\n\n        return deferred.promise;\n\n    };\n\n\n    this.rolePermission = function($scope) {\n        var params = {};\n        params.access_token = sessionService.get('access_token');\n        params.role_id = $scope.selectedRole;\n        params.user_id = $scope.selectedUser;\n        params.system_permission = '301,300';\n        var deferred = $q.defer();\n\n        $http({\n            method: 'GET',\n            //url: serviceEndPoint + 'api/v1/project-role-permission',\n            url: serviceEndPoint + 'api/v1/role-permission',\n            params: params\n        }).success(function(data, status, headers, config) {\n            $scope.status = data.status;\n            $scope.message = data.message;\n            deferred.resolve(data); //Return the roles list\n        }).error(function(data, status, headers, config) {\n            $scope.status = data.status;\n            $scope.message = data.message;\n            deferred.resolve(data); //Return the roles list error\n        });\n\n        return deferred.promise;\n    };\n\n    this.saveRole = function($scope) {\n        var params = {};\n        params.access_token = sessionService.get('access_token');\n        params.role_name = $scope.role_name;\n        params.role_desc = $scope.role_desc;\n        var deferred = $q.defer();\n\n        $http({\n            method: 'POST',\n            url: serviceEndPoint + 'api/v1/role',\n            params: params\n        }).success(function(data, status, headers, config) {\n            $scope.status = data.status;\n            $scope.message = data.message;\n            deferred.resolve(data); //Return the roles list\n        }).error(function(data, status, headers, config) {\n            $scope.status = data.status;\n            $scope.message = data.message;\n            deferred.resolve(data); //Return the roles list error\n        });\n\n        return deferred.promise;\n    };\n    this.saveProjectRole = function($scope) {\n        var params = {};\n        params.access_token = sessionService.get('access_token');\n        params.role_name = $scope.role_name;\n        params.role_desc = $scope.role_desc;\n        var deferred = $q.defer();\n\n        $http({\n            method: 'POST',\n            url: serviceEndPoint + 'api/v1/project-role',\n            params: params\n        }).success(function(data, status, headers, config) {\n            $scope.status = data.status;\n            $scope.message = data.message;\n            deferred.resolve(data); //Return the roles list\n        }).error(function(data, status, headers, config) {\n            $scope.status = data.status;\n            $scope.message = data.message;\n            deferred.resolve(data); //Return the roles list error\n        });\n\n        return deferred.promise;\n    };\n\n    this.delRole = function(id, $scope) {\n        var params = {};\n        params.access_token = sessionService.get('access_token');\n        var deferred = $q.defer();\n\n        $http({\n            method: 'DELETE',\n            url: serviceEndPoint + 'api/v1/role/' + id,\n            params: params\n        }).success(function(data, status, headers, config) {\n            $scope.status = data.status;\n            $scope.message = data.message;\n            deferred.resolve(data); //Return the roles list\n        }).error(function(data, status, headers, config) {\n            $scope.status = data.status;\n            $scope.message = data.message;\n            deferred.resolve(data); //Return the roles list error\n        });\n\n        return deferred.promise;\n    };\n    this.delProjectRole = function(id, $scope) {\n        var params = {};\n        params.access_token = sessionService.get('access_token');\n        var deferred = $q.defer();\n\n        $http({\n            method: 'DELETE',\n            url: serviceEndPoint + 'api/v1/project-role/' + id,\n            params: params\n        }).success(function(data, status, headers, config) {\n            $scope.status = data.status;\n            $scope.message = data.message;\n            deferred.resolve(data); //Return the roles list\n        }).error(function(data, status, headers, config) {\n            $scope.status = data.status;\n            $scope.message = data.message;\n            deferred.resolve(data); //Return the roles list error\n        });\n\n        return deferred.promise;\n    };\n\n    this.getRoleById = function(id, $scope) {\n        var params = {};\n        params.access_token = sessionService.get('access_token');\n        var deferred = $q.defer();\n\n        $http({\n            method: 'GET',\n            url: serviceEndPoint + 'api/v1/role/' + id,\n            params: params\n        }).success(function(data, status, headers, config) {\n            $scope.status = data.status;\n            $scope.message = data.message;\n            deferred.resolve(data); //Return the roles list\n        }).error(function(data, status, headers, config) {\n            $scope.status = data.status;\n            $scope.message = data.message;\n            deferred.resolve(data); //Return the roles list error\n        });\n\n        return deferred.promise;\n    };\n\n    this.getProjectRoleById = function(id, $scope) {\n        var params = {};\n        params.access_token = sessionService.get('access_token');\n        var deferred = $q.defer();\n\n        $http({\n            method: 'GET',\n            url: serviceEndPoint + 'api/v1/project-role/' + id,\n            params: params\n        }).success(function(data, status, headers, config) {\n            $scope.status = data.status;\n            $scope.message = data.message;\n            deferred.resolve(data); //Return the roles list\n        }).error(function(data, status, headers, config) {\n            $scope.status = data.status;\n            $scope.message = data.message;\n            deferred.resolve(data); //Return the roles list error\n        });\n\n        return deferred.promise;\n    };\n\n    this.editRole = function($scope) {\n\n        var deferred = $q.defer();\n        $http.post(serviceEndPoint + 'api/v1/role/' + $scope.role_id + '?access_token=' + sessionService.get('access_token'), {\n            _method: 'PUT',\n            role_name: $scope.role_name,\n            role_desc: $scope.role_desc\n        }).success(function(data, status, headers, config) {\n            deferred.resolve(data);\n        }).error(function(data, status, headers, config) {\n            deferred.resolve(data);\n            $rootScope.unauthorised_redirection(data.status);\n        });\n\n        return deferred.promise;\n\n    };\n    this.editProjectRole = function($scope) {\n\n        var deferred = $q.defer();\n        $http.post(serviceEndPoint + 'api/v1/project-role/' + $scope.role_id + '?access_token=' + sessionService.get('access_token'), {\n            _method: 'PUT',\n            role_name: $scope.role_name,\n            role_desc: $scope.role_desc\n        }).success(function(data, status, headers, config) {\n            deferred.resolve(data);\n        }).error(function(data, status, headers, config) {\n            deferred.resolve(data);\n            $rootScope.unauthorised_redirection(data.status);\n        });\n\n        return deferred.promise;\n\n    };\n\n    /*\n     * Re arrange role permission array\n     */\n    this.generateRolePermissionArray = function($scope, role_permission) {\n            var deferred = $q.defer();\n            //console.log(role_permission);\n            var new_role_permission = {};\n            var excluded_permission_array = [802];\n            var exclude_metadata_array = [1, 600, 601, 602, 603, 604, 605, 620, 621, 622, 623, 624, 625, 630, 631, 632, 633, 634, 635]; //634=>Key-value\n            //var exclude_footnote_array = [720, 721, 722, 723]; //footnote\n            var exclude_footnote_array = []; //footnote\n            var exclude_role_array = []; //[101, 102, 103, 104];  //role\n            var exclude_user_array = []; //[109, 110, 111, 112,113,114];  //user\n            var exclude_export_show_array = [208]; //show exported project\n            excluded_permission_array = excluded_permission_array.concat(exclude_metadata_array);\n            excluded_permission_array = excluded_permission_array.concat(exclude_footnote_array); //concate footnote exclusion\n            excluded_permission_array = excluded_permission_array.concat(exclude_role_array); //concate role exclusion\n            excluded_permission_array = excluded_permission_array.concat(exclude_user_array); //concate user exclusion\n            excluded_permission_array = excluded_permission_array.concat(exclude_export_show_array); //show exported project\n            if ($scope.selectedRole != 1) {\n                //Exclude RolePermissionAlocation, Manage User, Manage Role permission, if it is not Admin\n                //exclude_metadata_array.push(101, 102, 103, 104, 107, 109, 110, 111, 112, 113, 114);\n                excluded_permission_array.push(107);\n            }\n            //            console.log(excluded_permission_array);\n            angular.forEach(role_permission, function(value, key) {\n                if (jQuery.inArray(value.id, excluded_permission_array) === -1) {\n                    //console.log(jQuery.inArray(value.id, excluded_permission_array));\n                    var identifier = $filter('firstWord')(key);\n                    if (!new_role_permission[identifier]) {\n                        new_role_permission[identifier] = [];\n                    }\n                    new_role_permission[identifier].push({\n                        identifier: identifier,\n                        description: value.description,\n                        grant: value.grant,\n                        value: value.id\n                    });\n                }\n            });\n\n            //Prepare Metadata Permission set\n            this.prepareMetaData($scope).then(function(metaDataPermission) {\n                new_role_permission['metadata'] = [];\n                new_role_permission['metadata'] = metaDataPermission;\n                deferred.resolve(new_role_permission);\n            });\n            //console.log(metaDataPermission);\n            //console.log(new_role_permission);\n            //return new_role_permission;\n\n\n            return deferred.promise;\n        }\n        /**\n         * Prepare MetaData Permission Array\n         * @param {type} $scope\n         * @returns {unresolved}\n         */\n    this.prepareMetaData = function($scope) {\n        var deferred = $q.defer();\n        $http({\n            method: 'GET',\n            url: serviceEndPoint + 'api/v1/role-permission/role_id/' + $scope.selectedRole + '/permission_id/620,621,622,623,624,625' + '?access_token=' + sessionService.get('access_token'),\n        }).success(function(data, status, headers, config) {\n            var metaDataPermission = [{\n                identifier: 'metadata.show.all',\n                description: 'Show Metadata',\n                grant: data.data['620'].grant,\n                value: 6000\n            }, {\n                identifier: 'metadata.create',\n                description: 'Create Metadata',\n                grant: data.data['621'].grant,\n                value: 6001\n            }, {\n                identifier: 'metadata.edit',\n                description: 'Edit Metadata',\n                grant: data.data['622'].grant,\n                value: 6002\n            }, {\n                identifier: 'metadata.delete',\n                description: 'Delete Metadata',\n                grant: data.data['623'].grant,\n                value: 6003\n            }, {\n                identifier: 'metadata.active.inactive',\n                description: 'Active/Inactive Metadata',\n                grant: data.data['624'].grant,\n                value: 6004\n            }, {\n                identifier: 'metadata.apply',\n                description: 'Apply Metadata',\n                grant: data.data['625'].grant,\n                value: 6005\n            }];\n            deferred.resolve(metaDataPermission);\n        }).error(function(data, status, headers, config) {\n\n        });\n        return deferred.promise;\n    }\n\n    /**\n     * Save users on to project\n     * @returns {undefined}\n     */\n    this.associateProjectUser = function($scope) {\n        var deferred = $q.defer();\n        $scope.showMsg = 1;\n        var param = {};\n        if (angular.isDefined($scope.userRoleMap) && !$scope.userRoleMap) {\n            param.username = $scope.userRoleMap.username;\n        }\n        if (angular.isDefined($scope.userRoleMap) && !$scope.userRoleMap) {\n            param.user_id = $scope.userRoleMap.user_id;\n        }\n        if (angular.isDefined($scope.userRoleMap) && !$scope.userRoleMap) {\n            param.role_id = $scope.userRoleMap.role['id'];\n        }\n        param.page_action = $scope.pageAction;\n\n        if (angular.isDefined($scope.userList) && param.page_action == 'bulk_add') {\n            param.user_list = JSON.stringify($scope.userList);\n        }\n\n        $http.post(serviceEndPoint + 'api/v1/project-user/project_id/' + $scope.project_id + '?access_token=' + sessionService.get('access_token'), param).success(function(data, status, headers, config) {\n            if (data.projectPermissionGranted == 401) {\n                $rootScope.move_unauthorised_user_to_toc_with_message(data.projectPermissionGranted, $scope.project_id);\n            }\n            $scope.status = data.status;\n            $scope.message = data.message;\n\n            deferred.resolve(data);\n        }).error(function(data, status, headers, config) {\n            deferred.resolve(data);\n            $rootScope.unauthorised_redirection(data.status);\n        });\n\n        return deferred.promise;\n    };\n\n    /**\n     * Update users on to project\n     * @returns {undefined}\n     */\n    this.updateProjectUser = function($scope) {\n        var deferred = $q.defer();\n        $scope.showMsg = 1;\n        var queryString = '';\n        $http.post(serviceEndPoint + 'api/v1/project-user/project_id/' + $scope.project_id + '?access_token=' + sessionService.get('access_token'), {\n            _method: 'PUT',\n            username: $scope.userRoleMap.username,\n            role_id: $scope.userRoleMap.role['id'],\n        }).success(function(data, status, headers, config) {\n            if (data.projectPermissionGranted == 401) {\n                $rootScope.move_unauthorised_user_to_toc_with_message(data.projectPermissionGranted, $scope.project_id);\n            }\n            $scope.status = data.status;\n            //$scope.message = data.message;\n            if(angular.isDefined($scope.type) && $scope.type=='project'){\n                $scope.message = 'Project updated successfully';\n            }else{\n                $scope.message = 'User updated successfully';\n            }\n            \n            deferred.resolve(data);\n        }).error(function(data, status, headers, config) {\n            deferred.resolve(data);\n            $rootScope.unauthorised_redirection(data.status);\n        });\n\n        return deferred.promise;\n    };\n\n    /**\n     * Delete user from project user map\n     * @returns {undefined}\n     */\n    this.deleteProjectUser = function($scope) {\n        var deferred = $q.defer();\n        $scope.showMsg = 1;\n        var queryString = '';\n        /*if (angular.isDefined($scope.userRoleMap)) {\n         queryString += '&user_role_map=' + angular.toJson($scope.userRoleMap);\n         }*/\n        var params = {};\n        params._method = 'DELETE';\n        if (angular.isDefined($scope.userRoleMap.username)) {\n            params.username = $scope.userRoleMap.username;\n        }\n        if (angular.isDefined($scope.userRoleMap.role_id)) {\n            params.role_id = $scope.userRoleMap.role_id;\n        }\n        params.page_action = $scope.pageAction;\n        if (angular.isDefined($scope.userList)) {\n            params.user_list = JSON.stringify($scope.userList);\n        }\n        console.log(params);\n        $http.post(serviceEndPoint + 'api/v1/project-user/project_id/' + $scope.project_id + '?access_token=' + sessionService.get('access_token'), params).success(function(data, status, headers, config) {\n            if (data.projectPermissionGranted == 401) {\n                $rootScope.move_unauthorised_user_to_toc_with_message(data.projectPermissionGranted, $scope.project_id);\n            }\n            $scope.status = data.status;\n            $scope.message = data.message;\n\n            deferred.resolve(data);\n        }).error(function(data, status, headers, config) {\n            deferred.resolve(data);\n            $rootScope.unauthorised_redirection(data.status);\n        });\n\n        return deferred.promise;\n    }\n\n    this.count_user_by_role = function(role_id) {\n        var params = {};\n        params.access_token = sessionService.get('access_token');\n        var deferred = $q.defer();\n        params.role_id = role_id;\n        $http({\n            method: 'GET',\n            url: serviceEndPoint + 'api/v1/project-users/role_id',\n            params: params\n        }).success(function(data, status, headers, config) {\n            //console.log(data);\n            deferred.resolve(data); //Return the roles list\n        }).error(function(data, status, headers, config) {\n            $rootScope.unauthorised_redirection(data.status);\n        });\n        return deferred.promise;\n    };\n\n    this.check_permission = function($scope) {\n        var params = {};\n        params.access_token = sessionService.get('access_token');\n        var deferred = $q.defer();\n        if (angular.isDefined($scope.project_id)) {\n            params.project_id = $scope.project_id;\n        }\n        $http({\n            method: 'GET',\n            url: serviceEndPoint + 'api/v1/check-permission/identifier/' + $scope.permission_identifier,\n            params: params\n        }).success(function(data, status, headers, config) {\n            deferred.resolve(data); //Return the roles list\n        }).error(function(data, status, headers, config) {\n            $rootScope.unauthorised_redirection(data.status);\n        });\n        return deferred.promise;\n    };\n\n    this.getUnmappedProjectUsers = function($scope) {\n        var params = {};\n        params.access_token = sessionService.get('access_token');\n        params.value = window.btoa($scope.search_text);\n        params.type = $scope.searchKey.value;\n        var deferred = $q.defer();\n        $http({\n            method: 'GET',\n            url: serviceEndPoint + 'api/v1/project-unmapped-users/project_id/' + $scope.project_id,\n            params: params\n        }).success(function(data, status, headers, config) {\n            //console.log(data);\n            deferred.resolve(data); //Return the roles list\n        }).error(function(data, status, headers, config) {\n            $rootScope.unauthorised_redirection(data.status);\n        });\n        return deferred.promise;\n    };\n\n}]);",
          "comment" : ""
        },
        "redirectURL" : "",
        "headersSize" : 203,
        "bodySize" : 25305,
        "comment" : ""
      },
      "cache" : { },
      "timings" : {
        "comment" : "",
        "ssl" : -1,
        "receive" : 0,
        "blocked" : -1,
        "wait" : 0,
        "send" : 0,
        "dns" : -1,
        "connect" : 1380
      },
      "comment" : "",
      "_katalonRequestInformation" : {
        "name" : "66",
        "testObjectId" : "Temporary RESTful request object",
        "harId" : "7f07be70-3e73-4b03-91e1-e5195494b7bf"
      },
      "time" : 1380
    } ],
    "comment" : ""
  }
}