{
  "log" : {
    "version" : "1.2",
    "pages" : [ ],
    "entries" : [ {
      "startedDateTime" : "2019-07-17T07:27:08.715Z",
      "request" : {
        "method" : "GET",
        "url" : "https://frostedc-stg.learningmate.com/js/widget/testHarnessController.js",
        "httpVersion" : "",
        "cookies" : [ ],
        "headers" : [ ],
        "queryString" : [ ],
        "headersSize" : 0,
        "bodySize" : 0,
        "comment" : ""
      },
      "response" : {
        "status" : 200,
        "statusText" : "",
        "httpVersion" : "",
        "cookies" : [ ],
        "headers" : [ {
          "name" : "Accept-Ranges",
          "value" : "bytes"
        }, {
          "name" : null,
          "value" : "HTTP/1.1 200 OK"
        }, {
          "name" : "Server",
          "value" : "nginx/1.13.5"
        }, {
          "name" : "ETag",
          "value" : "\"5d2ddd74-3494\""
        }, {
          "name" : "Connection",
          "value" : "keep-alive"
        }, {
          "name" : "Last-Modified",
          "value" : "Tue, 16 Jul 2019 14:21:40 GMT"
        }, {
          "name" : "Content-Length",
          "value" : "13460"
        }, {
          "name" : "Date",
          "value" : "Wed, 17 Jul 2019 07:27:25 GMT"
        }, {
          "name" : "Content-Type",
          "value" : "application/javascript"
        } ],
        "content" : {
          "size" : 13460,
          "mimeType" : "application/javascript",
          "text" : "'use strict';\n\napp.controller('Test_harness', ['$scope', '$http', '$location', '$window', function($scope, $http, $location, $window) {\n\n        var host = serviceEndPoint;\n        $scope.menu_label = 'API List';\n        $scope.form_panel = 0;\n        $scope.output = '';\n        $scope.status = 0;\n        $scope.loading = 0;\n        $scope.apiUrl = '';\n        $scope.menuItems = new Array(\n                {label: 'API List', id: 0, url: '', method: '', visible: true},\n//        {label: 'Login', id: 1, url: 'api/v1/login', method: 'POST'},\n        {label: 'Get Token', id: 1, url: '', method: 'POST', visible: false},\n        {label: 'List Objects', id: 3, url: 'api/v1/objects', method: 'GET', visible: true},\n        {label: 'Create Object', id: 2, url: 'api/v1/objects', method: 'POST', visible: true},\n        {label: 'Object Details', id: 10, url: 'api/v1/objects/{object_id}', method: 'GET', visible: true},\n        {label: 'Delete Object', id: 11, url: 'api/v1/objects/{object_id}', method: 'DELETE', visible: true},\n        {label: 'Update Object', id: 22, url: 'api/v1/objects/{object_id}', method: 'POST', visible: true}\n        /*,\n         {label: 'Create Tag', id: 4, url: 'api/v1/tag', method: 'POST'},\n         {label: 'Delete Tag', id: 13, url: 'api/v1/tag', method: 'DELETE'},\n         {label: 'Create Taxonomy', id: 5, url: 'api/v1/taxonomy', method: 'POST'},\n         {label: 'Edit Taxonomy', id: 16, url: 'api/v1/taxonomy', method: 'PUT'},\n         {label: 'Delete Taxonomy', id: 14, url: 'api/v1/taxonomy', method: 'DELETE'},\n         {label: 'Create Metadata', id: 6, url: 'api/v1/metadata', method: 'POST'},\n         {label: 'Edit Metadata', id: 15, url: 'api/v1/metadata', method: 'PUT'},\n         {label: 'Delete Metadata', id: 12, url: 'api/v1/metadata', method: 'DELETE'},\n         {label: 'Checkin', id: 7, url: 'api/v1/content/checkin', method: 'POST'},\n         {label: 'Checkout', id: 8, url: 'api/v1/content/checkout', method: 'GET'},\n         {label: 'Cancel Checkout', id: 9, url: 'api/v1/content/checkout/cancel', method: 'GET'}\n         */\n        );\n        if ($scope.status != 0) {\n            $scope.access_token = $window.sessionStorage.getItem('access_token');\n        }\n\n\n        $scope.selectedMenu = function(menu) {\n            $scope.formdata = {};\n            $scope.formdata.user_id = 1;\n            $scope.menu_label = menu.label;\n            $scope.form_panel = menu.id;\n            $scope.api = menu.url;\n            $scope.visible = menu.visible;\n            $scope.method = menu.method;\n            $scope.outputData = '';\n            $scope.status = 0;\n            if ($scope.form_panel == 1) {\n                $scope.callUrl = ($scope.form_panel != 0) ? oauthUrl : '';\n            } else {\n                $scope.callUrl = ($scope.form_panel != 0) ? host + $scope.api : '';\n            }\n            $scope.apiUrl = 'Service End Point: ' + $scope.callUrl;\n\n            if ($scope.access_token) {\n                //$scope.formdata.access_token = $scope.access_token;\n            }\n            if ($scope.access_token) {\n                $scope.access_token_txt = 'Access Token: ' + $scope.access_token;\n            }\n        };\n        $scope.execute = function(formdata) {\n            if (($scope.form_panel != 0 && formdata && Object.keys(formdata).length > 0 && $scope.form_panel != 2 && $scope.form_panel != 7 && $scope.form_panel != 22) || $scope.form_panel == 3 || $scope.form_panel == 1) {\n                //if (!formdata) {\n                //    formdata = {};\n                //}\n\n                $scope.loading = 1;\n                $scope.status = 0;\n                /*\n                 formdata.apiUrl = host + $scope.api;\n                 formdata.method = $scope.method;\n                 $http.defaults.headers.post[\"Content-Type\"] = \"application/x-www-form-urlencoded\";\n                 $http({\n                 method: $scope.method,\n                 url: rootUrl + '/oauth/consumer2.php',\n                 params: formdata\n                 }).success(function(data, status, headers, config) {\n                 var str = JSON.stringify(data, undefined, 4);\n                 formatResponse(str);\n                 $scope.status = data.status;\n                 $scope.loading = 0;\n                 $window.sessionStorage.setItem('access_token', data.data.token);\n                 $scope.access_token = $window.sessionStorage.getItem('access_token');\n                 }).error(function(data, status, headers, config) {\n                 var str = JSON.stringify(data, undefined, 4);\n                 formatResponse(str);\n                 $scope.status = 400;\n                 $scope.loading = 0;\n                 });\n                 */\n\n                //String replacing the url\n                $scope.callUrl = $scope.callUrl.replace(\"{object_id}\", $scope.formdata.object_id);\n\n                $http.defaults.headers.post[\"Content-Type\"] = \"application/x-www-form-urlencoded\";\n                $http({\n                    method: $scope.method,\n                    url: $scope.callUrl,\n                    params: formdata\n                }).success(function(data, status, headers, config) {\n                    var str = JSON.stringify(data, undefined, 4);\n                    formatResponse(str);\n                    $scope.status = data.status;\n                    $scope.loading = 0;\n                    if ($scope.form_panel == 1) {\n                        $window.sessionStorage.setItem('access_token', data.access_token);\n                        $scope.access_token = $window.sessionStorage.getItem('access_token');\n                    }\n                }).error(function(data, status, headers, config) {\n                    var str = JSON.stringify(data, undefined, 4);\n                    formatResponse(str);\n                    $scope.status = 400;\n                    $scope.loading = 0;\n                });\n\n\n\n            }\n            if ($scope.form_panel == 2 || $scope.form_panel == 7 || $scope.form_panel == 22) {\n                $scope.loading = 1;\n                $scope.status = 0;\n                /*\n                 var fd = new FormData();\n                 fd.append('filedata', $scope.formdata.filedata);\n                 fd.append('apiUrl', host + $scope.api);\n                 fd.append('method', $scope.method);\n                 if ($scope.form_panel == 7) {\n                 fd.append('object_id', $scope.formdata.object_id);\n                 }\n                 $http.post(rootUrl + '/oauth/consumer2.php', fd, {\n                 transformRequest: angular.identity,\n                 headers: {'Content-Type': undefined}\n                 }).success(function(data, status, headers, config) {\n                 var str = JSON.stringify(data, undefined, 4);\n                 formatResponse(str);\n                 $scope.status = data.status;\n                 $scope.loading = 0;\n                 }).error(function(data, status, headers, config) {\n                 var str = JSON.stringify(data, undefined, 4);\n                 formatResponse(str);\n                 $scope.status = data.status;\n                 $scope.loading = 0;\n                 });\n                 */\n\n                var fd = new FormData();                \n                if($scope.file_type == 'file'){\n                    fd.append('file', $scope.formdata.file);\n                }else if($scope.file_type == 'file_content'){\n                    fd.append('file_content', $scope.formdata.file_content);\n                }\n                fd.append('user_id', $scope.formdata.user_id);\n                if ($scope.form_panel == 2) {\n                    fd.append('object_type_id', $scope.formdata.object_type_id.value);\n                    fd.append('project_type_id', 1);                    \n                }\n                console.info($scope);\n                fd.append('object_name', $scope.formdata.object_name);\n                fd.append('description', $scope.formdata.description);\n                if ($scope.form_panel == 22) {\n                    fd.append('_method', 'PUT');\n                }\n                \n                \n                //fd.append('access_token', $scope.formdata.access_token);\n                if ($scope.form_panel == 7) {\n                    fd.append('object_id', $scope.formdata.object_id);\n                }\n                //String replacing the url\n                if(angular.isDefined($scope.formdata.object_id)){\n                    $scope.callUrl = $scope.callUrl.replace(\"{object_id}\", $scope.formdata.object_id);\n                }\n                console.log($scope);\n                console.log(fd);\n                console.log($scope.formdata.file);\n                $http({\n                    method: $scope.method,\n                    data:fd,\n                    url: $scope.callUrl + '?access_token=' + $scope.formdata.access_token,\n                    //params: { formdata: $scope.formdata, file: $scope.formdata.file },                    \n                    transformRequest: angular.identity,\n                    headers: {'Content-Type': undefined},\n                    /*transformRequest: function (data) {\n                        var formData2 = new FormData();\n                        formData2.append(\"formData\", angular.toJson($scope.formdata));\n                        formData2.append(\"file\", $scope.formdata.file);\n                        return formData2;\n                    },*/\n                }).success(function(data, status, headers, config) {\n                    var str = JSON.stringify(data, undefined, 4);\n                    formatResponse(str);\n                    $scope.status = data.status;\n                    $scope.loading = 0;\n                }).error(function(data, status, headers, config) {\n                    \n                });\n                \n                /*$http.put($scope.callUrl + '?access_token=' + $scope.formdata.access_token, \n                {\n                    object_id: $scope.formdata.object_id,\n                    object_name: $scope.formdata.object_name,\n                    description: $scope.formdata.description,\n                    file: $scope.formdata.file\n                },\n                {                   \n                    transformRequest: function(data) {\n                        var formData = new FormData();\n                        formData.append(\"object_id\", data.object_id);\n                        formData.append(\"object_name\", data.object_name);\n                        formData.append(\"description\", angular.toJson(data.description));\n                        formData.append(\"file\", data.file);                        \n                        return formData;                \n                    },\n                    headers: {'Content-Type': undefined}\n                }).success(function(data, status, headers, config) {\n                    var str = JSON.stringify(data, undefined, 4);\n                    formatResponse(str);\n                    $scope.status = data.status;\n                    $scope.loading = 0;\n                }).error(function(data, status, headers, config) {\n                    var str = JSON.stringify(data, undefined, 4);\n                    formatResponse(str);\n                    $scope.status = data.status;\n                    $scope.loading = 0;\n                });*/\n                \n                /*$http.put($scope.callUrl + '?access_token=' + $scope.formdata.access_token, fd, {\n                    transformRequest: angular.identity,\n                    headers: {'Content-Type': undefined}\n                }).success(function(data, status, headers, config) {\n                    var str = JSON.stringify(data, undefined, 4);\n                    formatResponse(str);\n                    $scope.status = data.status;\n                    $scope.loading = 0;\n                }).error(function(data, status, headers, config) {\n                    var str = JSON.stringify(data, undefined, 4);\n                    formatResponse(str);\n                    $scope.status = data.status;\n                    $scope.loading = 0;\n                });*/\n\n            }\n\n        };\n\n        $scope.syntaxHighlight = function(json) {\n            json = json.replace(/&/g, '&amp;').replace(/</g, '&lt;').replace(/>/g, '&gt;');\n            return json.replace(/(\"(\\\\u[a-zA-Z0-9]{4}|\\\\[^u]|[^\\\\\"])*\"(\\s*:)?|\\b(true|false|null)\\b|-?\\d+(?:\\.\\d*)?(?:[eE][+\\-]?\\d+)?)/g, function(match) {\n                var cls = 'number';\n                if (/^\"/.test(match)) {\n                    if (/:$/.test(match)) {\n                        cls = 'key';\n                    } else {\n                        cls = 'string';\n                    }\n                } else if (/true|false/.test(match)) {\n                    cls = 'boolean';\n                } else if (/null/.test(match)) {\n                    cls = 'null';\n                }\n                return '<span class=\"' + cls + '\">' + match + '</span>';\n            });\n        };\n\n        function formatResponse(str) {\n            $scope.outputData = $scope.syntaxHighlight(str);\n        }\n\n        $scope.colors = [\n            {name: 'project', value: 1},\n            {name: 'learning object', value: 2},\n            {name: 'page', value: 3},\n            {name: 'widget', value: 4},\n            {name: 'image', value: 5},\n            {name: 'audio', value: 6},\n            {name: 'video', value: 7}\n        ];\n        $scope.object_type_id = $scope.colors[2];\n    }]);\n\n",
          "comment" : ""
        },
        "redirectURL" : "",
        "headersSize" : 203,
        "bodySize" : 13460,
        "comment" : ""
      },
      "cache" : { },
      "timings" : {
        "comment" : "",
        "ssl" : -1,
        "receive" : 0,
        "blocked" : -1,
        "wait" : 0,
        "send" : 0,
        "dns" : -1,
        "connect" : 1080
      },
      "comment" : "",
      "_katalonRequestInformation" : {
        "name" : "70",
        "testObjectId" : "Temporary RESTful request object",
        "harId" : "10a24fd3-b284-4967-9a93-064d70cb2bf4"
      },
      "time" : 1080
    } ],
    "comment" : ""
  }
}