{
  "log" : {
    "version" : "1.2",
    "pages" : [ ],
    "entries" : [ {
      "startedDateTime" : "2019-07-17T07:27:14.241Z",
      "request" : {
        "method" : "GET",
        "url" : "https://frostedc-stg.learningmate.com/js/user/userService.js",
        "httpVersion" : "",
        "cookies" : [ ],
        "headers" : [ ],
        "queryString" : [ ],
        "headersSize" : 0,
        "bodySize" : 0,
        "comment" : ""
      },
      "response" : {
        "status" : 200,
        "statusText" : "",
        "httpVersion" : "",
        "cookies" : [ ],
        "headers" : [ {
          "name" : "Accept-Ranges",
          "value" : "bytes"
        }, {
          "name" : null,
          "value" : "HTTP/1.1 200 OK"
        }, {
          "name" : "Server",
          "value" : "nginx/1.13.5"
        }, {
          "name" : "ETag",
          "value" : "\"5d2ddd74-11a9\""
        }, {
          "name" : "Connection",
          "value" : "keep-alive"
        }, {
          "name" : "Last-Modified",
          "value" : "Tue, 16 Jul 2019 14:21:40 GMT"
        }, {
          "name" : "Content-Length",
          "value" : "4521"
        }, {
          "name" : "Date",
          "value" : "Wed, 17 Jul 2019 07:27:31 GMT"
        }, {
          "name" : "Content-Type",
          "value" : "application/javascript"
        } ],
        "content" : {
          "size" : 4521,
          "mimeType" : "application/javascript",
          "text" : "/*****\n * Services for Login\n * Author - Arikh Akher\n */\n\n'use strict';\n\n//Start of loginService\napp.service('userService', ['$http', '$q', '$location', 'tokenService', 'sessionService', '$rootScope', function ($http, $q, $location, tokenService, sessionService, $rootScope) {\n\n        this.getUsers = function ($scope) {\n            var deferred = $q.defer();\n            $http.get(serviceEndPoint + 'api/v1/users?access_token=' + sessionService.get('access_token'), {\n            }).success(function (data, status, headers, config) {\n                deferred.resolve(data);//Return the roles list                \n            }).error(function (data, status, headers, config) {\n                $rootScope.unauthorised_redirection(data.status);\n            });\n            return deferred.promise;\n        };\n        //Create User \n        this.createUser = function ($scope, formdata) {\n            var deferred = $q.defer();\n            var params = {};\n            $http.post(serviceEndPoint + 'api/v1/users?access_token=' + sessionService.get('access_token'), {\n                email: $scope.email,\n                username: $scope.username,\n                //role_id: $scope.role_id.id,\n                first_name: $scope.first_name,\n                last_name: $scope.last_name,\n                password: $scope.password,\n                password_confirmation: $scope.password_confirmation,\n                is_admin: $scope.is_admin\n            }).success(function (data, status, headers, config) {\n                deferred.resolve(data);//Return the roles list                \n            }).error(function (data, status, headers, config) {\n                $rootScope.unauthorised_redirection(data.status);\n            });\n            return deferred.promise;\n        };\n        \n        //Edit User \n        this.updateUser = function ($scope, formdata) {\n            var deferred = $q.defer();\n            var params = {};\n            $http.post(serviceEndPoint + 'api/v1/users/user_id/'+$scope.user_id+'?access_token=' + sessionService.get('access_token'), {\n                email: formdata.email,\n                user_id: $scope.user_id,\n                username: formdata.username,\n                //role_id: $scope.role_id.id,\n                first_name: formdata.first_name,\n                last_name: formdata.last_name,               \n                is_admin: formdata.is_admin,\n                _method: 'PUT'\n            }).success(function (data, status, headers, config) {\n                deferred.resolve(data);//Return the roles list                \n            }).error(function (data, status, headers, config) {\n                $rootScope.unauthorised_redirection(data.status);\n            });\n            return deferred.promise;\n        };\n\n        this.getUserDetail = function ($scope) {\n            var deferred = $q.defer();\n            $http.get(serviceEndPoint + 'api/v1/users/user_id/'+$scope.user_id+'?access_token=' + sessionService.get('access_token'), {\n            }).success(function (data, status, headers, config) {\n                deferred.resolve(data);//Return the roles list                \n            }).error(function (data, status, headers, config) {\n                $rootScope.unauthorised_redirection(data.status);\n            });\n            return deferred.promise;\n        };\n\n        this.delUsers = function ($scope) {\n            var deferred = $q.defer();\n            $http.delete(serviceEndPoint + 'api/v1/users/user_id/' + $scope.user_id + '?access_token=' + sessionService.get('access_token'), {\n            }).success(function (data, status, headers, config) {\n                deferred.resolve(data);//Return the roles list                \n            }).error(function (data, status, headers, config) {\n                $rootScope.unauthorised_redirection(data.status);\n            });\n            return deferred.promise;\n        };\n        \n        this.activateUser = function ($scope) {\n            var deferred = $q.defer();\n            $http.post(serviceEndPoint + 'api/v1/users-activate/user_id/' + $scope.user_id + '?access_token=' + sessionService.get('access_token'), {\n                _method: 'PUT'\n            }).success(function (data, status, headers, config) {\n                deferred.resolve(data);//Return the roles list                \n            }).error(function (data, status, headers, config) {\n                $rootScope.unauthorised_redirection(data.status);\n            });\n            return deferred.promise;\n        };\n\n    }]);\n",
          "comment" : ""
        },
        "redirectURL" : "",
        "headersSize" : 202,
        "bodySize" : 4521,
        "comment" : ""
      },
      "cache" : { },
      "timings" : {
        "comment" : "",
        "ssl" : -1,
        "receive" : 0,
        "blocked" : -1,
        "wait" : 0,
        "send" : 0,
        "dns" : -1,
        "connect" : 1086
      },
      "comment" : "",
      "_katalonRequestInformation" : {
        "name" : "75",
        "testObjectId" : "Temporary RESTful request object",
        "harId" : "3391d054-cca6-4fa2-b1f2-4b352b4f515c"
      },
      "time" : 1086
    } ],
    "comment" : ""
  }
}