{
  "log" : {
    "version" : "1.2",
    "pages" : [ ],
    "entries" : [ {
      "startedDateTime" : "2019-07-17T07:27:23.577Z",
      "request" : {
        "method" : "GET",
        "url" : "https://frostedc-stg.learningmate.com/js/common/SweetAlert.js",
        "httpVersion" : "",
        "cookies" : [ ],
        "headers" : [ ],
        "queryString" : [ ],
        "headersSize" : 0,
        "bodySize" : 0,
        "comment" : ""
      },
      "response" : {
        "status" : 200,
        "statusText" : "",
        "httpVersion" : "",
        "cookies" : [ ],
        "headers" : [ {
          "name" : "Accept-Ranges",
          "value" : "bytes"
        }, {
          "name" : null,
          "value" : "HTTP/1.1 200 OK"
        }, {
          "name" : "Server",
          "value" : "nginx/1.13.5"
        }, {
          "name" : "ETag",
          "value" : "\"5d2ddd74-3d8\""
        }, {
          "name" : "Connection",
          "value" : "keep-alive"
        }, {
          "name" : "Last-Modified",
          "value" : "Tue, 16 Jul 2019 14:21:40 GMT"
        }, {
          "name" : "Content-Length",
          "value" : "984"
        }, {
          "name" : "Date",
          "value" : "Wed, 17 Jul 2019 07:27:40 GMT"
        }, {
          "name" : "Content-Type",
          "value" : "application/javascript"
        } ],
        "content" : {
          "size" : 984,
          "mimeType" : "application/javascript",
          "text" : "/**\n@fileOverview\n\n@toc\n\n*/\n\n'use strict';\n\nangular.module('oitozero.ngSweetAlert', [])\n.factory('SweetAlert', [ '$timeout', function ( $timeout ) {\n\n\tvar swal = window.swal;\n\n\t//public methods\n\tvar self = {\n\n\t\tswal: function ( arg1, arg2, arg3 ) {\n\t\t\t$timeout(function(){\n\t\t\t\tif( typeof(arg2) === 'function' ) {\n\t\t\t\t\tswal( arg1, function(isConfirm){\n\t\t\t\t\t\t$timeout( function(){\n\t\t\t\t\t\t\targ2(isConfirm);\n\t\t\t\t\t\t});\n\t\t\t\t\t}, arg3 );\n\t\t\t\t} else {\n\t\t\t\t\tswal( arg1, arg2, arg3 );\n\t\t\t\t}\n\t\t\t}, 200);\n\t\t},\n\t\tsuccess: function(title, message) {\n\t\t\t$timeout(function(){\n\t\t\t\tswal( title, message, 'success' );\n\t\t\t}, 200);\n\t\t},\n\t\terror: function(title, message) {\n\t\t\t$timeout(function(){\n\t\t\t\tswal( title, message, 'error' );\n\t\t\t}, 200);\n\t\t},\n\t\twarning: function(title, message) {\n\t\t\t$timeout(function(){\n\t\t\t\tswal( title, message, 'warning' );\n\t\t\t}, 200);\n\t\t},\n\t\tinfo: function(title, message) {\t\n\t\t\t$timeout(function(){\n\t\t\t\tswal( title, message, 'info' );\n\t\t\t}, 200);\n\t\t}\n\t};\n\t\n\treturn self;\n}]);\n\n",
          "comment" : ""
        },
        "redirectURL" : "",
        "headersSize" : 200,
        "bodySize" : 984,
        "comment" : ""
      },
      "cache" : { },
      "timings" : {
        "comment" : "",
        "ssl" : -1,
        "receive" : 0,
        "blocked" : -1,
        "wait" : 0,
        "send" : 0,
        "dns" : -1,
        "connect" : 1081
      },
      "comment" : "",
      "_katalonRequestInformation" : {
        "name" : "82",
        "testObjectId" : "Temporary RESTful request object",
        "harId" : "e0cbd321-b783-489d-a694-95916edb8e76"
      },
      "time" : 1081
    } ],
    "comment" : ""
  }
}