{
  "log" : {
    "version" : "1.2",
    "pages" : [ ],
    "entries" : [ {
      "startedDateTime" : "2019-07-17T07:27:30.736Z",
      "request" : {
        "method" : "GET",
        "url" : "https://frostedc-stg.learningmate.com/js/glossary/glossaryService.js",
        "httpVersion" : "",
        "cookies" : [ ],
        "headers" : [ ],
        "queryString" : [ ],
        "headersSize" : 0,
        "bodySize" : 0,
        "comment" : ""
      },
      "response" : {
        "status" : 200,
        "statusText" : "",
        "httpVersion" : "",
        "cookies" : [ ],
        "headers" : [ {
          "name" : "Accept-Ranges",
          "value" : "bytes"
        }, {
          "name" : null,
          "value" : "HTTP/1.1 200 OK"
        }, {
          "name" : "Server",
          "value" : "nginx/1.13.5"
        }, {
          "name" : "ETag",
          "value" : "\"5d2ddd74-fe1\""
        }, {
          "name" : "Connection",
          "value" : "keep-alive"
        }, {
          "name" : "Last-Modified",
          "value" : "Tue, 16 Jul 2019 14:21:40 GMT"
        }, {
          "name" : "Content-Length",
          "value" : "4065"
        }, {
          "name" : "Date",
          "value" : "Wed, 17 Jul 2019 07:27:47 GMT"
        }, {
          "name" : "Content-Type",
          "value" : "application/javascript"
        } ],
        "content" : {
          "size" : 4065,
          "mimeType" : "application/javascript",
          "text" : "/*****\n * Specific services object type =  project\n * Author - Arikh Akher  \n */\n'use strict';\n\napp.service('glossaryService', ['$http', '$q', 'sessionService', '$location', '$rootScope', function ($http, $q, sessionService, $location, $rootScope) {\n\n        //Start - Method to get glossary\n        this.getGlossary = function ($scope) {\n            var deferred = $q.defer();\n            var queryString = '';\n            if (angular.isDefined($scope.glossary_id)) {\n                queryString += \"&id=\" + $scope.glossary_id;\n            }\n            if (angular.isDefined($scope.project_id)) {\n                queryString += '&project_id=' + $scope.project_id;\n            }\n            if (angular.isDefined($scope.char_code)) {\n                queryString += '&char_code=' + $scope.char_code;\n            }            \n            if (angular.isDefined($scope.term_text)) {\n                queryString += '&term_text=' + $scope.term_text;\n            }\n            //For Pagination\n            if (angular.isDefined($scope.pageNumber) && angular.isDefined($scope.itemsPerPage)) {\n                queryString += '&pageNumber=' + $scope.pageNumber+'&itemsPerPage=' + $scope.itemsPerPage;\n            }\n\n            $http.get(serviceEndPoint + 'api/v1/glossary?access_token=' + sessionService.get('access_token') + queryString, {\n            }).success(function (data, status, headers, config) {\n                \n                var glossary = {'data':data.data.glossary_detail,'totalGlossary':data.totalGlossary};\n                //console.log(glossary);\n                \n                deferred.resolve(glossary);//Return the project list             \n            }).error(function (data, status, headers, config) {\n                $rootScope.unauthorised_redirection(data.status);\n            });\n\n            return deferred.promise;\n\n        };\n        //End - Method to get glossary\n\n\n        this.saveGlossary = function ($scope, $rootScope) {\n            var deferred = $q.defer();\n            $http.post(serviceEndPoint + 'api/v1/glossary/project_id/'+$scope.project_id+'?access_token=' + sessionService.get('access_token'), {\n                project_id: $scope.project_id,\n                term: $scope.term,\n                description: $scope.description\n            }).success(function (data, status, headers, config) {\n                deferred.resolve(data);\n            }).error(function (data, status, headers, config) {\n                deferred.resolve(data);\n                //$rootScope.unauthorised_redirection(data.status);\n            });\n\n            return deferred.promise;\n        }\n\n        this.editGlossary = function ($scope, $rootScope) {\n            //console.info($scope);\n            var deferred = $q.defer();\n            $http.post(serviceEndPoint + 'api/v1/glossary/project_id/'+$scope.project_id+'/glossary_id/' + $scope.glossary_id + '?access_token=' + sessionService.get('access_token'), {\n                _method: 'PUT',\n                project_id: $scope.project_id,\n                term: $scope.term,\n                description: $scope.description\n            }).success(function (data, status, headers, config) {\n                deferred.resolve(data);\n            }).error(function (data, status, headers, config) {\n                deferred.resolve(data);\n                //$rootScope.unauthorised_redirection(data.status);\n            });\n\n            return deferred.promise;\n        }\n\n        this.delGlossary = function (glossary_id,project_id) {\n            var deferred = $q.defer();\n            $http.delete(serviceEndPoint + 'api/v1/glossary/project_id/'+project_id+'/glossary_id/' + glossary_id + '?access_token=' + sessionService.get('access_token'), {\n            }).success(function (data, status, headers, config) {\n                deferred.resolve(data);\n            }).error(function (data, status, headers, config) {\n                deferred.resolve(data);\n                $rootScope.unauthorised_redirection(data.status);\n            });\n\n            return deferred.promise;\n        }\n\n    }]);\n\n",
          "comment" : ""
        },
        "redirectURL" : "",
        "headersSize" : 201,
        "bodySize" : 4065,
        "comment" : ""
      },
      "cache" : { },
      "timings" : {
        "comment" : "",
        "ssl" : -1,
        "receive" : 0,
        "blocked" : -1,
        "wait" : 0,
        "send" : 0,
        "dns" : -1,
        "connect" : 1064
      },
      "comment" : "",
      "_katalonRequestInformation" : {
        "name" : "88",
        "testObjectId" : "Temporary RESTful request object",
        "harId" : "57a7abe4-5898-4241-a321-d5635c6d110b"
      },
      "time" : 1064
    } ],
    "comment" : ""
  }
}