{
  "log" : {
    "version" : "1.2",
    "pages" : [ ],
    "entries" : [ {
      "startedDateTime" : "2019-07-17T04:42:03.593Z",
      "request" : {
        "method" : "GET",
        "url" : "https://frostedc-stg.learningmate.com/js/imagepopup/imagepopupService.js",
        "httpVersion" : "",
        "cookies" : [ ],
        "headers" : [ ],
        "queryString" : [ ],
        "headersSize" : 0,
        "bodySize" : 0,
        "comment" : ""
      },
      "response" : {
        "status" : 200,
        "statusText" : "",
        "httpVersion" : "",
        "cookies" : [ ],
        "headers" : [ {
          "name" : "Accept-Ranges",
          "value" : "bytes"
        }, {
          "name" : null,
          "value" : "HTTP/1.1 200 OK"
        }, {
          "name" : "Server",
          "value" : "nginx/1.13.5"
        }, {
          "name" : "ETag",
          "value" : "\"5d2ddd74-94e\""
        }, {
          "name" : "Connection",
          "value" : "keep-alive"
        }, {
          "name" : "Last-Modified",
          "value" : "Tue, 16 Jul 2019 14:21:40 GMT"
        }, {
          "name" : "Content-Length",
          "value" : "2382"
        }, {
          "name" : "Date",
          "value" : "Wed, 17 Jul 2019 04:42:20 GMT"
        }, {
          "name" : "Content-Type",
          "value" : "application/javascript"
        } ],
        "content" : {
          "size" : 2382,
          "mimeType" : "application/javascript",
          "text" : "'use strict';\napp.service('imagepopupService', ['$http', '$q', 'sessionService', '$location', '$rootScope', function ($http, $q, sessionService, $location, $rootScope) {\n\n        // Service to find and apply class for each nodes of a project\n        this.applyClassBulk = function ($scope) {\n            var deferred = $q.defer();\n            var queryString = '';\n\n            $http.get(serviceEndPoint + 'api/v1/imagepopup/project_id/' + $scope.project_id + '?access_token=' + sessionService.get('access_token') + queryString, {\n            }).success(function (data, status, headers, config) {\n                deferred.resolve(data);\n            }).error(function (data, status, headers, config) {\n                $rootScope.unauthorised_redirection(data.status);\n            });\n            return deferred.promise;\n        };\n        \n        // Service to find and remove class for each nodes of a project\n        this.removeClassBulk = function ($scope) {\n            var deferred = $q.defer();\n            var queryString = '';\n\n            $http.delete(serviceEndPoint + 'api/v1/imagepopup/project_id/' + $scope.project_id + '?access_token=' + sessionService.get('access_token') + queryString, {\n            }).success(function (data, status, headers, config) {\n                deferred.resolve(data);\n            }).error(function (data, status, headers, config) {\n                $rootScope.unauthorised_redirection(data.status);\n            });\n            return deferred.promise;\n        };\n        \n        // Service to build the log list\n        this.getLogs = function ($scope) {\n            var deferred = $q.defer();\n            var queryString = '';\n\n            if (angular.isDefined($scope.pageNumber) && angular.isDefined($scope.itemsPerPage)) {\n                queryString += '&pageNumber=' + $scope.pageNumber + '&itemsPerPage=' + $scope.itemsPerPage;\n            }\n\n            $http.get(serviceEndPoint + 'api/v1/imagepopup/logs/project_id/' + $scope.project_id + '?access_token=' + sessionService.get('access_token') + queryString, {\n            }).success(function (data, status, headers, config) {\n                deferred.resolve(data);\n            }).error(function (data, status, headers, config) {\n                $rootScope.unauthorised_redirection(data.status);\n            });\n            return deferred.promise;\n        };\n        \n    }]);\n\n",
          "comment" : ""
        },
        "redirectURL" : "",
        "headersSize" : 201,
        "bodySize" : 2382,
        "comment" : ""
      },
      "cache" : { },
      "timings" : {
        "comment" : "",
        "ssl" : -1,
        "connect" : 1068,
        "dns" : -1,
        "blocked" : -1,
        "send" : 0,
        "wait" : 0,
        "receive" : 0
      },
      "comment" : "",
      "_katalonRequestInformation" : {
        "name" : "111",
        "testObjectId" : "Temporary RESTful request object",
        "harId" : "b4244020-c33a-4247-b98f-d8d52d4c1f71"
      },
      "time" : 1068
    } ],
    "comment" : ""
  }
}