{
  "log" : {
    "version" : "1.2",
    "pages" : [ ],
    "entries" : [ {
      "startedDateTime" : "2019-07-17T04:42:04.688Z",
      "request" : {
        "method" : "GET",
        "url" : "https://frostedc-stg.learningmate.com/js/linkcheck/utilityController.js",
        "httpVersion" : "",
        "cookies" : [ ],
        "headers" : [ ],
        "queryString" : [ ],
        "headersSize" : 0,
        "bodySize" : 0,
        "comment" : ""
      },
      "response" : {
        "status" : 200,
        "statusText" : "",
        "httpVersion" : "",
        "cookies" : [ ],
        "headers" : [ {
          "name" : "Accept-Ranges",
          "value" : "bytes"
        }, {
          "name" : null,
          "value" : "HTTP/1.1 200 OK"
        }, {
          "name" : "Server",
          "value" : "nginx/1.13.5"
        }, {
          "name" : "ETag",
          "value" : "\"5d2ddd74-e26\""
        }, {
          "name" : "Connection",
          "value" : "keep-alive"
        }, {
          "name" : "Last-Modified",
          "value" : "Tue, 16 Jul 2019 14:21:40 GMT"
        }, {
          "name" : "Content-Length",
          "value" : "3622"
        }, {
          "name" : "Date",
          "value" : "Wed, 17 Jul 2019 04:42:21 GMT"
        }, {
          "name" : "Content-Type",
          "value" : "application/javascript"
        } ],
        "content" : {
          "size" : 3622,
          "mimeType" : "application/javascript",
          "text" : "'use strict';\n// image popup controller\napp.controller('utilitycontroller', ['$scope', '$http', 'sessionService', '$location', 'objectService', 'linkcheckService', '$rootScope', '$modal', '$log', 'SweetAlert', '$routeParams', '$filter', 'tocService', '$window', function ($scope, $http, sessionService, $location, objectService, linkcheckService, $rootScope, $modal, $log, SweetAlert, $routeParams, $filter, tocService, $window) {\n        $scope.access_token = sessionService.get('access_token');\n        $scope.user_permissions = JSON.parse(sessionService.get('user_permissions'));\n        var userinfo = JSON.parse(sessionService.get('userinfo'));\n        $scope.project_id = $routeParams.project_id;\n        $scope.project_type_id = 4;\n        $scope.set_type = $routeParams.set_type;\n        $scope.isAdminOrProjectAdmin = false;\n        //Check if the session is active\n        $rootScope.checkActiveSession();\n        if (!$scope.access_token || userinfo == null) {\n            $location.path('logout');\n            return true;\n        }\n\n        $scope.project_name = '';\n        $scope.getProject = function () {\n            if ($scope.project_id != '') {\n                objectService.getProjectDetails($scope).then(function (data) {\n                    if (data == null) {\n                        $location.path(\"edit_toc/\" + $scope.project_id);\n                    } else if (angular.isObject(data)) {\n                        $scope.project_name = data.name;\n                        $scope.project = data;\n                        $scope.applyPermission = 1;\n                        $scope.project.project_permissions = data.project_permissions;\n                        if ($scope.project.role_id == 1 || $scope.project.role_id == 2) {\n                            $scope.isAdminOrProjectAdmin = true;\n                        }\n                    }\n                });\n            }\n        };\n\n        $scope.getProject();\n\n        $scope.redirectToEditor = function (project_type_id, project_id, node_id, node_title) {\n            //debugger;\n            $scope.object_id = node_id;\n            $scope.user_id = userinfo.id;\n            $scope.project_id = project_id;\n            tocService.checkObjectLock($scope).then(function (data) {\n                //alert(\"ok\");\n                //console.log(data);\n                if (Number(data.current_lock)) {\n                    if ($scope.isAdminOrProjectAdmin) {\n                        SweetAlert.swal(\"Locked\", \"This page is locked by \" + data.lock_user_details + \".  Go to Project Preview to preview the page. You can unlock from ToC.\", \"info\");\n                    } else {\n                        SweetAlert.swal(\"Locked\", \"This page is locked by \" + data.lock_user_details + \".  Go to Project Preview to preview the page.\", \"info\");\n                    }\n                } else {\n                    if (project_type_id == 4) {\n                        $window.location.href = \"edupub_editor/index.html?access_token=\" + $scope.access_token + \"&project_id=\" + project_id + '&node_id=' + node_id + '&node_title=' + encodeURIComponent(node_title) + '&project_type_id=' + project_type_id + '&user_id=' + $scope.user_id + '&content_from=';\n                    }\n                    if (project_type_id == 5) {\n                        $window.location.href = \"course_editor/index.html?access_token=\" + $scope.access_token + \"&project_id=\" + project_id + '&node_id=' + node_id + '&node_title=' + encodeURIComponent(node_title) + '&project_type_id=' + project_type_id + '&content_from=';\n                    }\n                }\n            });\n        };\n    }]);",
          "comment" : ""
        },
        "redirectURL" : "",
        "headersSize" : 201,
        "bodySize" : 3622,
        "comment" : ""
      },
      "cache" : { },
      "timings" : {
        "comment" : "",
        "ssl" : -1,
        "connect" : 1086,
        "dns" : -1,
        "blocked" : -1,
        "send" : 0,
        "wait" : 0,
        "receive" : 0
      },
      "comment" : "",
      "_katalonRequestInformation" : {
        "name" : "112",
        "testObjectId" : "Temporary RESTful request object",
        "harId" : "de2f3c2c-00c1-40a8-b0da-6f59f065cc37"
      },
      "time" : 1086
    } ],
    "comment" : ""
  }
}