{
  "log" : {
    "version" : "1.2",
    "pages" : [ ],
    "entries" : [ {
      "startedDateTime" : "2019-07-17T04:42:16.321Z",
      "request" : {
        "method" : "GET",
        "url" : "https://frostedc-stg.learningmate.com/js/forums/forumsService.js",
        "httpVersion" : "",
        "cookies" : [ ],
        "headers" : [ ],
        "queryString" : [ ],
        "headersSize" : 0,
        "bodySize" : 0,
        "comment" : ""
      },
      "response" : {
        "status" : 200,
        "statusText" : "",
        "httpVersion" : "",
        "cookies" : [ ],
        "headers" : [ {
          "name" : "Accept-Ranges",
          "value" : "bytes"
        }, {
          "name" : null,
          "value" : "HTTP/1.1 200 OK"
        }, {
          "name" : "Server",
          "value" : "nginx/1.13.5"
        }, {
          "name" : "ETag",
          "value" : "\"5d2ddd74-2fd3\""
        }, {
          "name" : "Connection",
          "value" : "keep-alive"
        }, {
          "name" : "Last-Modified",
          "value" : "Tue, 16 Jul 2019 14:21:40 GMT"
        }, {
          "name" : "Content-Length",
          "value" : "12243"
        }, {
          "name" : "Date",
          "value" : "Wed, 17 Jul 2019 04:42:33 GMT"
        }, {
          "name" : "Content-Type",
          "value" : "application/javascript"
        } ],
        "content" : {
          "size" : 12243,
          "mimeType" : "application/javascript",
          "text" : "/*****\n * Specific services Forums\n * Author - Lucky chowdhury\n * Created at - 15.3.2018\n */\n'use strict';\napp.service('forumsService', ['$http', '$q', 'sessionService', '$location', '$rootScope', function ($http, $q, sessionService, $location, $rootScope) {\n\n        /*\n         * Service to get Forums list         \n         */\n        this.getForumsList = function ($scope, project_id) {\n            var deferred = $q.defer();\n            var params = {};\n            params.access_token = sessionService.get('access_token');            \n            params.pageNumber= $scope.pageNumber;\n            params.itemsPerPage=$scope.itemsPerPage;\n            params.orderDirection='DESC';\n            params.orderField='created_at';\n            params.forum_local_global = JSON.stringify($scope.forum_local_global);\n            if ($scope.project_id) {\n                params.project_id = $scope.project_id;\n            }\n            if (angular.isDefined($scope.meta_deta_search)) {\n                params.meta_deta_search = $scope.meta_deta_search;\n            }\n           \n            if (angular.isDefined($scope.search_text)) {\n                params.search_text = window.btoa($scope.search_text);\n            }            \n            if (angular.isDefined($scope.forum_id) && $scope.forum_id != '') {\n                params.forum_id = $scope.forum_id;\n            }\n            \n            if (angular.isDefined($scope.currentOrderByField)) {\n                params.orderField = $scope.currentOrderByField;\n            }\n            if (angular.isDefined($scope.reverseSort)) {\n                var dir = 'ASC';\n                if ($scope.reverseSort)\n                {\n                    dir = 'DESC';\n                }\n                params.orderDirection=dir;\n            }\n            \n            // for advance search\n            if (angular.isDefined($scope.advanced_search) && angular.isDefined($scope.advanced_search.active) && $scope.advanced_search.active) {\n                params.advanced_search_enable = $scope.advanced_search.active;\n                params.tags = JSON.stringify($scope.advanced_search.tagValue);\n                params.owners = JSON.stringify($scope.advanced_search.ownerValue);\n                params.key_data = JSON.stringify($scope.advanced_search.key_data);\n                params.value_data = JSON.stringify($scope.advanced_search.value_data);\n                params.taxonomy = JSON.stringify($scope.advanced_search.taxonomy);\n                params.advanced_search_title = window.btoa($scope.advanced_search.title);\n                var deferred = $q.defer();\n                $http.post(serviceEndPoint + 'api/v1/forum-search/project_id/' + project_id, params)\n                        .success(function (data, status, headers, config) {\n                            //console.log(data);\n                            deferred.resolve(data);\n                        }).error(function (data, status, headers, config) {\n                    $rootScope.unauthorised_redirection(data.status);\n                });\n            } else {\n                var deferred = $q.defer();            \n                $http({\n                    method: 'GET',\n                    url: serviceEndPoint + 'api/v1/forums/project_id/' + project_id,\n                    params: params\n                }).success(function (data, status, headers, config) {\n                    //console.log(data);\n                    deferred.resolve(data);\n                }).error(function (data, status, headers, config) {\n                    $rootScope.unauthorised_redirection(data.status);\n                });                \n            }\n            return deferred.promise;\n        };        \n        \n        /*\n         * Service to create forums         \n         */\n        this.saveForums = function ($scope) {\n            var deferred = $q.defer(); \n            var lms_settings =  {\n                gradable      :(angular.isUndefined($scope.forums_gradable)       ? '' : $scope.forums_gradable),\n                grade_points  :(angular.isUndefined($scope.forums_grade_points)   ? '' : $scope.forums_grade_points),\n            };\n            $http.post(serviceEndPoint + 'api/v1/forums/project_id/' + $scope.project_id + '?access_token=' + sessionService.get('access_token'), {\n                forums_title       : $scope.forums_title,\n                forums_description : $scope.forums_description,\n                tags               : (angular.isUndefined($scope.tags)       ? '' : JSON.stringify($scope.tags)),\n                key_data           : (angular.isUndefined($scope.key_data)   ? '' : JSON.stringify($scope.key_data)),\n                value_data         : (angular.isUndefined($scope.value_data) ? '' : JSON.stringify($scope.value_data)),\n                taxonomy           : (angular.isUndefined($scope.taxonomy)   ? '' : JSON.stringify($scope.taxonomy)),\n                lms_settings       : JSON.stringify(lms_settings),\n            }).success(function (data, status, headers, config) { \n                deferred.resolve(data);\n            }).error(function (data, status, headers, config) {\n                deferred.resolve(data);              \n            });\n\n            return deferred.promise;\n        }\n        /*\n         * Get Forums Details By Id\n         */\n        this.getForumsDetailsById = function ($scope, forums_id) {\n            var params = {};\n            params.access_token = sessionService.get('access_token');\n            var deferred = $q.defer();\n            var queryString = '';\n            $http.get(serviceEndPoint + 'api/v1/forums/forums_id/' + forums_id + '?access_token=' + sessionService.get('access_token') + queryString, {\n            }).success(function (data, status, headers, config) {\n                deferred.resolve(data);\n            }).error(function (data, status, headers, config) {\n                $rootScope.unauthorised_redirection(data.status);\n            });\n            return deferred.promise;\n        };\n        \n        /*\n         * Service to edit forums\n         */\n        this.editForums = function ($scope) {\n            var deferred = $q.defer();\n            var lms_settings =  {\n                gradable      :(angular.isUndefined($scope.forums_gradable)       ? '' : $scope.forums_gradable),\n                grade_points  :(angular.isUndefined($scope.forums_grade_points)   ? '' : $scope.forums_grade_points),\n            };            \n            if(!lms_settings.gradable){\n                lms_settings.gradable ='';\n                lms_settings.grade_points ='';\n            } \n            $http.post(serviceEndPoint + 'api/v1/forums/forums_id/' + $scope.forums_id + '?access_token=' + sessionService.get('access_token'), {\n                forums_id         : $scope.forums_id,\n                forums_title      : $scope.forums_title,\n                forums_description: $scope.forums_description ,\n                project_id        : $scope.project_id,\n                tags              : (angular.isUndefined($scope.tags)       ? '' : JSON.stringify($scope.tags)),\n                key_data          : (angular.isUndefined($scope.key_data)   ? '' : JSON.stringify($scope.key_data)),\n                value_data        : (angular.isUndefined($scope.value_data) ? '' : JSON.stringify($scope.value_data)),\n                taxonomy          : (angular.isUndefined($scope.taxonomy)   ? '' : JSON.stringify($scope.taxonomy)),\n                lms_settings      : JSON.stringify(lms_settings),\n            }).success(function (data, status, headers, config) {\n                deferred.resolve(data);\n            }).error(function (data, status, headers, config) {\n                $rootScope.unauthorised_redirection(data.status);\n            });\n            return deferred.promise;\n        }\n \n        /*\n         * Delete Forums         \n         */\n        this.deleleteForums = function (forums_id, project_id) {\n            var deferred = $q.defer();\n            $http.delete(serviceEndPoint + 'api/v1/forums/forums_id/' + forums_id + '?access_token=' + sessionService.get('access_token'), {\n                project_id: project_id,\n            }).success(function (data, status, headers, config) {\n                if (data.projectPermissionGranted == 401) {\n                    $rootScope.move_unauthorised_user_to_toc_with_message(data.projectPermissionGranted, project_id);\n                }\n                deferred.resolve(data);\n            }).error(function (data, status, headers, config) {\n                deferred.resolve(data);\n                $rootScope.unauthorised_redirection(data.status);\n            });\n            return deferred.promise;\n        }\n\n        /*\n         * Service to get Forums Preview       \n         */\n        this.getForumsPreview = function ($scope) {\n            var deferred = $q.defer();\n            var queryString = '&project_id=' + $scope.project_id + '&project_type_id=' + $scope.project_type_id + '&forums_id=' + $scope.forums_id+ '&entity_type_id=' + $scope.entity_type_id;\n            \n            $http.get(serviceEndPoint + 'api/v1/forums-object-preview?access_token=' + sessionService.get('access_token') + queryString, {\n            }).success(function (data, status, headers, config) {\n                deferred.resolve(data);            \n            }).error(function (data, status, headers, config) {\n                $rootScope.unauthorised_redirection(data.status);\n            });\n            return deferred.promise;\n\n        };\n              \n        /*this.getGlobalAssignments = function ($scope) {\n            var params = {};\n            var deferred = $q.defer();\n\n            if (angular.isDefined($scope.currentOrderByField)) {\n                params.orderField = $scope.currentOrderByField;\n            }\n\n            if (angular.isDefined($scope.searchModel.search_text)) {\n                params.search_text = window.btoa($scope.searchModel.search_text);\n            }\n\n            if (angular.isDefined($scope.reverseSort)) {\n                var dir = 'ASC';\n                if ($scope.reverseSort)\n                {\n                    dir = 'DESC';\n                }\n                params.orderDirection = dir;\n            }\n            params.access_token = sessionService.get('access_token');\n            if (angular.isDefined($scope.pageNumber) && angular.isDefined($scope.itemsPerPage)) {\n                params.pageNumber = $scope.pageNumber;\n                params.itemsPerPage = $scope.itemsPerPage;\n            }\n\n            var deferred = $q.defer();\n            // for advance search\n            if (angular.isDefined($scope.advanced_search.active) && $scope.advanced_search.active) {\n                params.advanced_search_enable = $scope.advanced_search.active;\n                params.tags = JSON.stringify($scope.advanced_search.tagValue);\n                params.owners = JSON.stringify($scope.advanced_search.ownerValue);\n                params.key_data = JSON.stringify($scope.advanced_search.key_data);\n                params.value_data = JSON.stringify($scope.advanced_search.value_data);\n                params.taxonomy = JSON.stringify($scope.advanced_search.taxonomy);\n                params.advanced_search_title = window.btoa($scope.advanced_search.title);\n                params.access_token = sessionService.get('access_token');\n\n                $http.post(serviceEndPoint + 'api/v1/global-assignment-search', params)\n                        .success(function (data, status, headers, config) {\n                            deferred.resolve(data);\n                        }).error(function (data, status, headers, config) {\n                    $rootScope.unauthorised_redirection(data.status);\n                });\n            } else {\n                $http({\n                    method: 'GET',\n                    url: serviceEndPoint + 'api/v1/global-assignment',\n                    params: params\n                }).success(function (data, status, headers, config) {\n                    deferred.resolve(data);\n                }).error(function (data, status, headers, config) {\n                    $rootScope.unauthorised_redirection(data.status);\n                });\n            }\n            return deferred.promise;\n        };*/\n\n    }]);\n\n",
          "comment" : ""
        },
        "redirectURL" : "",
        "headersSize" : 203,
        "bodySize" : 12243,
        "comment" : ""
      },
      "cache" : { },
      "timings" : {
        "comment" : "",
        "ssl" : -1,
        "connect" : 1075,
        "dns" : -1,
        "blocked" : -1,
        "send" : 0,
        "wait" : 0,
        "receive" : 0
      },
      "comment" : "",
      "_katalonRequestInformation" : {
        "name" : "121",
        "testObjectId" : "Temporary RESTful request object",
        "harId" : "3b170137-40a8-49e9-be87-f89c40ae12ae"
      },
      "time" : 1075
    } ],
    "comment" : ""
  }
}