{
  "log" : {
    "version" : "1.2",
    "pages" : [ ],
    "entries" : [ {
      "startedDateTime" : "2019-07-17T04:42:35.523Z",
      "request" : {
        "method" : "GET",
        "url" : "https://frostedc-stg.learningmate.com/js/metadata/metadata.js",
        "httpVersion" : "",
        "cookies" : [ ],
        "headers" : [ ],
        "queryString" : [ ],
        "headersSize" : 0,
        "bodySize" : 0,
        "comment" : ""
      },
      "response" : {
        "status" : 200,
        "statusText" : "",
        "httpVersion" : "",
        "cookies" : [ ],
        "headers" : [ {
          "name" : "Accept-Ranges",
          "value" : "bytes"
        }, {
          "name" : null,
          "value" : "HTTP/1.1 200 OK"
        }, {
          "name" : "Server",
          "value" : "nginx/1.13.5"
        }, {
          "name" : "ETag",
          "value" : "\"5d2ddd74-274\""
        }, {
          "name" : "Connection",
          "value" : "keep-alive"
        }, {
          "name" : "Last-Modified",
          "value" : "Tue, 16 Jul 2019 14:21:40 GMT"
        }, {
          "name" : "Content-Length",
          "value" : "628"
        }, {
          "name" : "Date",
          "value" : "Wed, 17 Jul 2019 04:42:52 GMT"
        }, {
          "name" : "Content-Type",
          "value" : "application/javascript"
        } ],
        "content" : {
          "size" : 628,
          "mimeType" : "application/javascript",
          "text" : "'use strict';\n\napp.controller('metadata', ['$scope', '$location', '$http', 'sessionService', '$rootScope', function ($scope, $location, $http, sessionService, $rootScope) {\n        $scope.access_token = sessionService.get('access_token');\n        var userinfo = JSON.parse(sessionService.get('userinfo'));\n        $scope.user_permissions = JSON.parse(sessionService.get('user_permissions'));\n\n        if (!$scope.user_permissions['key_value.show.all'].grant && !$scope.user_permissions['tag.show.all'].grant && !$scope.user_permissions['taxonomy.show.all'].grant) {\n            $rootScope.goto('dashboard');\n        }\n\n    }]);\n",
          "comment" : ""
        },
        "redirectURL" : "",
        "headersSize" : 200,
        "bodySize" : 628,
        "comment" : ""
      },
      "cache" : { },
      "timings" : {
        "comment" : "",
        "ssl" : -1,
        "connect" : 1067,
        "dns" : -1,
        "blocked" : -1,
        "send" : 0,
        "wait" : 0,
        "receive" : 0
      },
      "comment" : "",
      "_katalonRequestInformation" : {
        "name" : "137",
        "testObjectId" : "Temporary RESTful request object",
        "harId" : "4085ba8b-6d95-484b-9864-4fbc2bbc22e0"
      },
      "time" : 1067
    } ],
    "comment" : ""
  }
}