{
  "log" : {
    "version" : "1.2",
    "pages" : [ ],
    "entries" : [ {
      "startedDateTime" : "2019-07-17T04:41:15.832Z",
      "request" : {
        "method" : "GET",
        "url" : "https://frostedc-stg.learningmate.com/js/settings.js",
        "httpVersion" : "",
        "cookies" : [ ],
        "headers" : [ ],
        "queryString" : [ ],
        "headersSize" : 0,
        "bodySize" : 0,
        "comment" : ""
      },
      "response" : {
        "status" : 200,
        "statusText" : "",
        "httpVersion" : "",
        "cookies" : [ ],
        "headers" : [ {
          "name" : "Accept-Ranges",
          "value" : "bytes"
        }, {
          "name" : null,
          "value" : "HTTP/1.1 200 OK"
        }, {
          "name" : "Server",
          "value" : "nginx/1.13.5"
        }, {
          "name" : "ETag",
          "value" : "\"5d2ddd74-339\""
        }, {
          "name" : "Connection",
          "value" : "keep-alive"
        }, {
          "name" : "Last-Modified",
          "value" : "Tue, 16 Jul 2019 14:21:40 GMT"
        }, {
          "name" : "Content-Length",
          "value" : "825"
        }, {
          "name" : "Date",
          "value" : "Wed, 17 Jul 2019 04:41:32 GMT"
        }, {
          "name" : "Content-Type",
          "value" : "application/javascript"
        } ],
        "content" : {
          "size" : 825,
          "mimeType" : "application/javascript",
          "text" : "'use strict';\n\napp.controller('settings', ['$scope', '$location', '$http', 'sessionService', '$rootScope','$routeParams', function ($scope, $location, $http, sessionService, $rootScope,$routeParams) {\n        $scope.access_token = sessionService.get('access_token');\n        var userinfo = JSON.parse(sessionService.get('userinfo'));\n        $scope.user_permissions = JSON.parse(sessionService.get('user_permissions'));\n\n        if (userinfo.role_id !== 1) {\n           $rootScope.goto('dashboard');\n        }\n        \n        if (angular.isDefined($routeParams.tab) && $routeParams.tab == \"users\") {\n            $('.nav-tabs a[href=\"#user\"]').tab('show');\n        }else if(angular.isDefined($routeParams.tab) && $routeParams.tab == \"projects\"){\n            $('.nav-tabs a[href=\"#project\"]').tab('show');\n        }\n\n    }]);\n",
          "comment" : ""
        },
        "redirectURL" : "",
        "headersSize" : 200,
        "bodySize" : 825,
        "comment" : ""
      },
      "cache" : { },
      "timings" : {
        "comment" : "",
        "ssl" : -1,
        "connect" : 1056,
        "dns" : -1,
        "blocked" : -1,
        "send" : 0,
        "wait" : 0,
        "receive" : 0
      },
      "comment" : "",
      "_katalonRequestInformation" : {
        "name" : "73",
        "testObjectId" : "Temporary RESTful request object",
        "harId" : "42cdd338-97a9-4cb7-9c30-83448c1422a3"
      },
      "time" : 1056
    } ],
    "comment" : ""
  }
}