{
  "log" : {
    "version" : "1.2",
    "pages" : [ ],
    "entries" : [ {
      "startedDateTime" : "2019-07-17T04:41:33.112Z",
      "request" : {
        "method" : "GET",
        "url" : "https://frostedc-stg.learningmate.com/js/glossary/glossaryController.js",
        "httpVersion" : "",
        "cookies" : [ ],
        "headers" : [ ],
        "queryString" : [ ],
        "headersSize" : 0,
        "bodySize" : 0,
        "comment" : ""
      },
      "response" : {
        "status" : 200,
        "statusText" : "",
        "httpVersion" : "",
        "cookies" : [ ],
        "headers" : [ {
          "name" : "Accept-Ranges",
          "value" : "bytes"
        }, {
          "name" : null,
          "value" : "HTTP/1.1 200 OK"
        }, {
          "name" : "Server",
          "value" : "nginx/1.13.5"
        }, {
          "name" : "ETag",
          "value" : "\"5d2ddd74-4c3f\""
        }, {
          "name" : "Connection",
          "value" : "keep-alive"
        }, {
          "name" : "Last-Modified",
          "value" : "Tue, 16 Jul 2019 14:21:40 GMT"
        }, {
          "name" : "Content-Length",
          "value" : "19519"
        }, {
          "name" : "Date",
          "value" : "Wed, 17 Jul 2019 04:41:50 GMT"
        }, {
          "name" : "Content-Type",
          "value" : "application/javascript"
        } ],
        "content" : {
          "size" : 19519,
          "mimeType" : "application/javascript",
          "text" : "/*****\n * Controller for project\n * Author - Arikh Akher * \n */\n\n'use strict';\napp.controller('glossary', ['$scope', '$http', 'sessionService', '$location', 'glossaryService', '$rootScope', '$modal', '$log', 'SweetAlert', '$routeParams', 'objectService', '$filter', 'paginationService', function ($scope, $http, sessionService, $location, glossaryService, $rootScope, $modal, $log, SweetAlert, $routeParams, objectService, $filter, paginationService) {\n\n        $scope.access_token = sessionService.get('access_token');\n        $scope.user_permissions = JSON.parse(sessionService.get('user_permissions'));\n        var userinfo = JSON.parse(sessionService.get('userinfo'));\n\n        $scope.project_id = $routeParams.project_id;\n        $scope.nodeTitle = $routeParams.title;\n        //Check if the session is active\t\n        $rootScope.checkActiveSession();\n        if (!$scope.access_token || userinfo == null) {\n            $location.path('logout');\n            return true;\n        }\n        objectService.getProjectDetails($scope).then(function (data) {\n            if (data == null || (angular.isDefined(data.is_global_project) && data.is_global_project == true)) {\n                $location.path(\"edit_toc/\" + $scope.project_id);\n            } else if (angular.isObject(data)) {\n                $scope.object_details = data;\n                $scope.project = data;\n                $scope.project.project_permissions = data.project_permissions//{'project_permissions': data.project_permissions};\n            }\n\n\n\n        });\n\n        //For pagination\n        $scope.currentPage = 1;\n        $scope.pageNumber = '';\n        $scope.itemsPerPage = '';\n        //\n        $scope.getList = function (char_code, pageNumber) {\n            $scope.pageNumber = pageNumber;\n            $scope.currentPage = pageNumber;\n            $scope.itemsPerPage = 10;\n            $scope.glossary_id = \"\";\n            $scope.char_code = char_code;\n            glossaryService.getGlossary($scope).then(function (data) {\n                $scope.glossaryList = data.data;\n                $scope.totalGlossary = data.totalGlossary;\n\n                $scope.charList = [];\n                for (var i = 65; i <= 90; i++) {\n                    var obj = {};\n                    obj.code = i;\n                    obj.char = '&#' + i + ';';\n                    $scope.charList.push(obj);\n                }\n                //jQuery('.editor-loader').remove();\n                //jQuery('body').css('overflow', '');\n            });\n        };\n\n        $scope.getList('', 1);\n\n        $scope.getListByChar = function (char_code) {\n            $scope.pageChangeHandlerGlossary(char_code, 1);\n        };\n\n        //For Pagination Of Dashboard\n        $scope.pageChangeHandlerGlossary = function (char_code, newPage) {\n            if ($scope.pageNumber > 1) { $scope.setCurrentPageNumber(newPage); }\n            $scope.getList(char_code, newPage);\n            \n        };\n\n        $scope.setCurrentPageNumber = function (num) {\n            paginationService.setCurrentPage('glossaryListId', num);\n        };\n\n        $scope.addGlossaryForm = function (size, term) {\n\n            //$scope.child = child;\n            var modalInstance = $modal.open({\n                templateUrl: 'templates/glossary/myModalContent.html',\n                controller: 'ModalInstanceGlossaryCtrl',\n                size: size,\n                backdrop: 'static',\n                keyboard: false,\n                resolve: {\n                    glossaryRec: function () {\n                        return '';\n                    },\n                    modalFormText: function () {\n                        return \"You are trying to add a new glossary\";\n                    },\n                    modalFormTile: function () {\n                        return \"Add Glossary\";\n                    },\n                    project_id: function () {\n                        return $scope.project_id;\n                    },\n                    term: function () {\n                        return term;\n                    }\n                }\n            });\n            modalInstance.result.then(function (data) {\n                /*glossaryService.getGlossary($scope).then(function (data) {\n                    $scope.glossaryList = data.data;\n                    $scope.totalGlossary = data.totalGlossary;\n                });*/\n                $scope.pageChangeHandlerGlossary('',1);\n\n                if (typeof (htmlEditor) != \"undefined\" && htmlEditor.toAddClass == 1) {\n                    htmlEditor.highlightGlossayText(data.description);\n                }\n            }, function () {\n                $log.info('Modal dismissed at: ' + new Date());\n            });\n        };\n\n        $scope.editGlossary = function (size, id) {\n            var glossaryRec = {};\n            $scope.glossary_id = id;\n            glossaryService.getGlossary($scope).then(function (data) {\n                glossaryRec = data.data;\n                $scope.glossaryRecTerm = data.data[0].term;\n                var modalInstance = $modal.open({\n                    templateUrl: 'templates/glossary/myModalContent.html',\n                    controller: 'ModalInstanceGlossaryCtrl',\n                    size: size,\n                    backdrop: 'static',\n                    keyboard: false,\n                    resolve: {\n                        glossaryRec: function () {\n                            return glossaryRec;\n                        },\n                        modalFormText: function () {\n                            return \"You are trying to edit glossary term [\" + $scope.glossaryRecTerm + \"]\";\n                        },\n                        modalFormTile: function () {\n                            return \"Edit Glossary\";\n                        },\n                        project_id: function () {\n                            return $scope.project_id;\n                        },\n                        term: function () {\n                            return '';\n                        }\n                    }\n                });\n\n                modalInstance.result.then(function (data) {\n                    $scope.glossary_id = '';\n                    glossaryService.getGlossary($scope).then(function (data) {\n                        $scope.glossaryList = data.data;\n                    });\n                    if (typeof (htmlEditor) != \"undefined\" && htmlEditor.toAddClass == 1) {\n                        htmlEditor.highlightGlossayText(data.description);\n                    }\n                }, function () {\n                    $log.info('Modal dismissed at: ' + new Date());\n                });\n            });\n        };\n\n        $scope.viewGlossary = function (size, id) {\n            var glossaryRec = {};\n            $scope.glossary_id = id;\n            glossaryService.getGlossary($scope).then(function (data) {\n                glossaryRec = data.data;\n\n                var modalInstance = $modal.open({\n                    templateUrl: 'templates/glossary/myModalContentView.html',\n                    controller: 'ModalInstanceGlossaryCtrl',\n                    size: size,\n                    backdrop: 'static',\n                    keyboard: false,\n                    resolve: {\n                        glossaryRec: function () {\n                            return glossaryRec;\n                        },\n                        modalFormText: function () {\n                            return \"You are trying to view a glossary\";\n                        },\n                        modalFormTile: function () {\n                            return \"View Glossary\";\n                        },\n                        project_id: function () {\n                            return $scope.project_id;\n                        },\n                        term: function () {\n                            return '';\n                        }\n                    }\n                });\n\n                modalInstance.result.then(function () {\n\n                }, function () {\n                    $log.info('Modal dismissed at: ' + new Date());\n                });\n            });\n        };\n\n\n        $scope.deleteGlossary = function (id, project_id) {\n\n            SweetAlert.swal({\n                title: \"Are you sure?\",\n                text: \"You will not be able to recover this glossary!\",\n                type: \"warning\",\n                showCancelButton: true,\n                confirmButtonColor: \"#DD6B55\",\n                confirmButtonText: \"Yes, delete it!\",\n                cancelButtonText: \"No, cancel!\",\n                closeOnConfirm: false,\n                closeOnCancel: false\n            }, function (isConfirm) {\n                if (isConfirm) {\n                    glossaryService.delGlossary(id, project_id).then(function () {\n                        $scope.glossary_id = '';\n                        glossaryService.getGlossary($scope).then(function (data) {\n                            $scope.glossaryList = data.data;\n                            $scope.totalGlossary = data.totalGlossary;\n                        });\n                    });\n                    SweetAlert.swal(\"Success\", \"Glossary has been deleted\", \"success\");\n                } else {\n                    SweetAlert.swal(\"Cancelled\", \"Glossary is safe :)\", \"error\");\n                }\n            });\n\n        };\n\n        $scope.redirectPage = function () {\n            $location.path($scope.redirpage);\n        };\n\n        //Upload Flow\n        var scopecounter = 0;\n        $scope.MsgCounter = 1;\n        $scope.SuccessMsgCounter = 0;\n        $scope.fileUploadMessage = '';\n        $scope.$watch('$flow.progress()', function (val) {\n            if ($filter('number')(val * 100, 0) == 100) {\n\n            }\n        });\n        $scope.$on('flow::fileAdded', function (event, $flow, flowFile) {\n            $flow.opts.query = {project_id: $scope.project_id, temp_guid: guid('')};\n        });\n\n        $scope.uploader = {\n            controllerFn: function ($flow, $file, $message) {\n                $file.msg = $message; // Just display message for a convenience\n                if ($file.size == 0) {\n                    $scope.fileUploadMessage += '<p> File <span style=\"word-wrap: break-word;\">' + $file.name + '<span> should have some content' + '</p>';\n                    $scope.MsgCounter = $scope.MsgCounter + 1;\n                } else {\n                    if ($file.msg.split(':')[0] == 'Error') {\n                        $scope.fileUploadMessage += '<p>' + $file.msg.substring($file.msg.indexOf(':') + 1) + ' </p>';\n                        $scope.MsgCounter = $scope.MsgCounter + 1;\n                    } else {\n                        $scope.SuccessMsgCounter = $scope.SuccessMsgCounter + 1;\n                    }\n                }\n                scopecounter = scopecounter + 1;\n                if ($scope.$flow.files.length === scopecounter) {\n                    if ($scope.SuccessMsgCounter > 0) {\n                        if ($scope.MsgCounter === 1) {\n                            $scope.HtmlSuccess = '<p>';\n                        } else {\n                            $scope.HtmlSuccess = '<p style=\"text-align:left\">' + $scope.MsgCounter + '. ';\n                        }\n                        if ($file.msg.split(':')[0] == 'Success') {\n                            $scope.fileUploadMessage += $file.msg.split(':')[1] + '</p>';\n                        } else {\n                            $scope.fileUploadMessage += $file.msg.split(':')[1] + ' </p>';\n                        }\n                        $scope.pageChangeHandlerGlossary('', 1);\n                        SweetAlert.swal({html: $scope.fileUploadMessage, width: 540, type: \"success\"});\n                    }else{\n                       SweetAlert.swal({html: $scope.fileUploadMessage, width: 540, type: \"warning\"}); \n                    }\n                    $scope.$flow.files.length = 0;\n                    scopecounter = 0;\n                    $scope.fileUploadMessage = '';\n                    $scope.MsgCounter = 1;\n                    $scope.SuccessMsgCounter = 0;\n                }\n            }\n        };\n\n\n        $scope.downloadCSV = function () {\n            $scope.itemsPerPage = 0;\n            glossaryService.getGlossary($scope).then(function (data) {\n                $scope.glossaryAllList = data.data;\n                $scope.totalGlossary = data.totalGlossary;\n                //console.info($scope.glossaryAllList);\n                var glossaryCsvArr = [];\n\n                angular.forEach($scope.glossaryAllList, function (value, key) {\n                    var glossaryCsv = {};\n                    glossaryCsv.Term = value.term;\n                    glossaryCsv.Description = value.description.trim();\n                    glossaryCsvArr.push(glossaryCsv);\n                });\n\n                $scope.JSONToCSVConvertor(glossaryCsvArr, \"Glossary of \" + $scope.object_details.name, true);\n            });\n        };\n\n        $scope.downloadSample = function () {\n            var CSV = '';\n            //This condition will generate the Label/Header\n            var row = \"Term,Description\";\n            //append Label row with line break\n            CSV += row + '\\r\\n';\n            var row = \"Term1,Description1\";\n            //add a line break after each row\n            CSV += row + '\\r\\n';\n            //Initialize file format you want csv or xls\n            var uri = 'data:text/csv;charset=utf-8,' + escape(CSV);\n            var link = document.createElement(\"a\");\n            link.href = uri;\n            //set the visibility hidden so it will not effect on your web-layout\n            link.style = \"visibility:hidden\";\n            link.download = \"sample.csv\";\n            //this part will append the anchor tag and remove it after automatic click\n            document.body.appendChild(link);\n            link.click();\n            document.body.removeChild(link);\n        };\n\n        $scope.JSONToCSVConvertor = function (JSONData, ReportTitle, ShowLabel) {\n            //If JSONData is not an object then JSON.parse will parse the JSON string in an Object\n            var arrData = typeof JSONData != 'object' ? JSON.parse(JSONData) : JSONData;\n\n            var CSV = '';\n            //Set Report title in first row or line\n\n            CSV += ReportTitle + '\\r\\n\\n';\n\n            //This condition will generate the Label/Header\n            if (ShowLabel) {\n                var row = \"\";\n\n                //This loop will extract the label from 1st index of on array\n                for (var index in arrData[0]) {\n\n                    //Now convert each value to string and comma-seprated\n                    row += index + ',';\n                }\n\n                row = row.slice(0, -1);\n\n                //append Label row with line break\n                CSV += row + '\\r\\n';\n            }\n\n            //1st loop is to extract each row\n            for (var i = 0; i < arrData.length; i++) {\n                var row = \"\";\n\n                //2nd loop will extract each column and convert it in string comma-seprated\n                for (var index in arrData[i]) {\n                    row += '\"' + arrData[i][index] + '\",';\n                }\n\n                row.slice(0, row.length - 1);\n\n                //add a line break after each row\n                CSV += row + '\\r\\n';\n            }\n\n            if (CSV == '') {\n                alert(\"Invalid data\");\n                return;\n            }\n\n            //Generate a file name\n            var fileName = \"\";\n            //this will remove the blank-spaces from the title and replace it with an underscore\n            fileName += ReportTitle.replace(/ /g, \"_\");\n\n            //Initialize file format you want csv or xls\n            var uri = 'data:text/csv;charset=utf-8,' + escape(CSV);\n\n            // Now the little tricky part.\n            // you can use either>> window.open(uri);\n            // but this will not work in some browsers\n            // or you will not get the correct file extension    \n\n            //this trick will generate a temp <a /> tag\n            var link = document.createElement(\"a\");\n            link.href = uri;\n\n            //set the visibility hidden so it will not effect on your web-layout\n            link.style = \"visibility:hidden\";\n            link.download = fileName + \".csv\";\n\n            //this part will append the anchor tag and remove it after automatic click\n            document.body.appendChild(link);\n            link.click();\n            document.body.removeChild(link);\n        };\n\n    }]);\n\n\napp.controller('ModalInstanceGlossaryCtrl', function ($scope, glossaryService, sessionService, $modalInstance, modalFormText, modalFormTile, glossaryRec, project_id, term) {\n    $scope.showedit = 0;\n    $scope.modalFormText = modalFormText;\n    $scope.modalFormTile = modalFormTile;\n    $scope.project_id = project_id;\n    $scope.term = term;\n    $scope.user_permissions = JSON.parse(sessionService.get('user_permissions'));\n\n    if (glossaryRec.length) {\n        $scope.glossary_id = glossaryRec[0].id;\n        $scope.term = glossaryRec[0].term;\n        $scope.description = glossaryRec[0].description;\n        $scope.showedit = glossaryRec.length;\n    } else {\n        $scope.showedit = 0;\n    }\n\n    $scope.add = function () {\n        $scope.formError = {'term': '', 'description': ''};\n        //if (angular.isUndefined($scope.term) == false && angular.isUndefined($scope.description) == false) {\n        glossaryService.saveGlossary($scope).then(function (savedResponse) {\n            if (savedResponse.status == '200') {\n                $modalInstance.close($scope);\n            } else {\n                if (angular.isDefined(savedResponse.message) && savedResponse.message.split(':')[0] == 'Error') {\n                    $scope.formError['description'] = savedResponse.message.substring(savedResponse.message.indexOf(':') + 1)\n                } else {\n                    if (angular.isDefined(savedResponse.error.term)) {\n                        $scope.formError['term'] = savedResponse.error.term['0'];\n                    }\n                    if (angular.isDefined(savedResponse.error.description)) {\n                        $scope.formError['description'] = savedResponse.error.description['0'];\n                    }\n                }\n            }\n\n        });\n        //}\n    };\n\n    $scope.edit = function () {\n        $scope.formError = {'term': '', 'description': ''};\n        //if (angular.isUndefined($scope.term) == false && angular.isUndefined($scope.description) == false) {\n        glossaryService.editGlossary($scope).then(function (savedResponse) {\n            if (savedResponse.status == '200') {\n                $modalInstance.close($scope);\n            } else {\n                if (angular.isDefined(savedResponse.message) && savedResponse.message.split(':')[0] == 'Error') {\n                    $scope.formError['description'] = savedResponse.message.substring(savedResponse.message.indexOf(':') + 1)\n                } else {\n                    if (angular.isDefined(savedResponse.error.term)) {\n                        $scope.formError['term'] = savedResponse.error.term['0'];\n                    }\n                    if (angular.isDefined(savedResponse.error.description)) {\n                        $scope.formError['description'] = savedResponse.error.description['0'];\n                    }\n                }\n            }\n\n        });\n        //}\n    };\n\n    $scope.cancel = function () {\n        $modalInstance.dismiss('cancel');\n    };\n\n});",
          "comment" : ""
        },
        "redirectURL" : "",
        "headersSize" : 203,
        "bodySize" : 19519,
        "comment" : ""
      },
      "cache" : { },
      "timings" : {
        "comment" : "",
        "ssl" : -1,
        "connect" : 1345,
        "dns" : -1,
        "blocked" : -1,
        "send" : 0,
        "wait" : 0,
        "receive" : 0
      },
      "comment" : "",
      "_katalonRequestInformation" : {
        "name" : "87",
        "testObjectId" : "Temporary RESTful request object",
        "harId" : "fe1db3c0-218a-4dd1-ab93-52d30635c72c"
      },
      "time" : 1345
    } ],
    "comment" : ""
  }
}