{
  "log" : {
    "version" : "1.2",
    "pages" : [ ],
    "entries" : [ {
      "startedDateTime" : "2019-07-17T04:41:37.797Z",
      "request" : {
        "method" : "GET",
        "url" : "https://frostedc-stg.learningmate.com/js/comment/globalCommentController.js",
        "httpVersion" : "",
        "cookies" : [ ],
        "headers" : [ ],
        "queryString" : [ ],
        "headersSize" : 0,
        "bodySize" : 0,
        "comment" : ""
      },
      "response" : {
        "status" : 200,
        "statusText" : "",
        "httpVersion" : "",
        "cookies" : [ ],
        "headers" : [ {
          "name" : "Accept-Ranges",
          "value" : "bytes"
        }, {
          "name" : null,
          "value" : "HTTP/1.1 200 OK"
        }, {
          "name" : "Server",
          "value" : "nginx/1.13.5"
        }, {
          "name" : "ETag",
          "value" : "\"5d2ddd74-429e\""
        }, {
          "name" : "Connection",
          "value" : "keep-alive"
        }, {
          "name" : "Last-Modified",
          "value" : "Tue, 16 Jul 2019 14:21:40 GMT"
        }, {
          "name" : "Content-Length",
          "value" : "17054"
        }, {
          "name" : "Date",
          "value" : "Wed, 17 Jul 2019 04:41:54 GMT"
        }, {
          "name" : "Content-Type",
          "value" : "application/javascript"
        } ],
        "content" : {
          "size" : 17054,
          "mimeType" : "application/javascript",
          "text" : "'use strict';\napp.controller('global_comment', ['$scope', '$http', 'Comment', '$routeParams', 'sessionService', 'objectService', 'SweetAlert', 'globalCommentService', 'projectService', '$location','$rootScope', function ($scope, $http, Comment, $routeParams, sessionService, objectService, SweetAlert, globalCommentService, projectService, $location, $rootScope) {\n\n        $scope.access_token = sessionService.get('access_token');\n        $scope.user_permissions = JSON.parse(sessionService.get('user_permissions'));\n        var userinfo = JSON.parse(sessionService.get('userinfo'));\n        $scope.loggedid_user = userinfo.id;\n        $scope.project_id = $routeParams.project_id;\n\n        //Check if the session is active\t\n        $rootScope.checkActiveSession();\n        if (!$scope.access_token || userinfo == null) {\n            $location.path('logout');\n            return true;\n        }\n\n        $scope.ticket_status = [];\n        $scope.ticket_issue_types = [];\n        $scope.project_users = [];\n        //$scope.commentData['ticket_issue_types'] = 1;\n        $scope.commentData = {'text': '', 'ticket_issue_types': '', 'ticket_status': '', 'project_users': ''};\n        $scope.replyData = [];\n\n        var type_arr = [];\n        var status_arr = [];\n        var proj_users_arr;\n        $scope.prepareTicketTypes = function () {\n            //Preparing Ticket Type Array            \n            for (var i in $scope.ticket_issue_types) {\n                if ($scope.ticket_issue_types.hasOwnProperty(i)) {\n                    var obj = {};\n                    obj['id'] = i;\n                    obj['name'] = $scope.ticket_issue_types[i];\n                    type_arr.push(obj);\n                }\n            }\n            $scope.ticket_issue_types = type_arr;\n            $scope.commentData.ticket_issue_types = type_arr[1];\n        }\n\n        $scope.getTicketTypeStatus = function () {\n            globalCommentService.getTicketTypeStatus($scope).then(function (data) {\n                $scope.ticket_status = data.data.ticket_status;\n                $scope.ticket_issue_types = data.data.ticket_issue_types;\n\n                //Preparing Ticket Type Array\n                $scope.prepareTicketTypes();\n\n                $scope.$watch('scope.commentData.ticket_issue_types', function (newValue, oldValue) {\n                    //Preparing Ticket Status Array                    \n                    for (var i in $scope.ticket_status) {\n                        if ($scope.ticket_status.hasOwnProperty(i)) {\n                            var obj = {};\n                            obj['id'] = i;\n                            obj['name'] = $scope.ticket_status[i];\n                            status_arr.push(obj);\n                        }\n                    }\n                    $scope.ticket_status = status_arr;\n                    $scope.commentData.ticket_status = status_arr[0];\n                });\n\n                $scope.$watch('scope.commentData.ticket_status', function (newValue, oldValue) {\n                    projectService.get_mapapped_users($scope).then(function (data) {\n                        $scope.project_users = data.data;\n                        $scope.commentData.project_users = $scope.project_users[0];\n                        proj_users_arr = data.data;\n                    });\n                });\n\n            });\n        }\n        $scope.getProject = function () {\n            $scope.project_name = '';\n            if ($scope.project_id != '') {\n                objectService.getProjectDetails($scope).then(function (data) {\n                    if (data == null || (angular.isDefined(data.is_global_project) && data.is_global_project==true)) {\n                        $location.path(\"edit_toc/\" + $scope.project_id);\n                    } else if (angular.isObject(data)) {\n                        $scope.project_name = data.name;\n                        $scope.project_description = data.description;\n                        $scope.toc_creation_status = data.toc_creation_status;\n                        $scope.project = data;\n                        $scope.project.project_permissions = data.project_permissions;\n                        $scope.project.theme = data.theme_location;\n\n                        //Get Ticket Type Status\n                        $scope.getTicketTypeStatus();\n                    }\n                });\n            }\n        }\n        $scope.getProject();\n\n        $scope.$watch('commentData.project_users', function (newValue, oldValue) {\n            //console.log(newValue);\n            $scope.getComments();\n        }, true);\n\n        $scope.formError = {'text': ''};\n        $scope.submitComment = function () {\n            $scope.formError = {'text': '', 'project_users': '', 'ticket_issue_types': '', 'ticket_status': ''};\n            // save the comment. pass in comment data from the form\n            // use the function we created in our service\n            $scope.commentResponse = {'showMsg': 0, 'message': '', 'status': ''};\n            $scope.commentData.project_id = $routeParams.project_id;\n            globalCommentService.saveTicket($scope, $scope.commentData).then(function (data) {\n                $scope.commentResponse.showMsg = 1;\n                $scope.commentResponse.message = data.message;\n                $scope.commentResponse.status = data.status;\n                if (data.status == '400') {\n                    $scope.formError.text = (angular.isDefined(data.error.issue_description[0]) ? data.error.issue_description[0] : '');\n                    $scope.formError.project_users = (angular.isDefined(data.error.assigned_to[0]) ? data.error.assigned_to[0] : '');\n                    $scope.formError.ticket_issue_types = (angular.isDefined(data.error.type[0]) ? data.error.type[0] : '');\n                    $scope.formError.ticket_status = (angular.isDefined(data.error.status[0]) ? data.error.status[0] : '');\n\n\n                } else {\n                    $scope.commentData.text = '';\n                    $scope.getComments();\n                    $scope.commentData.ticket_issue_types = type_arr[1];\n                    $scope.commentData.ticket_status = status_arr[0];\n                    $scope.project_users = proj_users_arr;\n                    $scope.commentData.project_users = $scope.project_users[0];\n//          $scope.commentData.project_users = proj_users_arr;\n                }\n\n            });\n        }\n\n        $scope.getComments = function () {\n            globalCommentService.getComments($scope).then(function (data) {\n                $scope.comments = data.data.ticket;\n                //console.log($scope.comments);\n                $scope.propertyName = 'time';\n                $scope.reverse = true;\n                var rp = {};\n                for (var i in $scope.comments) {\n                    if ($scope.comments.hasOwnProperty(i)) {\n                        var obj = {\n                            'text': '',\n                            'ticket_issue_types': $scope.commentData.ticket_issue_types,\n                            'project_users': $scope.commentData.project_users,\n                            'ticket_status': $scope.commentData.ticket_status\n                        };\n                        var obj1 = $scope.comments[i].ticket_id;\n                        rp[obj1] = obj;\n                    }\n                }\n                $scope.replyData = rp;\n            });\n        };\n        //$scope.getComments();\n\n        $scope.openReplyForm = function (ticket_unique_id) {\n            jQuery('#reply_form' + ticket_unique_id).slideDown();\n        }\n        $scope.closeReplyForm = function (ticket_unique_id) {\n            jQuery('#reply_form' + ticket_unique_id).slideUp();\n        }\n\n//$scope.replyFormError = {'0':{'text': ''}};\n        $scope.replyFormError = {};\n        $scope.submitReply = function (parent_ticket_id) {\n            //$scope.loading = true;\n            $scope.replyFormError[parent_ticket_id.ticket_id] = {'text': ''};\n            // save the comment. pass in comment data from the form\n            // use the function we created in our service\n            //$scope.replyFormError = {'showMsg':'0'};\n            $scope.replyData.project_id = $routeParams.project_id;\n            $scope.replyData.parent_ticket_id = parent_ticket_id;\n            $scope.replyData.project_usres = [];\n            //console.log($scope.replyData.parent_ticket_id);\n            //console.log($scope.replyData);\n            //debugger;\n            globalCommentService.saveReply($scope, $scope.replyData).then(function (data) {\n//                /$scope.showMsg = 1;\n                $scope.message = data.message;\n                $scope.commentResponse = {'showMsg': 0, 'message': '', 'status': ''};\n                //$scope.status = $scope.commentStatus = data.status;\n                if (data.status == '400') {\n                    if (angular.isDefined(data.projectPermissionGranted) && data.projectPermissionGranted == '401') {\n                        $scope.replyFormError[parent_ticket_id.ticket_id] = {'text': angular.isDefined(data.message) ? data.message : ''};\n                    } else if (angular.isDefined(data.error.text)) {\n                        $scope.replyFormError[parent_ticket_id.ticket_id] = {'text': angular.isDefined(data.error.text[0]) ? data.error.text[0] : ''};\n                    } else if (angular.isDefined(data.error.ticket_id)) {\n                        $scope.replyFormError[parent_ticket_id.ticket_id] = {'text': angular.isDefined(data.error.ticket_id[0]) ? data.error.ticket_id[0] : ''};\n                    }\n                    //console.log($scope.replyFormError[parent_ticket_id.ticket_id].text); \n                } else {\n                    $scope.commentResponse.showMsg = 0;\n                    $scope.commentData.text = '';\n                    $scope.getComments();\n                }\n\n            });\n        }\n\n        /**\n         * Deleting a Ticket\n         * @param {type} comment\n         * @returns {undefined}\n         */\n        $scope.deleteTicket = function (comment) {\n            $scope.commentResponse = {'showMsg': 0, 'message': '', 'status': ''};\n            SweetAlert.swal({\n                title: \"Are you sure?\",\n                text: \"This ticket and related comments will be deleted. You will not be able to recover it!\",\n                type: \"warning\",\n                showCancelButton: true,\n                confirmButtonColor: \"#DD6B55\",\n                confirmButtonText: \"Yes, delete it!\",\n                cancelButtonText: \"No, cancel!\",\n                closeOnConfirm: false,\n                closeOnCancel: false\n            }, function (isConfirm) {\n                if (isConfirm) {\n                    globalCommentService.deleteTicket($scope, comment).then(function (data) {\n                        if (data.status == 400) {\n                            SweetAlert.swal(\"Cancelled\", data.message, \"error\");\n                        } else {\n                            SweetAlert.swal(\"Deleted\", data.message, \"success\");\n                            $scope.getComments();\n                            $scope.commentResponse.showMsg = 0;\n                        }\n                    });\n                } else {\n                    SweetAlert.swal(\"Cancelled\", \"Comment is safe :)\", \"error\");\n                }\n            });\n        }\n        /**\n         * Deleting a Reply\n         * @param {type} comment\n         * @returns {undefined}\n         */\n        $scope.deleteReply = function (comment) {\n            $scope.commentResponse = {'showMsg': 0, 'message': '', 'status': ''};\n            SweetAlert.swal({\n                title: \"Are you sure?\",\n                text: \"You will not be able to recover it!\",\n                type: \"warning\",\n                showCancelButton: true,\n                confirmButtonColor: \"#DD6B55\",\n                confirmButtonText: \"Yes, delete it!\",\n                cancelButtonText: \"No, cancel!\",\n                closeOnConfirm: false,\n                closeOnCancel: false\n            }, function (isConfirm) {\n                if (isConfirm) {\n                    globalCommentService.deleteReply($scope, comment).then(function (data) {\n                        if (data.status == 400) {\n                            SweetAlert.swal(\"Cancelled\", data.message, \"error\");\n                        } else {\n                            SweetAlert.swal(\"Deleted\", data.message, \"success\");\n                            $scope.getComments();\n                            $scope.commentResponse.showMsg = 0;\n                        }\n                    });\n                } else {\n                    SweetAlert.swal(\"Cancelled\", \"Comment is safe :)\", \"error\");\n                }\n            });\n        }\n\n\n\n        $scope.sortBy = function (propertyName) {\n            $scope.reverse = ($scope.propertyName === propertyName) ? !$scope.reverse : false;\n            globalCommentService.sortByType($scope, propertyName, $scope.reverse).then(function (data) {\n                $scope.comments = data.data.ticket;\n                //console.log($scope.comments);\n                var rp = {};\n                for (var i in $scope.comments) {\n                    if ($scope.comments.hasOwnProperty(i)) {\n                        var obj = {\n                            'text': '',\n                            'ticket_issue_types': $scope.commentData.ticket_issue_types,\n                            'project_users': $scope.commentData.project_users,\n                            'ticket_status': $scope.commentData.ticket_status\n                        };\n                        var obj1 = $scope.comments[i].ticket_id;\n\n                        rp[obj1] = obj;\n                    }\n                }\n                $scope.replyData = rp;\n            });\n            $scope.propertyName = propertyName;\n        }\n\n//=================================================================================//      \n// object to hold all the data for the new comment form\n//$scope.commentData = {};\n\n// loading variable to show the spinning loading icon\n//$scope.loading = true;\n// get all the comments first and bind it to the $scope.comments object\n// use the function we created in our service\n// GET ALL COMMENTS ==============\n        /*Comment.get($routeParams.project_id)\n         .success(function (data) {\n         console.info(data);\n         $scope.comments = data.data;\n         $scope.project = data.project;\n         $scope.loading = false;\n         });*/\n\n//$scope.formError = {'text': ''};\n// function to handle submitting the form\n// SAVE A COMMENT ================\n        /*$scope.submitComment = function () {\n         $scope.loading = true;\n         $scope.formError = {'text': ''};\n         // save the comment. pass in comment data from the form\n         // use the function we created in our service\n         $scope.showMsg = 0;\n         $scope.commentData.project_id = $routeParams.project_id;\n         Comment.save($scope.commentData)\n         .success(function (data) {                        \n         $scope.showMsg = 1;\n         $scope.message = data.message;\n         $scope.status = $scope.commentStatus = data.status;\n         if(data.status=='400'){\n         $scope.formError = {'text': angular.isDefined(data.error.text[0]) ? data.error.text[0] : ''};\n         }else{\n         $scope.commentData.text = '';\n         }      \n         // if successful, we'll need to refresh the comment list\n         Comment.get($routeParams.project_id)\n         .success(function (getData) {\n         $scope.comments = getData.data;\n         $scope.loading = false;\n         });\n         \n         })\n         .error(function (data) {\n         console.log(data);\n         });\n         };*/\n\n// function to handle deleting a comment\n// DELETE A COMMENT ====================================================\n        /*$scope.deleteComment = function (id) {\n         \n         SweetAlert.swal({\n         title: \"Are you sure?\",\n         text: \"You will not be able to recover it!\",\n         type: \"warning\",\n         showCancelButton: true,\n         confirmButtonColor: \"#DD6B55\",\n         confirmButtonText: \"Yes, delete it!\",\n         cancelButtonText: \"No, cancel!\",\n         closeOnConfirm: false,\n         closeOnCancel: false\n         }, function (isConfirm) {\n         if (isConfirm) {\n         $scope.loading = true;\n         // use the function we created in our service\n         Comment.destroy(id).then(function (data) {\n         SweetAlert.swal(\"Success\", data.message, \"success\");\n         // if successful, we'll need to refresh the comment list\n         Comment.get($routeParams.project_id)\n         .success(function (getData) {\n         $scope.comments = getData.data;\n         $scope.loading = false;\n         });\n         });\n         \n         \n         } else {\n         SweetAlert.swal(\"Cancelled\", \"Comment is safe :)\", \"error\");\n         }\n         });\n         \n         \n         };*/\n//================================================================================//  \n\n\n\n\n\n\n    }]);",
          "comment" : ""
        },
        "redirectURL" : "",
        "headersSize" : 203,
        "bodySize" : 17054,
        "comment" : ""
      },
      "cache" : { },
      "timings" : {
        "comment" : "",
        "ssl" : -1,
        "connect" : 1331,
        "dns" : -1,
        "blocked" : -1,
        "send" : 0,
        "wait" : 0,
        "receive" : 0
      },
      "comment" : "",
      "_katalonRequestInformation" : {
        "name" : "91",
        "testObjectId" : "Temporary RESTful request object",
        "harId" : "da83b71a-7f6d-4439-991a-a6e05421af15"
      },
      "time" : 1331
    } ],
    "comment" : ""
  }
}