{
  "log" : {
    "version" : "1.2",
    "pages" : [ ],
    "entries" : [ {
      "startedDateTime" : "2019-07-17T04:41:41.404Z",
      "request" : {
        "method" : "GET",
        "url" : "https://frostedc-stg.learningmate.com/js/activity_log/activityLogService.js",
        "httpVersion" : "",
        "cookies" : [ ],
        "headers" : [ ],
        "queryString" : [ ],
        "headersSize" : 0,
        "bodySize" : 0,
        "comment" : ""
      },
      "response" : {
        "status" : 200,
        "statusText" : "",
        "httpVersion" : "",
        "cookies" : [ ],
        "headers" : [ {
          "name" : "Accept-Ranges",
          "value" : "bytes"
        }, {
          "name" : null,
          "value" : "HTTP/1.1 200 OK"
        }, {
          "name" : "Server",
          "value" : "nginx/1.13.5"
        }, {
          "name" : "ETag",
          "value" : "\"5d2ddd74-518\""
        }, {
          "name" : "Connection",
          "value" : "keep-alive"
        }, {
          "name" : "Last-Modified",
          "value" : "Tue, 16 Jul 2019 14:21:40 GMT"
        }, {
          "name" : "Content-Length",
          "value" : "1304"
        }, {
          "name" : "Date",
          "value" : "Wed, 17 Jul 2019 04:41:58 GMT"
        }, {
          "name" : "Content-Type",
          "value" : "application/javascript"
        } ],
        "content" : {
          "size" : 1304,
          "mimeType" : "application/javascript",
          "text" : "/*****\n * Specific services object type =  project\n * Author - Arikh Akher  \n */\n'use strict';\nvar returnPatterns='';\napp.service('activityLogService', ['$http', '$q', 'sessionService', '$location', '$rootScope', function($http, $q, sessionService, $location, $rootScope) {\n\n        /*\n         * Service to get patterns         \n         */\n        this.getLogs = function($scope) {            \n            var deferred = $q.defer();\n            var queryString = '';\n            \n            if (angular.isDefined($scope.pageNumber) && angular.isDefined($scope.itemsPerPage)) {\n                queryString += '&pageNumber=' + $scope.pageNumber+'&itemsPerPage=' + $scope.itemsPerPage;\n            } \n\n\n            \n            \n            $http.get(serviceEndPoint + 'api/v1/userlog/user_id/'+$scope.user_id+'?access_token=' + sessionService.get('access_token') + queryString, {\n            }).success(function(data, status, headers, config) {\n                //console.log(data);\n                deferred.resolve(data);//Return the activity json             \n            }).error(function(data, status, headers, config) {\n                $rootScope.unauthorised_redirection(data.status);\n            });\n            return deferred.promise;\n        };\n        //End - Method to get pattern\n\n    }]);\n\n",
          "comment" : ""
        },
        "redirectURL" : "",
        "headersSize" : 201,
        "bodySize" : 1304,
        "comment" : ""
      },
      "cache" : { },
      "timings" : {
        "comment" : "",
        "ssl" : -1,
        "connect" : 1075,
        "dns" : -1,
        "blocked" : -1,
        "send" : 0,
        "wait" : 0,
        "receive" : 0
      },
      "comment" : "",
      "_katalonRequestInformation" : {
        "name" : "94",
        "testObjectId" : "Temporary RESTful request object",
        "harId" : "8012aeb7-8109-480f-b5ef-9183a4badff5"
      },
      "time" : 1075
    } ],
    "comment" : ""
  }
}