{
  "log" : {
    "version" : "1.2",
    "pages" : [ ],
    "entries" : [ {
      "startedDateTime" : "2019-07-17T04:41:42.508Z",
      "request" : {
        "method" : "GET",
        "url" : "https://frostedc-stg.learningmate.com/js/taxonomy/taxonomyController.js",
        "httpVersion" : "",
        "cookies" : [ ],
        "headers" : [ ],
        "queryString" : [ ],
        "headersSize" : 0,
        "bodySize" : 0,
        "comment" : ""
      },
      "response" : {
        "status" : 200,
        "statusText" : "",
        "httpVersion" : "",
        "cookies" : [ ],
        "headers" : [ {
          "name" : "Accept-Ranges",
          "value" : "bytes"
        }, {
          "name" : null,
          "value" : "HTTP/1.1 200 OK"
        }, {
          "name" : "Server",
          "value" : "nginx/1.13.5"
        }, {
          "name" : "ETag",
          "value" : "\"5d2ddd74-5c48\""
        }, {
          "name" : "Connection",
          "value" : "keep-alive"
        }, {
          "name" : "Last-Modified",
          "value" : "Tue, 16 Jul 2019 14:21:40 GMT"
        }, {
          "name" : "Content-Length",
          "value" : "23624"
        }, {
          "name" : "Date",
          "value" : "Wed, 17 Jul 2019 04:41:59 GMT"
        }, {
          "name" : "Content-Type",
          "value" : "application/javascript"
        } ],
        "content" : {
          "size" : 23624,
          "mimeType" : "application/javascript",
          "text" : "/*****\n * Controller for project\n * Author - Arikh Akher *\n */\n\n'use strict';\napp.controller('taxonomy', ['$scope', '$http', 'sessionService', '$location', 'taxonomyService', '$rootScope', '$modal', '$log', 'SweetAlert', '$routeParams', function($scope, $http, sessionService, $location, taxonomyService, $rootScope, $modal, $log, SweetAlert, $routeParams) {\n\n    $scope.access_token = sessionService.get('access_token');\n    $scope.user_permissions = JSON.parse(sessionService.get('user_permissions'));\n    var userinfo = JSON.parse(sessionService.get('userinfo'));\n    //console.log(sessionService.get('user_permissions'));\n    //console.log($scope.user_permissions);\n\n    $scope.project_id = $routeParams.project_id;\n\n    //Check if the session is active\t\n    $rootScope.checkActiveSession();\n    if (!$scope.access_token || userinfo == null) {\n        $location.path('logout');\n        return true;\n    }\n\n    //Call Taxonomy\n    $scope.taxonomy = { 'children': [] };\n    $scope.getTaxonomy = function() {\n        taxonomyService.getTaxonomy($scope, '').then(function(data) {\n            if (data.data == null || data.data == '') {\n                $scope.total = 0;\n                $scope.taxonomy = {\n                    children: []\n                };\n            } else {\n                $scope.taxonomy = data.data;\n                $scope.total = data.count;\n            }\n\n        });\n    };\n    $scope.getTaxonomy();\n    ///\n    $scope.create_button = false;\n    $scope.openTaxonomyModal = function(size, taxonomy_parent_id) {\n        $scope.create_button = true;\n        var modalInstance = $modal.open({\n            templateUrl: 'templates/taxonomy/taxonomyModalContent.html',\n            controller: 'ModalInstanceTaxonomyCtrl',\n            size: size,\n            backdrop: 'static',\n            keyboard: false,\n            resolve: {\n                modalFormText: function() {\n                    return \"You are trying to add a Taxonomy.\";\n                },\n                modalFormTile: function() {\n                    return \"Add Taxonomy\";\n                },\n                taxonomy: function() {\n                    return $scope.taxonomy;\n                },\n                taxonomy_parent_id: function() {\n                    return taxonomy_parent_id;\n                }\n            }\n        });\n        modalInstance.result.then(function() {\n            $scope.getTaxonomy();\n            $scope.create_button = false;\n        }, function() {\n            $scope.create_button = false;\n            //$log.info('Modal dismissed at: ' + new Date());\n        });\n    };\n\n    $scope.openTaxonomyEditModal = function(size, taxonomy_id) {\n        taxonomyService.getTaxonomyDetailsById($scope, taxonomy_id).then(function(data) {\n            var modalInstance = $modal.open({\n                templateUrl: 'templates/taxonomy/taxonomyModalContent.html',\n                controller: 'ModalInstanceTaxonomyCtrl',\n                size: size,\n                backdrop: 'static',\n                keyboard: false,\n                resolve: {\n                    modalFormText: function() {\n                        return \"You are trying to Edit a Taxonomy.\";\n                    },\n                    modalFormTile: function() {\n                        return \"Edit Taxonomy\";\n                    },\n                    taxonomy: function() {\n                        return data.data.taxonomy;\n                    },\n                    taxonomy_parent_id: function() {\n                        return data.data.taxonomy.parent_id;\n                    }\n                }\n            });\n            modalInstance.result.then(function() {\n                $scope.getTaxonomy();\n            }, function() {\n                //$log.info('Modal dismissed at: ' + new Date());\n            });\n        });\n\n\n    };\n\n    //Delete Taxonomy and their children\n    $scope.deleteTaxonomy = function(taxonomy_id) {\n        SweetAlert.swal({\n            title: \"Are you sure?\",\n            text: \"You will not be able to recover this taxonomy!\",\n            type: \"warning\",\n            showCancelButton: true,\n            confirmButtonColor: \"#DD6B55\",\n            confirmButtonText: \"Yes, delete it!\",\n            cancelButtonText: \"No, cancel!\",\n            closeOnConfirm: false,\n            closeOnCancel: false\n        }, function(isConfirm) {\n            if (isConfirm) {\n                taxonomyService.delTaxonomy($scope, taxonomy_id).then(function(data) {\n                    if (data.status == 200) {\n                        $scope.getTaxonomy();\n                        SweetAlert.swal(\"Success\", \"Taxonomy has been deleted\", \"success\");\n                    } else {\n                        SweetAlert.swal(\"Cancelled\", data.message, \"warning\");\n                    }\n                });\n            } else {\n                SweetAlert.swal(\"Cancelled\", \"Taxonomy is safe :)\", \"error\");\n            }\n        });\n    }\n\n\n    //Used to minimize and maximize to Taxonomy\n    $scope.toggleMinimized = function(child) {\n        child.minimized = !child.minimized;\n    };\n    //\n\n    $scope.update = function(event, ui) {\n        var root = event.target,\n            item = ui.item,\n            parent = item.parent(),\n            target = (parent[0] === root) ? $scope.taxonomy : parent.scope().child,\n            child = item.scope().child,\n            index = item.index();\n\n        target.children || (target.children = []);\n\n        function walk(target, child) {\n            var children = target.children,\n                i;\n            if (children) {\n                i = children.length;\n                while (i--) {\n                    if (children[i] === child) {\n                        return children.splice(i, 1);\n                    } else {\n                        walk(children[i], child);\n                    }\n                }\n            }\n        }\n        walk($scope.taxonomy, child);\n        target.children.splice(index, 0, child);\n        var target_id = 0;\n        if (angular.isDefined(target.id)) {\n            target_id = target.id;\n        }\n        //Saving TOC\n        taxonomyService.rearrangeTaxonomyTree($scope, child.id, target_id).then(function(data) {\n            // console.log(data.status);\n            if (data.status == 400) {\n                swal('Taxonomy nodes having same title can not be placed at same level');\n            }\n            $scope.getTaxonomy();\n\n        });\n    };\n\n    $scope.openTaxonmonyUsageModal = function(size, taxonomy_id) {\n        var modalInstance = $modal.open({\n            templateUrl: 'templates/taxonomy/usageModalContent.html',\n            controller: 'ModalInstanceTaxonomyMetadataCtrl',\n            size: size,\n            backdrop: 'static',\n            keyboard: false,\n            resolve: {\n                modalFormText: function() {\n                    return \"\";\n                },\n                modalFormTile: function() {\n                    return \"Metadata Taxonomy Usage\";\n                },\n                taxonomy_id: function() {\n                    return taxonomy_id;\n                },\n                user_permissions: function() {\n                    return $scope.user_permissions;\n                }\n            }\n        });\n        modalInstance.result.then(function() {\n\n        }, function() {\n            //$log.info('Modal dismissed at: ' + new Date());\n        });\n    };\n\n    $scope.changeStatus = function(id) {\n        taxonomyService.changeStatus(id, $scope).then(function(data) {\n            if (data.status == 200) {\n                $scope.getTaxonomy();\n            } else {\n                angular.element(\"#taxonomy-\" + id).attr(\"checked\", false);\n                $scope.getTaxonomy();\n                /*if (angular.isDefined(data.projectPermissionGranted) && data.projectPermissionGranted == 401) {\n                 SweetAlert.swal(\"Cancelled\", data.message, \"warning\");\n                 }*/\n            }\n        });\n    };\n\n\n}]);\n\n\n/*\n * Create Taxonomy Modal window Controller\n */\napp.controller('ModalInstanceTaxonomyCtrl', function($scope, assetService, taxonomyService, $modalInstance, modalFormText, modalFormTile, taxonomy, taxonomy_parent_id) {\n    $scope.showedit = 0;\n    $scope.modalFormText = modalFormText;\n    $scope.modalFormTile = modalFormTile;\n    $scope.taxonomyModal = taxonomy;\n    $scope.taxonomy_parent_id = taxonomy_parent_id;\n\n    //Used to minimize and maximize to Taxonomy\n    $scope.toggleMinimizedModal = function(childModal) {\n        childModal.minimized = !childModal.minimized;\n    };\n\n\n    //Open Taxonomy add form\n    $scope.taxonomy_text = '';\n    $scope.taxonomy_description = '';\n    $scope.showAdd = true;\n    $scope.showEdit = false;\n    if (angular.isDefined(taxonomy.id) && taxonomy.id != '') {\n        $scope.taxonomy_text = taxonomy.title;\n        $scope.taxonomy_description = taxonomy.description;\n        $scope.taxonomy_parent_id = taxonomy.parent_id;\n        $scope.showAdd = false;\n        $scope.showEdit = true;\n    }\n\n    //$scope.taxonomy_parent_id = '';\n    /*$scope.parent_id = 0;\n     $scope.addTaxonomyForm = function(parent_id, taxonomy_parent_id) {\n     $scope.taxonomy_parent_id = taxonomy_parent_id;\n     $scope.parent_id = parent_id;\n     $scope.taxonomy_text = '';\n     $scope.taxonomy_description = '';\n     }*/\n\n    //Setting Taxonomy value from form data\n    $scope.setValue = function(setValue) {\n        $scope.taxonomy_text = setValue;\n    }\n\n    // Add Taxonomy\n    $scope.add = function() {\n        $scope.formError = { 'taxonomy_text': '', 'taxonomy_description': '', 'error': '' };\n        if (angular.isUndefined($scope.taxonomy_text) == false && angular.isUndefined($scope.taxonomy_parent_id) == false) {\n            taxonomyService.addTaxonomy($scope).then(function(data) {\n                if (data.status == 200) {\n                    $modalInstance.close();\n                } else {\n                    if (angular.isDefined(data.projectPermissionGranted) && data.projectPermissionGranted == 401) {\n                        $scope.formError['error'] = data.message;\n                    }\n                    if (angular.isDefined(data.error.title)) {\n                        $scope.formError['taxonomy_text'] = data.error.title['0'];\n                    }\n                }\n            });\n        }\n    };\n\n    // Add Taxonomy\n    $scope.edit = function() {\n        $scope.formError = { 'taxonomy_text': '', 'taxonomy_description': '', 'error': '' };\n        if (angular.isUndefined($scope.taxonomy_text) == false && angular.isUndefined($scope.taxonomy_parent_id) == false) {\n            taxonomyService.editTaxonomy($scope, taxonomy).then(function(data) {\n                if (data.status == 200) {\n                    $modalInstance.close();\n                } else {\n                    if (angular.isDefined(data.projectPermissionGranted) && data.projectPermissionGranted == 401) {\n                        $scope.formError['error'] = data.message;\n                    }\n                    if (angular.isDefined(data.error.title)) {\n                        $scope.formError['taxonomy_text'] = data.error.title['0'];\n                    }\n                }\n            });\n        }\n    };\n\n    $scope.cancel = function() {\n        $modalInstance.dismiss('cancel');\n    };\n});\n\n/*\n *  Taxonomy Metadata Modal window Controller\n */\napp.controller('ModalInstanceTaxonomyMetadataCtrl', function($scope, $window, $rootScope, $location, $modal, $log, taxonomyService, objectService, SweetAlert, $modalInstance, assetService, modalFormText, modalFormTile, taxonomy_id, user_permissions) {\n    $scope.total = '';\n    $scope.modalFormText = modalFormText;\n    $scope.modalFormTile = modalFormTile;\n    $scope.user_permissions = user_permissions;\n    $scope.taxonomyModal = {};\n    $scope.taxonomyMetadataObjects = {};\n    $scope.currentPage = 1;\n    $scope.pageNumber = '';\n    $scope.itemsPerPage = '';\n    $scope.s3Url = s3_url;\n    //Open taxonomy metadata usage\n    $scope.taxonomy_title = '';\n    $scope.taxonomy_description = '';\n    $scope.showPagination = false;\n    $scope.cancel = function() {\n        $modalInstance.dismiss('cancel');\n    };\n\n    $scope.getObjects = function(pageNumber) {\n        $scope.currentPage = pageNumber;\n        $scope.pageNumber = pageNumber;\n        $scope.itemsPerPage = '10';\n        taxonomyService.getMetadataUsage($scope, taxonomy_id).then(function(data) {\n            if (data.data.taxonomy == null || data.data.taxonomy == '') {\n                $scope.total = 0;\n                $scope.taxonomyModal = {};\n                $scope.taxonomyMetadataObjects = {};\n            } else {\n                var taxonomy = data.data.taxonomy;\n                if (angular.isDefined(taxonomy.id) && taxonomy.id != '') {\n                    $scope.taxonomy_title = taxonomy.title;\n                    $scope.taxonomy_description = taxonomy.description;\n                }\n                $scope.total = data.data.total;\n                if (data.data.total > data.data.totalContents) {\n                    $scope.showPagination = true;\n                }\n                $scope.taxonomyMetadataObjects = data.data.metadata_objects;\n            }\n\n        });\n    };\n\n    $scope.getObjects(1);\n\n    $scope.pageChangeHandlerObject = function(pageNumber) {\n        $scope.getObjects(pageNumber);\n    };\n    $scope.redirctToProject = function(object_id, toc_creation_status, usage_type) {\n        switch (usage_type) {\n            case 'ASSESSMENT':\n                $scope.checkProjectExists(object_id);\n                break;\n            case 'OBJECT':\n                if (parseInt(toc_creation_status) == 3001) {\n                    $scope.checkProjectExists(object_id);\n                } else {\n                    $rootScope.show_toc = 0;\n                    $location.path('project_import/' + object_id);\n                }\n                break;\n            case 'ASSIGNMENT':\n                $scope.checkProjectExists(object_id);\n                break;\n            case 'FORUM':\n                $scope.checkProjectExists(object_id);\n                break; \n            default:\n        }\n    };\n    $scope.checkProjectExists = function(object_id) {\n        $scope.project_id = object_id;\n        objectService.getProjectDetails($scope).then(function(data) {\n            if (data != null) {\n                $rootScope.show_toc = 1;\n                $location.path(\"edit_toc/\" + object_id);\n            } else {\n                $rootScope.show_toc = 0;\n                SweetAlert.swal({ html: 'Either the project does not exist or you are no longer allocated to this project.', width: 540, type: \"warning\" });\n            }\n        });\n    };\n    $scope.preview_button_disabled = false;\n    $scope.previewExtResource = function(content) {\n        $window.open(content.object_metadata.ext_res_url, '_blank');\n        console.log(s3_url);\n    };\n    $scope.previewContent = function(size, id) {\n        if ($scope.disablePreviewClick == false) {\n            var contentRec = {};\n            $scope.disablePreviewClick = true;\n            var modalInstance = $modal.open({\n                templateUrl: 'templates/toc/globalModalContentView.html',\n                controller: 'ModalInstanceContentCtrl',\n                size: size,\n                backdrop: 'static',\n                keyboard: false,\n                resolve: {\n                    object_id: function() {\n                        return id;\n                    },\n                    modalFormText: function() {\n                        return \"You are trying to view a content\";\n                    },\n                    modalFormTile: function() {\n                        return \"Preview Content\";\n                    }\n                }\n            });\n            modalInstance.result.then(function() {\n\n            }, function() {\n                $scope.disablePreviewClick = false;\n                $log.info('Modal dismissed at: ' + new Date());\n            });\n        }\n    };\n    $scope.previewAssessment = function(preview_info) {\n        $scope.preview_button_disabled = true;\n        var size = 'lg';\n        var modal_form_title = 'Assessment Preview';\n        var previewInfo = JSON.parse(preview_info);\n        var modalInstance = $modal.open({\n            templateUrl: 'templates/assessment/previewModal.html',\n            controller: 'ModalPreviewCtrl',\n            size: size,\n            backdrop: 'static',\n            keyboard: false,\n            resolve: {\n                modalFormTitle: function() {\n                    return modal_form_title;\n                },\n                shortcode: function() {\n                    return previewInfo.shortcode;\n                },\n                project_id: function() {\n                    return previewInfo.project_id;\n                },\n                project_type_id: function() {\n                    return previewInfo.project_type_id;\n                },\n                entity_type_id: function() {\n                    return 2;\n                }\n            }\n        });\n        modalInstance.result.then(function(modalCloseParameter) {\n            $scope.preview_button_disabled = false;\n        }, function() {\n            $scope.preview_button_disabled = false;\n            $log.info('Modal dismissed at: ' + new Date());\n        });\n    };\n    $scope.previewLOContent = function(size, content) {\n        var modalInstance = $modal.open({\n            templateUrl: 'templates/toc/LOModalContentView.html',\n            controller: 'LODataController',\n            size: size,\n            backdrop: 'static',\n            keyboard: false,\n            resolve: {\n                content: function() {\n                    return content;\n                },\n                project_id: function() {\n                    return content.project_id;\n                },\n                modalFormText: function() {\n                    return \"You are trying to view a content\";\n                },\n                modalFormTile: function() {\n                    return \"Preview Content\";\n                }\n            }\n        });\n        modalInstance.result.then(function() {\n\n        }, function() {\n            $log.info('Modal dismissed at: ' + new Date());\n        });\n    };\n    $scope.previewAsset = function(size, preview_info) {\n        $scope.applyMetadata = 0;\n        var preview_infos = JSON.parse(preview_info);\n        var modalInstance = $modal.open({\n            templateUrl: 'templates/asset/assetModalContent.html',\n            controller: 'ModalAssetCtrl',\n            size: size,\n            backdrop: 'static',\n            keyboard: false,\n            resolve: {\n                modalFormTitle: function() {\n                    return preview_infos.modal_form_title;\n                },\n                object_id: function() {\n                    return preview_infos.object_id;\n                },\n                project_id: function() {\n                    return preview_infos.project_id;\n                },\n                displayOption: function() {\n                    return false;\n                },\n                user_permissions: function() {\n                    return $scope.user_permissions;\n                },\n                project_permissions: function() {\n                    return true;\n                }\n            }\n        });\n    };\n    $scope.previewContent = function(size, id) {\n        var contentRec = {};\n        $scope.id = id;\n        assetService.getGlobalContentDetails($scope).then(function(data) {\n            contentRec = data.data;\n            var modalInstance = $modal.open({\n                templateUrl: 'templates/toc/globalModalContentView.html',\n                controller: 'ModalInstanceContentCtrl',\n                size: size,\n                backdrop: 'static',\n                keyboard: false,\n                resolve: {\n                    contentRec: function() {\n                        return contentRec;\n                    },\n                    object_id: function() {\n                        return id;\n                    },\n                    modalFormText: function() {\n                        return \"You are trying to view a content\";\n                    },\n                    modalFormTile: function() {\n                        return \"Preview Content\";\n                    }\n                }\n            });\n            modalInstance.result.then(function() {\n\n            }, function() {\n                $log.info('Modal dismissed at: ' + new Date());\n            });\n        });\n    };\n    \n    /*******  Assginment Preview @ Lucky Chowdhury - 04.04.2018 *******/\n    $scope.previewAssignment = function(preview_info) {\n        $scope.preview_button_disabled = true;\n        var size = 'lg';\n        var modal_form_title = 'Assignment Preview';\n        var previewInfo = JSON.parse(preview_info);\n        var modalInstance = $modal.open({\n            templateUrl: 'templates/assignment/previewModal.html',\n            controller: 'ModalAssignmentPreviewCtrl',\n            size: size,\n            backdrop: 'static',\n            keyboard: false,\n            resolve: {\n                modalFormTitle: function() {\n                    return modal_form_title;\n                },\n                assignment_id: function() {\n                    return previewInfo.assignment_id;\n                },\n                project_theme_style: function() {\n                    return previewInfo.theme_location;\n                },\n                project_id: function() {\n                    return previewInfo.project_id;\n                },\n                project_type_id: function() {\n                    return previewInfo.project_type_id;\n                },\n                entity_type_id: function() {\n                    return 2;\n                }\n            }\n        });\n        modalInstance.result.then(function(modalCloseParameter) {\n            $scope.preview_button_disabled = false;\n        }, function() {\n            $scope.preview_button_disabled = false;\n            $log.info('Modal dismissed at: ' + new Date());\n        });\n    };\n    \n    /*******  Forum Preview @ Lucky Chowdhury - 04.04.2018 *******/\n    $scope.previewForum = function(preview_info) {\n        $scope.preview_button_disabled = true;\n        var size = 'lg';\n        var modal_form_title = 'Forums Preview';\n        var previewInfo = JSON.parse(preview_info);\n        var modalInstance = $modal.open({\n            templateUrl: 'templates/forums/previewModal.html',\n            controller: 'ModalForumsPreviewCtrl',\n            size: size,\n            backdrop: 'static',\n            keyboard: false,\n            resolve: {\n                modalFormTitle: function() {\n                    return modal_form_title;\n                },\n                forums_id: function() {\n                    return previewInfo.forum_id;\n                },\n                project_theme_style: function() {\n                    return previewInfo.theme_location;\n                },\n                project_id: function() {\n                    return previewInfo.project_id;\n                },\n                project_type_id: function() {\n                    return previewInfo.project_type_id;\n                },\n                entity_type_id: function() {\n                    return 2;\n                }\n            }\n        });\n        modalInstance.result.then(function(modalCloseParameter) {\n            $scope.preview_button_disabled = false;\n        }, function() {\n            $scope.preview_button_disabled = false;\n            $log.info('Modal dismissed at: ' + new Date());\n        });\n    };\n});",
          "comment" : ""
        },
        "redirectURL" : "",
        "headersSize" : 203,
        "bodySize" : 23624,
        "comment" : ""
      },
      "cache" : { },
      "timings" : {
        "comment" : "",
        "ssl" : -1,
        "connect" : 1343,
        "dns" : -1,
        "blocked" : -1,
        "send" : 0,
        "wait" : 0,
        "receive" : 0
      },
      "comment" : "",
      "_katalonRequestInformation" : {
        "name" : "95",
        "testObjectId" : "Temporary RESTful request object",
        "harId" : "6edb3609-118c-4b19-9bec-c167194b8a9a"
      },
      "time" : 1343
    } ],
    "comment" : ""
  }
}