{
  "log" : {
    "version" : "1.2",
    "pages" : [ ],
    "entries" : [ {
      "startedDateTime" : "2019-07-12T04:38:29.611Z",
      "request" : {
        "method" : "GET",
        "url" : "https://frostedc-stg.learningmate.com/js/imagepopup/imagepopupController.js",
        "httpVersion" : "",
        "cookies" : [ ],
        "headers" : [ ],
        "queryString" : [ ],
        "headersSize" : 0,
        "bodySize" : 0,
        "comment" : ""
      },
      "response" : {
        "status" : 200,
        "statusText" : "",
        "httpVersion" : "",
        "cookies" : [ ],
        "headers" : [ {
          "name" : "Accept-Ranges",
          "value" : "bytes"
        }, {
          "name" : null,
          "value" : "HTTP/1.1 200 OK"
        }, {
          "name" : "Server",
          "value" : "nginx/1.13.5"
        }, {
          "name" : "ETag",
          "value" : "\"5d25bc3a-13db\""
        }, {
          "name" : "Connection",
          "value" : "keep-alive"
        }, {
          "name" : "Last-Modified",
          "value" : "Wed, 10 Jul 2019 10:21:46 GMT"
        }, {
          "name" : "Content-Length",
          "value" : "5083"
        }, {
          "name" : "Date",
          "value" : "Fri, 12 Jul 2019 04:39:59 GMT"
        }, {
          "name" : "Content-Type",
          "value" : "application/javascript"
        } ],
        "content" : {
          "size" : 5083,
          "mimeType" : "application/javascript",
          "text" : "'use strict';\n// image popup controller\napp.controller('imagepopupcontroller', ['$scope', '$http', 'sessionService', '$location', 'objectService', 'imagepopupService', '$rootScope', '$modal', '$log', 'SweetAlert', '$routeParams', '$filter', function ($scope, $http, sessionService, $location, objectService, imagepopupService, $rootScope, $modal, $log, SweetAlert, $routeParams, $filter) {\n\n    $scope.access_token = sessionService.get('access_token');\n    $scope.user_permissions = JSON.parse(sessionService.get('user_permissions'));\n    var userinfo = JSON.parse(sessionService.get('userinfo'));\n    $scope.project_id = $routeParams.project_id;\n    $scope.project_type_id = 4;\n    $scope.set_type = $routeParams.set_type;\n    //Check if the session is active\t\n    $rootScope.checkActiveSession();\n    if (!$scope.access_token || userinfo == null) {\n      $location.path('logout');\n      return true;\n    }\n\n    $scope.project_name = '';\n    $scope.getProject = function () {\n      if ($scope.project_id != '') {\n        objectService.getProjectDetails($scope).then(function (data) {\n          if (data == null) {\n            $location.path(\"edit_toc/\" + $scope.project_id);\n          } else if (angular.isObject(data)) {\n            $scope.project_name = data.name;\n            $scope.project = data;\n            $scope.applyPermission = 1;\n            $scope.project.project_permissions = data.project_permissions;\n          }\n        });\n      }\n    };\n\n    $scope.getProject();\n\n    //// listing\n    $scope.pageNumber = 1;\n    $scope.itemsPerPage = 10;\n    $scope.currentPage = 1;\n\n    $scope.addButtonDisabled = false;\n    $scope.removeButtonDisabled = true;\n\n    $scope.listLogs = function (pageNumber) {\n      $scope.currentPage = pageNumber;\n      $scope.pageNumber = pageNumber;\n      $scope.itemsPerPage = 10;\n      imagepopupService.getLogs($scope).then(function (data) {\n        $scope.logList = data.data.log_list;\n        $scope.logTotal = data.data.total;\n        $scope.lastAction = data.data.last_action;\n        $scope.active_status_count = data.data.active_status_count;\n        if ($scope.active_status_count > 0) {\n          $scope.addButtonDisabled = false;\n          $scope.removeButtonDisabled = false;\n          $scope.process_text = '';\n        }\n        else if ($scope.active_status_count == 0 & $scope.lastAction == 0) {\n          $scope.addButtonDisabled = false;\n          $scope.removeButtonDisabled = false;\n          $scope.process_text = '';\n        } else {\n          $scope.addButtonDisabled = true;\n          $scope.removeButtonDisabled = true;\n          $scope.process_text = \"Image Popup ADD/REMOVE action is in progress. Please comeback later to check the log.\";\n        }\n      });\n    };\n    $scope.listLogs(1);\n\n    $scope.pageChangeHandlerDataset = function (newPage) {\n      $scope.listLogs(newPage);\n    };\n    ////// listing\n\n    // add class\n    $scope.bulkApplyClass = function () {\n      SweetAlert.swal({\n        title: \"Are you sure you want to proceed?\",\n        text: \"This action will apply image popup class in figures\",\n        type: \"warning\",\n        showCancelButton: true,\n        confirmButtonColor: \"#DD6B55\",\n        confirmButtonText: \"Yes, proceed\",\n        cancelButtonText: \"Cancel\",\n        closeOnConfirm: false,\n        closeOnCancel: false\n      }, function (isConfirm) {\n        if (isConfirm) {\n          imagepopupService.applyClassBulk($scope).then(function (data) {\n            $scope.listLogs(1);\n            $scope.addButtonDisabled = true;\n            $scope.removeButtonDisabled = true;\n            if (data.status == 200) {\n              SweetAlert.swal(\"Success\", \"Process has been initiated. Please comeback later to check the updated log.\", \"success\");\n            } else {\n              SweetAlert.swal(\"Cancelled\", data.message, \"error\");\n            }\n          });\n        } else {\n          SweetAlert.swal(\"Cancelled\", \"Process Cancelled!\", \"error\");\n        }\n      });\n    };\n\n    // remove class\n    $scope.bulkRemoveClass = function () {\n      SweetAlert.swal({\n        title: \"Are you sure you want to proceed?\",\n        text: \"This action will remove image popup class from figures\",\n        type: \"warning\",\n        showCancelButton: true,\n        confirmButtonColor: \"#DD6B55\",\n        confirmButtonText: \"Yes, proceed\",\n        cancelButtonText: \"Cancel\",\n        closeOnConfirm: false,\n        closeOnCancel: false\n      }, function (isConfirm) {\n        if (isConfirm) {\n          imagepopupService.removeClassBulk($scope).then(function (data) {\n            $scope.listLogs(1);\n            $scope.addButtonDisabled = true;\n            $scope.removeButtonDisabled = true;\n            if (data.status == 200) {\n              SweetAlert.swal(\"Success\", \"Process has been initiated. Please comeback later to check the updated log.\", \"success\");\n            } else {\n              SweetAlert.swal(\"Cancelled\", data.message, \"error\");\n            }\n          });\n        } else {\n          SweetAlert.swal(\"Cancelled\", \"Process Cancelled!\", \"error\");\n        }\n      });\n    };\n\n  }]);",
          "comment" : ""
        },
        "redirectURL" : "",
        "headersSize" : 202,
        "bodySize" : 5083,
        "comment" : ""
      },
      "cache" : { },
      "timings" : {
        "comment" : "",
        "ssl" : -1,
        "connect" : 1039,
        "wait" : 0,
        "blocked" : -1,
        "send" : 0,
        "dns" : -1,
        "receive" : 0
      },
      "comment" : "",
      "_katalonRequestInformation" : {
        "name" : "111",
        "testObjectId" : "Temporary RESTful request object",
        "harId" : "b5bec7d5-4c00-4d0a-8490-8c1311d7e822"
      },
      "time" : 1039
    } ],
    "comment" : ""
  }
}