{
  "log" : {
    "version" : "1.2",
    "pages" : [ ],
    "entries" : [ {
      "startedDateTime" : "2019-07-12T04:38:49.887Z",
      "request" : {
        "method" : "GET",
        "url" : "https://frostedc-stg.learningmate.com/js/sidecomment/test_data.js",
        "httpVersion" : "",
        "cookies" : [ ],
        "headers" : [ ],
        "queryString" : [ ],
        "headersSize" : 0,
        "bodySize" : 0,
        "comment" : ""
      },
      "response" : {
        "status" : 200,
        "statusText" : "",
        "httpVersion" : "",
        "cookies" : [ ],
        "headers" : [ {
          "name" : "Accept-Ranges",
          "value" : "bytes"
        }, {
          "name" : null,
          "value" : "HTTP/1.1 200 OK"
        }, {
          "name" : "Server",
          "value" : "nginx/1.13.5"
        }, {
          "name" : "ETag",
          "value" : "\"5d25bc3a-3af\""
        }, {
          "name" : "Connection",
          "value" : "keep-alive"
        }, {
          "name" : "Last-Modified",
          "value" : "Wed, 10 Jul 2019 10:21:46 GMT"
        }, {
          "name" : "Content-Length",
          "value" : "943"
        }, {
          "name" : "Date",
          "value" : "Fri, 12 Jul 2019 04:40:19 GMT"
        }, {
          "name" : "Content-Type",
          "value" : "application/javascript"
        } ],
        "content" : {
          "size" : 943,
          "mimeType" : "application/javascript",
          "text" : "var existingComments = [\n  {\n    \"sectionId\": \"1\",\n    \"comments\": [\n      {\n        \"id\": 88,\n        \"authorAvatarUrl\": \"img/jon_snow.png\",\n        \"authorName\": \"Jon Sno\",\n        \"authorId\": 1,\n        \"authorUrl\": \"http://en.wikipedia.org/wiki/Kit_Harington\",\n        \"comment\": \"I'm Ned Stark's bastard. Related: I know nothing.\"\n      },\n      {\n        \"id\": 112,\n        \"authorAvatarUrl\": \"img/donald_draper.png\",\n        \"authorName\": \"Donald Draper\",\n        \"authorId\": 2,\n        \"comment\": \"I need a scotch.\"\n      }\n    ]\n  },\n  {\n    \"sectionId\": \"3\",\n    \"comments\": [\n      {\n        \"id\": 66,\n        \"authorAvatarUrl\": \"img/clay_davis.png\",\n        \"authorName\": \"Senator Clay Davis\",\n        \"authorId\": 3,\n        \"comment\": \"These Side Comments are incredible. Sssshhhiiiiieeeee.\"\n      }\n    ]\n  }\n];\nvar currentUser = {\n  \"id\": 4,\n  \"avatarUrl\": \"img/user.png\",\n  \"authorUrl\": \"http://google.com/\",\n  \"name\": \"You\"\n};",
          "comment" : ""
        },
        "redirectURL" : "",
        "headersSize" : 200,
        "bodySize" : 943,
        "comment" : ""
      },
      "cache" : { },
      "timings" : {
        "comment" : "",
        "ssl" : -1,
        "connect" : 1055,
        "wait" : 0,
        "blocked" : -1,
        "send" : 0,
        "dns" : -1,
        "receive" : 0
      },
      "comment" : "",
      "_katalonRequestInformation" : {
        "name" : "127",
        "testObjectId" : "Temporary RESTful request object",
        "harId" : "0c75d6f9-73c5-4dc9-8950-3081c5a0e770"
      },
      "time" : 1055
    } ],
    "comment" : ""
  }
}