{
  "log" : {
    "version" : "1.2",
    "pages" : [ ],
    "entries" : [ {
      "startedDateTime" : "2019-07-12T04:38:56.103Z",
      "request" : {
        "method" : "GET",
        "url" : "https://frostedc-stg.learningmate.com/js/template/templateService.js",
        "httpVersion" : "",
        "cookies" : [ ],
        "headers" : [ ],
        "queryString" : [ ],
        "headersSize" : 0,
        "bodySize" : 0,
        "comment" : ""
      },
      "response" : {
        "status" : 200,
        "statusText" : "",
        "httpVersion" : "",
        "cookies" : [ ],
        "headers" : [ {
          "name" : "Accept-Ranges",
          "value" : "bytes"
        }, {
          "name" : null,
          "value" : "HTTP/1.1 200 OK"
        }, {
          "name" : "Server",
          "value" : "nginx/1.13.5"
        }, {
          "name" : "ETag",
          "value" : "\"5d25bc3a-2830\""
        }, {
          "name" : "Connection",
          "value" : "keep-alive"
        }, {
          "name" : "Last-Modified",
          "value" : "Wed, 10 Jul 2019 10:21:46 GMT"
        }, {
          "name" : "Content-Length",
          "value" : "10288"
        }, {
          "name" : "Date",
          "value" : "Fri, 12 Jul 2019 04:40:25 GMT"
        }, {
          "name" : "Content-Type",
          "value" : "application/javascript"
        } ],
        "content" : {
          "size" : 10288,
          "mimeType" : "application/javascript",
          "text" : "/*****\n * Specific services object type =  project\n * Author - Alamgir Hossain Sk  \n */\n'use strict';\nvar returnTemplates = '';\napp.service('templateService', ['$http', '$q', 'sessionService', '$location', '$rootScope', function ($http, $q, sessionService, $location, $rootScope) {\n\n        /*\n         * Service to get templates         \n         */\n        this.getTemplate = function ($scope) {\n            var deferred = $q.defer();\n            var queryString = '';\n            if (angular.isDefined($scope.id)) {\n                queryString += \"&id=\" + $scope.id;\n            }\n            if (angular.isDefined($scope.project_id)) {\n                queryString += '&project_id=' + $scope.project_id;\n            }\n            if (angular.isDefined($scope.template_status)) {\n                queryString += '&status=' + $scope.template_status;\n            }\n            if (angular.isDefined($scope.pageNumber) && angular.isDefined($scope.itemsPerPage)) {\n                queryString += '&pageNumber=' + $scope.pageNumber + '&itemsPerPage=' + $scope.itemsPerPage;\n            }\n\n            if (angular.isDefined($scope.currentOrderByField)) {\n                queryString += '&orderField=' + $scope.currentOrderByField;\n            }\n            if (angular.isDefined($scope.on_use)) {\n                queryString += '&on_use=' + $scope.on_use;\n            }\n\n            if (angular.isDefined($scope.searchModel) && $scope.searchModel.search_text) {\n                queryString += '&search_text=' + window.btoa($scope.searchModel.search_text);\n            }\n\n            if (angular.isDefined($scope.search_text)) {\n                queryString += '&search_text=' + window.btoa($scope.search_text);\n            }\n\n            if (angular.isDefined($scope.reverseSort)) {\n                var dir = 'ASC';\n                if ($scope.reverseSort)\n                {\n                    dir = 'DESC';\n                }\n                queryString += '&orderDirection=' + dir;\n            }\n            queryString += '&template_local_global=' + (angular.isDefined($scope.template_local_global) ? JSON.stringify($scope.template_local_global) : '{\"local\":' + $scope.template_local_global.local + ',\"global\":' + $scope.template_local_global.global + '}');\n\n            //'{\"local\":false,\"global\":true}'\n            //$scope.template_local_global.local\n            //console.info('Hello');\n            //console.info(serviceEndPoint + 'api/v1/project-template?access_token=' + sessionService.get('access_token') + queryString);\n\n            $http.get(serviceEndPoint + 'api/v1/project-template?access_token=' + sessionService.get('access_token') + queryString, {\n            }).success(function (data, status, headers, config) {\n                //console.log(data);\n                returnTemplates = data\n                deferred.resolve(data);//Return the project list             \n            }).error(function (data, status, headers, config) {\n\n                $rootScope.unauthorised_redirection(data.status);\n            });\n            return deferred.promise;\n        };\n        //End - Method to get template\n\n        /*\n         * Service to create template         \n         */\n        this.saveTemplate = function ($scope, $rootScope) {\n            var deferred = $q.defer();\n            $http.post(serviceEndPoint + 'api/v1/project-template/project_id/' + $scope.project_id + '?access_token=' + sessionService.get('access_token'), {\n                project_id: $scope.project_id,\n                title: $scope.title\n            }).success(function (data, status, headers, config) {\n                deferred.resolve(data);\n            }).error(function (data, status, headers, config) {\n                deferred.resolve(data);\n                //$rootScope.unauthorised_redirection(data.status);\n            });\n\n            return deferred.promise;\n        }\n        /*\n         * @author Meghamala Mukherjee\n         * @description save global template\n         * @dated 7-9-2017\n         * @param {type} $scope\n         * @param {type} $rootScope\n         * @returns {$q@call;defer.promise}\n         */\n        this.saveGlobalTemplate = function ($scope, $rootScope) {\n            var deferred = $q.defer();\n            $http.post(serviceEndPoint + 'api/v1/project-template/global_template?access_token=' + sessionService.get('access_token'), {\n                project_type_id: $scope.project_type_id,\n                title: $scope.title\n            }).success(function (data, status, headers, config) {\n                deferred.resolve(data);\n            }).error(function (data, status, headers, config) {\n                deferred.resolve(data);\n                //$rootScope.unauthorised_redirection(data.status);\n            });\n\n            return deferred.promise;\n        }\n        /**\n         * Service to edit template         \n         */\n        this.editTemplate = function ($scope, $rootScope) {\n            var deferred = $q.defer();\n            $http.post(serviceEndPoint + 'api/v1/project-template/template_id/' + $scope.id + '/project_id/' + $scope.project_id + '?access_token=' + sessionService.get('access_token'), {\n                _method: 'PUT',\n                project_id: $scope.project_id,\n                title: $scope.title,\n                template: $scope.template\n                        //template_classes: angular.toJson($scope.template_classes)\n            }).success(function (data, status, headers, config) {\n                deferred.resolve(data);\n            }).error(function (data, status, headers, config) {\n                deferred.resolve(data);\n                //$rootScope.unauthorised_redirection(data.status);\n            });\n\n            return deferred.promise;\n        }        \n        /**\n         * Service to edit Global template         \n         */\n        this.editGlobalTemplate = function ($scope, $rootScope) {\n            var deferred = $q.defer();\n            $http.post(serviceEndPoint + 'api/v1/project-template-global/template_id/' + $scope.id + '/project_id/' + $scope.project_id + '?access_token=' + sessionService.get('access_token'), {\n                _method: 'PUT',\n                project_id: $scope.project_id,\n                title: $scope.title\n            }).success(function (data, status, headers, config) {\n                deferred.resolve(data);\n            }).error(function (data, status, headers, config) {\n                deferred.resolve(data);\n                //$rootScope.unauthorised_redirection(data.status);\n            });\n\n            return deferred.promise;\n        }\n        \n        /*\n         * Delete Pattern         \n         */\n        this.delTemplate = function (template_id, project_id) {\n            var deferred = $q.defer();\n            $http.delete(serviceEndPoint + 'api/v1/project-template/template_id/' + template_id + '/project_id/' + project_id + '?access_token=' + sessionService.get('access_token'), {\n            }).success(function (data, status, headers, config) {\n                deferred.resolve(data);\n            }).error(function (data, status, headers, config) {\n                deferred.resolve(data);\n                $rootScope.unauthorised_redirection(data.status);\n            });\n\n            return deferred.promise;\n        }\n        /*\n         * Change status to active or inactive\n         */\n        this.changeStatus = function (template_id, $scope) {\n            var deferred = $q.defer();\n            $http.post(serviceEndPoint + 'api/v1/project-template-activate-inactivate/template_id/' + template_id + '?access_token=' + sessionService.get('access_token'), {\n                _method: 'PUT'\n            }).success(function (data, status, headers, config) {\n                deferred.resolve(data);\n            }).error(function (data, status, headers, config) {\n                deferred.resolve(data);\n                $rootScope.unauthorised_redirection(data.status);\n            });\n            return deferred.promise;\n        };\n\n        this.validateTemplate = function ($scope, $rootScope) {\n            console.log($scope);\n            var deferred = $q.defer();\n            var queryString = '';\n            if (angular.isDefined($scope.title)) {\n                queryString += \"&title=\" + $scope.title;\n            }\n            if (angular.isDefined($scope.project_id)) {\n                queryString += '&project_id=' + $scope.project_id;\n            }\n\n            $http.get(serviceEndPoint + 'api/v1/project-template-validate?access_token=' + sessionService.get('access_token') + queryString, {\n            }).success(function (data, status, headers, config) {\n                deferred.resolve(data);//Return the project list             \n            }).error(function (data, status, headers, config) {\n                deferred.resolve(data);\n            });\n            return deferred.promise;\n        };\n\n        this.getTemplateDetail = function ($scope, $rootScope) {\n            var deferred = $q.defer();\n            var queryString = '';\n\n            $http.get(serviceEndPoint + 'api/v1/project-template/' + $scope.template_id + '?access_token=' + sessionService.get('access_token') + queryString, {\n            }).success(function (data, status, headers, config) {\n                //console.log(data);\n                returnTemplates = data\n                deferred.resolve(data);//Return the project list             \n            }).error(function (data, status, headers, config) {\n                $rootScope.unauthorised_redirection(data.status);\n            });\n            return deferred.promise;\n        };\n\n        this.makeGlobal = function (ids, $scope) {\n            var deferred = $q.defer();\n            $http.post(serviceEndPoint + 'api/v1/template-change-access/template_id/' + ids + '?access_token=' + sessionService.get('access_token'), {\n                template_id: ids,\n                project_id: $scope.project_id,\n                action: 'GLOBAL'\n            }).success(function (data, status, headers, config) {\n                deferred.resolve(data);\n            }).error(function (data, status, headers, config) {\n                deferred.resolve(data);\n                $rootScope.unauthorised_redirection(data.status);\n            });\n            return deferred.promise;\n        };\n\n    }]);\n\n",
          "comment" : ""
        },
        "redirectURL" : "",
        "headersSize" : 203,
        "bodySize" : 10288,
        "comment" : ""
      },
      "cache" : { },
      "timings" : {
        "comment" : "",
        "ssl" : -1,
        "connect" : 1064,
        "wait" : 0,
        "blocked" : -1,
        "send" : 0,
        "dns" : -1,
        "receive" : 0
      },
      "comment" : "",
      "_katalonRequestInformation" : {
        "name" : "132",
        "testObjectId" : "Temporary RESTful request object",
        "harId" : "7f67b133-3f5d-49a9-81e5-937a1d31f403"
      },
      "time" : 1064
    } ],
    "comment" : ""
  }
}