{
  "log" : {
    "version" : "1.2",
    "pages" : [ ],
    "entries" : [ {
      "startedDateTime" : "2019-07-12T04:37:06.100Z",
      "request" : {
        "method" : "GET",
        "url" : "https://frostedc-stg.learningmate.com/js/project/projectController.js",
        "httpVersion" : "",
        "cookies" : [ ],
        "headers" : [ ],
        "queryString" : [ ],
        "headersSize" : 0,
        "bodySize" : 0,
        "comment" : ""
      },
      "response" : {
        "status" : 200,
        "statusText" : "",
        "httpVersion" : "",
        "cookies" : [ ],
        "headers" : [ {
          "name" : "Accept-Ranges",
          "value" : "bytes"
        }, {
          "name" : null,
          "value" : "HTTP/1.1 200 OK"
        }, {
          "name" : "Server",
          "value" : "nginx/1.13.5"
        }, {
          "name" : "ETag",
          "value" : "\"5d25bc3a-b982\""
        }, {
          "name" : "Connection",
          "value" : "keep-alive"
        }, {
          "name" : "Last-Modified",
          "value" : "Wed, 10 Jul 2019 10:21:46 GMT"
        }, {
          "name" : "Content-Length",
          "value" : "47490"
        }, {
          "name" : "Date",
          "value" : "Fri, 12 Jul 2019 04:38:35 GMT"
        }, {
          "name" : "Content-Type",
          "value" : "application/javascript"
        } ],
        "content" : {
          "size" : 47490,
          "mimeType" : "application/javascript",
          "text" : "/*****\n * Controller for project\n * Author - Arikh Akher *\n */\n\n'use strict';\napp.controller('createproject', ['$scope', '$http', 'sessionService', '$location', 'objectService', 'projectService', '$rootScope', '$routeParams',\n    '$filter', 'userService', 'aclService', 'limitToFilter', '$timeout', 'SweetAlert', '$modal', '$q', '$controller', '$log',\n    function($scope, $http, sessionService,\n        $location, objectService, projectService, $rootScope, $routeParams, $filter, userService, aclService, limitToFilter, $timeout, SweetAlert, $modal, $q,\n        $controller, $log) {\n\n        $scope.access_token = sessionService.get('access_token');\n        $scope.clientUrl = clientUrl;\n        $scope.user_permissions = JSON.parse(sessionService.get('user_permissions'));\n        $scope.isdropenabled = true;\n        $scope.pageRange = null;\n        var userinfo = JSON.parse(sessionService.get('userinfo'));\n\n        //Check if the session is active\n        $rootScope.checkActiveSession();\n        if (!$scope.access_token || userinfo == null) {\n            $location.path('logout');\n            return true;\n        }\n        $scope.from_admin = false;\n        if (angular.isDefined($routeParams.from_admin) && $routeParams.from_admin == \"true\") {\n            $scope.from_admin = true;\n        }\n        $scope.showMsg = 0;\n        $scope.hideBackToDashboard = 'true';\n\n        //$scope.$flow.defaults.repoDir = 'test';\n\n        $scope.formdata = {};\n        $scope.response = 0;\n        $scope.submitted = false;\n\n        $scope.$watch('leftPaneHeight()', function(val) {\n            $scope.tempVal = val;\n\n            $timeout(function() {\n                $scope.rightPaneLinkHeight = $scope.tempVal;\n            }, 3000, false);\n\n        });\n        $scope.leftPaneHeight = function() {\n            return jQuery(\".toc-panel-left\").css(\"height\");\n        };\n\n        $scope.clickedOnce = false;\n        $scope.saveProject = function(formdata, page, callpage) {\n            //alert(\"hi\");\n            $scope.clickedOnce = true;\n            $scope.submitted = true;\n            $scope.errorMessage = '';\n            $scope.error = [];\n            $scope.fileiscomplete = 0;\n            //console.info(formdata.theme);\n            objectService.objecttypes().then(function(data) {\n                $scope.object_types = data;\n                if (formdata.$valid == true) {\n                    if (!angular.isDefined(formdata.description)) {\n                        formdata.description = '';\n                    }\n                    objectService.save(formdata, $scope).then(function(data) {\n                        //$scope.object = data.object_id;\n                        //alert(formdata.course_ident);\n                        if (data.status == 200) {\n                            //$scope.$flow.defaults.flowRepoDir = data.data.object_id;\n                            //$scope.$flow.resume();\n                            //console.log(page + '==' + callpage);\n                            if (page == 'dashboard') {\n                                $rootScope.show_dashboard_success_msg = 1;\n                                $scope.redirpage = page;\n                            } else {\n                                if ($scope.toc_creation_status == 3001) {\n                                    $rootScope.show_edit_success_msg = 1;\n                                    $scope.redirpage = 'edit_toc/' + data.data.id;\n                                } else {\n                                    $scope.redirpage = 'project_import/' + data.data.id;\n                                }\n\n                            }\n\n                            if (callpage == 'mainpage') {\n                                $scope.redirectPage();\n                            }\n\n                        } else {\n                            $scope.clickedOnce = false;\n                            if (angular.isDefined(data.error.name) && data.error.name[0]) {\n                                $scope.error.objectName = data.error.name[0];\n                            }\n                            if (angular.isDefined(data.error.isbn) && data.error.isbn[0]) {\n                                $scope.error.objectIsbn = data.error.isbn[0];\n                            }\n                            if (angular.isDefined(data.error.author) && data.error.author[0]) {\n                                $scope.error.author = data.error.author[0];\n                            }\n                            if (angular.isDefined(data.error.project_cover) && data.error.project_cover[0]) {\n                                $scope.error.projectCover = data.error.project_cover[0];\n                                angular.element(\"[name='projectCover']\").val('');\n                            }\n                            if (angular.isDefined(data.error.discipline) && data.error.discipline[0]) {\n                                $scope.error.objectDiscipline = data.error.discipline[0];\n                            }\n                            if (angular.isDefined(data.error.publication_date) && data.error.publication_date[0]) {\n                                $scope.error.publicationDate = data.error.publication_date[0];\n                            }\n                        }\n                    });\n                } else {\n                    $scope.clickedOnce = false;\n                    if ($scope.formdata.objectName && $scope.formdata.objectName.$error.required) {\n                        $scope.error.objectName = 'This field is required.';\n                    }\n                    if ($scope.formdata.projectType && $scope.formdata.projectType.$error.required) {\n                        $scope.error.projectType = 'This field is required.';\n                    }\n                    if ($scope.formdata.objectDescription && $scope.formdata.objectDescription.$error.required) {\n                        $scope.error.objectDescription = 'This field is required.';\n                    }\n                    if ($scope.formdata.objectIsbn && $scope.formdata.objectIsbn.$error.required) {\n                        $scope.error.objectIsbn = 'This field is required.';\n                    }\n                    if ($scope.formdata.objectDiscipline && $scope.formdata.objectDiscipline.$error.required) {\n                        $scope.error.objectDiscipline = 'This field is required.';\n                    }\n                }\n\n            });\n\n        };\n\n        projectService.projecttypes().then(function(data) {\n            $scope.project_types = data.data;\n            selectedKey = $scope.arrayIterate($scope.project_types, 5);\n            $scope.formdata.project_type = $scope.project_types[selectedKey];\n        });\n\n        /*projectService.get_all_project_list().then(function (data) {\n         $scope.project_lists = data.data;\n         });*/\n\n\n        //Fetch Theme list by choosing projectType as visualContent\n        $scope.$watch('formdata.project_type', function(newValue, oldValue) {\n            if (!angular.isUndefined(newValue)) {\n                $scope.theme_lists = {};\n                $scope.project_type_id = newValue.id;\n                if (newValue.id == 3 || newValue.id == 4 || newValue.id == 5) {\n                    //If project type is visual\n                    projectService.get_theme_list($scope).then(function(data) {\n                        $scope.theme_lists = data.data;\n                        if (newValue.id == 4) {\n                            var selectedThemeKey = $scope.arrayIterateTheme($scope.theme_lists, 4);\n                            $scope.formdata.theme = $scope.theme_lists[selectedThemeKey];\n                        } else if (newValue.id == 5) {\n                            $scope.formdata.theme = $scope.theme_lists[0];\n                        }\n                    });\n                }\n            }\n        });\n\n        $scope.select_theme = function(theme) {\n            setTimeout(function() {\n                var myEl = angular.element('#theme' + theme.id);\n                //myEl.css({'border': '2px solid red', 'padding': '6px'});\n                myEl.siblings().removeClass(\"active\");\n                myEl.addClass('active');\n                $scope.formdata.theme = theme;\n            }, 100);\n        };\n\n        userService.getUsers().then(function(data) {\n            $scope.user_lists = data.data;\n        });\n        $scope.formData = {};\n        /*Added meta_info array By Mrinmoy Starts Here*/\n        $scope.meta_info = {};\n        /*Added meta_info array By Mrinmoy Ends Here*/\n        $scope.formData.user = {};\n        $scope.formData.project = {};\n        //Check / uncheck All\n        $scope.checkAll = function() {\n            if ($scope.selectedAll) {\n                $scope.selectedAll = false;\n            } else {\n                $scope.selectedAll = true;\n            }\n            angular.forEach($scope.user_lists, function(item) {\n                $scope.formData.user[item.id] = $scope.selectedAll;\n            });\n        };\n\n        $scope.getMapappedUsers = function(project_id) {\n            $scope.project_id = project_id;\n            $scope.items = [];\n            $scope.itemsPerPage = 40;\n            projectService.get_mapapped_users($scope).then(function(data) {\n                if (data.count != '0') {\n                    $scope.items = data.data;\n                }\n            });\n        }\n\n\n        $scope.$watch('formdata.project_type.id', function(val) {\n            if ($scope.formdata.project_type && (val == 1 || val == 4 || val == 5)) {\n                $scope.isdropenabled = true;\n            } else {\n                $scope.isdropenabled = false;\n            }\n        });\n\n        $scope.$watch('$flow.files.length', function(val) {\n            if (val == 1) {\n                $scope.isdropenabled = false;\n            }\n            if (val > 1) {\n                $scope.$flow.files.pop();\n                SweetAlert.swal(\"Cancelled\", \"Only one package at a time\", \"error\");\n            }\n        });\n\n        $scope.createProject = function() {\n            $location.path('createproject');\n        };\n\n        $scope.redirectPage = function() {\n            $location.path($scope.redirpage);\n        };\n\n        $scope.upload_cancel = function() {\n            $scope.isdropenabled = true;\n            $scope.project_status = 3000;\n            projectService.change_project_status($scope);\n            jQuery(\"#customProcess\").prop(\"disabled\", false);\n        }\n\n        // Get Project/object details after getting project_types\n        $scope.$watch('project_types', function(val) {\n            if (angular.isUndefined(val) == false) {\n                $scope.text = { 'CREATE_PROJECT': 'Create New Project', 'CREATE_CONTINUE_BUTTON': 'Create & Continue' };\n                if ($routeParams.project_id) {\n                    $scope.text.CREATE_PROJECT = 'Edit Project';\n                    $scope.text.CREATE_CONTINUE_BUTTON = 'Save Changes';\n                    $scope.project_id = $routeParams.project_id;\n                    $scope.getProject($scope);\n                    //set theme_id on dropDown while editing\n                    $scope.$watch('theme_lists', function(theme_list) {\n                        $scope.$watch('theme_id', function(theme_id) {\n                            if (angular.isDefined(theme_list) && angular.isDefined(theme_id)) {\n                                $scope.theme_list = theme_list;\n                                var selectedThemeKey = $scope.arrayIterateTheme($scope.theme_list, theme_id);\n                                $scope.formdata.theme = $scope.theme_list[selectedThemeKey];\n                                //console.log($scope.formdata.theme);\n                                if ($scope.project_type_id == 5) {\n                                    if (angular.isDefined($scope.formdata.theme)) {\n                                        $scope.select_theme($scope.formdata.theme);\n                                    }\n                                }\n                            }\n                        });\n                    });\n\n                } else {\n                    $scope.project_id = '';\n                }\n            }\n        });\n\n        $scope.view_create_toc = '';\n        $scope.getProject = function($scope) {\n            //var deferred = $q.defer();\n            objectService.getProjectDetails($scope).then(function(data) {\n                if (data == null || (angular.isDefined(data.is_global_project) && data.is_global_project == true)) {\n                    $location.path(\"edit_toc/\" + $scope.project_id);\n                } else if (angular.isObject(data)) {\n                    $scope.ts_hash = '?_ts=' + new Date().getTime()\n                    $scope.project_id = data.id;\n                    $scope.toc_creation_status = data.toc_creation_status;\n                    $scope.formdata.project_name = data.name;\n                    $scope.formdata.build_type = data.build_type;\n                    $scope.formdata.description = data.description;\n                    $scope.formdata.project_isbn = data.isbn;\n                    $scope.formdata.project_discipline = data.discipline;\n                    /* Added Variable By Mrinmoy Starts Here*/\n                    $scope.formdata.course_ident = data.course_ident;\n                    $scope.formdata.version = data.version;\n                    $scope.meta_info = JSON.parse(data.meta_info);\n                    /* Added Variable By Mrinmoy Ends Here*/\n                    $scope.formdata.project_author = data.author;\n                    $scope.formdata.project_cover = data.cover;\n                    $scope.formdata.project_cover_thumbnail = data.cover_thumbnail;\n                    $scope.formdata.toc = data.toc;\n                    $scope.formdata.cover = (data.cover) ? data.cover : data.local_cover; //(data.local_cover) ? data.local_cover : data.cover;\n                    var publication_date = new Date(data.publication_date);\n                    if (angular.isDate(publication_date) && data.publication_date != '0000-00-00') {\n                        $scope.formdata.publication_date = $filter('date')(publication_date, 'MM/dd/yyyy');\n                    } else {\n                        $scope.formdata.publication_date = '';\n                    }\n\n                    $scope.formdata.cover_thumbnail = (data.local_cover_thumbnail) ? data.local_cover_thumbnail : data.cover_thumbnail;\n\n                    $scope.theme_id = data.theme_id;\n                    $scope.created_by = data.created_by;\n                    $scope.users = data.user_role;\n                    $scope.project = data; //{};\n                    $scope.project_type_id = data.project_type_id;\n                    $scope.project.project_permissions = data.project_permissions;\n                    $scope.hideBackToDashboard = 'false';\n\n                    if ($scope.formdata.build_type == '3004') {\n                        $scope.isDisabled = true;\n                    }\n\n                    if (!data.toc && $scope.toc_creation_status == '3000') {\n                        //Not Started=>3000, Completed=>3001, Inprogress=>3002\n                        $scope.view_create_toc = 'CREATE_TOC';\n                    }\n                    if ($scope.toc_creation_status == '3002' || $scope.toc_creation_status == '3001') {\n                        //Not Started=>3000, Completed=>3001, Inprogress=>3002\n                        $scope.view_create_toc = 'TOC_CREATION_INPROGRESS';\n                    }\n                    if ($scope.toc_creation_status == '3003') {\n                        //Not Started=>3000, Completed=>3001, Inprogress=>3002, Package Imported=>3003\n                        $scope.view_create_toc = 'PACKAGE_IMPORT_SUCCESS';\n                    }\n                    if (!$scope.user_permissions['toc.create'].grant) {\n                        $scope.view_create_toc = 'PERMISSION_DENIED';\n                    }\n                    selectedKey = $scope.arrayIterate($scope.project_types, data.project_type_id);\n                    $scope.formdata.project_type = $scope.project_types[selectedKey];\n                    if (data.import_package_info_status == '1002') {\n                        $location.path('edit_toc/' + $scope.project_id);\n                    } else {\n                        if ($location.path().indexOf('project_import') != -1 && $scope.formdata.toc && $scope.toc_creation_status == '3001') {\n                            $timeout(function() {\n                                $location.path('edit_toc/' + $scope.project_id);\n                            }, 600, false);\n\n                        } else {\n                            if ($location.path().indexOf('editproject') == -1 && $location.path().indexOf('project-user') == -1) {\n                                if (!$scope.formdata.toc) {\n                                    $location.path('project_import/' + $scope.project_id);\n                                }\n                            }\n                            if (angular.isDefined(data.import_package_info)) {\n                                $scope.get_import_result('', '', data.import_package_info);\n                            }\n\n                        }\n                    }\n                }\n            });\n\n            //return deferred.promise;\n        }\n\n        //Array index find for selected type\n        var selectedKey = '';\n        $scope.arrayIterate = function(lists, project_type_id) {\n            angular.forEach(lists, function(value, key) {\n                if (value.id == project_type_id) {\n                    selectedKey = key;\n                }\n            });\n            return selectedKey;\n        }\n\n        //Array index find for selected type\n        var selectedThemeKey = '';\n        $scope.arrayIterateTheme = function(lists, theme_id) {\n            angular.forEach(lists, function(value, key) {\n                if (value.id == theme_id) {\n                    selectedThemeKey = key;\n                }\n            });\n            return selectedThemeKey;\n        }\n\n\n        //Upload PXE\n        $scope.uploadPackage = function() {\n            //console.log(' event.srcElement.className='.event.srcElement.className);\n            if ($scope.project_type_id == 5 && $scope.$flow.files[0].name.indexOf('.pdf') > 0 && event.srcElement.className !== \"fa fa-play\") {\n                $scope.pageRange = 'all';\n                jQuery(\".uploading-container\").hide();\n                jQuery(\"#uploadPDFParamModal\").modal(\"show\");\n                $scope.$flow.defaults.flowRepoDir = $scope.project_id;\n                // $scope.$flow.opts.query = {project_type_id: $scope.project_type_id, pageRange: $scope.pageRange};\n                // $scope.$flow.resume();\n            } else {\n                jQuery(\"#customProcess\").prop(\"disabled\", true);\n                $scope.$flow.defaults.flowRepoDir = $scope.project_id;\n                $scope.$flow.opts.query = { project_type_id: $scope.project_type_id };\n                $scope.$flow.resume();\n            }\n        };\n\n\n        $scope.$watch('$flow.progress()', function(v) {\n            $rootScope.file_timer = $filter('number')(v * 100, 0);\n        });\n\n        $scope.get_import_result = function(fl, file, result) {\n            $scope.responseList = \"\";\n            if (result) {\n                var result = JSON.parse(result);\n            } else {\n                var result = null;\n            }\n            if (result != null) {\n                if (angular.isDefined(result.errors) && result.errors.length) {\n                    jQuery(\"#customProcess\").prop(\"disabled\", false);\n                    $scope.responseList = \"<h4>Oops! Following errors were found!</h4>\";\n                    var error_array = jQuery.unique(result.errors);\n                    $scope.responseList += '<ul>';\n                    angular.forEach(error_array, function(value, key) {\n                        $scope.responseList += '<li>' + value + '</li>';\n                    });\n                    $scope.responseList += '</ul>';\n                    $scope.responseList += '<div>' + 'Please correct these error and re-upload your package. You can also choose to create your ToC for scratch.' + '</div>';\n                }\n                //$scope.$flow.cancel();\n            } else {\n                //$scope.getProject($scope);\n                $scope.$flow.cancel();\n                //$scope.edit_toc($scope.project_id);\n\n            }\n        }\n        $scope.update_after_import = function(fl, file, result) {\n                $scope.getProject($scope);\n                $scope.$flow.cancel();\n                //$scope.edit_toc($scope.project_id);\n            }\n            //Goto Edit TOC Page\n        $scope.edit_toc = function(project_id) {\n            //var response = JSON.parse(response);\n            $scope.object_id = project_id;\n            //if ($scope.toc_creation_status == 3001) {\n            objectService.create_toc($scope).then(function(data) {\n                if (data.status == 200) {\n                    $rootScope.show_success_msg = 1;\n                    $rootScope.show_toc = 1;\n                    $location.path('edit_toc/' + project_id);\n                }\n            });\n            //}\n        };\n\n        /*\n         * Start to get Exported Project List\n         */\n        $scope.currentPage = 1;\n        $scope.pageNumber = '';\n        $scope.itemsPerPage = '';\n        $scope.listProjectExport = function(pageNumber) {\n            $scope.pageNumber = pageNumber;\n            $scope.itemsPerPage = 10;\n            projectService.get_export_list($scope, $routeParams.project_id).then(function(data) {\n                $scope.exportList = data.data;\n                $scope.totalExportList = angular.isDefined(data.total) ? data.total : -1;\n            });\n        };\n        $scope.listProjectExport(1);\n        //For Pagination Of Dashboard\n        $scope.pageChangeHandlerExportList = function(newPage) {\n            $scope.listProjectExport(newPage);\n        };\n        //\n        $scope.deleteExport = function(project_id) {\n            SweetAlert.swal({\n                title: \"Are you sure?\",\n                text: \"\",\n                type: \"warning\",\n                showCancelButton: true,\n                confirmButtonColor: \"#DD6B55\",\n                confirmButtonText: \"Yes, delete it!\",\n                cancelButtonText: \"No, cancel!\",\n                closeOnConfirm: false,\n                closeOnCancel: true\n            }, function(isConfirm) {\n                if (isConfirm) {\n                    //angular.extend(this, $controller('toc_edit', {$scope: $scope}));\n                    projectService.delete_export(project_id).then(function(data) {\n                        if (data.status == 200) {\n                            SweetAlert.swal(\"Success\", \"\", \"success\");\n                            projectService.get_export_list($scope, $routeParams.project_id).then(function(data) {\n                                $scope.exportList = data.data;\n                                /*console.info($scope.exportList.length);\n                                 if ($scope.exportList.length < 1) {\n                                 $scope.project.project_export_count = 0;\n                                 }*/\n                            });\n                        }\n\n                    });\n                }\n            });\n        };\n\n        $scope.userRoleMap = {};\n        $scope.getMapappedUsers($routeParams.project_id);\n        $scope.addItem = function() {\n            $scope.message = '';\n            $scope.items.push({ random: +new Date() });\n            var lastObjid = $scope.items[$scope.items.length - 1].random;\n            setTimeout(function() {\n                jQuery('#' + lastObjid).focus();\n            }, 100);\n        };\n\n        $scope.removeItem = function(index) {\n            $scope.message = '';\n            $scope.userRoleMap = $scope.items[index];\n            // if ($scope.items[index].edit_flag) {\n            SweetAlert.swal({\n                title: \"Are you sure?\",\n                text: \"The user association will be deleted.\",\n                type: \"warning\",\n                showCancelButton: true,\n                confirmButtonColor: \"#DD6B55\",\n                confirmButtonText: \"Yes, delete it!\",\n                cancelButtonText: \"No, cancel!\",\n                closeOnConfirm: false,\n                closeOnCancel: false\n            }, function(isConfirm) {\n                if (isConfirm) {\n                    // check exists record or not\n                    if (angular.isUndefined($scope.items[index].random)) {\n                        $scope.pageAction = 'remove';\n                        aclService.deleteProjectUser($scope).then(function(data) {\n                            $('#checkAllUser').prop(\"checked\", false);\n                            $scope.disabled_delete_users_btn = true;\n                            $scope.isAllSelected = '';\n                            $scope.getMapappedUsers($routeParams.project_id);\n                            $scope.items.splice(index, 1);\n                            $scope.message = 'User(s) deleted successfully'\n\n                        });\n                    } else {\n                        $('#checkAllUser').prop(\"checked\", false);\n                        $scope.disabled_delete_users_btn = true;\n                        $scope.isAllSelected = '';\n                        $scope.items.splice(index, 1);\n                    }\n                    SweetAlert.swal(\"Success\", \"User association has been deleted\", \"success\");\n                } else {\n                    SweetAlert.swal(\"Cancelled\", \"User(s) are safe :)\", \"error\");\n                }\n            });\n\n            /*} else {\n             $scope.items.splice(index, 1);\n             }*/\n        };\n        $scope.options = function(user_text) {\n            //console.log(user_text);\n            $scope.user_text = user_text;\n            if (angular.isDefined($scope.user_text)) {\n                return $http.post(serviceEndPoint + 'api/v1/users-filter?access_token=' + sessionService.get('access_token'), { user_text: $scope.user_text, created_by: $scope.created_by, project_id: $routeParams.project_id }).then(function(response) {\n                    //                    console.info(response);\n                    $scope.response_status = response.data.status;\n                    $scope.user_not_exist = response.data.user_not_exist;\n                    angular.forEach(response.data.data, function(value, key) {\n                        value['username'] = $filter('strLimit')(value['username'], 25);\n                    });\n                    return limitToFilter(response.data.data, 15);\n                });\n            }\n\n        };\n        //aclService.projectRoles().then(function (data) {\n        $scope.exclude_role_ids = [1, 3];\n        aclService.roles($scope).then(function(data) {\n            $scope.roles = data.data;\n            $scope.role_id = $scope.roles[1];\n        });\n        $scope.saveProjectUser = function() {\n            aclService.associateProjectUser($scope).then(function(data) {\n                $scope.getMapappedUsers($routeParams.project_id);\n            });\n        };\n        $scope.cancelProjectUser = function() {\n            $location.url(\"edit_toc/\" + $routeParams.project_id);\n        };\n\n        $scope.disabled_delete_users_btn = true;\n\n        $scope.toggleAll = function() {\n            var isAllCheck = $('#checkAllUser').prop(\"checked\");\n            if (isAllCheck && $('.user-checkbox').length > 0) {\n                $scope.disabled_delete_users_btn = false;\n                $('.user-checkbox').prop(\"checked\", true);\n            } else {\n                $scope.disabled_delete_users_btn = true;\n                $('.user-checkbox').prop(\"checked\", false);\n            }\n            angular.forEach($scope.items, function(item) {\n                if (item.user_id != $scope.created_by || item.edit_role != 1) {\n                    item.checked = isAllCheck;\n                }\n            });\n        };\n\n        $scope.userToggled = function(item) {\n            if ($('.user-checkbox:checked').length == $('.user-checkbox').length) {\n                $('#checkAllUser').prop(\"checked\", true);\n            } else {\n                $('#checkAllUser').prop(\"checked\", false);\n            }\n            if ($('.user-checkbox:checked').length == 0) {\n                $scope.disabled_delete_users_btn = true;\n            } else {\n                $scope.disabled_delete_users_btn = false;\n            }\n        };\n\n        // Delete bulk userd\n        $scope.deleteUsersBtn = function() {\n            $scope.message = '';\n            //$scope.userRoleMap = $scope.items[index];\n            SweetAlert.swal({\n                title: \"Are you sure?\",\n                text: \"The user(s) association will be deleted.\",\n                type: \"warning\",\n                showCancelButton: true,\n                confirmButtonColor: \"#DD6B55\",\n                confirmButtonText: \"Yes, delete it!\",\n                cancelButtonText: \"No, cancel!\",\n                closeOnConfirm: false,\n                closeOnCancel: false\n            }, function(isConfirm) {\n                if (isConfirm) {\n                    // check exists record or not\n                    //if (angular.isUndefined($scope.items[index].random)) {\n                    $scope.pageAction = 'bulk_remove';\n                    $scope.userList = [];\n                    angular.forEach($scope.items, function(item) {\n                        if (angular.isDefined(item.checked) && item.checked) {\n                            $scope.userList.push({ \"user_id\": item.user_id, \"username\": item.username, \"role_id\": item.role_id });\n                        }\n                    });\n                    aclService.deleteProjectUser($scope).then(function(data) {\n                        $('#checkAllUser').prop(\"checked\", false);\n                        $scope.disabled_delete_users_btn = true;\n                        $('.user-checkbox').prop(\"checked\", false);\n                        $scope.isAllSelected = false;\n                        $scope.getMapappedUsers($scope.project_id);\n                        $scope.message = 'User(s) deleted successfully.'\n                    });\n                    //} else {\n                    //$scope.items.splice(index, 1);\n                    //}\n                    SweetAlert.swal(\"Success\", \"User(s) association has been deleted\", \"success\");\n                } else {\n                    SweetAlert.swal(\"Cancelled\", \"User(s) are safe :)\", \"error\");\n                }\n            });\n        };\n\n        //User Selection End\n        $scope.addBtn = function() {\n            $scope.addItem();\n        };\n\n\n        $scope.addUsersBtn = function() {\n            var modalInstance = $modal.open({\n                templateUrl: 'templates/project/project_user_modal.html',\n                controller: 'projectUserModalController',\n                size: 'lg',\n                backdrop: 'static',\n                keyboard: false,\n                resolve: {}\n            });\n            modalInstance.result.then(function() {\n                $scope.message = \"User(s) added successfully.\";\n                $scope.status = 200;\n                $('#checkAllUser').prop(\"checked\", false);\n                $scope.disabled_delete_users_btn = true;\n                $scope.isAllSelected = '';\n                $scope.getMapappedUsers($scope.project_id);\n            }, function() {\n                $log.info('Modal dismissed at: ' + new Date());\n            });\n        };\n\n        $scope.edit = function(size, id) {\n            var assessmentRec = {};\n            $scope.assessment_id = id;\n            $scope.show_make_global = true;\n            angular.element('#editAssessment' + id).attr('disabled', 'disabled');\n            assessmentService.getAssessments($scope, $scope.project_id).then(function(data) {\n                assessmentRec = data.data.assessment_list;\n                var assessmentTitle = assessmentRec[0].title;\n                var modalInstance = $modal.open({\n                    templateUrl: 'templates/assessment/myModalContent.html',\n                    controller: 'ModalInstanceAssessmentCtrl',\n                    size: size,\n                    backdrop: 'static',\n                    keyboard: false,\n                    resolve: {\n                        assessmentRec: function() {\n                            return assessmentRec;\n                        },\n                        modalFormText: function() {\n                            return \"You are trying to edit assessment [\" + $filter('strLimit')(assessmentTitle, 20) + \"]\";\n                        },\n                        modalFormTile: function() {\n                            return \"Edit Assessment\";\n                        },\n                        project_id: function() {\n                            return $scope.project_id;\n                        },\n                        project_permissions: function() {\n                            return $scope.project.project_permissions;\n                        },\n                        project_theme: function() {\n                            return $scope.project.theme;\n                        },\n                        show_make_global: function() {\n                            return $scope.show_make_global;\n                        }\n                    }\n                });\n                modalInstance.result.then(function() {\n                    $scope.assessment_id = '';\n                    assessmentService.getAssessments($scope, $scope.project_id).then(function(data) {\n                        $scope.assessmentList = data.data.assessment_list;\n                        $scope.assessmentsTotal = data.data.total;\n                    });\n                }, function() {\n                    angular.element('#editAssessment' + id).removeAttr('disabled');\n                    $log.info('Modal dismissed at: ' + new Date());\n                });\n            });\n        };\n\n        $scope.saveRole = function(index) {\n            $scope.message = '';\n            $scope.userRoleMap = $scope.items[index];\n            $scope.pageAction = 'add';\n            //console.info($scope.userRoleMap.username);\n            if (!angular.isDefined($scope.userRoleMap.username)) {\n                $scope.status = 400;\n                $scope.message = 'User is mandetory';\n            } else if (!angular.isDefined($scope.userRoleMap.role)) {\n                $scope.status = 400;\n                $scope.message = 'Role is mandetory';\n            } else {\n                if (angular.isDefined($scope.items[index].edit_flag)) { // edit\n                    aclService.updateProjectUser($scope).then(function(data) {\n                        $scope.getMapappedUsers($routeParams.project_id);\n                    });\n                } else { // add\n                    aclService.associateProjectUser($scope).then(function(data) {\n                        $scope.getMapappedUsers($routeParams.project_id);\n                    });\n                }\n            }\n\n        };\n\n        $scope.editRole = function(index) {\n            $scope.message = '';\n            $scope.items[index].edit_flag = '';\n            $scope.items[index].edit_role = '';\n            $scope.items[index].edit_username = 1;\n        };\n\n        $scope.openPreviewModal = function(size, themeid) {\n            $modal.open({\n                template: '<div class=\"popup-boxes\"> <div class=\"modal-header header-m\"> Theme Preview <button type=\"button\" class=\"close\" data-dismiss=\"modal\" onClick=\"cancel()\"><span aria-hidden=\"true\">&times;</span><span class=\"sr-only\">Close</span></button> </div> <div class=\"sub-title\">Your content will be simillar to this theme.</div> <div class=\"inner-modal-content tab-contents\" style=\"height:400px;\"> <iframe src=\"' + serviceEndPoint + 'themes/' + $scope.project_type_id + '/theme' + themeid + '/preview.html\" width=\"100%\" height=\"100%\"></iframe> </div>  <div class=\"clearfix\"></div><div class=\"modal-footer\">&nbsp;</div> </div>',\n                size: size,\n                backdrop: 'static',\n                keyboard: false,\n            });\n        };\n\n        $scope.downloadManifest = function(fileLocationUrl) {\n            $http.get(fileLocationUrl, {\n                withCredentials: false,\n            }, {\n                responseType: 'arraybuffer'\n            }).success(function(data, status, headers, config) {\n\n                var file = new Blob([data], {\n                    type: 'application/xml'\n                });\n                var url = URL.createObjectURL(file);\n                var a = document.createElement('a');\n                a.setAttribute('download', 'manifest');\n                a.setAttribute('href', url);\n\n                var event = new MouseEvent('click', {\n                    'view': window,\n                    'bubbles': true,\n                    'cancelable': true\n                });\n                a.dispatchEvent(event);\n            }).error(function(data, status, headers, config) {\n                //                console.log(\"error\");\n            });\n        };\n\n        $scope.downloadCFI = function(fileLocationUrl) {\n            $http({ method: 'GET', withCredentials: false, url: fileLocationUrl }).\n            success(function(data, status, headers, config) {\n                var anchor = angular.element('<a/>');\n                anchor.css({ display: 'none' });\n                angular.element(document.body).append(anchor);\n                anchor.attr({\n                    href: 'data:attachment/csv;charset=utf-8,' + encodeURI(data),\n                    target: '_blank',\n                    download: 'cfi.csv'\n                })[0].click();\n                anchor.remove();\n            }).\n            error(function(data, status, headers, config) {\n                //                        console.log(\"error\");\n            });\n        };\n\n        $scope.pushToCMS = function(package_id) {\n            SweetAlert.swal({\n                title: \"Are you sure?\",\n                text: \"You are going to push the package to CMS\",\n                type: \"warning\",\n                showCancelButton: true,\n                confirmButtonColor: \"#DD6B55\",\n                confirmButtonText: \"Yes, push it!\",\n                cancelButtonText: \"No, cancel!\",\n                closeOnConfirm: true,\n                closeOnCancel: false\n            }, function(isConfirm) {\n                if (isConfirm) {\n                    if (angular.isDefined($scope.project_id)) {\n                        projectService.pushToCMS($scope, package_id).then(function(result) {\n                            if (result.status == 400 && angular.isDefined(result.projectPermissionGranted) && result.projectPermissionGranted == 401) {\n                                SweetAlert.swal(\"Cancelled\", result.message, \"warning\");\n                            }\n                        });\n                    }\n                } else {\n                    SweetAlert.swal(\"Cancelled\", \"Copy is cancelled :)\", \"error\");\n                }\n            });\n        };\n        $scope.activateRange = function() {\n            $scope.pageRange = 'range';\n        };\n        $scope.$watch('pageRange', function() {\n            if ($scope.pageRange == 'all') {\n                $scope.rangeValue = '';\n            }\n        });\n\n        $scope.disableAutoTagging = false;\n\n        $scope.addParamCancel = function() {\n            $scope.$flow.cancel();\n            $scope.disableAutoTagging = false;\n        };\n\n        $scope.addParamConfirm = function() {\n            jQuery(\"#uploadPDFParamModal\").modal(\"hide\");\n            jQuery(\".uploading-container\").show();\n            $scope.addPDFParamFlag = true;\n            jQuery(\"#customProcess\").prop(\"disabled\", true);\n            $scope.$flow.opts.query = { project_type_id: $scope.project_type_id, pageRange: $scope.pageRange, disableAutoTagging: $scope.disableAutoTagging };\n            $scope.$flow.resume();\n            $scope.disableAutoTagging = false;\n        };\n\n        $scope.backToProjects = function() {\n            window.location = clientUrl + '#/settings?tab=projects';\n        };\n\n    }\n]);\n\napp.controller('projectUserModalController', ['$scope', '$modalInstance', '$http', 'sessionService', '$location', '$rootScope', '$routeParams',\n    '$filter', '$timeout', 'SweetAlert', '$modal', '$q', '$controller', 'aclService',\n    function($scope, $modalInstance, $http, sessionService, $location, $rootScope, $routeParams, $filter, $timeout, SweetAlert, $modal, $q, $controller, aclService) {\n        $scope.modalFormTile = \"Add User\";\n        $scope.search_field = [{ \"option\": \"Username\", \"value\": \"1\" }, { \"option\": \"Email Id\", \"value\": \"2\" }];\n        $scope.search_text = \"\";\n        $scope.searchKey = { \"option\": \"Username\", \"value\": \"1\" };\n        $scope.project_id = $routeParams.project_id;\n        $scope.allUserSelected = false;\n        $scope.checkCount = false;\n        $scope.displayErrorAlert = false;\n        $scope.toggleSearchButton = false;\n        $scope.exclude_role_ids = [1, 3];\n        $scope.disabledClearSearchBtn = true;\n        $scope.bulkRole = \"\";\n        $scope.modalFormText = \"You are trying to add user(s)\";\n\n        aclService.roles($scope).then(function(data) {\n            $scope.roles = data.data;\n        });\n        $scope.search = function() {\n            if ($scope.disabledClearSearchBtn) {\n                $scope.getUsers();\n            } else {\n                $scope.clearSearch();\n            }\n            $scope.disabledClearSearchBtn = !$scope.disabledClearSearchBtn;\n        };\n\n        $scope.userInput = function(event) {\n            if (event.keyCode == 13) {\n                if ($scope.search_text.length) {\n                    // $scope.disabledClearSearchBtn = false;\n                    $scope.search();\n                }\n            } else {\n                // if ($scope.search_text) {\n                //     $scope.disabledClearSearchBtn = false;\n                // } else {\n                //     $scope.disabledClearSearchBtn = true;\n                // }\n            }\n        }\n        $scope.isNoRecord = '';\n        $scope.bulkRoleAssign = function() {\n            var selected_bulk_role = $scope.bulkRole;\n            angular.forEach($scope.users, function(value, key) {\n                if (value.checked) {\n                    value.role = selected_bulk_role;\n                }\n            });\n        }\n        $scope.getUsers = function() {\n            aclService.getUnmappedProjectUsers($scope).then(function(data) {\n                //$scope.users = data.data;\n                var users = data.data;\n                if (users.length > 0) {\n                    $scope.isNoRecord = false;\n                    angular.forEach(users, function(user) {\n                        user.role_id = '';\n                        user.role = {};\n                    });\n                    $scope.users = users;\n                } else {\n                    $scope.isNoRecord = true;\n                    $scope.users = users;\n                }\n            });\n        };\n\n        $scope.checkAllUser = function() {\n            var isCheck = $('#selectAllUser').prop(\"checked\");\n            if (isCheck && $('.add-user-checkbox').length > 0) {\n                $('.add-user-checkbox').prop(\"checked\", true);\n                $scope.checkCount = true;\n            } else {\n                $('.add-user-checkbox').prop(\"checked\", false);\n                $scope.checkCount = false;\n            }\n            angular.forEach($scope.users, function(user) {\n                user.checked = isCheck;\n            });\n        };\n        $scope.checkUser = function(user) {\n            if ($('.add-user-checkbox:checked').length == $('.add-user-checkbox').length) {\n                $('#selectAllUser').prop(\"checked\", true);\n            } else {\n                $('#selectAllUser').prop(\"checked\", false);\n            }\n            if ($('.add-user-checkbox:checked').length) {\n                $scope.checkCount = true;\n            } else {\n                $scope.checkCount = false;\n            }\n        };\n        $scope.confirm = function() {\n            $scope.pageAction = 'bulk_add';\n            $scope.userList = [];\n            $scope.displayErrorAlert = false;\n            var count = 0;\n            angular.forEach($scope.users, function(item) {\n                if (angular.isDefined(item.checked) && item.checked) {\n                    count++;\n                    if (!item.role || !item.role.id) {\n                        $scope.displayErrorAlert = true;\n                        $scope.userList = [];\n                        return;\n                    }\n                    $scope.userList.push({ \"user_id\": item.user_id, \"username\": item.username, \"role_id\": item.role.id });\n                }\n            });\n            if (count == $scope.userList.length) {\n                aclService.associateProjectUser($scope).then(function(data) {\n                    $modalInstance.close();\n                });\n            }\n        };\n        $scope.checkUncheckUser = function(user) {\n            user.checked = user.role ? true : false;\n            $timeout(function() {\n                $scope.checkUser(user);\n            }, 100);\n        };\n        $scope.cancel = function() {\n            $modalInstance.dismiss('cancel');\n        };\n\n        $scope.clearSearch = function() {\n            // $scope.disabledClearSearchBtn = true;\n            $scope.search_text = \"\";\n            $scope.getUsers();\n        };\n\n        $scope.getUsers();\n\n    }\n]);\n\n\napp.controller('manageProjectController', ['$scope', '$http', 'sessionService', '$location', '$rootScope', '$routeParams',\n    '$filter', '$timeout', 'SweetAlert', '$modal', '$q', '$controller', 'aclService', 'projectService',\n    function($scope, $http, sessionService, $location, $rootScope, $routeParams, $filter, $timeout, SweetAlert, $modal, $q, $controller, aclService, projectService) {\n\n        $scope.access_token = sessionService.get('access_token');\n        var userinfo = JSON.parse(sessionService.get('userinfo'));\n        $scope.loggedinuser_role = userinfo.user_roles[0].id;\n        $scope.loggedinUserid = userinfo.id;\n        $scope.user_permissions = JSON.parse(sessionService.get('user_permissions'));\n        $scope.formData = {};\n\n        if (!$scope.access_token && !$scope.user_id) {\n            $location.path('logout');\n            return true;\n        }\n\n        var page = $location.path();\n        page = page.slice(1, page.length);\n\n        $scope.isNoRecord = '';\n        $scope.getProjects = function() {\n            $scope.page_action = 'manage_project';\n            projectService.getAllProjects($scope).then(function(data) {\n                var projects = data.data;\n                if (projects.length > 0) {\n                    $scope.isNoRecord = false;\n                    $scope.projects = projects;\n                } else {\n                    $scope.isNoRecord = true;\n                    $scope.projects = projects;\n                }\n            });\n        };\n\n        $scope.gotToProjectUserAssignedPage = function(project_id) {\n            //$location.path('project-user/' + project_id);\n            window.location = clientUrl + '#/project-user/' + project_id + '?from_admin=true';\n        };\n\n        if (page == 'settings') {\n            $scope.getProjects();\n        }\n\n    }\n]);",
          "comment" : ""
        },
        "redirectURL" : "",
        "headersSize" : 203,
        "bodySize" : 47490,
        "comment" : ""
      },
      "cache" : { },
      "timings" : {
        "comment" : "",
        "ssl" : -1,
        "connect" : 1563,
        "wait" : 0,
        "blocked" : -1,
        "send" : 0,
        "dns" : -1,
        "receive" : 0
      },
      "comment" : "",
      "_katalonRequestInformation" : {
        "name" : "45",
        "testObjectId" : "Temporary RESTful request object",
        "harId" : "587fe3c8-b725-464c-a04f-ace31f9a81bc"
      },
      "time" : 1563
    } ],
    "comment" : ""
  }
}