{
  "log" : {
    "version" : "1.2",
    "pages" : [ ],
    "entries" : [ {
      "startedDateTime" : "2019-07-12T04:36:15.785Z",
      "request" : {
        "method" : "GET",
        "url" : "https://frostedc-stg.learningmate.com/css/style.css",
        "httpVersion" : "",
        "cookies" : [ ],
        "headers" : [ ],
        "queryString" : [ ],
        "headersSize" : 0,
        "bodySize" : 0,
        "comment" : ""
      },
      "response" : {
        "status" : 200,
        "statusText" : "",
        "httpVersion" : "",
        "cookies" : [ ],
        "headers" : [ {
          "name" : "Accept-Ranges",
          "value" : "bytes"
        }, {
          "name" : null,
          "value" : "HTTP/1.1 200 OK"
        }, {
          "name" : "Server",
          "value" : "nginx/1.13.5"
        }, {
          "name" : "ETag",
          "value" : "\"5d25bc3a-b567\""
        }, {
          "name" : "Connection",
          "value" : "keep-alive"
        }, {
          "name" : "Last-Modified",
          "value" : "Wed, 10 Jul 2019 10:21:46 GMT"
        }, {
          "name" : "Content-Length",
          "value" : "46439"
        }, {
          "name" : "Date",
          "value" : "Fri, 12 Jul 2019 04:37:45 GMT"
        }, {
          "name" : "Content-Type",
          "value" : "text/css"
        } ],
        "content" : {
          "size" : 46439,
          "mimeType" : "text/css",
          "text" : "img {\n    max-width: 100%;\n    height: auto;\n}\n\n.matching li {\n    list-style: decimal;\n}\n\n.images_box .panel-drag {\n    background: #fff;\n}\n\n.images_box .panel-default {\n    margin-bottom: 0;\n}\n\n.well {\n    padding: 15px;\n}\n\n.drag_area {\n    height: 73px;\n    background-color: #F5F5F5;\n    padding: 10px 30px;\n    border-radius: 3px;\n    border: 1px solid #DDDDDD;\n    position: relative;\n}\n\n.drag_area .panel-default {\n    margin: 0;\n}\n\n.drag_area .panel-drag {\n    border-top: 0;\n}\n\n.drop {\n    min-height: 20px;\n    padding: 15px;\n    margin-bottom: 20px;\n    display: block;\n    font-weight: normal;\n}\n\n.label_number {\n    padding: 0 10px 0 0;\n    font-size: 16px;\n}\n\n.carasual_slider {\n    height: 52px;\n    overflow: hidden;\n}\n\n.drag_area .glyphicon-circle-arrow-left {\n    position: absolute;\n    left: 10px;\n    top: 50%;\n    margin-top: -7px;\n    cursor: pointer;\n    z-index: 1;\n}\n\n.drag_area .glyphicon-circle-arrow-right {\n    position: absolute;\n    right: 10px;\n    top: 50%;\n    margin-top: -7px;\n    cursor: pointer;\n    z-index: 1;\n}\n\n.carasual_slider_images .glyphicon-circle-arrow-left {\n    position: absolute;\n    left: -20px;\n    top: 50%;\n    margin-top: -7px;\n    cursor: pointer;\n    z-index: 1;\n}\n\n.carasual_slider_images .glyphicon-circle-arrow-right {\n    position: absolute;\n    right: -20px;\n    top: 50%;\n    margin-top: -7px;\n    cursor: pointer;\n    z-index: 1;\n}\n\n.bg-right {\n    background-color: #dff0d8 !important;\n    border: 1px solid #d6e9c6;\n}\n\n.bg-right-box {\n    background-color: #47a447;\n    border-color: #398439;\n    color: #fff;\n    font-weight: bold;\n}\n\n.bg-wrong {\n    background-color: #f2dede !important;\n    border: 1px solid #e3cfcf;\n}\n\n.bg-wrong-box {\n    background-color: #d9534f;\n    border-color: #d43f3a;\n    color: #fff;\n    font-weight: bold;\n}\n\n.images_box .well {\n    padding: 13px 15px;\n}\n\n.images_box .glyphicon {\n    top: 3px;\n}\n\n.images_box .glyphicon-remove {\n    color: #D9534F;\n}\n\n.images_box .glyphicon-ok {\n    color: #47A447;\n}\n\n.panel-drag .panel.well .panel-body {\n    display: none;\n}\n\n.panel-drag.active .panel.well .panel-body {\n    display: block;\n    padding: 13px;\n}\n\n.panel-drag.active .panel.well {\n    padding: 0;\n    background: #fff;\n}\n\n.matching_container {\n    border-radius: 10px;\n    background: #f4f4f4;\n    border: 1px solid #DDDDDD;\n}\n\n.matching_container .matching_listing {\n    border-bottom: 1px solid #ddd;\n    padding-top: 20px;\n}\n\n.matching_container .matching_listing.last {\n    border-bottom: 0;\n}\n\n.toc-plus {\n    display: inline-block;\n}\n\n.panel-drag {\n    background-color: #F5F5F5;\n    border-bottom-left-radius: 3px;\n    border-bottom-right-radius: 3px;\n    border-top: 1px solid #DDDDDD;\n    padding: 10px 15px;\n}\n\n.panel-drag.bg-right {\n    border-top: 1px solid #D6E9C6;\n}\n\n.panel-drag {\n    border: 1px solid #DDDDDD;\n    border-radius: 3px;\n    margin-bottom: 10px;\n}\n\n.panel-drag.panel-footer {\n    border-top: 1px solid #DDDDDD !important;\n    border: 0;\n    border-radius: 0 0 3px 3px;\n    margin-bottom: 0px;\n}\n\n.panel {\n    box-shadow: inherit;\n}\n\n.carasual_slider_images {\n    height: 83px;\n    overflow: hidden;\n}\n\n.mcq_sorting .panel.panel-default {\n    margin-bottom: 63px;\n}\n\n.mcq_sorting .panel.panel-default.last {\n    margin-bottom: 0px;\n}\n\n.ordering .col-md-2 {\n    text-align: center;\n}\n\n.panel.shortting {\n    margin-bottom: 20px;\n}\n\n.fib .well {\n    padding: 5px 15px;\n    display: inline-block;\n    min-width: 140px;\n}\n\n.fib .panel-body {\n    padding: 0;\n    position: relative;\n}\n\n.fib .panel.well.right_answer {\n    background: #dff0d8;\n}\n\n.fib .panel.well.wrong_answer {\n    background: #f2dede;\n}\n\n.fib .panel.well .glyphicon-ok {\n    color: #3c763d;\n}\n\n.fib .panel.well .glyphicon-remove {\n    color: #a94442;\n}\n\n.fib .panel.well .glyphicon-ok,\n.fib .panel.well .glyphicon-remove {\n    position: absolute;\n    right: 10px;\n    top: 50%;\n    margin-top: -7px;\n}\n\n.panel.well .panel-body {\n    display: none;\n}\n\n.panel.well.right_answer .panel-body,\n.panel.well.wrong_answer .panel-body {\n    display: block;\n}\n\n.panel.well.right_answer .drop_message,\n.fib .panel.well.wrong_answer .drop_message {\n    display: none;\n}\n\n.tab_container .nav-tabs>li.active>a,\n.tab_container .nav-tabs>li.active>a:hover,\n.tab_container .nav-tabs>li.active>a:focus {\n    background: #f5f5f5;\n}\n\n.tab_container .panel-footer {\n    border: 1px solid #ddd;\n    border-top: 0;\n}\n\n.tab_container2 .nav.nav-stacked {\n    float: left;\n    min-height: 200px;\n}\n\n.tab_container2 .panel-footer {\n    overflow: hidden;\n    min-height: 200px;\n}\n\n.tab_container2 .nav-tabs>li>a {\n    margin-bottom: 2px;\n    margin-right: 0;\n    border-radius: 4px 0 0 4px;\n}\n\n.tab_container2 .nav-tabs>li {\n    margin-right: -1px;\n    margin-bottom: 0;\n}\n\n.tab_container2 .panel-footer {\n    border: 1px solid #ddd;\n}\n\n.tab_container2 .nav-tabs {\n    border-right: 0px solid #ddd;\n    border-bottom: 0px solid #ddd;\n}\n\n.tab_container2 .nav-tabs>li.active>a,\n.tab_container2 .nav-tabs>li.active>a:hover,\n.tab_container2 .nav-tabs>li.active>a:focus {\n    border: 1px solid #ddd;\n    border-right: 0;\n}\n\n.tab_container2 .panel-footer {\n    border-radius: 0 3px 3px 0;\n}\n\n.Feed_area .glyphicon-ok,\n.Feed_area .glyphicon-remove {\n    margin-top: -7px;\n    position: absolute;\n    right: -4px;\n    top: 50%;\n}\n\n.Feed_area .panel-title {\n    position: relative;\n}\n\n.alert {\n    position: relative;\n}\n\n.alert .glyphicon-ok,\n.alert .glyphicon-remove {\n    margin-top: -7px;\n    position: absolute;\n    right: 15px;\n    top: 50%;\n}\n\nbody {\n    font-family: 'Roboto', sans-serif;\n    outline: none;\n    font-size: 14px;\n    background: #fff;\n}\n\n.pull-middle {\n    overflow: hidden;\n}\n\nimg {\n    max-width: 100%;\n    height: auto;\n}\n\n.sprite {\n    background-image: url(../img/sprite.png);\n    background-repeat: no-repeat;\n}\n\n.header {\n    height: auto;\n    padding: 0 0px;\n    background: #eeeeee;\n    position: fixed;\n    width: 100%;\n    z-index: 2;\n}\n\n.logo {\n    display: block;\n    padding: 0;\n    margin: 15px 0 15px 0;\n}\n\n.logo a {\n    text-indent: -999em;\n    display: block;\n    width: 125px;\n    height: 35px;\n    background: url(../img/logo.png) no-repeat 0 3px;\n}\n\n.login_avater {\n    width: 39px;\n    height: 39px;\n    border-radius: 50%;\n    border: 1px solid #666666;\n    overflow: hidden;\n}\n\n.login_avater img {\n    max-width: 100%;\n    height: auto;\n    border-radius: 50%;\n}\n\n.headerlinks {\n    margin: 0 0;\n    float: left;\n}\n\n.navbar-nav {\n    float: none;\n    margin: 0px;\n    text-align: center;\n    width: 100%;\n}\n\n.navbar-nav>li {\n    float: none;\n    display: inline-block;\n    vertical-align: top;\n}\n\n.headerlinks .navbar-collapse.collapse,\n.headerlinks .navbar-default {\n    padding: 0 !important;\n    border: 0;\n    background: none;\n    margin: 0;\n}\n\n.headerlinks .navbar-default .navbar-nav>.active>a,\n.headerlinks .navbar-default .navbar-nav>.active>a:hover,\n.headerlinks .navbar-default .navbar-nav>.active>a:focus {\n    background: none;\n}\n\n.headerlinks .navbar-nav>li>a {\n    padding: 22px 20px;\n    font-size: 14px;\n    margin-left: -3px;\n}\n\n.headerlinks .navbar-nav>li:last-child>a {\n    border-right: 0px solid #dbcdc1;\n}\n\n.header .wel-area {\n    position: relative;\n    padding: 13px 0 13px 10px;\n}\n\n.wel-color {\n    color: #000;\n    padding: 5px 0 0 8px;\n    font-size: 11px;\n}\n\n.wel-name {\n    display: block;\n    padding: 0px 40px 0 8px;\n    font-size: 14px;\n    color: #31506e;\n    line-height: 16px;\n    font-size: 13px;\n    color: #30506E;\n    position: relative;\n}\n\n.arrow {\n    background-position: -309px 9px;\n    border: 0 none;\n    cursor: pointer;\n    height: 40px;\n    width: 40px;\n    right: 0px;\n    top: -16px;\n    position: absolute;\n    z-index: 1;\n}\n\n.wel-area.open .arrow {\n    background-position: -309px -188px;\n}\n\n.search-area {\n    padding-top: 16px;\n}\n\n.page-title {\n    font-size: 22px;\n    line-height: 28px;\n    margin-bottom: 25px;\n}\n\n.content {\n    padding: 50px 0 30px 0;\n}\n\n.from-container {\n    border-radius: 10px;\n}\n\n.from-container-row {\n    padding: 20px 15px;\n}\n\n.from-container .dropdown .btn {\n    width: 100%;\n    text-align: left;\n}\n\n.from-container .dropdown .btn .caret {\n    margin-top: 8px;\n}\n\n.from-container .dropdown .dropdown-menu {\n    width: 100%;\n}\n\n.from-row-title {\n    background: #eee;\n    border-bottom: 1px solid #ddd;\n    border-top: 1px solid #ddd;\n    padding: 20px 15px;\n}\n\n.btn-group-justified .btn:first-child {}\n\n.theme-col-1 {\n    width: 20%;\n    float: left;\n    margin: 0 0 0 0;\n}\n\n.theme-col-1.last {\n    margin-right: 0;\n}\n\n.theme-box-col {\n    padding-left: 15px;\n    padding-right: 15px;\n}\n\n.box-theme {\n    border: 1px solid #ddd;\n    border-radius: 5px;\n    overflow: hidden;\n    padding: 3px;\n    background: none;\n    position: relative;\n}\n\n.box-theme img {\n    border-radius: 3px;\n    cursor: pointer;\n}\n\n.box-theme:hover {\n    border: 1px solid #2b78e4;\n    background: #6fa8dc;\n}\n\n.box-theme-title {\n    /*font-weight:bold;*/\n    padding: 5px 10px;\n    line-height: 22px\n}\n\n.theme-preview-control {\n    position: absolute;\n    bottom: 0;\n    width: 100%;\n    text-align: center;\n    display: none;\n}\n\n.theme-preview-control .btn {\n    margin: 0 3%;\n}\n\n.box-theme:hover .theme-preview-control {\n    display: block;\n    bottom: 20px;\n}\n\n.btn-group.first .btn {\n    border-right: 0;\n}\n\n.footer {\n    background: #bbb;\n    text-align: center;\n    padding: 20px;\n}\n\n.from-container td.chapter1 {\n    padding-left: 55px;\n}\n\n.from-container td.chapter2 {\n    padding-left: 65px;\n}\n\n.from-container td.chapter3 {\n    padding-left: 75px;\n}\n\n.from-container td.chapter4 {\n    padding-left: 85px;\n}\n\n.from-container td,\n.from-container th {\n    padding: 5px 10px;\n}\n\n.from-container th {\n    color: #666;\n    font-size: 16px;\n}\n\n.open {\n    color: #cf2a28 !important;\n}\n\n.inprogress {\n    color: #ff9900 !important;\n}\n\n.completed {\n    color: #009e11 !important;\n}\n\n.chepter-col {\n    position: relative;\n}\n\n.edit-icon {\n    height: 20px;\n    width: 20px;\n    position: absolute;\n    left: -45px;\n    top: 0px;\n    background-position: -7px -7px;\n    display: none;\n}\n\n.preview-icon {\n    height: 20px;\n    width: 20px;\n    position: absolute;\n    left: -24px;\n    top: 0px;\n    background-position: -50px -7px;\n    display: none;\n}\n\n.edit-icon:hover {\n    background-position: -7px -38px;\n}\n\n.preview-icon:hover {\n    background-position: -50px -38px;\n}\n\n.from-container tr:hover .chepter-col .edit-icon {\n    display: block;\n}\n\n.from-container tr:hover .chepter-col .preview-icon {\n    display: block;\n}\n\n.from-container tr:hover td {\n    background: #eee;\n    position: relative;\n    cursor: pointer;\n}\n\n.from-container tr:hover td:first-child {\n    border-radius: 3px 0 0 3px;\n}\n\n.from-container tr:hover td:last-child {\n    border-radius: 0px 3px 3px 0px;\n}\n\n.from-container .from-container th:first-child {\n    padding-left: 0\n}\n\n.from-container .from-container th:last-child {\n    padding-right: 0;\n}\n\n.main_container {\n    height: calc(100% - 81px);\n    background: #fff;\n}\n\n.wrapper {\n    padding-top: 65px;\n    position: relative;\n    z-index: 1;\n}\n\nbody,\nhtml {\n    height: 100%;\n}\n\n.view-port-ft {\n    position: relative;\n    padding: 8px 10px 8px 10px;\n    border-left: #ccc 1px solid;\n    border-right: #ccc 1px solid;\n}\n\n.tools-view-port {\n    height: 49px;\n    width: 49px;\n    cursor: pointer;\n    position: relative;\n}\n\n.tools-view-icon {\n    height: 49px;\n    width: 49px;\n    background-position: -87px -1px;\n    cursor: pointer;\n    position: relative;\n}\n\n.tools-view-icon:hover {\n    background-position: -87px -52px;\n}\n\n.tools-view-port.active .tools-view-icon {\n    background-position: -87px -52px;\n}\n\n.tooltip-view {\n    background: #fff;\n    border: 1px solid #cfcfd9;\n    border-radius: 0 0 5px 5px;\n    width: 140px;\n    left: 50%;\n    margin-left: -70px;\n    top: 57px;\n    position: absolute;\n    z-index: 555;\n    border-top: 0;\n    overflow: hidden;\n    display: none;\n}\n\n.desktop-view {}\n\n.tooltip-view li {\n    padding: 10px 10px;\n    border-bottom: 1px solid #e5e5e5;\n}\n\n.tooltip-view ul {\n    list-style: none;\n    margin: 0;\n    padding: 0;\n}\n\n.tooltip-view li:hover,\n.tooltip-view li.active {\n    background: #f6f8f9;\n}\n\n.tools-view-port.active .tooltip-view {\n    display: block;\n}\n\n.tooltip-view li:last-child {\n    border: 0;\n}\n\n.desktop-view {\n    width: 30px;\n    height: 30px;\n    float: left;\n    margin-right: 10px;\n    background-position: -98px -11px;\n}\n\n.tooltip-view li:hover .desktop-view,\n.tooltip-view li.active .desktop-view {\n    background-position: -98px -62px;\n}\n\n.tablet-view {\n    width: 30px;\n    height: 30px;\n    float: left;\n    margin-right: 10px;\n    background-position: -18px -180px;\n}\n\n.tooltip-view li:hover .tablet-view,\n.tooltip-view li.active .tablet-view {\n    background-position: -18px -231px;\n}\n\n.small-tablet-view {\n    width: 30px;\n    height: 30px;\n    float: left;\n    margin-right: 10px;\n    background-position: -18px -383px;\n}\n\n.tooltip-view li:hover .small-tablet-view,\n.tooltip-view li.active .small-tablet-view {\n    background-position: -18px -438px;\n}\n\n.iphone5-view {\n    width: 30px;\n    height: 30px;\n    float: left;\n    margin-right: 10px;\n    background-position: -67px -432px;\n}\n\n.tooltip-view li:hover .iphone5-view,\n.tooltip-view li.active .iphone5-view {\n    background-position: -118px -432px;\n}\n\n.iphone-view {\n    width: 30px;\n    height: 30px;\n    float: left;\n    margin-right: 10px;\n    background-position: -268px -431px;\n}\n\n.tooltip-view li:hover .iphone-view,\n.tooltip-view li.active .iphone-view {\n    background-position: -319px -431px;\n}\n\n.view-text {\n    overflow: hidden;\n    font-size: 14px;\n    line-height: 15px;\n}\n\n.view-size {\n    display: block;\n    clear: both;\n    font-size: 12px;\n}\n\n.selection-theme {\n    width: 220px;\n    padding: 16px 10px 0 0;\n}\n\n.selection-theme .dropdown .btn {\n    width: 100%;\n    text-align: left;\n}\n\n.selection-theme .dropdown .dropdown-menu {\n    width: 100%;\n}\n\n.selection-theme .dropdown .btn .caret {\n    margin-top: 8px;\n}\n\n.confirm-selection {\n    padding: 12px 0px 0 10px;\n}\n\n.selection-remove {\n    background: none;\n}\n\n.selection-remove span {\n    font-size: 25px;\n    color: #777;\n}\n\n\n/*============##############  Animation css Start    ############ ================*/\n\n\n/* animation sets */\n\n.pt-page {\n    width: 100%;\n    height: 100%;\n    position: absolute;\n    top: 0;\n    left: 0;\n    visibility: hidden;\n    overflow: hidden;\n    -webkit-backface-visibility: hidden;\n    -moz-backface-visibility: hidden;\n    backface-visibility: hidden;\n    -webkit-transform: translate3d(0, 0, 0);\n    -moz-transform: translate3d(0, 0, 0);\n    transform: translate3d(0, 0, 0);\n    -webkit-transform-style: preserve-3d;\n    -moz-transform-style: preserve-3d;\n    transform-style: preserve-3d;\n}\n\n.pt-page-current,\n.no-js .pt-page {\n    visibility: visible;\n    z-index: 1;\n}\n\n.no-js body {\n    overflow: auto;\n}\n\n.pt-page-ontop {\n    z-index: 999;\n}\n\n.pt-page-1 {\n    background: #FFF;\n}\n\n.pt-page-2 {\n    background: #FFF;\n}\n\n\n/* Triggers (menu and button) */\n\n.pt-triggers {}\n\n\n/* move from / to  */\n\n.pt-page-moveToLeft {\n    -webkit-animation: moveToLeft .6s ease both;\n    animation: moveToLeft .6s ease both;\n}\n\n.pt-page-moveFromLeft {\n    -webkit-animation: moveFromLeft .6s ease both;\n    animation: moveFromLeft .6s ease both;\n}\n\n.pt-page-moveToRight {\n    -webkit-animation: moveToRight .6s ease both;\n    animation: moveToRight .6s ease both;\n}\n\n.pt-page-moveFromRight {\n    -webkit-animation: moveFromRight .6s ease both;\n    animation: moveFromRight .6s ease both;\n}\n\n.pt-page-moveToTop {\n    -webkit-animation: moveToTop .6s ease both;\n    animation: moveToTop .6s ease both;\n}\n\n.pt-page-moveFromTop {\n    -webkit-animation: moveFromTop .6s ease both;\n    animation: moveFromTop .6s ease both;\n}\n\n.pt-page-moveToBottom {\n    -webkit-animation: moveToBottom .6s ease both;\n    animation: moveToBottom .6s ease both;\n}\n\n.pt-page-moveFromBottom {\n    -webkit-animation: moveFromBottom .6s ease both;\n    animation: moveFromBottom .6s ease both;\n}\n\n\n/* fade */\n\n.pt-page-fade {\n    -webkit-animation: fade .7s ease both;\n    animation: fade .7s ease both;\n}\n\n\n/* move from / to and fade */\n\n.pt-page-moveToLeftFade {\n    -webkit-animation: moveToLeftFade .7s ease both;\n    animation: moveToLeftFade .7s ease both;\n}\n\n.pt-page-moveFromLeftFade {\n    -webkit-animation: moveFromLeftFade .7s ease both;\n    animation: moveFromLeftFade .7s ease both;\n}\n\n.pt-page-moveToRightFade {\n    -webkit-animation: moveToRightFade .7s ease both;\n    animation: moveToRightFade .7s ease both;\n}\n\n.pt-page-moveFromRightFade {\n    -webkit-animation: moveFromRightFade .7s ease both;\n    animation: moveFromRightFade .7s ease both;\n}\n\n.pt-page-moveToTopFade {\n    -webkit-animation: moveToTopFade .7s ease both;\n    animation: moveToTopFade .7s ease both;\n}\n\n.pt-page-moveFromTopFade {\n    -webkit-animation: moveFromTopFade .7s ease both;\n    animation: moveFromTopFade .7s ease both;\n}\n\n.pt-page-moveToBottomFade {\n    -webkit-animation: moveToBottomFade .7s ease both;\n    animation: moveToBottomFade .7s ease both;\n}\n\n.pt-page-moveFromBottomFade {\n    -webkit-animation: moveFromBottomFade .7s ease both;\n    animation: moveFromBottomFade .7s ease both;\n}\n\n\n/********************************* keyframes **************************************/\n\n\n/* move from / to  */\n\n.row-toc-panel {\n    position: relative;\n}\n\n.toc-panel-container .row-toc-inner {\n    padding: 5px 80px 5px 45px;\n    list-style: inside;\n    display: block;\n}\n\n.toc-panel-container .row-toc-inner:hover {\n    background: #eee;\n    cursor: pointer;\n    border-radius: 3px;\n}\n\n.toc-panel-container {\n    padding: 0;\n    margin: 0;\n    list-style: none;\n}\n\n.dragicon {\n    position: absolute;\n    left: 5px;\n    background-color: #eee;\n    height: 26px;\n    width: 26px;\n    top: 15px;\n    margin-top: -13px;\n    display: none;\n}\n\n.dragicon:before,\n.addchild:before,\n.removenote:before {\n    margin: 6px;\n    display: none;\n}\n\n.toc-panel-container .row-toc-inner:hover .dragicon,\n.toc-panel-container .row-toc-inner:hover .addchild,\n.toc-panel-container .row-toc-inner:hover .removenote {\n    display: none;\n}\n\n.addchild {\n    position: absolute;\n    right: 30px;\n    background-color: #eee;\n    height: 26px;\n    width: 26px;\n    top: 15px;\n    margin-top: -13px;\n    display: none;\n}\n\n.removenote {\n    position: absolute;\n    right: 5px;\n    background-color: #eee;\n    height: 26px;\n    width: 26px;\n    top: 15px;\n    margin-top: -13px;\n    display: none;\n}\n\n.row-toc-inner:before {\n    display: none;\n    background-color: #444;\n    height: 6px;\n    width: 6px;\n    border-radius: 50%;\n    content: \"\";\n    position: relative;\n    right: 7px;\n    top: -2px;\n}\n\n.tooltip {\n    white-space: nowrap;\n}\n\n.tooltip-arrow {\n    right: 0;\n}\n\n.button-area {\n    padding: 10px 0;\n}\n\n.toc-panel-container .row-toc-panel .row-toc-panel {}\n\n.toc-panel-container .labellist .row-toc-inner {\n    /* margin-left:15px;*/\n}\n\n.labellist1 .row-toc-inner {\n    margin-left: 30px;\n}\n\n.labellist2 .row-toc-inner {\n    margin-left: 45px;\n}\n\n.labellist3 .row-toc-inner {\n    margin-left: 60px;\n}\n\n.labellist4 .row-toc-inner {\n    margin-left: 75px;\n}\n\n.row-toc-panel:hover {\n    background: #eee;\n    border-radius: 3px;\n}\n\n\n/*.toc_ul li li:last-child{ border: 0;}*/\n\n.toc_ul li li.last-child {\n    border: 0;\n}\n\n@-webkit-keyframes moveToLeft {\n    from {}\n    to {\n        -webkit-transform: translateX(-100%);\n    }\n}\n\n@keyframes moveToLeft {\n    from {}\n    to {\n        -webkit-transform: translateX(-100%);\n        transform: translateX(-100%);\n    }\n}\n\n@-webkit-keyframes moveFromLeft {\n    from {\n        -webkit-transform: translateX(-100%);\n    }\n}\n\n@keyframes moveFromLeft {\n    from {\n        -webkit-transform: translateX(-100%);\n        transform: translateX(-100%);\n    }\n}\n\n@-webkit-keyframes moveToRight {\n    from {}\n    to {\n        -webkit-transform: translateX(100%);\n    }\n}\n\n@keyframes moveToRight {\n    from {}\n    to {\n        -webkit-transform: translateX(100%);\n        transform: translateX(100%);\n    }\n}\n\n@-webkit-keyframes moveFromRight {\n    from {\n        -webkit-transform: translateX(100%);\n    }\n}\n\n@keyframes moveFromRight {\n    from {\n        -webkit-transform: translateX(100%);\n        transform: translateX(100%);\n    }\n}\n\n@-webkit-keyframes moveToTop {\n    from {}\n    to {\n        -webkit-transform: translateY(-100%);\n    }\n}\n\n@keyframes moveToTop {\n    from {}\n    to {\n        -webkit-transform: translateY(-100%);\n        transform: translateY(-100%);\n    }\n}\n\n@-webkit-keyframes moveFromTop {\n    from {\n        -webkit-transform: translateY(-100%);\n    }\n}\n\n@keyframes moveFromTop {\n    from {\n        -webkit-transform: translateY(-100%);\n        transform: translateY(-100%);\n    }\n}\n\n@-webkit-keyframes moveToBottom {\n    from {}\n    to {\n        -webkit-transform: translateY(100%);\n    }\n}\n\n@keyframes moveToBottom {\n    from {}\n    to {\n        -webkit-transform: translateY(100%);\n        transform: translateY(100%);\n    }\n}\n\n@-webkit-keyframes moveFromBottom {\n    from {\n        -webkit-transform: translateY(100%);\n    }\n}\n\n@keyframes moveFromBottom {\n    from {\n        -webkit-transform: translateY(100%);\n        transform: translateY(100%);\n    }\n}\n\n\n/* fade */\n\n@-webkit-keyframes fade {\n    from {}\n    to {\n        opacity: 0.3;\n    }\n}\n\n@keyframes fade {\n    from {}\n    to {\n        opacity: 0.3;\n    }\n}\n\n\n/* move from / to and fade */\n\n@-webkit-keyframes moveToLeftFade {\n    from {}\n    to {\n        opacity: 0.3;\n        -webkit-transform: translateX(-100%);\n    }\n}\n\n@keyframes moveToLeftFade {\n    from {}\n    to {\n        opacity: 0.3;\n        -webkit-transform: translateX(-100%);\n        transform: translateX(-100%);\n    }\n}\n\n@-webkit-keyframes moveFromLeftFade {\n    from {\n        opacity: 0.3;\n        -webkit-transform: translateX(-100%);\n    }\n}\n\n@keyframes moveFromLeftFade {\n    from {\n        opacity: 0.3;\n        -webkit-transform: translateX(-100%);\n        transform: translateX(-100%);\n    }\n}\n\n@-webkit-keyframes moveToRightFade {\n    from {}\n    to {\n        opacity: 0.3;\n        -webkit-transform: translateX(100%);\n    }\n}\n\n@keyframes moveToRightFade {\n    from {}\n    to {\n        opacity: 0.3;\n        -webkit-transform: translateX(100%);\n        transform: translateX(100%);\n    }\n}\n\n@-webkit-keyframes moveFromRightFade {\n    from {\n        opacity: 0.3;\n        -webkit-transform: translateX(100%);\n    }\n}\n\n@keyframes moveFromRightFade {\n    from {\n        opacity: 0.3;\n        -webkit-transform: translateX(100%);\n        transform: translateX(100%);\n    }\n}\n\n@-webkit-keyframes moveToTopFade {\n    from {}\n    to {\n        opacity: 0.3;\n        -webkit-transform: translateY(-100%);\n    }\n}\n\n@keyframes moveToTopFade {\n    from {}\n    to {\n        opacity: 0.3;\n        -webkit-transform: translateY(-100%);\n        transform: translateY(-100%);\n    }\n}\n\n@-webkit-keyframes moveFromTopFade {\n    from {\n        opacity: 0.3;\n        -webkit-transform: translateY(-100%);\n    }\n}\n\n@keyframes moveFromTopFade {\n    from {\n        opacity: 0.3;\n        -webkit-transform: translateY(-100%);\n        transform: translateY(-100%);\n    }\n}\n\n@-webkit-keyframes moveToBottomFade {\n    from {}\n    to {\n        opacity: 0.3;\n        -webkit-transform: translateY(100%);\n    }\n}\n\n@keyframes moveToBottomFade {\n    from {}\n    to {\n        opacity: 0.3;\n        -webkit-transform: translateY(100%);\n        transform: translateY(100%);\n    }\n}\n\n@-webkit-keyframes moveFromBottomFade {\n    from {\n        opacity: 0.3;\n        -webkit-transform: translateY(100%);\n    }\n}\n\n@keyframes moveFromBottomFade {\n    from {\n        opacity: 0.3;\n        -webkit-transform: translateY(100%);\n        transform: translateY(100%);\n    }\n}\n\n\n/* scale and fade */\n\n.pt-page-scaleDown {\n    -webkit-animation: scaleDown .7s ease both;\n    animation: scaleDown .7s ease both;\n}\n\n.pt-page-scaleUp {\n    -webkit-animation: scaleUp .7s ease both;\n    animation: scaleUp .7s ease both;\n}\n\n.pt-page-scaleUpDown {\n    -webkit-animation: scaleUpDown .5s ease both;\n    animation: scaleUpDown .5s ease both;\n}\n\n.pt-page-scaleDownUp {\n    -webkit-animation: scaleDownUp .5s ease both;\n    animation: scaleDownUp .5s ease both;\n}\n\n.pt-page-scaleDownCenter {\n    -webkit-animation: scaleDownCenter .4s ease-in both;\n    animation: scaleDownCenter .4s ease-in both;\n}\n\n.pt-page-scaleUpCenter {\n    -webkit-animation: scaleUpCenter .4s ease-out both;\n    animation: scaleUpCenter .4s ease-out both;\n}\n\n\n/********************************* keyframes **************************************/\n\n\n/* scale and fade */\n\n@-webkit-keyframes scaleDown {\n    from {}\n    to {\n        opacity: 0;\n        -webkit-transform: scale(.8);\n    }\n}\n\n@keyframes scaleDown {\n    from {}\n    to {\n        opacity: 0;\n        -webkit-transform: scale(.8);\n        transform: scale(.8);\n    }\n}\n\n@-webkit-keyframes scaleUp {\n    from {\n        opacity: 0;\n        -webkit-transform: scale(.8);\n    }\n}\n\n@keyframes scaleUp {\n    from {\n        opacity: 0;\n        -webkit-transform: scale(.8);\n        transform: scale(.8);\n    }\n}\n\n@-webkit-keyframes scaleUpDown {\n    from {\n        opacity: 0;\n        -webkit-transform: scale(1.2);\n    }\n}\n\n@keyframes scaleUpDown {\n    from {\n        opacity: 0;\n        -webkit-transform: scale(1.2);\n        transform: scale(1.2);\n    }\n}\n\n@-webkit-keyframes scaleDownUp {\n    from {}\n    to {\n        opacity: 0;\n        -webkit-transform: scale(1.2);\n    }\n}\n\n@keyframes scaleDownUp {\n    from {}\n    to {\n        opacity: 0;\n        -webkit-transform: scale(1.2);\n        transform: scale(1.2);\n    }\n}\n\n@-webkit-keyframes scaleDownCenter {\n    from {}\n    to {\n        opacity: 0;\n        -webkit-transform: scale(.7);\n    }\n}\n\n@keyframes scaleDownCenter {\n    from {}\n    to {\n        opacity: 0;\n        -webkit-transform: scale(.7);\n        transform: scale(.7);\n    }\n}\n\n@-webkit-keyframes scaleUpCenter {\n    from {\n        opacity: 0;\n        -webkit-transform: scale(.7);\n    }\n}\n\n@keyframes scaleUpCenter {\n    from {\n        opacity: 0;\n        -webkit-transform: scale(.7);\n        transform: scale(.7);\n    }\n}\n\n\n/*css add on 16.10.2014 start*/\n\n.row-toc-panel {\n    position: relative;\n}\n\n.toc-panel-container .row-toc-inner {\n    padding: 10px 80px 10px 15px;\n    list-style: inside;\n    display: block;\n    border-bottom: 1px solid #e5e5e5;\n}\n\n.toc-panel-container .row-toc-inner:hover {\n    background: #f7f7f7;\n    cursor: pointer;\n    border-radius: 3px;\n}\n\n.toc-panel-container {\n    padding: 0;\n    margin: 0;\n    list-style: none;\n    background: #1c2227;\n}\n\n.dragicon {\n    background-position: -462px -10px;\n    position: absolute;\n    left: 5px;\n    background-color: transparent;\n    height: 26px;\n    width: 26px;\n    top: 19px;\n    margin-top: -13px;\n}\n\n.row-toc-inner:hover .dragicon {\n    background-position: -410px -10px;\n}\n\n.toc-panel-container .row-toc-inner:hover .dragicon {\n    display: none;\n}\n\n.toc-panel-container .row-toc-inner:hover .addchild,\n.toc-panel-container .row-toc-inner:hover .removenote {\n    display: block;\n}\n\n.addchild {\n    background-position: -462px -57px;\n    position: absolute;\n    right: 10px;\n    margin-top: -13px;\n    top: 50%;\n    background-color: transparent;\n    height: 26px;\n    width: 26px;\n    display: none;\n}\n\n.removenote {\n    background-position: -410px -57px;\n    position: absolute;\n    right: 40px;\n    margin-top: -13px;\n    top: 50%;\n    background-color: transparent;\n    height: 26px;\n    width: 26px;\n    display: none;\n}\n\n.button-toc {\n    margin: 0 3px\n}\n\n\n/*.row-toc-inner:before{ background-color: #444;height: 6px;width: 6px;display: inline-block;border-radius: 50%;content: \"\";position: relative;right: 7px;top: -2px;}*/\n\n.tooltip {\n    white-space: nowrap;\n}\n\n.tooltip-arrow {\n    right: 0;\n}\n\n.button-area {\n    padding: 10px 0;\n}\n\n.toc-panel-container .row-toc-panel .row-toc-panel {}\n\n.labellist1 .row-toc-inner {\n    padding-left: 45px;\n}\n\n.labellist2 .row-toc-inner {\n    padding-left: 55px;\n}\n\n.labellist3 .row-toc-inner {\n    padding-left: 65px;\n}\n\n.labellist4 .row-toc-inner {\n    padding-left: 75px;\n}\n\n.labellist5 .row-toc-inner {\n    padding-left: 85px;\n}\n\n.labellist6 .row-toc-inner {\n    padding-left: 95px;\n}\n\n.labellist7 .row-toc-inner {\n    padding-left: 105px;\n}\n\n.labellist8 .row-toc-inner {\n    padding-left: 115px;\n}\n\n.labellist9 .row-toc-inner {\n    padding-left: 125px;\n}\n\n.row-toc-panel:hover {\n    background: #eee;\n    border-radius: 3px;\n}\n\n.toc-panel-container .dropdown-menu {\n    width: auto;\n}\n\n.product-inner {\n    margin-bottom: 60px;\n}\n\n\n/*css add on 16.10.2014 end*/\n\n\n/*============##############  Animation css End    ############ ================*/\n\n@media screen and (max-width: 1024px) {\n    .headerlinks {\n        width: 100%;\n        border-top: 1px solid #ddd;\n    }\n    .wrapper {\n        padding-top: 130px;\n    }\n}\n\n@media only screen and (-webkit-min-device-pixel-ratio: 2) {\n    .sprite {\n        background-image: url(../img/sprite_ratina.png);\n        background-repeat: no-repeat;\n        background-size: 500px 300px;\n    }\n}\n\n@media only screen and (-webkit-min-device-pixel-ratio: 1.5),\nonly screen and (-o-min-device-pixel-ratio: 3/2),\nonly screen and (min--moz-device-pixel-ratio: 1.5),\nonly screen and (min-device-pixel-ratio: 1.5) {\n    .sprite {\n        background-image: url(../img/sprite_ratina.png);\n        background-repeat: no-repeat;\n        background-size: 500px 300px;\n    }\n}\n\n\n/*\nTo change this license header, choose License Headers in Project Properties.\nTo change this template file, choose Tools | Templates\nand open the template in the editor.\n\n\nCreated on : Jul 22, 2014, 1:10:52 PM\nAuthor     : indranil.ghosh\n\n\n\n\n*\nLogin form styles\n*/\n\n.form-signin {\n    /*  max-width: 330px;\n      padding: 15px;\n      margin: 0 auto;*/\n}\n\n.form-signin .form-signin-heading,\n.form-signin .checkbox {\n    margin-bottom: 10px;\n}\n\n.form-signin .checkbox {\n    font-weight: normal;\n}\n\n.form-signin .form-control {\n    position: relative;\n    font-size: 16px;\n    height: auto;\n    padding: 10px;\n    -webkit-box-sizing: border-box;\n    -moz-box-sizing: border-box;\n    box-sizing: border-box;\n}\n\n.form-signin .form-control:focus {\n    border-color: #156dc2;\n    outline: 0;\n    box-shadow: inset 0px 1px 4px rgba(0, 0, 0, .2);\n    webkit-box-shadow: inset 0px 1px 4px rgba(0, 0, 0, .2);\n}\n\n.form-signin input[type=\"text\"] {\n    /* margin-bottom:0px;\n     border-bottom-left-radius: 0;\n     border-bottom-right-radius: 0;\n     border-bottom:0;*/\n}\n\n.form-signin textarea {\n    /*margin-bottom: 5px;\n    border-bottom-left-radius: 0;\n    border-bottom-right-radius: 0;*/\n}\n\n.form-signin .form-control {\n    /*border-radius: 40px;*/\n    height: 42px;\n    border: 1px solid #bbb;\n    z-index: 1;\n    position: relative;\n    background: transparent;\n    box-shadow: inherit;\n    font-size: 13px;\n    color: #333;\n}\n\n\n/*.form-signin select\n{\n    margin-bottom: 5px;\n    border-bottom-left-radius: 0;\n    border-bottom-right-radius: 0;\n}\n.form-signin input[type=\"password\"]\n{\n    margin-bottom: 5px;\n    border-top-left-radius: 0;\n    border-top-right-radius: 0;\n}\n\n.form-signin input[type=\"file\"]\n{\n    margin-bottom: 5px;\n    border-bottom-left-radius: 0;\n    border-bottom-right-radius: 0;\n}*/\n\n.progress-button button {\n    display: block;\n    margin: 0 auto;\n    padding: 0;\n    width: 100%;\n    height: 46px;\n    border: 2px solid #156dc2;\n    border-radius: 4px;\n    background: transparent;\n    color: #156dc2;\n    letter-spacing: 1px;\n    font-size: 16px;\n    font-weight: 500;\n    -webkit-tap-highlight-color: transparent;\n    -webkit-transition: background-color 0.3s, color 0.3s, width 0.3s, border-width 0.3s, border-color 0.3s;\n    transition: background-color 0.3s, color 0.3s, width 0.3s, border-width 0.3s, border-color 0.3s;\n    font-family: 'Roboto Condensed', sans-serif;\n    text-transform: uppercase;\n}\n\n.progress-button button:hover {\n    background-color: #156dc2;\n    color: #fff;\n}\n\n.login_row .help-block {\n    font-size: 12px;\n    font-weight: 400;\n    margin: 15px 0 0;\n    color: #fff;\n    text-align: center\n}\n\n.account-wall {\n    background: #fff;\n    border-radius: 3px;\n    padding: 20px;\n    margin-top: 15px;\n    margin-bottom: 20px;\n    font-size: 13px;\n}\n\n.login-title {\n    color: #555;\n    font-size: 18px;\n    font-weight: 400;\n    display: block;\n}\n\n.profile-img {\n    width: 96px;\n    height: 96px;\n    margin: 0 auto 10px;\n    display: block;\n    -moz-border-radius: 50%;\n    -webkit-border-radius: 50%;\n    border-radius: 50%;\n}\n\n.need-help {\n    margin-top: 10px;\n}\n\n.new-account {\n    display: block;\n    margin-top: 10px;\n}\n\n.api_dd_btn {\n    width: 100% !important;\n    text-align: right;\n}\n\n.align_left {\n    text-align: left;\n}\n\n.align_right {\n    text-align: right;\n}\n\n.dd_label {\n    text-align: left !important;\n}\n\n.dropdown-menu {\n    width: 100%;\n}\n\n.exe_btn {\n    float: right;\n}\n\npre {\n    /*outline: 1px solid #ccc;*/\n    padding: 5px;\n    /*margin: 5px;*/\n}\n\n.string {\n    color: green;\n}\n\n.number {\n    color: darkorange;\n}\n\n.boolean {\n    color: blue;\n}\n\n.null {\n    color: magenta;\n}\n\n.key {\n    color: red;\n}\n\n.toc_ul {\n    list-style-type: none;\n    padding: 0px;\n    margin: 0;\n}\n\n.toc_ul li li {\n    padding-left: 15px;\n}\n\n.toc_ul li li {\n    border-bottom: 1px solid #e5e5e5;\n    margin-bottom: -1px;\n}\n\n.toc_ul li li .row-toc-inner {\n    border: 0;\n}\n\n\n/*.toc_ul li li .row-toc-inner:hover{background: none;}*/\n\n.toc_ul li li:hover {\n    background: #f7f7f7;\n}\n\n.active_row {\n    background: none repeat scroll 0 0 #eee;\n    border-radius: 3px;\n}\n\n.pattern-list-container {\n    background: #fff;\n}\n\n.from-container .pattern-list-table th {\n    border-bottom: 2px solid #e5e5e5;\n    font-size: 14px;\n    color: #262a2d;\n    font-weight: normal;\n    background: #fff;\n    border-top: 0;\n}\n\n.pattern-list-table td {\n    border-top: 1px solid #e5e5e5;\n    font-size: 16px;\n    color: #333333;\n    font-weight: normal;\n}\n\n.glossaryTerm {\n    color: red;\n}\n\n\n/*-------------------*/\n\n.btn-primary:hover,\n.btn-primary:focus,\n.btn-primary:active,\n.btn-primary.active,\n.open .dropdown-toggle.btn-primary {\n    color: #fff;\n    background: #3877df;\n    border-color: #3877df;\n}\n\nul.list-btn {\n    margin: 30px 0 0 0;\n    list-style: none;\n    padding: 0;\n}\n\nul.list-btn li {\n    display: inline-block;\n    margin: 0 6px 0 0;\n}\n\nul.list-btn li a {\n    text-transform: uppercase;\n    font-family: Roboto Condensed;\n    background: #fff;\n    padding: 5px 14px;\n    border-radius: 30px;\n    cursor: pointer;\n    border: #ddd 1px solid;\n    color: #333;\n    display: block;\n}\n\nul.list-btn li a:hover {\n    background: #357ebd;\n    border-color: #357ebd;\n    color: #fff;\n    text-decoration: none\n}\n\n.dir_pagination {\n    display: block;\n    text-align: center;\n}\n\n.action-link.labl {\n    margin-left: 0px;\n    border-radius: 4px;\n    color: #fff;\n    font-size: 10px;\n    text-transform: uppercase;\n    padding: 1px 5px;\n    display: block;\n    float: left;\n    line-height: normal;\n    margin-bottom: 0;\n    font-weight: normal;\n}\n\n.status {\n    position: relative;\n    margin-left: 5px;\n    background-color: #fff;\n    border-radius: 0;\n    border: 1px solid #dddddd;\n    color: #868686 !important;\n    font-size: 12px;\n    padding: 1px 5px;\n    display: block;\n    float: left;\n    line-height: normal;\n    margin-bottom: 0;\n    font-weight: normal;\n    min-width: 75px;\n    text-align: center;\n    vertical-align: middle;\n    padding-right: 25px;\n}\n\n.blocker {\n    margin-left: 42px;\n    background-color: #d95450;\n    border-radius: 4px;\n    border: 1px solid #d95450;\n    color: #fff;\n    font-size: 10px;\n    text-transform: uppercase;\n    padding: 1px 5px;\n    display: block;\n    float: left;\n    line-height: normal;\n    margin-bottom: 0;\n    font-weight: normal;\n    min-width: 75px;\n    text-align: center;\n    vertical-align: middle;\n}\n\n.high {\n    background-color: #d95450;\n    border: 1px solid #d95450;\n}\n\n.medium {\n    background-color: #337ab7;\n    border: 1px solid #337ab7;\n}\n\n.low {\n    background-color: #777;\n    border: 1px solid #777;\n}\n\n\n/*\nSwitch\n*/\n\n.switch {\n    width: 160px;\n}\n\n.switch-button-label.active,\n.switch-button-label:hover {\n    color: #333333;\n}\n\n.switch-button-label {\n    color: #999999;\n}\n\n.switch-button-label {\n    float: left;\n    font-size: 12px;\n    cursor: pointer;\n    padding: 18px 8px;\n    text-transform: uppercase;\n}\n\n.switch-button-background {\n    float: left;\n    position: relative;\n    background: #fff;\n    border: 1px solid #ececec;\n    margin: 17px 1px;\n    border-radius: 10px;\n    cursor: pointer;\n    height: 16px;\n    width: 30px;\n}\n\n.switch-button-button {\n    position: absolute;\n    left: -4px;\n    top: -4px;\n    height: 25px;\n    width: 25px;\n    background-position: -313px -14px;\n}\n\n.switch-button-background.on {\n    background: #0fa41d;\n    border: 1px solid #fff;\n}\n\n.cmn-toggle {\n    position: absolute;\n    margin-left: -9999px;\n    visibility: hidden;\n}\n\n.cmn-toggle+label {\n    display: block;\n    position: relative;\n    cursor: pointer;\n    outline: none;\n    -webkit-user-select: none;\n    -moz-user-select: none;\n    -ms-user-select: none;\n    user-select: none;\n}\n\ninput.cmn-toggle-round+label:before,\ninput.cmn-toggle-round+label:after {\n    display: block;\n    position: absolute;\n    top: 1px;\n    left: 1px;\n    bottom: 1px;\n    content: \"\";\n}\n\ninput.cmn-toggle-round+label:before {\n    right: 1px;\n    background-color: #f1f1f1;\n    -webkit-border-radius: 60px;\n    -moz-border-radius: 60px;\n    -ms-border-radius: 60px;\n    -o-border-radius: 60px;\n    border-radius: 60px;\n    -webkit-transition: background 0.4s;\n    -moz-transition: background 0.4s;\n    -o-transition: background 0.4s;\n    transition: background 0.4s;\n}\n\ninput.cmn-toggle-round+label:after {\n    width: 15px;\n    height: 15px;\n    margin-top: -2px;\n    background-color: #fff;\n    -webkit-border-radius: 100%;\n    -moz-border-radius: 100%;\n    -ms-border-radius: 100%;\n    -o-border-radius: 100%;\n    border-radius: 100%;\n    -webkit-box-shadow: 0 2px 5px rgba(0, 0, 0, 0.3);\n    -moz-box-shadow: 0 2px 5px rgba(0, 0, 0, 0.3);\n    box-shadow: 0 2px 5px rgba(0, 0, 0, 0.3);\n    -webkit-transition: margin 0.4s;\n    -moz-transition: margin 0.4s;\n    -o-transition: margin 0.4s;\n    transition: margin 0.4s;\n}\n\ninput.cmn-toggle-round:checked+label:before {\n    background-color: #993399;\n}\n\ninput.cmn-toggle-round:checked+label:after {\n    margin-left: 12px;\n}\n\n.switch2 input.cmn-toggle-round+label:after {\n    width: 8px;\n    height: 8px;\n}\n\n.switch2 input.cmn-toggle-round:checked+label:after {\n    margin-left: 7px;\n}\n\n.switch2 input.cmn-toggle-round+label:before {\n    background: none;\n}\n\n.switch2 input.cmn-toggle-round:checked+label:before {\n    background-color: #8ce196;\n}\n\n.hedar-prog {\n    padding-right: 8px;\n}\n\n.issu {\n    font-size: 13px;\n    text-align: center;\n    border-bottom: 1px solid #ddd;\n    line-height: 18px;\n    margin-bottom: 5px;\n    margin-top: -10px;\n    font-family: 'Roboto Condensed', sans-serif;\n    text-transform: uppercase;\n}\n\n.fst {\n    margin: 0;\n}\n\n.toc-inn-Btn {\n    padding-right: 8px;\n}\n\n.toc-inn-Btn .action-link {\n    margin-top: 4px;\n}\n\n.open-status {\n    background-color: #c62828;\n    color: #fff !important;\n    border: 1px solid #c62828;\n}\n\n.need-clarification-status {\n    background-color: #ffeb3b;\n    color: #515151 !important;\n    border: 1px solid #ffeb3b;\n}\n\n.inprogress-status {\n    background-color: #ffeb3b;\n    color: #515151 !important;\n    border: 1px solid #ffeb3b;\n}\n\n.resolved-status {\n    background-color: #303f9f;\n    color: #fff !important;\n    border: 1px solid #303f9f;\n}\n\n.fixed-status {\n    background-color: #303f9f;\n    color: #fff !important;\n    border: 1px solid #303f9f;\n}\n\n.closed-status {\n    background-color: #4caf50;\n    color: #fff !important;\n    border: 1px solid #4caf50;\n}\n\n.verified-status {\n    background-color: #4caf50;\n    color: #fff !important;\n    border: 1px solid #4caf50;\n}\n\n.ignored-status {\n    background-color: #FFB74D;\n    color: #333 !important;\n    border: 1px solid #FFB74D;\n}\n\n.toc-inn-Btn .open-status {\n    background-color: transparent;\n    color: #c62828 !important;\n    border: 0px solid #c62828;\n}\n\n.toc-inn-Btn .inprogress-status {\n    background-color: transparent;\n    color: #f9aa39 !important;\n    border: 0px solid #c62828;\n}\n\n.toc-inn-Btn .need-clarification-status {\n    background-color: transparent;\n    color: #f9aa39 !important;\n    border: 0px solid #c62828;\n}\n\n.toc-inn-Btn .resolved-status {\n    background-color: transparent;\n    color: #303f9f !important;\n    border: 0px solid #c62828;\n}\n\n.toc-inn-Btn .fixed-status {\n    background-color: transparent;\n    color: #303f9f !important;\n    border: 0px solid #c62828;\n}\n\n.toc-inn-Btn .closed-status {\n    background-color: transparent;\n    color: #4caf50 !important;\n    border: 0px solid #c62828;\n}\n\n.toc-inn-Btn .verified-status {\n    background-color: transparent;\n    color: #4caf50 !important;\n    border: 0px solid #c62828;\n}\n\n.toc-inn-Btn .ignored-status {\n    background-color: transparent;\n    color: #4caf50 !important;\n    border: 0px solid #c62828;\n}\n\n.toc-outer {\n    position: relative;\n    padding-left: 5px;\n}\n\n.last-updated {\n    font-weight: normal;\n    font-size: 90%;\n    float: right;\n    margin-top: 6px;\n    background-color: transparent;\n    color: #666;\n}\n\n.error {\n    padding: 0 5px;\n    min-width: 75px;\n}\n\n.error.glyphicon-exclamation-sign:before {\n    top: 2px;\n    position: relative;\n}\n\n.status span {\n    background-color: rgba(0, 0, 0, 0.5);\n    color: rgb(255, 255, 255);\n    font-size: 9px;\n    padding: 2px 5px;\n    position: absolute;\n    right: -1px;\n    top: -1px;\n}\n\n.issu span {\n    background-color: rgba(0, 0, 0, 0.3);\n    color: rgb(255, 255, 255);\n    display: inline-block;\n    font-size: 12px;\n    line-height: 15px;\n    padding: 0 5px;\n}\n\n.bs-callout {\n    padding: 20px;\n    margin: 20px;\n    border: 1px solid #eee;\n    border-left-width: 5px;\n    border-radius: 3px;\n}\n\n.bs-callout h4 {\n    margin-top: 0;\n    margin-bottom: 5px;\n}\n\n.bs-callout p:last-child {\n    margin-bottom: 0;\n}\n\n.bs-callout code {\n    border-radius: 3px;\n}\n\n.bs-callout+.bs-callout {\n    margin-top: -5px;\n}\n\n.bs-callout-default {\n    border-left-color: #777;\n}\n\n.bs-callout-default h4 {\n    color: #777;\n}\n\n.bs-callout-primary {\n    border-left-color: #428bca;\n}\n\n.bs-callout-primary h4 {\n    color: #428bca;\n}\n\n.bs-callout-success {\n    border-left-color: #5cb85c;\n}\n\n.bs-callout-success h4 {\n    color: #5cb85c;\n}\n\n.bs-callout-danger {\n    border-left-color: #d9534f;\n}\n\n.bs-callout-danger h4 {\n    color: #d9534f;\n}\n\n.bs-callout-warning {\n    border-left-color: #f0ad4e;\n}\n\n.bs-callout-warning h4 {\n    color: #f0ad4e;\n}\n\n.bs-callout-info {\n    border-left-color: #5bc0de;\n}\n\n.bs-callout-info h4 {\n    color: #5bc0de;\n}\n\n.list-theme-title .fa-heart {\n    color: #F78D04\n}\n\n.created .fa-heart {\n    color: #F78D04\n}\n\n\n/*---- SOF date picker css fix ----*/\n\n.datepicker {\n    margin: 0 0 0 2px;\n    padding: 0;\n}\n\n.datepicker table th,\n.datepicker table td {\n    padding: 3px !important;\n}\n\n.datepicker table td .btn.btn-default {\n    padding: 5px !important;\n    border: 0 !important;\n    box-shadow: none !important;\n    text-shadow: none;\n}\n\n.datepicker table td .btn.btn-default.btn-today {\n    background: #3877df;\n    color: #fff;\n}\n\n.datepicker table td .btn.btn-primary {\n    background: #93ADD8;\n    color: #fff;\n}\n\n.datepicker table tr:hover td {\n    background: transparent;\n}\n\n\n/*---- EOF date picker css fix ----*/\n\n.timepicker {\n    padding: 3px 3px 3px 2px;\n}\n\n.timepicker table th,\n.timepicker table td {\n    padding: 0 !important;\n    background: transparent;\n    border: 0;\n}\n\n.timepicker table td .btn.btn-default {\n    padding: 7px 12px;\n    background: #3877df;\n    border: 0;\n    color: #fff;\n    text-shadow: none;\n}\n\n.timepicker thead .btn.btn-default,\n.timepicker tfoot .btn.btn-default {\n    border: 0;\n    box-shadow: none !important;\n}\n\n.timepicker table tr:hover td {\n    background: transparent;\n}\n\n.popup-boxes .adv-search label {\n    position: static;\n    display: block;\n}\n\n.advance-container {\n    padding: 0 0 15px 0;\n}\n\n.advance-container>div {\n    overflow: auto;\n}\n\n\n/*---- SOF for FROST-4652 ----*/\n\n.extrnl_repo_search .page-title {\n    border: #ddd 1px solid;\n    box-shadow: none;\n}\n\n.extrnl_repo_search .sortingAsset .form-control {\n    width: auto;\n    float: right;\n    margin-left: 10px;\n}\n\n.checkbox-group .checkbox-inline+.checkbox-inline {\n    margin-left: 0 !important;\n}\n\n.checkbox-group .checkbox-inline-form {\n    width: 33.3333%;\n}\n\n.checkbox-group .checkbox-inline {\n    width: 50%;\n    float: left;\n}\n\n\n/*.extrnl_repo_blk\n{\n    border: #ddd 1px solid;\n}*/\n\n.extrnl_repo_blk .prod-block .theme-box-col {\n    margin: 15px 0;\n}\n\n.extrnl_repo_blk .box-theme {\n    width: 100%;\n    min-height: 245px;\n    max-height: 245px;\n}\n\n.extrnl_repo_blk .list-create-name {\n    text-align: left;\n    padding: 0 0 3px 15px;\n}\n\n.extrnl_repo_blk .box-theme-title {\n    cursor: default;\n}\n\n.extrnl_repo_blk .box-theme-title-list {\n    display: inline !important;\n}\n\n.extrnl_repo_search_ttl {\n    padding: 12px 15px;\n    border: #ddd 1px solid;\n    font-size: 26px;\n    margin-bottom: 15px;\n}\n\n.extrnl_repo_search_popup .list-create-name {\n    padding-bottom: 15px;\n}\n\n.extrnl_repo_blk .assesment-data td {\n    word-break: break-word;\n}\n\n.extrnl_repo_search_form .page-title5 {\n    margin-bottom: 15px;\n    padding: 17px 15px;\n    height: 60px;\n}\n\n.extrnl_repo_search_result .page-title5 {\n    height: 60px;\n}\n\n.extrnl_repo_search_result {\n    border-right: #ddd 1px solid;\n    ;\n}\n\n.extrnl_repo_search_result .sortingAsset label {\n    font-size: 14px;\n    margin-top: 5px;\n}\n\n.extrnl_repo_blk .list-theme-title:hover,\n.extrnl_repo_blk .grid-view .box-theme-title:hover,\n.extrnl_repo_blk .box-theme:hover .box-theme-title,\n.extrnl_repo_blk .list-view .theme-box-col:hover .list-theme-title {\n    color: #000 !important;\n}\n\n.extrnl_repo_search_form .control-label {\n    padding-top: 0px !important;\n}\n\n.extrnl_repo_search .no_records {\n    background-color: #FFFFFF;\n    border: #ddd 1px solid;\n}\n\n.extrnl_repo_search .alert {\n    margin: 25px;\n}\n\n.result_filteration {\n    padding: 5px 25px 10px 25px;\n}\n\n.table_result_pagination {\n    border-radius: 2em !important;\n}\n\n.navigate_pag {\n    margin-bottom: 0.5em !important;\n}\n.result_filteration .pagination{\n\tmargin:0;\n}\n\n/* .assesment-data .text-left{ text-align: left !important;} */\n\n\n/*---- EOF for FROST-4652 ----*/",
          "comment" : ""
        },
        "redirectURL" : "",
        "headersSize" : 189,
        "bodySize" : 46439,
        "comment" : ""
      },
      "cache" : { },
      "timings" : {
        "comment" : "",
        "ssl" : -1,
        "connect" : 1540,
        "wait" : 0,
        "blocked" : -1,
        "send" : 0,
        "dns" : -1,
        "receive" : 0
      },
      "comment" : "",
      "_katalonRequestInformation" : {
        "name" : "6",
        "testObjectId" : "Temporary RESTful request object",
        "harId" : "7191ec37-68b8-4b72-b759-e1bb6ec52aec"
      },
      "time" : 1540
    } ],
    "comment" : ""
  }
}