{
  "log" : {
    "version" : "1.2",
    "pages" : [ ],
    "entries" : [ {
      "startedDateTime" : "2019-07-12T04:37:58.814Z",
      "request" : {
        "method" : "GET",
        "url" : "https://frostedc-stg.learningmate.com/js/profile/profileController.js",
        "httpVersion" : "",
        "cookies" : [ ],
        "headers" : [ ],
        "queryString" : [ ],
        "headersSize" : 0,
        "bodySize" : 0,
        "comment" : ""
      },
      "response" : {
        "status" : 200,
        "statusText" : "",
        "httpVersion" : "",
        "cookies" : [ ],
        "headers" : [ {
          "name" : "Accept-Ranges",
          "value" : "bytes"
        }, {
          "name" : null,
          "value" : "HTTP/1.1 200 OK"
        }, {
          "name" : "Server",
          "value" : "nginx/1.13.5"
        }, {
          "name" : "ETag",
          "value" : "\"5d25bc3a-12d0\""
        }, {
          "name" : "Connection",
          "value" : "keep-alive"
        }, {
          "name" : "Last-Modified",
          "value" : "Wed, 10 Jul 2019 10:21:46 GMT"
        }, {
          "name" : "Content-Length",
          "value" : "4816"
        }, {
          "name" : "Date",
          "value" : "Fri, 12 Jul 2019 04:39:28 GMT"
        }, {
          "name" : "Content-Type",
          "value" : "application/javascript"
        } ],
        "content" : {
          "size" : 4816,
          "mimeType" : "application/javascript",
          "text" : "/*****\n * Controller for HEADER\n * Author - Indranil Ghosh * \n */\n\n'use strict';\n\napp.controller('profile', ['$scope', 'sessionService', '$location', '$routeParams', '$rootScope', '$log', 'SweetAlert', '$modal', 'profileService', function ($scope, sessionService, $location, $routeParams, $rootScope, $log, SweetAlert, $modal, profileService) {\n\n        $scope.access_token = sessionService.get('access_token');\n        var userinfo = JSON.parse(sessionService.get('userinfo'));\n        $scope.user_permissions = JSON.parse(sessionService.get('user_permissions'));\n        $scope.formData = {};\n\n        if (!$scope.access_token && !$scope.user_id) {\n            $location.path('logout');\n            return true;\n        }\n\n        //console.info(userinfo);\n\n        $scope.formData = userinfo;\n\n\n        $scope.resetPasswd = function (formData) {\n            $scope.access_token = sessionService.get('access_token');\n            var userinfo = JSON.parse(sessionService.get('userinfo'));\n            $scope.userId = userinfo.id;\n            //Check if the session is active\t\n            $rootScope.checkActiveSession();\n            if (!$scope.access_token || userinfo == null) {\n                $location.path('logout');\n            }\n            if (formData.$valid) {\n                if ($scope.formData.new_password1.$modelValue != $scope.formData.new_password2.$modelValue) {\n                    $scope.status = 400;\n                    $scope.error_msg = 'New passwords are not same.';\n                } else {\n                    profileService.resetPassword($scope).then(function (data) {\n                        $scope.error_msg = data.message;\n                        $scope.status = data.status;\n                    });\n                }\n//                profileService.resetPassword($scope).then(function (data) {\n//                    $scope.error_msg = data.message;\n//                    $scope.status = data.status;\n//                });\n\n            } else {\n                if ($scope.formData.old_password.$error.required || $scope.formData.new_password1.$error.required || $scope.formData.new_password2.$error.required) {\n                    $scope.status = 400;\n                    $scope.error_msg = 'All fields are required.';\n                }\n            }\n        };\n\n        //$injector.invoke(login, this, {$scope: $scope});\n//        profileService.getUser($scope).then(function(data){\n//            console.info(data);\n//        });\n\n\n        $scope.showMsg = 0;\n        $scope.update_profile = function () {\n            profileService.updateUser($scope).then(function (data) {\n                $scope.showMsg = 1;\n                $scope.message = data.message;\n                $scope.status = data.status;\n                sessionService.set('userinfo', JSON.stringify(data.data));\n            });\n        }\n\n        $scope.showChangePasswordMsg = 0;\n        $scope.old_password = '';\n        $scope.change_password = function () {\n            profileService.changePassword($scope).then(function (data) {\n                $scope.showChangePasswordMsg = 1;\n                $scope.changePasswordMsg = data.message;\n                $scope.changePasswordstatus = data.status;\n                $scope.old_password = '';\n\n                $scope.error = [];\n                if (data.status == '400') {\n                    if (angular.isDefined(data.error.oldpassword)) {\n                        $scope.error.oldpassword = data.error.oldpassword[0];\n                    }\n                    if (angular.isDefined(data.error.password)) {\n                        $scope.error.password = data.error.password[0];\n                    }\n                    if (angular.isDefined(data.error.password_confirmation)) {\n                        $scope.error.password_confirmation = data.error.password_confirmation[0];\n                    }\n\n                }\n                $scope.oldpassword = '';\n                $scope.password = '';\n                $scope.password_confirmation = '';\n            });\n        }\n\n        $scope.showEmailFrequencyMsg = 0;\n        $scope.saveEmailFrequency = function () {\n            var userinfo = JSON.parse(sessionService.get('userinfo'));\n            $scope.userId = userinfo.id;\n            profileService.saveEmailFrequency($scope).then(function (data) {\n                $scope.showEmailFrequencyMsg = 1;\n                $scope.showEmailFrequencyMsg = data.message;\n                $scope.saveEmailFrequencyStatus = data.status;\n            });\n        }\n\n        $scope.getEmailFrequency = function () {\n            $scope.userId = userinfo.id;\n            profileService.getEmailFrequency($scope).then(function (data) {\n                $scope.email_frequency = data.data['frequency'];\n            });\n        }\n        $scope.getEmailFrequency();\n\n\n\n    }]);\n",
          "comment" : ""
        },
        "redirectURL" : "",
        "headersSize" : 202,
        "bodySize" : 4816,
        "comment" : ""
      },
      "cache" : { },
      "timings" : {
        "comment" : "",
        "ssl" : -1,
        "connect" : 1060,
        "wait" : 0,
        "blocked" : -1,
        "send" : 0,
        "dns" : -1,
        "receive" : 0
      },
      "comment" : "",
      "_katalonRequestInformation" : {
        "name" : "86",
        "testObjectId" : "Temporary RESTful request object",
        "harId" : "75374a09-2d75-48a5-a2cf-e90986af8230"
      },
      "time" : 1060
    } ],
    "comment" : ""
  }
}