{
  "log" : {
    "version" : "1.2",
    "pages" : [ ],
    "entries" : [ {
      "startedDateTime" : "2019-07-12T04:38:11.557Z",
      "request" : {
        "method" : "GET",
        "url" : "https://frostedc-stg.learningmate.com/js/taxonomy/taxonomyService.js",
        "httpVersion" : "",
        "cookies" : [ ],
        "headers" : [ ],
        "queryString" : [ ],
        "headersSize" : 0,
        "bodySize" : 0,
        "comment" : ""
      },
      "response" : {
        "status" : 200,
        "statusText" : "",
        "httpVersion" : "",
        "cookies" : [ ],
        "headers" : [ {
          "name" : "Accept-Ranges",
          "value" : "bytes"
        }, {
          "name" : null,
          "value" : "HTTP/1.1 200 OK"
        }, {
          "name" : "Server",
          "value" : "nginx/1.13.5"
        }, {
          "name" : "ETag",
          "value" : "\"5d25bc3a-1ff0\""
        }, {
          "name" : "Connection",
          "value" : "keep-alive"
        }, {
          "name" : "Last-Modified",
          "value" : "Wed, 10 Jul 2019 10:21:46 GMT"
        }, {
          "name" : "Content-Length",
          "value" : "8176"
        }, {
          "name" : "Date",
          "value" : "Fri, 12 Jul 2019 04:39:41 GMT"
        }, {
          "name" : "Content-Type",
          "value" : "application/javascript"
        } ],
        "content" : {
          "size" : 8176,
          "mimeType" : "application/javascript",
          "text" : "/*****\n * Services for TaxonomyServices\n * Author - Koushik Samanta \n *  \n */\n'use strict';\n\n//Start of aclService\napp.service('taxonomyService', ['$http', '$q', 'sessionService', '$rootScope', function ($http, $q, sessionService, $rootScope) {\n\n        /*\n         * Service to add Taxonomy\n         */\n        this.addTaxonomy = function ($scope) {\n            var deferred = $q.defer();\n            $http.post(serviceEndPoint + 'api/v1/taxonomy?access_token=' + sessionService.get('access_token'), {\n                taxonomy_text: $scope.taxonomy_text,\n                taxonomy_description: $scope.taxonomy_description,\n                parent_id: $scope.taxonomy_parent_id\n            }).success(function (data, status, headers, config) {\n                deferred.resolve(data);\n            }).error(function (data, status, headers, config) {\n                $rootScope.unauthorised_redirection(data.status);\n            });\n            return deferred.promise;\n        }\n        /*\n         * Service to add Taxonomy\n         */\n        this.editTaxonomy = function ($scope, taxonomy) {\n            var deferred = $q.defer();\n            $http.post(serviceEndPoint + 'api/v1/taxonomy/taxonomy_id/' + taxonomy.id + '?access_token=' + sessionService.get('access_token'), {\n                taxonomy_text: $scope.taxonomy_text,\n                taxonomy_description: $scope.taxonomy_description,\n                parent_id: $scope.taxonomy_parent_id,\n                _method: 'PUT'\n            }).success(function (data, status, headers, config) {\n                deferred.resolve(data);\n            }).error(function (data, status, headers, config) {\n                $rootScope.unauthorised_redirection(data.status);\n            });\n            return deferred.promise;\n        }\n        /*\n         * Service to add Taxonomy\n         */\n        this.delTaxonomy = function ($scope, taxonomy_id) {\n            var deferred = $q.defer();\n            $http.delete(serviceEndPoint + 'api/v1/taxonomy/taxonomy_id/' + taxonomy_id + '?access_token=' + sessionService.get('access_token'), {\n            }).success(function (data, status, headers, config) {\n                deferred.resolve(data);\n            }).error(function (data, status, headers, config) {\n                $rootScope.unauthorised_redirection(data.status);\n            });\n            return deferred.promise;\n        }\n        /*\n         * Service to asset taxonomy mapping\n         */\n        /*this.taxonomyObjectMapping = function ($scope) {\n            var deferred = $q.defer();\n            $http.post(serviceEndPoint + 'api/v1/taxonomy-object?access_token=' + sessionService.get('access_token'), {\n                taxonomy_id: $scope.taxonomy_id,\n                asset_ids: $scope.asset_ids\n            }).success(function (data, status, headers, config) {\n                deferred.resolve(data);\n            }).error(function (data, status, headers, config) {\n                $rootScope.unauthorised_redirection(data.status);\n            });\n            return deferred.promise;\n        }*/\n\n        /**\n         * Get Mime Types\n         */\n        this.getTaxonomy = function ($scope, node_id) {\n            var params = {};\n            params.access_token = sessionService.get('access_token');\n            var deferred = $q.defer();\n            var queryString = '';\n            if (angular.isDefined(node_id)) {\n                queryString += '&object_id=' + node_id;\n            }\n            if (angular.isDefined($scope.taxonomyStatus)) {\n                queryString += '&status=' + $scope.taxonomyStatus;\n            }\n            $http.get(serviceEndPoint + 'api/v1/taxonomy?access_token=' + sessionService.get('access_token') + queryString, {\n            }).success(function (data, status, headers, config) {\n                deferred.resolve(data);\n            }).error(function (data, status, headers, config) {\n                $rootScope.unauthorised_redirection(data.status);\n            });\n            return deferred.promise;\n        };\n\n        /**\n         * Get Taxonomy Detail By Id\n         */\n        this.getTaxonomyDetailsById = function ($scope, taxonomy_id) {\n            var params = {};\n            params.access_token = sessionService.get('access_token');\n            var deferred = $q.defer();\n\n            var queryString = '';\n            $http.get(serviceEndPoint + 'api/v1/taxonomy/taxonomy_id/' + taxonomy_id + '?access_token=' + sessionService.get('access_token') + queryString, {\n            }).success(function (data, status, headers, config) {\n                deferred.resolve(data);\n            }).error(function (data, status, headers, config) {\n                $rootScope.unauthorised_redirection(data.status);\n            });\n            return deferred.promise;\n        };\n\n        /**\n         * Get Taxonomy By Object Id\n         */\n        this.getTaxonomyByObject = function ($scope, object_id) {\n            var params = {};\n            params.access_token = sessionService.get('access_token');\n            var deferred = $q.defer();\n\n            var queryString = '';\n            $http.get(serviceEndPoint + 'api/v1/taxonomy/taxonomy_id/' + taxonomy_id + '?access_token=' + sessionService.get('access_token') + queryString, {\n            }).success(function (data, status, headers, config) {\n                deferred.resolve(data);\n            }).error(function (data, status, headers, config) {\n                $rootScope.unauthorised_redirection(data.status);\n            });\n            return deferred.promise;\n        };\n\n        /**\n         * Get Taxonomy By Object Id\n         */\n        this.rearrangeTaxonomyTree = function ($scope, taxonomy_id, parent_id) {\n            var params = {};\n            params.access_token = sessionService.get('access_token');\n            var deferred = $q.defer();\n            var requestUrl = serviceEndPoint + 'api/v1/taxonomy-rearrange/taxonomy_id/' + taxonomy_id + '/parent_id/' + parent_id + '?access_token=' + sessionService.get('access_token');\n            var requestData = {'children': JSON.stringify($scope.taxonomy.children)};\n            var requestConfig = {headers: {'Content-Type': 'application/x-www-form-urlencoded; charset=UTF-8'}};\n            $http.put(requestUrl, requestData, requestConfig).success(function (data, status, headers, config) {\n                deferred.resolve(data);\n            }).error(function (data, status, headers, config) {\n                $rootScope.unauthorised_redirection(data.status);\n            });\n            return deferred.promise;\n        };\n\n        this.getMetadataUsage = function ($scope, taxonomy_id) {\n            var params = {};\n            params.access_token = sessionService.get('access_token');\n            var deferred = $q.defer();\n            var queryString = '';\n            if (angular.isDefined($scope.pageNumber) && angular.isDefined($scope.itemsPerPage)) {\n                queryString += '&pageNumber=' + $scope.pageNumber + '&itemsPerPage=' + $scope.itemsPerPage;\n            }\n            $http.get(serviceEndPoint + 'api/v1/objects-taxonomy-usage/taxonomy_id/' + taxonomy_id + '?access_token=' + sessionService.get('access_token') + queryString, {\n            }).success(function (data, status, headers, config) {\n                deferred.resolve(data);\n            }).error(function (data, status, headers, config) {\n                $rootScope.unauthorised_redirection(data.status);\n            });\n            return deferred.promise;\n        };\n\n        /*\n         * Change status to active or inactive\n         */\n        this.changeStatus = function (id, $scope) {\n            var deferred = $q.defer();\n            $http.post(serviceEndPoint + 'api/v1/taxonomy-status/taxonomy_id/' + id + '?access_token=' + sessionService.get('access_token'), {\n                _method: 'PUT'\n            }).success(function (data, status, headers, config) {\n                deferred.resolve(data);\n            }).error(function (data, status, headers, config) {\n                deferred.resolve(data);\n                $rootScope.unauthorised_redirection(data.status);\n            });\n            return deferred.promise;\n        };\n\n    }]);",
          "comment" : ""
        },
        "redirectURL" : "",
        "headersSize" : 202,
        "bodySize" : 8176,
        "comment" : ""
      },
      "cache" : { },
      "timings" : {
        "comment" : "",
        "ssl" : -1,
        "connect" : 1031,
        "wait" : 0,
        "blocked" : -1,
        "send" : 0,
        "dns" : -1,
        "receive" : 0
      },
      "comment" : "",
      "_katalonRequestInformation" : {
        "name" : "97",
        "testObjectId" : "Temporary RESTful request object",
        "harId" : "6bddb2a0-64a5-40f2-b2d3-5887cbcaf0e6"
      },
      "time" : 1031
    } ],
    "comment" : ""
  }
}