{
  "log" : {
    "version" : "1.2",
    "pages" : [ ],
    "entries" : [ {
      "startedDateTime" : "2019-07-17T04:57:01.485Z",
      "request" : {
        "method" : "GET",
        "url" : "https://canvas.instructure.com/api/v1/courses/1617500/modules/items/23650616/duplicate",
        "httpVersion" : "",
        "cookies" : [ ],
        "headers" : [ ],
        "queryString" : [ ],
        "headersSize" : 0,
        "bodySize" : 0,
        "comment" : ""
      },
      "response" : {
        "status" : 404,
        "statusText" : "",
        "httpVersion" : "",
        "cookies" : [ ],
        "headers" : [ {
          "name" : "Status",
          "value" : "404 Not Found"
        }, {
          "name" : "Transfer-Encoding",
          "value" : "chunked"
        }, {
          "name" : null,
          "value" : "HTTP/1.1 404 Not Found"
        }, {
          "name" : "X-Request-Processor",
          "value" : "0828f408b5d7baef8"
        }, {
          "name" : "X-Request-Context-Id",
          "value" : "f9495df2-618b-42fb-b036-f8f0b2a47e6a"
        }, {
          "name" : "X-Session-Id",
          "value" : "f8ea9329aa5fbd80d990cbd56b2e6b31"
        }, {
          "name" : "Server",
          "value" : "Apache"
        }, {
          "name" : "X-Content-Type-Options",
          "value" : "nosniff"
        }, {
          "name" : "X-Runtime",
          "value" : "0.063565"
        }, {
          "name" : "Connection",
          "value" : "keep-alive"
        }, {
          "name" : "Pragma",
          "value" : "no-cache"
        }, {
          "name" : "P3P",
          "value" : "CP=\"None, see http://www.instructure.com/privacy-policy\""
        }, {
          "name" : "Date",
          "value" : "Wed, 17 Jul 2019 04:57:18 GMT"
        }, {
          "name" : "X-Frame-Options",
          "value" : "SAMEORIGIN"
        }, {
          "name" : "X-UA-Compatible",
          "value" : "IE=Edge,chrome=1"
        }, {
          "name" : "Strict-Transport-Security",
          "value" : "max-age=31536000"
        }, {
          "name" : "Cache-Control",
          "value" : "no-cache, no-store"
        }, {
          "name" : "X-Canvas-Meta",
          "value" : "q=854;b=1690680;m=1690680;u=0.00;y=0.00;d=0.00;a=10;g=ff2e5780-fa5b-012d-f7b3-123135003972;s=7;c=cluster7;z=us-east-1e;"
        }, {
          "name" : "X-XSS-Protection",
          "value" : "1; mode=block"
        }, {
          "name" : "X-A11y-Ally",
          "value" : "Dana Danger Grey"
        }, {
          "name" : "Content-Type",
          "value" : "text/html; charset=utf-8"
        } ],
        "content" : {
          "size" : 18456,
          "mimeType" : "text/html; charset=utf-8",
          "text" : "\n<!DOCTYPE html>\n<html class=\"scripts-not-loaded\" dir=\"ltr\"   lang=\"en\">\n<head>\n  <meta charset=\"utf-8\">\n  <title>Page Not Found</title>\n  <link rel=\"preconnect\" href=\"https://fonts.gstatic.com/\" crossorigin>\n  <link href=\"https://fonts.googleapis.com/css?family=Lato:300,400,400i,700&amp;subset=latin-ext&amp;display=swap\" rel=\"stylesheet\">\n  <!--[if lte IE 9]> <meta http-equiv=refresh content=\"0; URL=/ie-9-is-not-supported.html\" /> <![endif]-->\n  \n  <link rel=\"shortcut icon\" type=\"image/x-icon\" href=\"https://du11hjcvx0uqb.cloudfront.net/dist/images/favicon-e10d657a73.ico\" />\n  <link rel=\"apple-touch-icon\" href=\"https://du11hjcvx0uqb.cloudfront.net/dist/images/apple-touch-icon-585e5d997d.png\" />\n  \n  <link rel=\"stylesheet\" media=\"all\" href=\"https://du11hjcvx0uqb.cloudfront.net/dist/brandable_css/8f4e87695dec9985fc00f551e06fd101/variables-8f05bb49a3f36c1ed21c589576567137.css\" />\n  <link rel=\"stylesheet\" media=\"all\" href=\"https://du11hjcvx0uqb.cloudfront.net/dist/brandable_css/new_styles_normal_contrast/bundles/common-9138505e4c.css\" />\n  <script>\n//<![CDATA[\n\n!function(){\n  function get(u){document.write('<scr'+'ipt src=\"'+ u +'\"></sc'+'ript>')}\n  var o,s,v;\n  if (!(window.Promise && Object.assign && Object.values && [].find && [].includes && (o={},s=Symbol(),v={},o[s]=v,o[s]===v) && (function f(){}).bind().name==='bound f')) {\n    get(\"https://du11hjcvx0uqb.cloudfront.net/dist/ie11-polyfill-88f282b932.js\");\n  }\n  window.fetch || get(\"https://cdnjs.cloudflare.com/ajax/libs/fetch/2.0.4/fetch.min.js\");\n}();\n      \n//]]>\n</script>\n  \n  <meta name=\"apple-itunes-app\" content=\"app-id=480883488\" />\n<link rel=\"manifest\" href=\"/web-app-manifest/manifest.json\" />\n  <meta name=\"viewport\" content=\"width=device-width, initial-scale=1\">\n  <meta name=\"theme-color\" content=\"#008EE2\">\n  \n  \n  \n  <script>\n    function _earlyClick(e){\n      var c = e.target\n      while (c && c.ownerDocument) {\n        if (c.getAttribute('href') == '#' || c.getAttribute('data-method')) {\n          e.preventDefault()\n          (_earlyClick.clicks = _earlyClick.clicks || []).push(c)\n          break\n        }\n        c = c.parentNode\n      }\n    }\n    document.addEventListener('click', _earlyClick)\n  </script>\n  <script src=\"https://du11hjcvx0uqb.cloudfront.net/dist/brandable_css/8f4e87695dec9985fc00f551e06fd101/variables-8f05bb49a3f36c1ed21c589576567137.js\" defer=\"defer\"></script>\n  <link rel=\"preload\" href=\"https://du11hjcvx0uqb.cloudfront.net/dist/timezone/America/Denver-40670c6af7.js\" as=\"script\" type=\"text/javascript\"><link rel=\"preload\" href=\"https://du11hjcvx0uqb.cloudfront.net/dist/timezone/en_US-80a0ce259b.js\" as=\"script\" type=\"text/javascript\"><link rel=\"preload\" href=\"https://du11hjcvx0uqb.cloudfront.net/dist/webpack-production/main-e-313a61a5b1.js\" as=\"script\" type=\"text/javascript\"><script src=\"https://du11hjcvx0uqb.cloudfront.net/dist/timezone/America/Denver-40670c6af7.js\" defer=\"defer\"></script>\n<script src=\"https://du11hjcvx0uqb.cloudfront.net/dist/timezone/en_US-80a0ce259b.js\" defer=\"defer\"></script>\n<script src=\"https://du11hjcvx0uqb.cloudfront.net/dist/webpack-production/main-e-313a61a5b1.js\" defer=\"defer\"></script>\n</head>\n\n<body class=\"full-width  primary-nav-expanded\">\n\n<noscript>\n  <div role=\"alert\" class=\"ic-flash-static ic-flash-error\">\n    <div class=\"ic-flash__icon\" aria-hidden=\"true\">\n      <i class=\"icon-warning\"></i>\n    </div>\n    <h1>You need to have JavaScript enabled in order to access this site.</h1>\n  </div>\n</noscript>\n\n\n\n\n\n<ul id=\"flash_message_holder\"></ul>\n<div id=\"flash_screenreader_holder\"></div>\n\n<div id=\"application\" class=\"ic-app\">\n  \n  <header id=\"header\" class=\"ic-app-header no-print no-user\">\n    <a href=\"#content\" id=\"skip_navigation_link\">Skip To Content</a>\n      <div role=\"region\" class=\"ic-app-header__main-navigation\" aria-label=\"Global Navigation\">\n        <div class=\"ic-app-header__logomark-container\">\n          <a href=\"https://canvas.instructure.com/\" class=\"ic-app-header__logomark\">\n            <span class=\"screenreader-only\">Dashboard</span>\n          </a>\n        </div>\n        <ul id=\"menu\" class=\"ic-app-header__menu-list\">\n            <li class=\"menu-item ic-app-header__menu-list-item\">\n              <a id=\"global_nav_login_link\" href=\"/login\" class=\"ic-app-header__menu-list-link\">\n                <div class=\"menu-item-icon-container\" aria-hidden=\"true\">\n                  <svg xmlns=\"http://www.w3.org/2000/svg\" class=\"ic-icon-svg ic-icon-svg--login\" version=\"1.1\" x=\"0\" y=\"0\" viewBox=\"241 -241 512 512\" enable-background=\"new 241 -241 512 512\" xml:space=\"preserve\"><path d=\"M743.9 5.9l-35.7-35.7H492.9c-6.5-16.2-17.3-32-31.7-46.4 -50.4-50.4-132-50.4-182.4 0s-50.4 132.1 0 182.5 132 50.4 182.4 0c11.8-11.8 20.6-25.9 27-41.8H547L570.6 88l22.8-22.8L616.2 88 639 65.2 661.8 88l24.1-24.1 15.6-1.5 4.6-0.5L753 15 743.9 5.9 743.9 5.9zM694.4 37.1l-15.6 1.5 -4.6 0.5 -12.4 12.4 -12.9-12.9h-19.8l-12.9 12.9 -12.9-12.9h-19.8l-12.9 12.9 -12.9-12.9h-87.6l-2.9 8.8c-5.3 16-13.2 29.5-24.2 40.6 -40.3 40.3-105.6 40.3-145.9 0s-40.3-105.7 0-146 105.6-40.3 145.9 0c14.3 14.3 24.4 29.8 28.6 44.6l2.7 9.4h223.3l19 19L694.4 37.1 694.4 37.1zM322.3-16.2c-17.5 17.5-17.5 46 0 63.5 17.5 17.5 46 17.5 63.5 0 17.5-17.5 17.5-46 0-63.5C368.2-33.8 339.8-33.8 322.3-16.2L322.3-16.2zM367.6 29.1c-7.5 7.5-19.7 7.5-27.2 0 -7.5-7.5-7.5-19.7 0-27.2s19.7-7.5 27.2 0S375.2 21.6 367.6 29.1L367.6 29.1z\"/></svg>\r\n\n                </div>\n                <div class=\"menu-item__text\">\n                  Login\n                </div>\n              </a>\n            </li>\n          <li class=\"ic-app-header__menu-list-item \">\n            <a id=\"global_nav_dashboard_link\" href=\"https://canvas.instructure.com/\" class=\"ic-app-header__menu-list-link\">\n              <div class=\"menu-item-icon-container\" aria-hidden=\"true\">\n                <svg xmlns=\"http://www.w3.org/2000/svg\" class=\"ic-icon-svg ic-icon-svg--dashboard\" version=\"1.1\" x=\"0\" y=\"0\" viewBox=\"0 0 280 200\" enable-background=\"new 0 0 280 200\" xml:space=\"preserve\"><path d=\"M273.09,180.75H197.47V164.47h62.62A122.16,122.16,0,1,0,17.85,142a124,124,0,0,0,2,22.51H90.18v16.29H6.89l-1.5-6.22A138.51,138.51,0,0,1,1.57,142C1.57,65.64,63.67,3.53,140,3.53S278.43,65.64,278.43,142a137.67,137.67,0,0,1-3.84,32.57ZM66.49,87.63,50.24,71.38,61.75,59.86,78,76.12Zm147,0L202,76.12l16.25-16.25,11.51,11.51ZM131.85,53.82v-23h16.29v23Zm15.63,142.3a31.71,31.71,0,0,1-28-16.81c-6.4-12.08-15.73-72.29-17.54-84.25a8.15,8.15,0,0,1,13.58-7.2c8.88,8.21,53.48,49.72,59.88,61.81a31.61,31.61,0,0,1-27.9,46.45ZM121.81,116.2c4.17,24.56,9.23,50.21,12,55.49A15.35,15.35,0,1,0,161,157.3C158.18,152,139.79,133.44,121.81,116.2Z\" /></svg>\n\n              </div>\n              <div class=\"menu-item__text\">Dashboard</div>\n            </a>\n          </li>\n          <li class=\"menu-item ic-app-header__menu-list-item \">\n            <a id=\"global_nav_courses_link\" role=\"button\" href=\"/courses\" class=\"ic-app-header__menu-list-link\">\n              <div class=\"menu-item-icon-container\" aria-hidden=\"true\">\n                <svg xmlns=\"http://www.w3.org/2000/svg\" class=\"ic-icon-svg ic-icon-svg--courses\" version=\"1.1\" x=\"0\" y=\"0\" viewBox=\"0 0 280 259\" enable-background=\"new 0 0 280 259\" xml:space=\"preserve\"><path d=\"M73.31,198c-11.93,0-22.22,8-24,18.73a26.67,26.67,0,0,0-.3,3.63v.3a22,22,0,0,0,5.44,14.65,22.47,22.47,0,0,0,17.22,8H200V228.19h-134V213.08H200V198Zm21-105.74h90.64V62H94.3ZM79.19,107.34V46.92H200v60.42Zm7.55,30.21V122.45H192.49v15.11ZM71.65,16.71A22.72,22.72,0,0,0,49,39.36V190.88a41.12,41.12,0,0,1,24.32-8h157V16.71ZM33.88,39.36A37.78,37.78,0,0,1,71.65,1.6H245.36V198H215.15v45.32h22.66V258.4H71.65a37.85,37.85,0,0,1-37.76-37.76Z\"/></svg>\n\n              </div>\n              <div class=\"menu-item__text\">\n                Courses\n              </div>\n            </a>\n          </li>\n          <li class=\"menu-item ic-app-header__menu-list-item \">\n            <a id=\"global_nav_calendar_link\" href=\"/calendar\" class=\"ic-app-header__menu-list-link\">\n              <div class=\"menu-item-icon-container\" aria-hidden=\"true\">\n                <svg xmlns=\"http://www.w3.org/2000/svg\" class=\"ic-icon-svg ic-icon-svg--calendar\" version=\"1.1\" x=\"0\" y=\"0\" viewBox=\"0 0 280 280\" enable-background=\"new 0 0 280 280\" xml:space=\"preserve\"><path d=\"M197.07,213.38h16.31V197.07H197.07Zm-16.31,16.31V180.76h48.92v48.92Zm-48.92-16.31h16.31V197.07H131.85Zm-16.31,16.31V180.76h48.92v48.92ZM66.62,213.38H82.93V197.07H66.62ZM50.32,229.68V180.76H99.24v48.92Zm146.75-81.53h16.31V131.85H197.07Zm-16.31,16.31V115.54h48.92v48.92Zm-48.92-16.31h16.31V131.85H131.85Zm-16.31,16.31V115.54h48.92v48.92ZM66.62,148.15H82.93V131.85H66.62ZM50.32,164.46V115.54H99.24v48.92ZM34,262.29H246V82.93H34ZM246,66.62V42.16A8.17,8.17,0,0,0,237.84,34H213.38v8.15a8.15,8.15,0,1,1-16.31,0V34H82.93v8.15a8.15,8.15,0,0,1-16.31,0V34H42.16A8.17,8.17,0,0,0,34,42.16V66.62Zm-8.15-48.92a24.49,24.49,0,0,1,24.46,24.46V278.6H17.71V42.16A24.49,24.49,0,0,1,42.16,17.71H66.62V9.55a8.15,8.15,0,0,1,16.31,0v8.15H197.07V9.55a8.15,8.15,0,1,1,16.31,0v8.15Z\"/></svg>\n\n              </div>\n              <div class=\"menu-item__text\">\n                Calendar\n              </div>\n            </a>\n          </li>\n          <li class=\"menu-item ic-app-header__menu-list-item \">\n            <a id=\"global_nav_conversations_link\" href=\"/conversations\" class=\"ic-app-header__menu-list-link\">\n              <div class=\"menu-item-icon-container\">\n                <span aria-hidden=\"true\"><svg xmlns=\"http://www.w3.org/2000/svg\" class=\"ic-icon-svg ic-icon-svg--inbox\" version=\"1.1\" x=\"0\" y=\"0\" viewBox=\"0 0 280 280\" enable-background=\"new 0 0 280 280\" xml:space=\"preserve\"><path d=\"M91.72,120.75h96.56V104.65H91.72Zm0,48.28h80.47V152.94H91.72Zm0-96.56h80.47V56.37H91.72Zm160.94,34.88H228.52V10.78h-177v96.56H27.34A24.17,24.17,0,0,0,3.2,131.48V244.14a24.17,24.17,0,0,0,24.14,24.14H252.66a24.17,24.17,0,0,0,24.14-24.14V131.48A24.17,24.17,0,0,0,252.66,107.34Zm0,16.09a8.06,8.06,0,0,1,8,8v51.77l-32.19,19.31V123.44ZM67.58,203.91v-177H212.42v177ZM27.34,123.44H51.48v79.13L19.29,183.26V131.48A8.06,8.06,0,0,1,27.34,123.44ZM252.66,252.19H27.34a8.06,8.06,0,0,1-8-8V202l30,18H230.75l30-18v42.12A8.06,8.06,0,0,1,252.66,252.19Z\"/></svg>\n</span>\n                <span class=\"menu-item__badge\" style=\"display: none\">0</span>\n              </div>\n              <div class=\"menu-item__text\">\n                Inbox\n              </div>\n            </a>\n          </li>\n          <li class=\"ic-app-header__menu-list-item\">\n           <a id=\"global_nav_help_link\" role=\"button\" class=\"ic-app-header__menu-list-link\" data-track-category=\"help system\" data-track-label=\"help button\" href=\"http://help.instructure.com/\">\n              <div class=\"menu-item-icon-container\" role=\"presentation\">\n                  <svg xmlns=\"http://www.w3.org/2000/svg\" class=\"ic-icon-svg menu-item__icon svg-icon-help\" version=\"1.1\" x=\"0\" y=\"0\" viewBox=\"0 0 200 200\" enable-background=\"new 0 0 200 200\" xml:space=\"preserve\" fill=\"currentColor\"><path d=\"M100,127.88A11.15,11.15,0,1,0,111.16,139,11.16,11.16,0,0,0,100,127.88Zm8.82-88.08a33.19,33.19,0,0,1,23.5,23.5,33.54,33.54,0,0,1-24,41.23,3.4,3.4,0,0,0-2.74,3.15v9.06H94.42v-9.06a14.57,14.57,0,0,1,11.13-14,22.43,22.43,0,0,0,13.66-10.27,22.73,22.73,0,0,0,2.31-17.37A21.92,21.92,0,0,0,106,50.59a22.67,22.67,0,0,0-19.68,3.88,22.18,22.18,0,0,0-8.65,17.64H66.54a33.25,33.25,0,0,1,13-26.47A33.72,33.72,0,0,1,108.82,39.8ZM100,5.2A94.8,94.8,0,1,0,194.8,100,94.91,94.91,0,0,0,100,5.2m0,178.45A83.65,83.65,0,1,1,183.65,100,83.73,83.73,0,0,1,100,183.65\" transform=\"translate(-5.2 -5.2)\"/></svg>\n\n              </div>\n              <div class=\"menu-item__text\">\n                Help\n              </div>\n</a>          </li>\n        </ul>\n      </div>\n      <div class=\"ic-app-header__secondary-navigation\">\n        <ul class=\"ic-app-header__menu-list\">\n          <li class=\"menu-item ic-app-header__menu-list-item\">\n            <button\n              id=\"primaryNavToggle\"\n              class=\"ic-app-header__menu-list-link ic-app-header__menu-list-link--nav-toggle\"\n              aria-label=\"Minimize global navigation\"\n              title=\"Minimize global navigation\"\n            >\n              <div class=\"menu-item-icon-container\" aria-hidden=\"true\">\n                <svg xmlns=\"http://www.w3.org/2000/svg\" class=\"ic-icon-svg ic-icon-svg--navtoggle\" version=\"1.1\" x=\"0\" y=\"0\" width=\"40\" height=\"32\" viewBox=\"0 0 40 32\" xml:space=\"preserve\">\n  <path d=\"M39.5,30.28V2.48H37.18v27.8Zm-4.93-13.9L22.17,4,20.53,5.61l9.61,9.61H.5v2.31H30.14l-9.61,9.61,1.64,1.64Z\"/>\n</svg>\n\n              </div>\n            </button>\n          </li>\n        </ul>\n      </div>\n    <div id=\"global_nav_tray_container\"></div>\n  </header>\n\n\n  <div id=\"instructure_ajax_error_box\">\n    <div style=\"text-align: right; background-color: #fff;\"><a href=\"#\" class=\"close_instructure_ajax_error_box_link\">Close</a></div>\n    <iframe id=\"instructure_ajax_error_result\" src=\"about:blank\" style=\"border: 0;\" title=\"Error\"></iframe>\n  </div>\n\n  \n\n  <div id=\"wrapper\" class=\"ic-Layout-wrapper\">\n    <div id=\"main\" class=\"ic-Layout-columns\">\n        <div class=\"ic-Layout-watermark\"></div>\n      <div id=\"not_right_side\" class=\"ic-app-main-content\">\n        <div id=\"content-wrapper\" class=\"ic-Layout-contentWrapper\">\n          \n          <div id=\"content\" class=\"ic-Layout-contentMain\" role=\"main\">\n            \n\n<div class=\"ic-Error-page\">\n  <img class=\"ic-Error-img\" role=\"presentation\" alt=\"\" aria-hidden=\"true\" src=\"/images/404_notfound.svg\">\n  <h1>Page Not Found</h1>\n</div>\n\n          </div>\n        </div>\n        <div id=\"right-side-wrapper\" class=\"ic-app-main-content__secondary\">\n          <aside id=\"right-side\" role=\"complementary\">\n            \n          </aside>\n        </div>\n      </div>\n    </div>\n  </div>\n\n\n\n    <div style=\"display:none;\"><!-- Everything inside of this should always stay hidden -->\n        <a id=\"equella_endpoint_url\" href=\"http://oer.equella.com/signon.do\">&nbsp;</a>\n        <a id=\"equella_callback_url\" href=\"https://canvas.instructure.com/external_content/success/equella\">&nbsp;</a>\n        <a id=\"equella_cancel_url\" href=\"https://canvas.instructure.com/external_content/cancel/equella\">&nbsp;</a>\n        <a id=\"equella_action\" href=\"selectOrAdd\">&nbsp;</a>\n          <div id=\"equella_teaser\">Equella is a shared content repository that organizations can use to easily track and reuse content.  This OER repository is a collection of free resources provided by Equella.</div>\n    </div>\n  <div id='aria_alerts' class='hide-text affix' role=\"alert\" aria-live=\"assertive\"></div>\n  <div id='StudentTray__Container'></div>\n  \n\n<script>\n  INST = {\"environment\":\"production\",\"kalturaSettings\":{\"domain\":\"nv.instructuremedia.com\",\"resource_domain\":\"nv.instructuremedia.com\",\"rtmp_domain\":\"iad.rtmp.instructuremedia.com\",\"partner_id\":\"9\",\"subpartner_id\":\"0\",\"player_ui_conf\":\"0\",\"kcw_ui_conf\":\"0\",\"upload_ui_conf\":\"0\",\"max_file_size_bytes\":534773760,\"do_analytics\":false,\"hide_rte_button\":false,\"js_uploader\":true},\"equellaEnabled\":true,\"googleAnalyticsAccount\":\"UA-9138420-1\",\"logPageViews\":true,\"maxVisibleEditorButtons\":3,\"editorButtons\":[],\"pandaPubSettings\":{\"push_url\":\"https://pp-beta.instructure.com/push\",\"application_id\":\"o9lhB0KU5xBx3SIiP8et\"}};\n  ENV = {\"ASSET_HOST\":\"https://du11hjcvx0uqb.cloudfront.net\",\"active_brand_config_json_url\":\"https://du11hjcvx0uqb.cloudfront.net/dist/brandable_css/8f4e87695dec9985fc00f551e06fd101/variables-8f05bb49a3f36c1ed21c589576567137.json\",\"url_to_what_gets_loaded_inside_the_tinymce_editor_css\":[\"https://du11hjcvx0uqb.cloudfront.net/dist/brandable_css/8f4e87695dec9985fc00f551e06fd101/variables-8f05bb49a3f36c1ed21c589576567137.css\",\"https://du11hjcvx0uqb.cloudfront.net/dist/brandable_css/new_styles_normal_contrast/bundles/what_gets_loaded_inside_the_tinymce_editor-d27e5a86e6.css\"],\"url_for_high_contrast_tinymce_editor_css\":[\"https://du11hjcvx0uqb.cloudfront.net/dist/brandable_css/default/variables-high_contrast-8f05bb49a3f36c1ed21c589576567137.css\",\"https://du11hjcvx0uqb.cloudfront.net/dist/brandable_css/new_styles_high_contrast/bundles/what_gets_loaded_inside_the_tinymce_editor-e7fd85d5f7.css\"],\"current_user_id\":null,\"current_user_roles\":null,\"current_user_disabled_inbox\":null,\"files_domain\":\"cluster7.canvas-user-content.com\",\"DOMAIN_ROOT_ACCOUNT_ID\":70000000000010,\"k12\":false,\"use_responsive_layout\":false,\"use_rce_enhancements\":null,\"use_unsplash_image_search\":null,\"help_link_name\":\"Help\",\"help_link_icon\":\"help\",\"use_high_contrast\":null,\"LTI_LAUNCH_FRAME_ALLOWANCES\":[\"geolocation\",\"microphone\",\"camera\",\"midi\",\"encrypted-media\",\"autoplay\"],\"DEEP_LINKING_POST_MESSAGE_ORIGIN\":\"https://canvas.instructure.com\",\"DEEP_LINKING_LOGGING\":null,\"SETTINGS\":{\"open_registration\":true,\"eportfolios_enabled\":true,\"collapse_global_nav\":null,\"show_feedback_link\":true,\"enable_profiles\":true},\"current_user\":{},\"context_asset_string\":null,\"TIMEZONE\":\"America/Denver\",\"LOCALE\":\"en\",\"BIGEASY_LOCALE\":\"en_US\",\"FULLCALENDAR_LOCALE\":\"en\",\"MOMENT_LOCALE\":\"en\",\"CONFIRMED\":null,\"current_user_created_at\":null,\"notices\":[]};\n</script>\n\n<link rel=\"preload\" href=\"https://du11hjcvx0uqb.cloudfront.net/dist/webpack-production/1-c-4ac86ef318.js\" as=\"script\" type=\"text/javascript\"><link rel=\"preload\" href=\"https://du11hjcvx0uqb.cloudfront.net/dist/webpack-production/2-c-cfad67cc1c.js\" as=\"script\" type=\"text/javascript\"><link rel=\"preload\" href=\"https://du11hjcvx0uqb.cloudfront.net/dist/webpack-production/3-c-0720aa65c4.js\" as=\"script\" type=\"text/javascript\"><link rel=\"preload\" href=\"https://du11hjcvx0uqb.cloudfront.net/dist/webpack-production/4-c-0de4e47220.js\" as=\"script\" type=\"text/javascript\"><link rel=\"preload\" href=\"https://du11hjcvx0uqb.cloudfront.net/dist/webpack-production/5-c-124499549e.js\" as=\"script\" type=\"text/javascript\"><link rel=\"preload\" href=\"https://du11hjcvx0uqb.cloudfront.net/dist/webpack-production/7-c-d5f6ceef46.js\" as=\"script\" type=\"text/javascript\"><link rel=\"preload\" href=\"https://du11hjcvx0uqb.cloudfront.net/dist/webpack-production/209-c-af1fdb6874.js\" as=\"script\" type=\"text/javascript\"><link rel=\"preload\" href=\"https://du11hjcvx0uqb.cloudfront.net/dist/webpack-production/navigation_header-c-162d682ea9.js\" as=\"script\" type=\"text/javascript\"><script>\n//<![CDATA[\n(window.bundles || (window.bundles = [])).push('navigation_header');\n//]]>\n</script>\n<script src=\"https://instructure-uploads.s3.amazonaws.com/account_70000000000010/attachments/71505558/fft-javascript-nov-2018.js\" defer=\"defer\"></script>\n\n</div> <!-- #application -->\n</body>\n</html>\n",
          "comment" : ""
        },
        "redirectURL" : "",
        "headersSize" : 715,
        "bodySize" : 18456,
        "comment" : ""
      },
      "cache" : { },
      "timings" : {
        "comment" : "",
        "send" : 0,
        "receive" : 0,
        "dns" : -1,
        "wait" : 0,
        "blocked" : -1,
        "connect" : 1131,
        "ssl" : -1
      },
      "comment" : "",
      "_katalonRequestInformation" : {
        "name" : "56",
        "testObjectId" : "Temporary RESTful request object",
        "harId" : "bc9fcde9-7b6b-4478-9d27-1e31d393a886"
      },
      "time" : 1131
    } ],
    "comment" : ""
  }
}